lower angle,upper angle,holding angle,system x,acceleration,ticks (200 tps),lower acceleration (shoulder),upper acceleration (elbow),
1.32515609,0.790309276,0,-1.01796725616,-0.561137135211,1,0.0,0.0,
1.32515609,0.790309276,0,-1.01796725616,0.0,2,0.0,0.0,
1.32515609,0.790309276,0,-1.01796725616,0.0,3,0.0,0.0,
1.3183951724,0.803497896098,0,-1.00090678136,0.00940203437202,4,-1.3521887064,-2.63773393631,
1.30945874859,0.820982731447,0,-0.978538367501,0.0123263394501,5,-1.78729641438,-3.49698925018,
1.29826817397,0.842886395321,0,-0.950481506197,0.0154598892629,6,-2.23813796043,-4.38077640533,
1.2848751146,0.869111220852,0,-0.916830014386,0.0185414763296,7,-2.67865133286,-5.24503993988,
1.26933107633,0.899556818918,0,-0.87766046221,0.0215801558106,8,-3.10887026787,-6.08923625946,
1.25169027332,0.934116016642,0,-0.833049879208,0.0245756622456,9,-3.52825021744,-6.91201019287,
1.23201258216,0.972669880405,0,-0.783090624116,0.0275202912816,10,-3.93566656113,-7.71101474762,
1.210363825,1.01508740665,0,-0.72789619131,0.0304019196572,11,-4.32992124557,-8.48382377625,
1.18681505058,1.06122695984,0,-0.667603508929,0.0332079419205,12,-4.70997428894,-9.22832107544,
1.16144147251,1.11093812765,0,-0.602373146604,0.0359251828419,13,-5.07498598099,-9.94273948669,
1.13432150815,1.16406377734,0.0,-0.532391143981,0.0385387018729,14,-5.42432165146,-10.6257572174,
1.10553535555,1.22044294657,0.0,-0.45786888466,0.0410348351688,15,-5.75763082504,-11.2765865326,
1.07516360019,1.27991315307,0,-0.379040546091,0.0434026463429,16,-6.07481813431,-11.8949193954,
1.04328605268,1.34231295766,0,-0.296163454965,0.0456284723385,17,-6.37605237961,-12.4809846878,
1.00998016928,1.40748497428,0,-0.209515407186,0.0477013683434,18,-6.66179418564,-13.0355577469,
0.975319978931,1.47527774753,0,-0.119392464037,0.0496109829965,19,-6.93272399902,-13.5598583221,
0.939375010469,1.54554828586,0,-0.0261086993779,0.0513473209973,20,-7.18976545334,-14.0555591583,
0.902209279278,1.61816367091,0,0.0700069586606,0.052902528311,21,-7.43400478363,-14.5246562958,
0.863880363443,1.69300242843,0,0.168613622071,0.054268946394,22,-7.66672086716,-14.9694929123,
0.824439105728,1.76995595874,0,0.269355764006,0.0554405027045,23,-7.88927364349,-15.3926258087,
0.783928749302,1.84892972888,0,0.371866136731,0.0564102984944,24,-8.10317516327,-15.7968139648,
0.742385146358,1.92984315337,0,0.475763377211,0.0571699909496,25,-8.309923172,-16.1848888397,
0.699835834244,2.01263066711,0,0.580654706193,0.0577133313806,26,-8.51113128662,-16.5598526001,
0.656301018932,2.09724112929,0,0.686128601348,0.0580301989611,27,-8.70832824707,-16.9246177673,
0.611792502144,2.18363913478,0,0.791757474319,0.0581112094312,28,-8.90318584442,-17.2823104858,
0.56631415818,2.27180441798,0,0.897093405015,0.0579459012485,29,-9.09722614288,-17.6359214783,
0.519862529972,2.36173197211,0,1.00166246317,0.0575195129398,30,-9.29200267792,-17.9885673523,
0.472426352241,2.45343228759,0,1.10496508424,0.0568192989959,31,-9.48901462555,-18.3432674408,
0.423987028339,2.54693147124,0,1.20647148119,0.0558274979356,32,-9.6897611618,-18.7032737732,
0.374518928268,2.64227208079,0,1.30561854061,0.0545259120623,33,-9.89563083649,-19.0717658997,
0.323989627102,2.73951360168,0,1.40180905305,0.0528962713855,34,-10.1080179214,-19.4521389008,
0.272359487751,2.83873256625,0,1.4944138655,0.0509211317558,35,-10.3283109665,-19.8478488922,
0.219582555034,2.94002398433,0,1.58277103176,0.0485820999824,36,-10.5578250885,-20.2626533508,
0.165605423191,3.04350384654,0,1.66619262723,0.0458655433961,37,-10.7980461121,-20.7006072998,
0.110366580227,3.14930995883,0,1.74397049412,0.0427594327179,38,-11.0505657196,-21.1661338806,