lower angle,upper angle,holding angle,system x,acceleration,ticks (200 tps),lower acceleration (shoulder),upper acceleration (elbow),
2.220196727,-1.345454982,0,-0.866688698713,-0.0714662841235,1,0.0,0.0,
2.220196727,-1.345454982,0,-0.866688698713,0.0,2,0.0,0.0,
2.220196727,-1.345454982,0,-0.866688698713,0.0,3,0.0,0.0,
2.2352275879,-1.37454824753,0,-0.893687335214,-0.00222617963009,4,3.00616168976,5.81875801086,
2.25476551362,-1.41241197892,0,-0.928151473053,-0.00284169948889,5,3.90778803825,7.57295036316,
2.27910185166,-1.4595253975,0,-0.970547869332,-0.00349568752166,6,4.86745023727,9.42313766479,
2.30800533601,-1.51543836899,0,-1.0199669911,-0.00407466285643,7,5.78115272522,11.183303833,
2.34125995942,-1.57971458741,0,-1.07548091918,-0.00457711287243,8,6.65148591995,12.8563251495,
2.37865352937,-1.65192203827,0,-1.13606844168,-0.00499535480521,9,7.47955369949,14.4430770874,
2.41997433015,-1.73162584611,0,-1.20060840847,-0.00532114847506,10,8.26542282104,15.9428653717,
2.46501827546,-1.81839828797,0,-1.26789999472,-0.0055479093113,11,9.01028823853,17.3572788239,
2.51359272309,-1.91183500596,0,-1.33663479457,-0.00566680568584,12,9.71675205231,18.6906833649,
2.56552458116,-2.01156454392,0,-1.40542487698,-0.00567127479276,13,10.3887653351,19.9501190186,
2.62066793748,-2.11726503678,0.0,-1.47279860557,-0.00555441205276,14,11.0314044952,21.1449890137,
2.67890405961,-2.22866802521,0.0,-1.53718149446,-0.00530772346809,15,11.6505355835,22.2864723206,
2.74014807054,-2.34557133027,0,-1.59689578578,-0.00492276038485,16,12.2526350021,23.3873310089,
2.80434847184,-2.4678409607,0,-1.65014432914,-0.00438966240929,17,12.8444795609,24.4616260529,
2.87148762055,-2.59541969605,0,-1.6949931775,-0.00369715575698,18,13.4329452515,25.5245018005,
2.94158363648,-2.72833185502,0,-1.72937713993,-0.00283442748738,19,14.0248680115,26.592300415,
3.0146861107,-2.86668997117,0,-1.7510972996,-0.00179045952833,20,14.6270284653,27.6827201843,
3.09088087388,-3.01070385285,0,-1.75786642614,-0.000557992120142,21,15.2463731766,28.8153419495,
3.11289388032,-3.16069202729,0,-1.75311362756,0.000391774831579,22,15.8904027939,30.0118865967,