lower angle,upper angle,holding angle,system x,acceleration,ticks (200 tps),lower acceleration (shoulder),upper acceleration (elbow),
1.548916254,0.261297867,0,-1.09182131553,-0.325024944409,1,0.0,0.0,
1.548916254,0.261297867,0,-1.09182131553,0.0,2,0.0,0.0,
1.548916254,0.261297867,0,-1.09182131553,0.0,3,0.0,0.0,
1.57059851642,0.219036266506,0,-1.1383689516,-0.0138543101241,4,4.33659505844,8.45262908936,
1.59946623798,0.162682220638,0,-1.19914112198,-0.0180870586846,5,5.77392864227,11.2715463638,
1.63573113437,0.0919081422686,0,-1.27427791947,-0.0223610201943,6,7.25377559662,14.1562614441,
1.67940894123,0.00666968554248,0,-1.36268674243,-0.0263093926106,7,8.73691272736,17.0503234863,
1.7304400539,-0.0929225233198,0,-1.46279180094,-0.0297883913095,8,10.2084903717,19.922504425,
1.78862849231,-0.206478431523,0,-1.57240051751,-0.0326140810503,9,11.6409769058,22.7172889709,
1.85358897205,-0.333232715428,0,-1.68857108623,-0.0345641670586,10,12.9966144562,25.3593635559,
1.92472592349,-0.472002342045,0,-1.80766294163,-0.0354311148065,11,14.2334766388,27.7650794983,
2.00126305576,-0.6212361601,0,-1.92558925949,-0.0350825715391,12,15.3148155212,29.8607368469,
2.08231392856,-0.779166534245,0,-2.03806788121,-0.0334595947886,13,16.2191143036,31.6024570465,
2.16699257846,-0.94401009351,0.0,-2.14106548572,-0.0306374808373,14,16.9458312988,32.9875335693,
2.25450745578,-1.11416752607,0.0,-2.23097107662,-0.026741394181,15,17.5141448975,34.0520401001,
2.34422722812,-1.28834326535,0,-2.30475198581,-0.021943949516,16,17.9560222626,34.8571777344,
2.43570414539,-1.46559365064,0,-2.35990426848,-0.0164024185267,17,18.3081302643,35.4733963013,
2.52866545673,-1.64531357557,0,-2.39431153033,-0.0102321658295,18,18.6057109833,35.9682922363,
2.62299338336,-1.82719309598,0,-2.4061057198,-0.00350720344292,19,18.8795337677,36.4010772705,
2.71869555469,-2.01116736203,0,-2.39347999734,0.00375426435524,20,19.1550350189,36.8209533691,
2.81588307376,-2.19737608701,0,-2.35455591677,0.0115734231517,21,19.4528179169,37.2688293457,
2.91474715228,-2.38613112241,0,-2.28725902252,0.0200084420092,22,19.7889785767,37.7792358398,
3.01554146762,-2.57789833814,0,-2.18925901285,0.0291351044948,23,20.1759433746,38.3831100464,
3.11856595035,-2.77329309255,0,-2.05798280592,0.0390256946634,24,20.6231575012,39.1103286743,
3.05902662917,3.31009881228,0,-1.74552908278,0.0928804380963,25,21.1381473541,39.9923477173,