lower angle,upper angle,holding angle,system x,acceleration,ticks (200 tps),lower acceleration (shoulder),upper acceleration (elbow),
1.32515609,0.790309276,0,-1.01796725616,-0.42302277725,1,0.0,0.0,
1.32515609,0.790309276,0,-1.01796725616,0.0,2,0.0,0.0,
1.32515609,0.790309276,0,-1.01796725616,0.0,3,0.0,0.0,
1.34370410178,0.754233207122,0,-1.0650710858,-0.0195708521592,4,3.70964574814,7.2153673172,
1.36830126975,0.706307258025,0,-1.12673150819,-0.0256174846551,5,4.91973161697,9.58562660217,
1.39945351813,0.645618285552,0,-1.20410403854,-0.0321436523085,6,6.23096132278,12.1387214661,
1.43738972876,0.571697081939,0,-1.29698016167,-0.0385822941424,7,7.58810424805,14.7860107422,
1.48239457343,0.483970965758,0,-1.40499431564,-0.0448685165218,8,9.00248622894,17.5480365753,
1.53476941321,0.38184102954,0,-1.52742038111,-0.0508526881448,9,10.4773960114,20.4304161072,
1.59477317069,0.264795150176,0,-1.66289204967,-0.0562686722731,10,12.0042991638,23.4158096313,
1.6625398371,0.132568206206,0,-1.80908977587,-0.0607210479869,11,13.5586051941,26.4551296234,
1.73797785971,-0.0146538358774,0,-1.96249597012,-0.0637121102413,12,15.0947132111,29.4576969147,
1.82065760825,-0.176015053376,0,-2.11822728355,-0.0646748596175,13,16.5453929901,32.2898178101,
1.90975653861,-0.349875603303,0.0,-2.27024186077,-0.0631282132518,14,17.831533432,34.794052124,
2.00410878394,-0.533911858186,0.0,-2.41189946255,-0.0588240618852,15,18.8844985962,36.8333053589,
2.10238873694,-0.725471649751,0,-2.53684530266,-0.05188206104,16,19.6718006134,38.3413391113,
2.20334517691,-0.9220410925,0,-2.63972210963,-0.0427162997643,17,20.2084922791,39.3455886841,
2.3059867594,-1.12160364209,0,-2.7165391472,-0.0318944078829,18,20.5463218689,39.9457778931,
2.40964972708,-1.32278171597,0,-2.76452622767,-0.0199233055909,19,20.7511844635,40.2696113586,
2.51397931311,-1.52479258595,0,-2.78182867481,-0.00718332015969,20,20.8849315643,40.4367408752,
2.61887013648,-1.72733632146,0,-2.76709054111,0.00611844375764,21,20.9973964691,40.543548584,
2.72440135215,-1.9304708582,0,-2.71911309807,0.0199166135783,22,21.1258182526,40.6620292664,
2.83078562949,-2.13451901494,0,-2.63658917776,0.0342561112345,23,21.2969970703,40.8452110291,
2.93833243583,-2.34000459729,0,-2.51793282754,0.0492525515364,24,21.5300807953,41.1335678101,
3.04741465781,3.73556646289,0,-2.36115741793,0.0650704494265,25,21.8381195068,41.5605163574,
3.12473625606,3.52497729243,0,-2.09772541917,0.109333178067,26,22.229719162,42.1571540833,