lower angle,upper angle,holding angle,system x,acceleration,ticks (200 tps),lower acceleration (shoulder),upper acceleration (elbow),
0.922387802,1.852436303,0,-0.673397001264,-1.04812740296,1,0.0,0.0,
0.922387802,1.852436303,0,-0.673397001264,0.0,2,0.0,0.0,
0.922387802,1.852436303,0,-0.673397001264,0.0,3,0.0,0.0,
0.934544765348,1.8290693749,0,-0.720123355595,-0.0726688470329,4,2.43134689331,4.67345046997,
0.950277530546,1.79876446615,0,-0.780464454837,-0.0938175323319,5,3.14663934708,6.06105232239,
0.970119201536,1.76054787527,0,-0.856536907532,-0.1182456854,6,3.96848511696,7.64356279373,
0.994116985197,1.71430373083,0,-0.948400982336,-0.142751852077,7,4.79981565475,9.24922084808,
1.02238913714,1.65978598485,0,-1.05633179302,-0.167676934877,8,5.6547498703,10.9042434692,
1.05510541141,1.59664559255,0,-1.18068648903,-0.193141696197,9,6.54388046265,12.6291027069,
1.09248372256,1.52444243322,0,-1.32185535643,-0.219199412296,10,7.47653102875,14.4422082901,
1.13479348361,1.44263243566,0,-1.48019340236,-0.245790356883,11,8.46324825287,16.3643531799,
1.18236657321,1.35054898153,0,-1.65597774086,-0.272799235156,12,9.51640319824,18.4199371338,
1.23560687243,1.24738430868,0,-1.84932022072,-0.299962794127,13,10.650560379,20.6375236511,
1.29500075519,1.13216853033,0.0,-2.06003591561,-0.326826308133,14,11.882273674,23.0495681763,
1.36112328708,1.00375914464,0.0,-2.28744165049,-0.352611031773,15,13.2293319702,25.6907081604,
1.43463107287,0.860855339865,0,-2.5300289645,-0.376033906718,16,14.7081890106,28.5929164886,
1.51622840106,0.702066658835,0,-2.78497886439,-0.395074000635,17,16.32853508,31.774471283,
1.60657759845,0.526090382437,0,-3.04746339337,-0.406640398232,18,18.0820732117,35.2180404663,
1.70611544787,0.332072972159,0,-3.30978366164,-0.406280100975,19,19.9240531921,38.8339767456,
1.81475897967,0.120198010306,0,-3.56071568007,-0.388545771325,20,21.7501506805,42.4147796631,
1.93156262576,-0.107638598581,0,-3.78571350856,-0.348305484417,21,23.3872756958,45.6167678833,
2.05457993686,-0.347553492685,0,-3.96892128828,-0.283540371494,22,24.634557724,48.0407333374,
2.18123885333,-0.594407559534,0,-4.09679080922,-0.197846551568,23,25.3657054901,49.4337043762,
2.309127056,-0.843356848855,0,-4.16100587221,-0.099332432889,24,25.6125411987,49.8543891907,
2.43661137759,-1.09107613673,0,-4.15872128526,0.00353288790153,25,25.5315189362,49.6074829102,
2.56293317019,4.94723844419,0,-4.09072370558,0.10512523347,26,25.2979793549,49.0356674194,
2.68797656238,4.70557641874,0,-3.95933455638,0.203082027762,27,25.0412902832,48.3915023804,
2.81201907336,4.46672034154,0,-3.76706332477,0.29711293095,28,24.84034729,47.828338623,
2.93555852115,4.22983288656,0,-3.5158409642,0.386030517218,29,24.7394275665,47.4332580566,
3.05921193301,3.99382519613,0,-3.20668786769,0.474871632827,30,24.7622337341,47.2567825317,
3.09953365783,3.75743985067,0,-2.58459335768,0.955267286778,31,24.9201068878,47.3326416016,