lower angle,upper angle,holding angle,system x,acceleration,ticks (200 tps),lower acceleration (shoulder),upper acceleration (elbow),
2.443956891,-2.007839739,0,-0.605948763465,-0.048847841773,1,0.0,0.0,
2.443956891,-2.007839739,0,-0.605948763465,0.0,2,0.0,0.0,
2.443956891,-2.007839739,0,-0.605948763465,0.0,3,0.0,0.0,
2.45586732954,-2.03067165581,0,-0.635189968659,-0.00235705274595,4,2.38207817078,4.56644392014,
2.47132400602,-2.06033998696,0,-0.672760945233,-0.00302843445925,5,3.09136295319,5.93371391296,
2.49073032469,-2.09754711357,0,-0.719537111566,-0.00377036705342,6,3.88140106201,7.44170284271,
2.51395038694,-2.1420279142,0,-0.774840408293,-0.00445762032377,7,4.64428710938,8.89644432068,
2.54088310331,-2.19357114998,0,-0.838015377446,-0.00509201983416,8,5.3868098259,10.309252739,
2.57143882841,-2.25198847023,0,-0.908332781889,-0.00566762637106,9,6.11164951324,11.6842842102,
2.60553316206,-2.3170943853,0,-0.984977820382,-0.00617752607527,10,6.81951618195,13.0223369598,
2.64308551878,-2.38871055809,0,-1.06702206761,-0.00661259562985,11,7.51131629944,14.324836731,
2.68402246565,-2.46667343346,0,-1.15341910151,-0.00696331072387,12,8.18859958649,15.5945854187,
2.72828296751,-2.55084091393,0,-1.24300899912,-0.00722053607734,13,8.85353183746,16.8359451294,
2.77581886381,-2.64109951225,0.0,-1.33450085486,-0.00737371470085,14,9.50892925262,18.0547904968,
2.82659820646,-2.7373729345,0.0,-1.42647085075,-0.00741212416944,15,10.1580734253,19.2584877014,
2.8806085977,-2.83963018624,0,-1.51736306292,-0.00732514774396,16,10.8047266006,20.4559516907,
2.93785862058,-2.94789177147,0,-1.60548960548,-0.00710212724737,17,11.4530982971,21.6576423645,
2.99837974638,-3.06223922936,0,-1.68903902987,-0.00673315641003,18,12.1078977585,22.8758068085,
3.06223062605,-3.18282562462,0,-1.76609694222,-0.00620991725896,19,12.774518013,24.1246757507,