lower angle,upper angle,holding angle,system x,acceleration,ticks (200 tps),lower acceleration (shoulder),upper acceleration (elbow),
1.504164214,0.366151594,0,-1.08299113158,-0.340734565726,1,0.0,0.0,
1.504164214,0.366151594,0,-1.08299113158,0.0,2,0.0,0.0,
1.504164214,0.366151594,0,-1.08299113158,0.0,3,0.0,0.0,
1.52539729582,0.324775480108,0,-1.13003665929,-0.0147990990732,4,4.24674224854,8.27547454834,
1.55367660032,0.269581102209,0,-1.19155510933,-0.0193507784948,5,5.65624427795,11.0395469666,
1.58928727613,0.200095914679,0,-1.26789350111,-0.0240110867645,6,7.12287425995,13.8984861374,
1.63231324659,0.11613824256,0,-1.3581380701,-0.02838348803,7,8.60648155212,16.7939510345,
1.6827878903,0.0176365602781,0,-1.46094658531,-0.0323330480045,8,10.0971250534,19.7044124603,
1.74062728392,-0.0952431928347,0,-1.57433296033,-0.0356577911103,9,11.5710868835,22.5819358826,
1.80556058393,-0.221963144464,0,-1.69550001619,-0.0381025032882,10,12.9912309647,25.3525009155,
1.87708568083,-0.361524320764,0,-1.82082325578,-0.0394071819617,11,14.3110847473,27.9235649109,
1.95446538435,-0.512459016962,0,-1.94599737994,-0.0393581043081,12,15.4836959839,30.2013244629,
2.03678893553,-0.672949052973,0,-2.06638676998,-0.0378516077189,13,16.4739875793,32.115234375,
2.12308167921,-0.841043211145,0.0,-2.17744018342,-0.0349141410082,14,17.2693500519,33.6387176514,
2.2124338101,-1.01490614526,0.0,-2.27508638195,-0.0306971082275,15,17.8822422028,34.7945365906,
2.30409049498,-1.19300339334,0,-2.35588561659,-0.0253995610468,16,18.3442230225,35.643032074,
2.39750098692,-1.37418863885,0,-2.41708577753,-0.0192376836303,17,18.6957168579,36.26197052,
2.4923171948,-1.55770752542,0,-2.45645919025,-0.0123760780731,18,18.977399826,36.7296333313,
2.58836888777,-1.74314949624,0,-2.47211788434,-0.00492162933831,19,19.2251567841,37.1150512695,
2.68563508497,-1.93038818948,0,-2.46234139459,0.00307262799801,20,19.4686317444,37.4752922058,
2.78421163069,-2.11952874772,0,-2.4253732437,0.0116179247472,21,19.7312812805,37.8564567566,
2.88428496824,-2.31086394898,0,-2.35928802286,0.020767237406,22,20.0314369202,38.2964782715,
2.98611211286,-2.50485036485,0,-2.26189988384,0.0306023591709,23,20.3830528259,38.8279380798,
3.09000110136,-2.70209500901,0,-2.13074482396,0.0412106499221,24,20.7964668274,39.481212616,
3.08688718968,3.37982561477,0,-1.82769645968,0.0952158874118,25,21.2794189453,40.2872848511,