lower angle,upper angle,holding angle,system x,acceleration,ticks (200 tps),lower acceleration (shoulder),upper acceleration (elbow),
1.81742844,-0.366151594,0,-1.08299119293,-0.0972265123412,1,0.0,0.0,
1.81742844,-0.366151594,0,-1.08299119293,0.0,2,0.0,0.0,
1.81742844,-0.366151594,0,-1.08299119293,0.0,3,0.0,0.0,
1.83879169836,-0.40778138526,0,-1.12210339791,-0.00351113798937,4,4.27280712128,8.32621955872,
1.86692842856,-0.462683461981,0,-1.17240230646,-0.00451529282969,5,5.62772464752,10.9810705185,
1.90180382147,-0.530693315344,0,-1.23357460203,-0.00549128959036,6,6.97571468353,13.6033439636,
1.94309887304,-0.611193918066,0,-1.3040438416,-0.00632568947349,7,8.26023578644,16.1022472382,
1.99042066946,-0.703406118231,0,-1.38198407186,-0.00699620583089,8,9.46613693237,18.4457550049,
2.04330334082,-0.80640342124,0,-1.46527492937,-0.00747636783592,9,10.5790109634,20.6040554047,
2.10122475042,-0.919142030554,0,-1.55157949473,-0.00774676324983,10,11.587477684,22.5536766052,
2.1636346282,-1.04051854499,0,-1.6384240464,-0.00779507125767,11,12.4860439301,24.2827949524,
2.22999224081,-1.16944100745,0,-1.72331656021,-0.00761971252967,12,13.2763633728,25.7934513092,
2.29979738608,-1.30489280112,0,-1.80381410588,-0.00722513862665,13,13.9666929245,27.1007499695,
2.37261804953,-1.44598414786,0.0,-1.87759190458,-0.00662191805303,14,14.5705842972,28.2300109863,
2.44810518637,-1.59198214896,0.0,-1.94245389295,-0.00582161503979,15,15.1046552658,29.2126159668,
2.52600035086,-1.74232413657,0,-1.99632348248,-0.00483495640122,16,15.5868711472,30.0825996399,
2.60613235846,-1.89661672004,0,-2.03718009676,-0.00366696698151,17,16.0350093842,30.8738555908,
2.68841490164,-2.05462672599,0,-2.06302527628,-0.00231929453707,18,16.4657878876,31.6186027527,
2.77283701315,-2.21627261527,0,-2.07179220198,-0.000786708543421,19,16.8944168091,32.3468589783,
2.85945448294,-2.38161160834,0,-2.06129431144,0.000942020508488,20,17.3343353271,33.0867614746,
2.94838127508,-2.55083396323,0,-2.02917866753,0.00288181481981,21,17.797082901,33.8648490906,
3.03978046789,-2.72426178344,0,-1.97291464549,0.00504860562977,22,18.2925720215,34.7075271606,
3.13385710135,-2.90235307105,0,-1.88984791934,0.00745350091609,23,18.8292808533,35.6420097351,
3.05232665325,-3.08571293242,0,-1.72505471658,0.0147864280866,24,19.4155292511,36.6979598999,