lower angle,upper angle,holding angle,system x,acceleration,ticks (200 tps),lower acceleration (shoulder),upper acceleration (elbow),
2.041188603,-0.898280405,0,-0.99416309873,-0.0606562015191,1,0.0,0.0,
2.041188603,-0.898280405,0,-0.99416309873,0.0,2,0.0,0.0,
2.041188603,-0.898280405,0,-0.99416309873,0.0,3,0.0,0.0,
2.0413388067,-0.898543619111,0,-0.994560493284,-2.42452733496e-05,4,0.0300522129983,0.0526246130466,
2.041645413,-0.8990824451,0,-0.995364216051,-4.9035099594e-05,5,0.0613152012229,0.107776746154,
2.04210651453,-0.899893068269,0,-0.996571203301,-7.36376272067e-05,6,0.0921743512154,0.162105724216,
2.04272115763,-0.900974058107,0,-0.99817737432,-9.79906905195e-05,7,0.122902676463,0.216156587005,
2.04348886545,-0.902324460939,0,-1.00018148847,-0.000122267459351,8,0.153596714139,0.270153433084,
2.04441011484,-0.903945230439,0,-1.00258356088,-0.000146544499675,9,0.184272229671,0.324113786221,
2.0454849058,-0.905835412935,0,-1.0053873197,-0.000171049106301,10,0.21494807303,0.378071844578,
2.04671323831,-0.907995485261,0,-1.00858952534,-0.000195355735547,11,0.245616078377,0.43200224638,
2.04809463556,-0.910425447419,0,-1.01218383475,-0.000219274468082,12,0.276287734509,0.485921144485,
2.04962957437,-0.913124345735,0,-1.01617878408,-0.00024370487033,13,0.306969076395,0.539859294891,
2.05131757791,-0.916093133882,0.0,-1.02056320138,-0.00026746042947,14,0.337652623653,0.593772649765,
2.05315959986,-0.91933181186,0.0,-1.0253460059,-0.000291760628889,15,0.368353754282,0.647686719894,
2.05515468653,-0.922839902833,0,-1.03051731537,-0.00031545766925,16,0.399064749479,0.701599538326,
2.0573037916,-0.926617406801,0,-1.03608572237,-0.000339678839186,17,0.429801613092,0.755527019501,
2.05960643824,-0.930664800599,0,-1.04204172813,-0.000363319424101,18,0.460548967123,0.809441864491,
2.06206310327,-0.934981607393,0,-1.04839063291,-0.000387283514559,19,0.491313010454,0.863362669945,
2.06467378672,-0.93956782718,0,-1.05513008404,-0.00041110353137,20,0.522114813328,0.917300105095,
2.06743848856,-0.944423936799,0,-1.06225530284,-0.000434631923032,21,0.552945435047,0.971242070198,
2.0703572088,-0.94954993625,0,-1.06976360118,-0.000457996241815,22,0.583794593811,1.0251698494,
2.07343090113,-0.954945825532,0,-1.07766246788,-0.000481816179845,23,0.614691674709,1.07913053036,
2.07665908869,-0.960611127809,0,-1.08594589075,-0.000505269613595,24,0.645619034767,1.1330987215,
2.08004177149,-0.966546319917,0,-1.09460835767,-0.000528385480761,25,0.676573693752,1.18705749512,
2.0835799032,-0.972751878694,0,-1.10365447885,-0.000551782681376,26,0.707583844662,1.24104356766,
2.08727300699,-0.979226850465,0,-1.1130798991,-0.000574913778068,27,0.73863196373,1.29502511024,
2.0911215597,-0.985971712068,0,-1.12288362458,-0.000597984557332,28,0.769720613956,1.34901857376,
2.09512556131,-0.992986940339,0,-1.13305930092,-0.000620667277799,29,0.800859928131,1.40301632881,
2.09928596552,-1.00027205844,0,-1.14361505431,-0.000643842775103,30,0.83204638958,1.45701360703,
2.10360229547,-1.00782706638,0,-1.15454115467,-0.000666423935943,31,0.863266944885,1.51099848747,
2.10807502802,-1.01565196414,0,-1.16583786203,-0.00068902050509,32,0.894560456276,1.56501066685,
2.11270463999,-1.02374722858,0,-1.1775029312,-0.000711477571777,33,0.925895214081,1.61900031567,
2.11749113138,-1.03211190601,0,-1.18953541263,-0.000733877645395,34,0.957290709019,1.67299962044,
2.1224345022,-1.0407469501,0,-1.20192522563,-0.000755664570023,35,0.988730967045,1.72697472572,
2.12753570612,-1.0496514072,0,-1.21468095947,-0.000777975756586,36,1.02024114132,1.7809497118,
2.13279474314,-1.05882623096,0,-1.22779193017,-0.000799635009255,37,1.05179297924,1.8349044323,
2.13821209009,-1.06827046771,0,-1.24126100022,-0.000821466889162,38,1.08341109753,1.8888335228,
2.14378727014,-1.07798411746,0,-1.25507626683,-0.000842574989924,39,1.11508643627,1.94275009632,
2.14952123697,-1.08796718021,0,-1.26924052476,-0.000863853199816,40,1.14682245255,1.99663376808,
2.15541446741,-1.09821965595,0,-1.28375116605,-0.000884971913281,41,1.17862188816,2.05049395561,
2.16146696146,-1.10874106784,0,-1.29860241905,-0.000905733862792,42,1.21047699451,2.10430240631,
2.16767871912,-1.11953141589,0,-1.31378598385,-0.000925979674516,43,1.24240815639,2.15807747841,
2.17405069406,-1.13059022327,0,-1.32930520196,-0.00094643915439,44,1.27438592911,2.21180057526,
2.18058288629,-1.1419179668,0,-1.34514878655,-0.000966210942564,45,1.30643785,2.26547861099,
2.18727577265,-1.15351321597,0,-1.36131858228,-0.000986095681797,46,1.33856391907,2.31909513474,
2.19412935312,-1.16537644763,0,-1.37780246482,-0.00100524078617,47,1.37074625492,2.3726541996,
2.20114458139,-1.17750718494,0,-1.39460188448,-0.00102447470461,48,1.40299117565,2.42612886429,
2.20832098062,-1.18990495105,0,-1.41170325161,-0.00104287387282,49,1.43531918526,2.47954201698,
2.21565950449,-1.2025687923,0,-1.42910911088,-0.00106143040467,50,1.467705369,2.53286600113,
2.22316015299,-1.21549966235,0,-1.4468033343,-0.00107900274736,51,1.5001616478,2.58610868454,
2.23082387979,-1.22869565387,0,-1.46479155172,-0.00109691756651,52,1.53269648552,2.63925981522,
2.23865020807,-1.24215724368,0,-1.48305394652,-0.00111362419575,53,1.56530201435,2.69230532646,
2.24664009149,-1.25588347812,0,-1.50159072565,-0.00113034102629,54,1.59799098969,2.74524593353,
2.25479353006,-1.26987388034,0,-1.52038991242,-0.00114633212936,55,1.63074660301,2.79808878899,
2.26311147745,-1.28412797351,0,-1.53944828336,-0.00116212737751,56,1.66358828545,2.85080885887,
2.27159393366,-1.29864480396,0,-1.55875467696,-0.00117723905255,57,1.69650959969,2.9034049511,
2.28024185236,-1.31342389484,0,-1.57830444758,-0.0011920654328,58,1.72951817513,2.95588874817,
2.28905475672,-1.32846524616,0,-1.59807638914,-0.00120559979748,59,1.76259946823,3.00821065903,
2.29803360041,-1.34376695056,0,-1.61807061445,-0.00121913902713,60,1.79578149319,3.06040143967,
2.30717886026,-1.3593294849,0,-1.63827159665,-0.00123173274267,61,1.82905507088,3.11246395111,
2.31649053629,-1.3751509418,0,-1.65866876146,-0.00124368162358,62,1.86241948605,3.16435718536,
2.32597005899,-1.39123132129,0,-1.6792560358,-0.00125525998248,63,1.89588022232,3.2161154747,
2.33561695154,-1.40756966968,0.0,-1.70001268369,-0.00126557383106,64,1.92944347858,3.2677154541,
2.34543264444,-1.42416551013,0.0,-1.72093288097,-0.00127553101749,65,1.96311497688,3.31915354729,
2.3554171377,-1.44101741214,0,-1.74200061646,-0.00128451112494,66,1.99690425396,3.3704252243,
2.36557090815,-1.45812489887,0,-1.76319942001,-0.00129248799919,67,2.03079819679,3.42151355743,
2.37589490946,-1.47548701663,0,-1.78451816123,-0.0012997855117,68,2.06482243538,3.47246193886,
2.38638961847,-1.49310328861,0,-1.80593841265,-0.00130590999512,69,2.09896731377,3.52321243286,
2.39705598886,-1.51097180744,0,-1.82745081976,-0.00131151659373,70,2.13323926926,3.57379174232,
2.40789402063,-1.52909257312,0,-1.84902873409,-0.00131550112804,71,2.16765832901,3.62417507172,
2.41890514429,-1.54746463199,0,-1.87066091651,-0.00131880070923,72,2.20221662521,3.67440223694,
2.43008935984,-1.56608655353,0,-1.89232440232,-0.00132070026577,73,2.2369260788,3.72443699837,
2.44144857462,-1.5849578609,0,-1.91400763588,-0.00132189534457,74,2.27179789543,3.77429389954,
2.4529823118,-1.60407760043,0,-1.93567937563,-0.00132118179872,75,2.30683064461,3.82395267487,
2.46469247873,-1.62344481845,0,-1.95732736179,-0.0013197242052,76,2.34203124046,3.8734498024,
2.47657955225,-1.64305808444,0,-1.97892776345,-0.00131681415546,77,2.37741923332,3.92275714874,
2.48864448603,-1.66291739841,0,-2.00045384884,-0.0013122744265,78,2.41300201416,3.97188472748,
2.50088823374,-1.68302132984,0,-2.02188307188,-0.00130636038749,79,2.44877481461,4.02083301544,
2.51331174906,-1.70336940189,0,-2.04318777712,-0.00129876049773,80,2.48476648331,4.06962013245,
2.5259164625,-1.72396018405,0,-2.06434623057,-0.0012898363862,81,2.52096223831,4.1182012558,
2.53870285089,-1.74479319949,0,-2.08532403324,-0.00127881501511,82,2.5573785305,4.16662311554,
2.55167329843,-1.76586749454,0,-2.10610180364,-0.00126661122751,83,2.5940527916,4.21488666534,
2.56482780512,-1.78718211551,0,-2.12664012242,-0.00125200559093,84,2.63097882271,4.26299285889,
2.57816827829,-1.80873658557,0,-2.14691075753,-0.00123567954311,85,2.66812133789,4.31090736389,
2.59169567163,-1.83052947421,0,-2.16688002327,-0.00121729442949,86,2.70555472374,4.35868835449,
2.60541189249,-1.85256078143,0,-2.18651423826,-0.00119686161758,87,2.74326920509,4.40633440018,
2.61931789453,-1.87482955356,0,-2.20577441264,-0.0011740530245,88,2.78125119209,4.45381784439,
2.63341558512,-1.89733531375,0,-2.22462479614,-0.00114906567122,89,2.81955385208,4.5011973381,
2.64770591791,-1.92007710834,0,-2.24302270195,-0.00112147624371,90,2.85816240311,4.54843235016,
2.6621912771,-1.94305446048,0,-2.26093162084,-0.00109166058099,91,2.89705252647,4.59552145004,
2.67687261637,-1.96626689334,0,-2.27830324849,-0.00105890205353,92,2.93631100655,4.64253282547,
2.69175184305,-1.98971393009,0,-2.29509369307,-0.00102346862432,93,2.97590827942,4.68944835663,
2.70683038767,-2.01339461704,0,-2.31125542686,-0.000985138532145,94,3.0158264637,4.73625183105,
2.7221106344,-2.03730943103,0,-2.32673998279,-0.000943854658379,95,3.05609321594,4.78297233582,
2.73759401377,-2.06145694156,0,-2.34149699758,-0.000899501335763,96,3.09673190117,4.82961130142,
2.75328243311,-2.08583762546,0,-2.35547053469,-0.000851739365951,97,3.13773989677,4.87622117996,
2.76917779978,-2.11045100589,0,-2.36860552798,-0.000800621798321,98,3.17911720276,4.92275619507,
2.78528154428,-2.13529708286,0,-2.38084036706,-0.000745719851433,99,3.22087717056,4.96925878525,
2.80159652765,-2.16037537952,0,-2.3921207487,-0.000687539275725,100,3.26302146912,5.01575565338,
2.81812370356,-2.18568589588,0,-2.4023777953,-0.000625162173181,101,3.30554175377,5.06223392487,
2.83486545618,-2.21122910877,0,-2.41154681934,-0.000558843071683,102,3.34846973419,5.10871648788,
2.85182369287,-2.23700454135,0,-2.41956109097,-0.000488457608288,103,3.39175868034,5.1552028656,
2.86900079782,-2.26301267047,0,-2.42635095814,-0.000413829233636,104,3.43543314934,5.2017364502,
2.8863977247,-2.28925397296,0,-2.43183747445,-0.000334389771294,105,3.47950792313,5.24834632874,
2.9040168577,-2.31572844882,0,-2.43594796722,-0.000250522468362,106,3.52391719818,5.29496955872,
2.92186010416,-2.34243657489,0,-2.43860369942,-0.000161857494739,107,3.56871771812,5.34172821045,
2.9399288946,-2.369378828,0,-2.43972171075,-6.8138317715e-05,108,3.61386370659,5.38857364655,
2.95822513636,-2.396555685,0,-2.43921912052,3.06306477524e-05,109,3.6593208313,5.4355173111,
2.97675025995,-2.42396857639,0,-2.43700641764,0.000134853014188,110,3.70512413979,5.48264789581,
2.9955056959,-2.45161750217,0,-2.43299635064,0.000244391430963,111,3.75121760368,5.52992630005,
3.0144928747,-2.47950389285,0,-2.42709603966,0.000359588256445,112,3.79758667946,5.57739067078,
3.03371322687,-2.50762870212,0,-2.41921235286,0.000480459513374,113,3.84420514107,5.62505865097,
3.05316818293,-2.53599288364,0.0,-2.40925064173,0.000607097145185,114,3.89103198051,5.67296600342,
3.07285774286,-2.56459786792,0.0,-2.3971092559,0.000739926695138,115,3.93804359436,5.72115325928,
3.09278286035,-2.59344508548,0,-2.38268901996,0.000878796681275,116,3.98519968987,5.76959848404,
3.11294448908,-2.62253596683,0,-2.36588993563,0.00102375548923,117,4.03244256973,5.8183631897,
3.13334215219,-2.65187241931,0,-2.3466065705,0.00117513848088,118,4.07973957062,5.86746501923,
3.1292085038,-2.68145635028,0,-2.26699476929,0.00485152998632,119,4.12702274323,5.91689968109,