lower angle,upper angle,holding angle,system x,acceleration,ticks (200 tps),lower acceleration (shoulder),upper acceleration (elbow),
2.309700789,-1.58584836,0,-0.780734807812,-0.0442999799577,1,0.0,0.0,
2.309700789,-1.58584836,0,-0.780734807812,0.0,2,0.0,0.0,
2.309700789,-1.58584836,0,-0.780734807812,0.0,3,0.0,0.0,
2.30988103345,-1.58616688722,0,-0.781186632112,-2.56364486787e-05,4,0.0359731800854,0.0636867880821,
2.31024533703,-1.58681490892,0,-0.78208491869,-5.09682781247e-05,5,0.0728965848684,0.129573374987,
2.31079274609,-1.58778813356,0,-0.783435870237,-7.66516813716e-05,6,0.10947728157,0.194700717926,
2.31152230694,-1.5890860843,0,-0.785232199815,-0.000101921079166,7,0.145930409431,0.259565651417,
2.31243401959,-1.59070780748,0,-0.787476288605,-0.00012732527478,8,0.182350069284,0.324350655079,
2.31352788403,-1.59265330308,0,-0.790166967629,-0.000152662647508,9,0.218739584088,0.38907045126,
2.31480342343,-1.59492209428,0,-0.793300374584,-0.000177780505613,10,0.255093246698,0.453730046749,
2.31626063779,-1.59751370424,0,-0.796876521895,-0.000202898750324,11,0.291430532932,0.518316864967,
2.31789905026,-1.60042765611,0,-0.800891078482,-0.000227771231932,12,0.327729910612,0.582821011543,
2.31971913769,-1.6036639499,0,-0.805346019285,-0.000252755477779,13,0.36400410533,0.647239685059,
2.32172042325,-1.60722163194,0.0,-0.810238165397,-0.000277559075931,14,0.4002597332,0.71159029007,
2.32390290692,-1.61110070222,0.0,-0.815564892268,-0.000302213293589,15,0.436484724283,0.77582514286,
2.32626611188,-1.61530068391,0,-0.821320892264,-0.000326566229734,16,0.472686290741,0.839976787567,
2.32881051495,-1.61982062334,0,-0.827510361629,-0.000351156971118,17,0.508851468563,0.904017269611,
2.33153563931,-1.62466052049,0,-0.834125826041,-0.000375323386139,18,0.545008599758,0.967954516411,
2.33444100812,-1.62981942171,0,-0.841162828079,-0.000399236639967,19,0.581133902073,1.03176903725,
2.33752757504,-1.63529685014,0,-0.848627095681,-0.000423473068272,20,0.617233812809,1.09546065331,
2.34079390957,-1.64109185213,0,-0.856505533664,-0.000446964578961,21,0.653307259083,1.15902853012,
2.34424096539,-1.64720442766,0,-0.864801636348,-0.000470654810591,22,0.689381062984,1.22247338295,
2.34786778882,-1.65363314622,0,-0.873507380932,-0.000493889606393,23,0.725413799286,1.28577709198,
2.35167485669,-1.66037800783,0,-0.882621606249,-0.000517058046573,24,0.761440932751,1.34894895554,
2.355662169,-1.66743758195,0,-0.89214360667,-0.000540184494849,25,0.797440230846,1.4119669199,
2.35982924893,-1.67481186861,0,-0.902063602574,-0.000562758790017,26,0.833418309689,1.47482180595,
2.3641765733,-1.68249943727,0,-0.912384127279,-0.00058547614316,27,0.869399487972,1.53753876686,
2.36870318844,-1.69049981111,0,-0.923092392139,-0.00060746596293,28,0.90536236763,1.60009348392,
2.3734095712,-1.69881251329,0,-0.934187032954,-0.00062937794115,29,0.941295683384,1.66248142719,
2.37829572156,-1.70743563646,0,-0.945667042964,-0.000651233763,30,0.9772387743,1.72470581532,
2.38336163952,-1.71636965745,0,-0.957523194976,-0.000672566950452,31,1.01317632198,1.78675746918,
2.38860684827,-1.72561266893,0,-0.969749804153,-0.000693575626271,32,1.04907774925,1.84862589836,
2.39403230145,-1.73516419405,0,-0.982347572652,-0.000714625216934,33,1.08500862122,1.91033005714,
2.39963656857,-1.74502327913,0,-0.995299231282,-0.00073469337609,34,1.12091493607,1.97182798386,
2.4054206033,-1.75518944734,0,-1.0086045799,-0.000754751248916,35,1.15683460236,2.03315925598,
2.41138440564,-1.76566079134,0,-1.02225984327,-0.000774594229048,36,1.19276404381,2.09429597855,
2.41752797558,-1.77643683427,0,-1.03625618391,-0.000793935025767,37,1.22869253159,2.15523719788,
2.42385131314,-1.78751662248,0,-1.05058577623,-0.000812830158352,38,1.26463341713,2.21600341797,
2.43035394147,-1.79889967912,0,-1.06523513341,-0.000830959856257,39,1.30059230328,2.2765481472,
2.43703681424,-1.81058409685,0,-1.08020566802,-0.000849169185703,40,1.33657491207,2.33691596985,
2.44389993146,-1.82256939882,0,-1.0954863617,-0.000866752526442,41,1.37256157398,2.39706873894,
2.45094281628,-1.83485463136,0,-1.11106353519,-0.000883559671086,42,1.4085791111,2.45701766014,
2.45816594556,-1.84743836397,0,-1.1269315594,-0.000862235648,43,1.44463801384,2.51678371429,
2.46556931927,-1.8603201198,0,-1.14307767651,-0.000877335734027,44,1.48071694374,2.57632040977,
2.47315341427,-1.8734979915,0,-1.15949627278,-0.000892131393195,45,1.51684141159,2.63567113876,
2.4809187074,-1.88697245592,0,-1.17617387081,-0.000906194675804,46,1.55302536488,2.6948158741,
2.4888647218,-1.90074112886,0,-1.19309784814,-0.000919571892188,47,1.58923053741,2.75375080109,
2.49699241116,-1.91480353349,0,-1.21025953611,-0.000932478722984,48,1.62551665306,2.81248521805,
2.50530129864,-1.9291582393,0,-1.22764203479,-0.000944467575695,49,1.66184985638,2.87101578712,
2.51379281476,-1.94380524629,0,-1.24523701616,-0.000956003616619,50,1.69825673103,2.92935991287,
2.52246648266,-1.95874217027,0,-1.26302868328,-0.000966646321635,51,1.7347253561,2.98747253418,
2.5313227792,-1.97396948808,0,-1.28099900565,-0.00097634295312,52,1.77128911018,3.04541730881,
2.54036218121,-1.98948481554,0,-1.29913706085,-0.000985445758673,53,1.80792784691,3.10315084457,
2.54958564236,-2.00528862947,0,-1.31742620074,-0.000993643575688,54,1.84465694427,3.16069674492,
2.55899268582,-2.0213785457,0,-1.33584715728,-0.00100079481184,55,1.88149106503,3.21805739403,
2.56858474209,-2.03775456422,0,-1.35438579934,-0.00100717779638,56,1.91842556,3.27521753311,
2.57836228802,-2.05441573137,0,-1.37302320449,-0.00101253260958,57,1.95548129082,3.33220815659,
2.58832532361,-2.07136061662,0,-1.39173765838,-0.00101670752518,58,1.99264836311,3.38901972771,
2.59847527936,-2.08858874315,0,-1.41051289892,-0.00101999891516,59,2.02996206284,3.44567012787,
2.60881215527,-2.10609915727,0,-1.42932378746,-0.00102192288841,60,2.06739759445,3.50214290619,
2.61933690503,-2.12389138216,0,-1.44814878098,-0.0010226778875,61,2.10498428345,3.55845546722,
2.6300504823,-2.14196446413,0,-1.46696626088,-0.00102225870917,62,2.14270114899,3.61460256577,
2.64095336392,-2.16031744951,0,-1.48575050555,-0.00102044104149,63,2.18059515953,3.67061328888,
2.65204650357,-2.17894938463,0.0,-1.50447732743,-0.00101730730858,64,2.21866416931,3.72648763657,
2.66333037808,-2.19786026948,0.0,-1.52311623493,-0.00101251931783,65,2.25688791275,3.78222608566,
2.6748068948,-2.21704962724,0,-1.5416445863,-0.0010065022679,66,2.29530000687,3.83783483505,
2.68647605374,-2.23651602739,0,-1.56002989967,-0.00099872094822,67,2.33388376236,3.89331459999,
2.69833976224,-2.25625946992,0,-1.5782453643,-0.000989484178665,68,2.37269496918,3.94872522354,
2.71039802029,-2.27627900117,0,-1.59625469368,-0.000978276802207,69,2.41167998314,4.00400447845,
2.72265225842,-2.29657509798,0,-1.61402458651,-0.000965260947581,70,2.45088791847,4.05921649933,
2.7351034303,-2.31714632982,0,-1.63152192192,-0.000950446287967,71,2.49029707909,4.11434078217,
2.74775296643,-2.33799317354,0,-1.64871022368,-0.00093365049191,72,2.52993249893,4.1694021225,
2.76060182049,-2.3591151523,0,-1.66555115391,-0.000914772755693,73,2.56979489326,4.22443628311,
2.77365094617,-2.3805122661,0,-1.6820038783,-0.000893677294266,74,2.60987567902,4.27940273285,
2.78690177395,-2.40218356126,0,-1.69803006467,-0.000870500184013,75,2.65019702911,4.33434486389,
2.80035525754,-2.42412951463,0,-1.71358469088,-0.00084487809344,76,2.69073438644,4.38927841187,
2.81401282742,-2.44635060304,0,-1.72862328062,-0.000816840762486,77,2.73151922226,4.44422626495,
2.82787496045,-2.46884634965,0,-1.74309760657,-0.000786184454101,78,2.77252268791,4.49916744232,
2.84194356396,-2.49161675447,0,-1.75696276764,-0.000753089934196,79,2.81376767159,4.55413913727,
2.85621959164,-2.51466229433,0,-1.77016741107,-0.00071720682778,80,2.85527086258,4.60922193527,
2.870704474,-2.5379839229,0,-1.78265961895,-0.000678504587917,81,2.89697003365,4.66430950165,
2.88539868786,-2.56158068651,0,-1.79438572946,-0.00063688847356,82,2.93890881538,4.71949911118,
2.90030366376,-2.58545449251,0,-1.80528914114,-0.000592198877216,83,2.98104667664,4.77476930618,
2.91542035535,-2.60960486406,0,-1.81531404873,-0.000544479391999,84,3.02340555191,4.83018684387,
2.93074971631,-2.63403323167,0,-1.82440010716,-0.000493483061934,85,3.0659661293,4.88572788239,
2.94629317715,-2.65874007219,0,-1.83248849775,-0.000439290832942,86,3.10872340202,4.94145584106,
2.96205121472,-2.68372633928,0,-1.83951544324,-0.000381638494836,87,3.15164136887,4.99733877182,
2.97802430585,-2.70899298662,0,-1.84541616187,-0.000320468931144,88,3.19472122192,5.05343055725,
2.99421388104,-2.73454144472,0,-1.85012652706,-0.000255817878102,89,3.23796057701,5.10977745056,
3.01061994031,-2.76037266725,0,-1.8535784118,-0.000187468312589,90,3.2813038826,5.16633605957,
3.02724343732,-2.78648808473,0,-1.85570446509,-0.000115462546771,91,3.32475852966,5.22318792343,
3.04408437207,-2.81288960451,0,-1.85643390089,-3.9614067662e-05,92,3.36830234528,5.28034257889,
3.0611432214,-2.83957818025,0,-1.85569756693,3.99882727003e-05,93,3.41189646721,5.33782958984,
3.07842046216,-2.86655619615,0,-1.85342400318,0.000123469741424,94,3.45551872253,5.39566230774,
3.09591609433,-2.89382508272,0,-1.84954171894,0.000210831745227,95,3.49916028976,5.45389652252,
3.11362916424,-2.92138722414,0,-1.84397695436,0.000302197458984,96,3.54276871681,5.512550354,
3.13156014874,-2.94924452776,0,-1.83665864728,0.00039742083571,97,3.5863058567,5.57160806656,
3.1334767362,-2.97740033144,0,-1.81358435235,0.00125303831133,98,3.62977194786,5.63118743896,