lower angle,upper angle,holding angle,system x,acceleration,ticks (200 tps),lower acceleration (shoulder),upper acceleration (elbow),
1.190899988,1.118062055,0,-0.937124733427,-0.411832458923,1,0.0,0.0,
1.190899988,1.118062055,0,-0.937124733427,0.0,2,0.0,0.0,
1.190899988,1.118062055,0,-0.937124733427,0.0,3,0.0,0.0,
1.19077442558,1.11833384703,0,-0.936876319549,0.000109138158351,4,-0.0251124855131,-0.054358407855,
1.19051827953,1.11888994536,0,-0.936375837708,0.000219862807772,5,-0.0512292124331,-0.111219674349,
1.19013323664,1.1197262608,0,-0.935624699911,0.000329948448333,6,-0.077008575201,-0.167263090611,
1.18961994042,1.12084139048,0,-0.934623805261,0.000439613385108,7,-0.102659247816,-0.223025918007,
1.18897857768,1.12223500878,0,-0.933373381772,0.000549165171132,8,-0.128272548318,-0.278723716736,
1.18820924132,1.12390696656,0,-0.931873255475,0.0006587735435,9,-0.153867274523,-0.334391593933,
1.18731206429,1.12585711738,0,-0.930123565639,0.000768302938273,10,-0.17943546176,-0.39003020525,
1.18628719432,1.1280852624,0,-0.928124289015,0.000877824162162,11,-0.204973950982,-0.445628941059,
1.18513473106,1.13059125867,0,-0.925875007696,0.000987489112417,12,-0.23049262166,-0.501199126244,
1.18385475112,1.13337495484,0,-0.923374920586,0.00109751444092,13,-0.255996137857,-0.556739449501,
1.18244738348,1.13643622611,0.0,-0.920623758145,0.00120763602455,14,-0.281473517418,-0.612254500389,
1.18091273524,1.13977485921,0.0,-0.917620570888,0.00131814179791,15,-0.306929826736,-0.667726993561,
1.17925090838,1.14339069489,0,-0.914364452511,0.00142899159923,16,-0.332365363836,-0.72316724062,
1.17746210035,1.14728355061,0,-0.910855277883,0.00153990269718,17,-0.357761710882,-0.77857118845,
1.17554638937,1.15145318795,0,-0.907091366547,0.0016515491403,18,-0.3831422925,-0.833927452564,
1.17350387323,1.15589948583,0,-0.903071577451,0.00176361502051,19,-0.408503353596,-0.889260590076,
1.17133475218,1.16062215928,0,-0.898795083269,0.0018760733555,20,-0.433824360371,-0.9445348382,
1.16903912212,1.16562105555,0,-0.89426037705,0.00198913507538,21,-0.459126293659,-0.999780297279,
1.16661713954,1.1708958878,0,-0.889465951221,0.0021028731811,22,-0.484396576881,-1.05496633053,
1.16406892735,1.17644646604,0,-0.884410211021,0.00221727490471,23,-0.509642660618,-1.11011624336,
1.16139461595,1.18227256674,0,-0.879091399535,0.00233240783021,24,-0.534862399101,-1.16522073746,
1.15859444562,1.1883738621,0,-0.873508374775,0.00244800699397,25,-0.560034453869,-1.22025895119,
1.15566847969,1.19475015093,0,-0.867658559035,0.00256468626828,26,-0.585193634033,-1.27526032925,
1.15261693421,1.20140108306,0,-0.861540259591,0.00268215646827,27,-0.61030882597,-1.33018624783,
1.14943995077,1.20832639773,0,-0.855151252219,0.00280059406188,28,-0.635396778584,-1.38506412506,
1.14613781247,1.21552573729,0,-0.848490272015,0.00291956186154,29,-0.660428822041,-1.43986797333,
1.14271059382,1.22299880374,0,-0.841554061148,0.0030394256036,30,-0.685445070267,-1.49461722374,
1.13915851835,1.23074529905,0,-0.834340755867,0.00316061170987,31,-0.710416138172,-1.54930186272,
1.13548178721,1.23876481343,0,-0.826847748147,0.00328291892185,32,-0.735347509384,-1.60390543938,
1.1316806202,1.24705696691,0,-0.819072620085,0.00340623087283,33,-0.760233700275,-1.65843117237,
1.1277551924,1.2556213795,0,-0.811012402696,0.0035309075821,34,-0.785085856915,-1.71288585663,
1.1237058093,1.26445760418,0,-0.802665076442,0.00365645588226,35,-0.809877991676,-1.76724743843,
1.11953262735,1.27356526841,0,-0.794027305572,0.00378338834982,36,-0.834638655186,-1.8215341568,
1.11523591477,1.28294391025,0,-0.785096438693,0.00391153216128,37,-0.859343588352,-1.87573122978,
1.11081588763,1.29259305287,0,-0.775869156197,0.00404102474185,38,-0.884007513523,-1.92983794212,
1.10627284396,1.30251226414,0,-0.766343001283,0.00417150577858,39,-0.908609986305,-1.98384678364,
1.10160703707,1.31270097781,0,-0.756514504661,0.00430354348335,40,-0.933161854744,-2.03774285316,
1.09681878734,1.32315867234,0,-0.746380911913,0.00443677926767,41,-0.957651853561,-2.09154319763,
1.09190831083,1.33388482619,0,-0.735938358114,0.00457169666289,42,-0.9820972085,-2.14523601532,
1.08687593538,1.34487888802,0,-0.725183865447,0.00470762236719,43,-1.00647652149,-2.19881629944,
1.081721959,1.35614027668,0,-0.714113970155,0.00484528384804,44,-1.03079748154,-2.25227952003,
1.07644667972,1.36766832162,0,-0.702724816659,0.00498476801666,45,-1.0550583601,-2.30561685562,
1.07105045516,1.37946242679,0,-0.691013284796,0.00512561431056,46,-1.07924747467,-2.35882878304,
1.06553352374,1.39152208556,0,-0.678975329329,0.00526822200339,47,-1.10338795185,-2.41193389893,
1.05989628035,1.40384650815,0,-0.666607360881,0.00541238602558,48,-1.12745082378,-2.46489167213,
1.05413912732,1.41643497933,0,-0.653906024295,0.00555800947563,49,-1.15143418312,-2.51770687103,
1.04826228816,1.42928696264,0,-0.640866793171,0.00570560204071,50,-1.17536902428,-2.57040190697,
1.0422661652,1.44240165342,0,-0.627485865385,0.00585481345745,51,-1.19922864437,-2.6229467392,
1.03615114588,1.45577836622,0,-0.613759608429,0.00600556689798,52,-1.22300744057,-2.67535305023,
1.02991757292,1.46941629637,0,-0.599683524961,0.00615833078346,53,-1.24671828747,-2.72759819031,
1.02356574434,1.48331481803,0,-0.585253213552,0.00631301482017,54,-1.27036762238,-2.77971220016,
1.01709613699,1.49747306693,0,-0.570465089733,0.00646925177649,55,-1.2939260006,-2.83166718483,
1.01050904888,1.51189032782,0,-0.555314347169,0.00662757762004,56,-1.3174213171,-2.8834605217,
1.00380483765,1.52656582583,0,-0.539796484934,0.00678780834075,57,-1.34084415436,-2.9351170063,
0.996983980124,1.5414987265,0,-0.523907831529,0.0069496415869,58,-1.36417496204,-2.98658895493,
0.990046774332,1.55668819536,0,-0.507643076355,0.00711382314944,59,-1.38744533062,-3.03790688515,
0.982993622605,1.57213348735,0,-0.49099806066,0.00727980476971,60,-1.41063797474,-3.08907485008,
0.975824822967,1.58783379782,0,-0.473967496825,0.00744800490479,61,-1.433765769,-3.14007568359,
0.968540822451,1.6037883221,0,-0.456547364428,0.00761802057417,62,-1.45680904388,-3.19091701508,
0.961141933982,1.61999616612,0,-0.438732199969,0.00779041673699,63,-1.4797847271,-3.24158811569,
0.953628530089,1.63645646561,0.0,-0.420517131444,0.00796492438634,64,-1.50268805027,-3.29209089279,
0.946000893895,1.65316865433,0.0,-0.401897334015,0.00814149231338,65,-1.52553391457,-3.34245300293,
0.938259442632,1.670131719,0,-0.38286787608,0.00832020864321,66,-1.54829025269,-3.392619133,
0.930404533927,1.68734488476,0,-0.363423971936,0.00850100766641,67,-1.57099366188,-3.44265556335,
0.9224364062,1.70480737675,0,-0.343559856641,0.00868433373673,68,-1.59363603592,-3.49252128601,
0.914355357473,1.7225183605,0,-0.323270132013,0.00886962623529,69,-1.61622512341,-3.54222536087,
0.906161626165,1.74047706116,0,-0.302549106519,0.00905714220718,70,-1.63874697685,-3.59177017212,
0.897855510299,1.75868288267,0,-0.2813920491,0.00924681635442,71,-1.66123187542,-3.64117622375,
0.889437337701,1.77713481177,0,-0.259793465334,0.00943895122374,72,-1.6836527586,-3.69042682648,
0.880907138173,1.79583243121,0,-0.237747032476,0.00963383272485,73,-1.70604729652,-3.73954629898,
0.872265239541,1.81477472771,0,-0.215247414645,0.00983089905916,74,-1.72839510441,-3.78850650787,
0.863511790816,1.83396128405,0,-0.192289362385,0.0100303365282,75,-1.75070166588,-3.83733844757,
0.854646881406,1.85339132536,0,-0.168866442161,0.0102326134179,76,-1.77299821377,-3.88603782654,
0.845670630519,1.873064196,0,-0.144972850793,0.0104376666439,77,-1.79525542259,-3.9345998764,
0.836583127563,1.89297935952,0,-0.120602946996,0.0106445863928,78,-1.8175150156,-3.98305845261,
0.827384372537,1.91313621987,0,-0.0957504486782,0.0108537886296,79,-1.83976113796,-4.0314078331,
0.818074335639,1.93353424061,0,-0.0704091642052,0.0110662137425,80,-1.86201906204,-4.07963705063,
0.808653076474,1.95417294491,0,-0.044573838506,0.0112806005735,81,-1.88427042961,-4.12777519226,
0.799120386426,1.97505191553,0,-0.0182376350625,0.0114983055182,82,-1.9065515995,-4.17583465576,
0.789476146285,1.99617067564,0,0.00860551751107,0.0117183777526,83,-1.92885959148,-4.22379970551,
0.779720177238,2.01752892722,0,0.0359615149206,0.0119412042989,84,-1.95120465755,-4.27168703079,
0.769852300469,2.03912631262,0,0.0638360985164,0.0121661014713,85,-1.9736007452,-4.31952428818,
0.759872098748,2.06096253384,0,0.0922361700939,0.012394472182,86,-1.99606060982,-4.36730003357,
0.749779214446,2.08303765047,0,0.121167289092,0.0126221185656,87,-2.01859116554,-4.41505336761,
0.739573379342,2.10535106648,0,0.150635163921,0.0128552727736,88,-2.04119348526,-4.46273994446,
0.729253818576,2.12790302027,0,0.180646948839,0.0130915692809,89,-2.06392598152,-4.51044130325,
0.718820204322,2.15069345225,0,0.211207044,0.0133295372289,90,-2.08673906326,-4.55811548233,
0.708271821324,2.17372218359,0,0.242321927765,0.0135704373906,91,-2.10969829559,-4.60581493378,
0.697607924525,2.19698957194,0,0.27399695823,0.0138135793739,92,-2.13279771805,-4.65351963043,
0.686827739064,2.22049561728,0,0.306237592552,0.0140585309541,93,-2.15606117249,-4.70126914978,
0.675930341069,2.24424079646,0,0.339048925778,0.0143062525376,94,-2.17949223518,-4.74906492233,
0.664914806668,2.26822510947,0,0.372435959266,0.0145562399494,95,-2.20312714577,-4.79692173004,
0.653780122583,2.29244891394,0,0.40640303583,0.0148077170719,96,-2.22696375847,-4.84484767914,
0.64252497751,2.31691328276,0,0.440954606575,0.0150616116364,97,-2.25104904175,-4.89290046692,
0.631148358171,2.34161809672,0,0.476093945023,0.0153170696393,98,-2.27534937859,-4.94102573395,
0.61964865524,2.36656430949,0,0.511825424028,0.0155695287771,99,-2.29997062683,-4.98931884766,
0.608024438207,2.39175263632,0,0.548151751906,0.0158271297649,100,-2.32486796379,-5.03774452209,
0.59627415735,2.41718415011,0,0.585074946177,0.0160856719464,101,-2.35007786751,-5.08634996414,
0.584396322553,2.44285932768,0,0.622596115969,0.0163446058136,102,-2.37560319901,-5.13510894775,
0.572388847653,2.46877959956,0,0.660717267751,0.0166045361954,103,-2.40151619911,-5.1841211319,
0.560249884908,2.4949459194,0,0.699438349727,0.0168644104056,104,-2.42781996727,-5.23334884644,
0.547977586572,2.52135959853,0,0.738757849627,0.0171235884349,105,-2.45449662209,-5.28281784058,
0.535569508855,2.54802194823,0,0.778675304488,0.0173825322696,106,-2.48163819313,-5.33256053925,
0.523023565595,2.57493463744,0,0.819187174418,0.0176397496854,107,-2.50921773911,-5.38260221481,
0.510337313001,2.60209885825,0,0.860289881899,0.0178954961115,108,-2.53728342056,-5.43294143677,
0.497508068864,2.62951675642,0,0.901978791082,0.0181490641096,109,-2.56588125229,-5.48367786407,
0.484533448999,2.65718988169,0,0.944246584385,0.0183992288248,110,-2.59497046471,-5.53472805023,
0.471410353963,2.68512073744,0,0.987086478153,0.018647328959,111,-2.62465381622,-5.58622741699,
0.458136101548,2.71331063498,0,1.03048830338,0.0188910053514,112,-2.65488767624,-5.63809347153,
0.444707592313,2.74176243533,0,1.07444127888,0.0191297670743,113,-2.68575453758,-5.69045162201,
0.431121488397,2.77047828425,0.0,1.11893304333,0.019363331966,114,-2.71726036072,-5.74330282211,
0.417374690358,2.79946104277,0.0,1.16394851184,0.0195897948511,115,-2.74940824509,-5.79663848877,
0.403463860337,2.82871285666,0,1.20947070358,0.0198086943425,116,-2.78222131729,-5.85049533844,
0.389385302846,2.85823718298,0,1.25548156743,0.0200201456897,117,-2.81575942039,-5.90496921539,
0.37513550121,2.88803676356,0,1.30195981346,0.0202216421885,118,-2.85001111031,-5.96003246307,
0.360710759942,2.91811493624,0,1.34888228044,0.0204134328933,119,-2.8849966526,-6.01573753357,
0.346107323949,2.94847480048,0,1.3962231004,0.0205943430854,120,-2.92074465752,-6.07210540771,
0.331321318929,2.97912005175,0,1.44395430057,0.020763115003,121,-2.95726418495,-6.12918281555,
0.316348572557,3.01005474318,0,1.49204586075,0.020918103053,122,-2.9945936203,-6.18704891205,
0.301185270135,3.04128245104,0,1.54046397207,0.0210578518042,123,-3.03271532059,-6.2456703186,