lower angle,upper angle,holding angle,system x,acceleration,ticks (200 tps),lower acceleration (shoulder),upper acceleration (elbow),
1.548916254,0.261297867,0,-1.09182131553,-0.0835313720492,1,0.0,0.0,
1.548916254,0.261297867,0,-1.09182131553,0.0,2,0.0,0.0,
1.548916254,0.261297867,0,-1.09182131553,0.0,3,0.0,0.0,
1.54888906501,0.261379216674,0,-1.0919072694,-6.57570837703e-06,4,-0.00543779833242,-0.016269935295,
1.54883240859,0.261547474809,0,-1.0920799512,-1.32104325224e-05,5,-0.0113312844187,-0.0336516276002,
1.54874693231,0.261801072112,0,-1.09233916911,-1.98294262001e-05,6,-0.0170952565968,-0.0507194548845,
1.54863285624,0.262139468286,0,-1.09268479564,-2.64390350149e-05,7,-0.02281521447,-0.0676792412996,
1.54849026231,0.262562520751,0,-1.09311704934,-3.30651674751e-05,8,-0.0285187866539,-0.084610491991,
1.54831908286,0.26307039435,0,-1.09363589498,-3.96884264128e-05,9,-0.0342358872294,-0.101574718952,
1.54811926248,0.263663207944,0,-1.09424119936,-4.63012240595e-05,10,-0.0399640761316,-0.118562757969,
1.5478907555,0.264341119509,0,-1.09493313479,-5.2927060318e-05,11,-0.0457014106214,-0.135582283139,
1.5476334809,0.265104276892,0,-1.09571138223,-5.95280516403e-05,12,-0.0514549314976,-0.152631491423,
1.54734735521,0.265952899419,0,-1.09657594524,-6.61291318141e-05,13,-0.0572251304984,-0.169724583626,
1.54703227714,0.266887255777,0.0,-1.09752685108,-7.27318317686e-05,14,-0.0630156248808,-0.186871260405,
1.54668815601,0.267907577865,0.0,-1.0985640549,-7.93306413058e-05,15,-0.0688241943717,-0.204064428806,
1.54631485817,0.269014165103,0,-1.09968732349,-8.591177638e-05,16,-0.0746596306562,-0.221317470074,
1.54591226954,0.270207296424,0,-1.10089654251,-9.24841852488e-05,17,-0.0805177241564,-0.238626271486,
1.54548021945,0.27148732759,0,-1.10219129133,-9.90241526721e-05,18,-0.0864100307226,-0.256006449461,
1.54501853072,0.272854695395,0,-1.10357146915,-0.000105556311865,19,-0.0923377349973,-0.273473322392,
1.54452709508,0.274309655018,0,-1.10503686938,-0.000112072474148,20,-0.0982871204615,-0.290991783142,
1.544005669,0.275852759667,0,-1.10658715255,-0.000118562101576,21,-0.10428519547,-0.308621019125,
1.54345407644,0.277484411672,0,-1.1082220122,-0.00012502840868,22,-0.110318616033,-0.32633048296,
1.54287210088,0.279205089733,0,-1.10994102523,-0.000131461985524,23,-0.116395130754,-0.344135940075,
1.54225951973,0.281015312597,0,-1.11174388288,-0.000137871989417,24,-0.122516192496,-0.362044125795,
1.54161612996,0.28291557759,0,-1.11363038706,-0.000144266636731,25,-0.128677889705,-0.380053162575,
1.54094164147,0.284906506836,0,-1.11559990472,-0.000150612682084,26,-0.134897649288,-0.398185878992,
1.54023579675,0.286988668442,0,-1.11765190419,-0.000156917367926,27,-0.141168937087,-0.416432857513,
1.53949836995,0.289162632376,0,-1.11978622712,-0.000163210029964,28,-0.147485181689,-0.434792399406,
1.53872909378,0.291429022625,0,-1.12200246981,-0.000169471925558,29,-0.153855249286,-0.45327848196,
1.53792765438,0.293788507879,0,-1.12429987339,-0.000175675098376,30,-0.160287901759,-0.471897006035,
1.53709370717,0.296241853684,0,-1.12667777878,-0.000181828144274,31,-0.166789472103,-0.490669608116,
1.53622696623,0.298789758533,0,-1.12913587314,-0.000187957080121,32,-0.1733481884,-0.509580790997,
1.53532712608,0.301432866901,0,-1.1316733117,-0.000194020166884,33,-0.179968133569,-0.528622567654,
1.53439381979,0.304172050506,0,-1.13428963658,-0.000200049101014,34,-0.186661303043,-0.54783642292,
1.53342669624,0.307008061856,0,-1.13698395272,-0.000206009430046,35,-0.193424731493,-0.567202866077,
1.53242538105,0.309941739142,0,-1.13975549319,-0.000211910929991,36,-0.200262889266,-0.586735010147,
1.53138955477,0.312973894477,0,-1.14260399524,-0.000217792166439,37,-0.207165122032,-0.606430768967,
1.53031875546,0.316105455458,0,-1.14552803566,-0.000223563990544,38,-0.214159935713,-0.626313328743,
1.52921265903,0.319337256551,0,-1.14852735308,-0.000229316056848,39,-0.221219599247,-0.646360218525,
1.52807078491,0.322670303583,0,-1.15160063748,-0.000234967812948,40,-0.228374764323,-0.666608870029,
1.52689276058,0.326105505526,0,-1.15474736014,-0.000240578971735,41,-0.235605075955,-0.687041401863,
1.52567817438,0.329643838406,0,-1.15796682755,-0.000246134115845,42,-0.242917090654,-0.707665324211,
1.52442656811,0.333286255896,0,-1.16125764006,-0.000251584869035,43,-0.250321209431,-0.728484392166,
1.52313748914,0.337033838332,0,-1.16461906894,-0.000256979790175,44,-0.257815629244,-0.749516844749,
1.52181044947,0.340887680948,0,-1.16804999818,-0.000262289219149,45,-0.265408009291,-0.770768165588,
1.52044496293,0.344848789573,0,-1.1715488472,-0.000267477735549,46,-0.273097872734,-0.792223155499,
1.51904057506,0.348918274343,0,-1.17511490162,-0.000272610818048,47,-0.280877381563,-0.813897252083,
1.51759677734,0.35309731245,0,-1.17874709349,-0.000277662658603,48,-0.288759410381,-0.835807740688,
1.51611309852,0.357386976778,0,-1.18244423617,-0.000282623723357,49,-0.296735316515,-0.857931733131,
1.51458899658,0.361788481772,0,-1.18620495922,-0.000287479844503,50,-0.30482044816,-0.880300879478,
1.51302394252,0.366303004622,0,-1.190027816,-0.000292225172435,51,-0.313010424376,-0.902906298637,
1.51141741108,0.370931782126,0,-1.19391165493,-0.000296881900012,52,-0.321306854486,-0.925756692886,
1.50976889561,0.375676013827,0,-1.19785531114,-0.000301449872908,53,-0.329703330994,-0.948844015598,
1.50807781871,0.380536943972,0,-1.20185694327,-0.000305863071501,54,-0.338215202093,-0.972188949585,
1.50634364019,0.385515876412,0,-1.20591539964,-0.000310201842057,55,-0.346835792065,-0.995787203312,
1.50456576403,0.390614137351,0,-1.21002891422,-0.000314404109937,56,-0.355575144291,-1.01965177059,
1.50274363141,0.395833030641,0,-1.21419599682,-0.000318493673806,57,-0.364426463842,-1.04377949238,
1.50087663512,0.401173934638,0,-1.21841488759,-0.000322448663098,58,-0.373398929834,-1.06817996502,
1.49896419774,0.406638175547,0,-1.22268386032,-0.000326270993605,59,-0.382488012314,-1.09285020828,
1.49700573813,0.412227139175,0,-1.22700137404,-0.000329975128137,60,-0.391691654921,-1.11778986454,
1.4950006416,0.41794221133,0,-1.23136541868,-0.000333526413303,61,-0.40101981163,-1.14301538467,
1.4929483233,0.42378477782,0,-1.23577426867,-0.000336946064979,62,-0.410464078188,-1.16851747036,
1.49084813129,0.429756328761,0,-1.24022584007,-0.000340205073516,63,-0.42003801465,-1.1943114996,
1.4886994956,0.435858235061,0.0,-1.24471835968,-0.000343328177759,64,-0.429728239775,-1.22038495541,
1.48650171961,0.442092120945,0.0,-1.24924971398,-0.000346290490557,65,-0.439555734396,-1.24677431583,
1.48425424452,0.448459253013,0,-1.25381758589,-0.000349074960643,66,-0.449495583773,-1.27342987061,
1.48195641841,0.45496124059,0,-1.25842014981,-0.000351720171423,67,-0.459563344717,-1.30039310455,
1.47960758562,0.46159955889,0,-1.26305478665,-0.000354163262289,68,-0.46976685524,-1.32766699791,
1.47720711286,0.468375712931,0,-1.26771919614,-0.000356433052031,69,-0.480093598366,-1.35523343086,
1.47475439663,0.475291252434,0,-1.27241155222,-0.000358561143024,70,-0.490544348955,-1.38310408592,
1.47224873658,0.482347667515,0,-1.27712848936,-0.000360433075508,71,-0.501132488251,-1.41128468513,
1.46968949194,0.489546597302,0,-1.28186797043,-0.00036214995922,72,-0.511849284172,-1.43978488445,
1.46707605924,0.496889472306,0,-1.2866272747,-0.000363659215657,73,-0.52268743515,-1.46857893467,
1.46440779026,0.50437787205,0,-1.29140376551,-0.000364965883773,74,-0.53365367651,-1.49768161774,
1.46168403681,0.512013361156,0,-1.29619461711,-0.000366057687325,75,-0.544751346111,-1.52710664272,
1.45890417303,0.51979754895,0,-1.30099736192,-0.00036696101075,76,-0.555972933769,-1.55683577061,
1.45606760289,0.527731851041,0,-1.30580882373,-0.000367619805261,77,-0.567314863205,-1.5868601799,
1.45317365582,0.535817966163,0,-1.31062618407,-0.000368064990171,78,-0.578790187836,-1.61722755432,
1.45022169109,0.544057473838,0,-1.31544626569,-0.00036826738646,79,-0.59039324522,-1.64789748192,
1.44721106048,0.552451864183,0,-1.3202652383,-0.000368176133481,80,-0.602125823498,-1.67888474464,
1.44414126481,0.56100271672,0,-1.32508130305,-0.000367948478933,81,-0.613959848881,-1.71016645432,
1.44101159628,0.569711551368,0,-1.32988978238,-0.000367362910578,82,-0.625934243202,-1.74177134037,
1.43782152589,0.578579858243,0,-1.33468779929,-0.000366555983988,83,-0.63801574707,-1.77367138863,
1.43457039054,0.58760936588,0,-1.33947187902,-0.000365484535756,84,-0.650227606297,-1.80590081215,
1.43125765379,0.596801445186,0,-1.34423816709,-0.00036411845603,85,-0.662548005581,-1.83842015266,
1.42788273449,0.606157645881,0,-1.34898296498,-0.000362470446244,86,-0.674983143806,-1.87124752998,
1.42444507386,0.615679577291,0,-1.35370293638,-0.000360567551051,87,-0.687532782555,-1.90438890457,
1.42094412799,0.625368610322,0,-1.35839361767,-0.000358324504164,88,-0.700190901756,-1.93780910969,
1.417379353,0.635226264894,0,-1.3630510585,-0.000355780065203,89,-0.712957203388,-1.97154068947,
1.4137502646,0.645253911912,0,-1.36767111141,-0.000352918889891,90,-0.725817620754,-2.00553822517,
1.41005634125,0.655453130901,0,-1.37224996728,-0.000349766031301,91,-0.738787055016,-2.03984928131,
1.406297121,0.665825233161,0,-1.37678305543,-0.000346265003515,92,-0.7518440485,-2.074426651,
1.40247212704,0.676371619403,0,-1.38126583765,-0.000342417308349,93,-0.765000939369,-2.10928297043,
1.39858089741,0.687093690336,0,-1.38569372919,-0.000338219469039,94,-0.778248131275,-2.14442586899,
1.39462304469,0.697992757261,0,-1.39006236558,-0.000333688484045,95,-0.791571378708,-2.17982149124,
1.39059818144,0.709070101678,0,-1.39436701473,-0.000328795550539,96,-0.804977715015,-2.21547412872,
1.38650586064,0.720327064693,0,-1.3986022972,-0.000323492423078,97,-0.818463742733,-2.2514064312,
1.38234579916,0.7317648682,0,-1.40276391859,-0.000317848128125,98,-0.832011044025,-2.28755879402,
1.37811760958,0.743384734094,0,-1.40684614406,-0.000310967278181,99,-0.845636367798,-2.32397985458,
1.37382099386,0.755187824666,0,-1.41084373148,-0.000304513755791,100,-0.859326183796,-2.36062979698,
1.36945574339,0.767175302207,0,-1.41475218267,-0.000297719203978,101,-0.873052537441,-2.3975045681,
1.36502154525,0.779348179996,0,-1.41856488459,-0.000290420440325,102,-0.886839210987,-2.43458676338,
1.36051817592,0.791707679927,0,-1.42227687787,-0.000282745178807,103,-0.900675773621,-2.47191476822,
1.35594542678,0.804254874885,0,-1.42588241725,-0.000274632845582,104,-0.914551436901,-2.50943160057,
1.35130317862,0.816990480125,0,-1.42937490494,-0.000266018161456,105,-0.928449928761,-2.54713392258,
1.34659126754,0.829915628135,0,-1.43274876221,-0.00025697883579,106,-0.942382335663,-2.58504414558,
1.34180963393,0.843031212985,0,-1.43599821941,-0.000247499839692,107,-0.956325292587,-2.6231136322,
1.33695820327,0.856337949932,0,-1.43911625397,-0.000237486701221,108,-0.970285356045,-2.6613650322,
1.33203691597,0.869836733043,0,-1.4420964528,-0.000226985355842,109,-0.984256148338,-2.69977879524,
1.32704583164,0.88352845639,0,-1.44493337271,-0.000216069751273,110,-0.998217344284,-2.73833680153,
1.32198495026,0.897413596809,0,-1.44761880277,-0.000204529074472,111,-1.01217770576,-2.7770447731,
1.31685433145,0.911492869556,0,-1.45014585234,-0.000192463919629,112,-1.02612805367,-2.81588315964,
1.31165412422,0.925767049491,0,-1.45250848475,-0.000179938933548,113,-1.04004371166,-2.85484528542,
1.30638438816,0.940236613452,0.0,-1.45469807608,-0.000166757884973,114,-1.05394601822,-2.89391565323,
1.30104548092,0.954901978671,0.0,-1.45670862674,-0.000153120090103,115,-1.06778120995,-2.93307566643,
1.2956374621,0.969763562381,0,-1.45853052207,-0.000138750579657,116,-1.0815974474,-2.97234225273,
1.29016071911,0.984821841419,0,-1.46015753812,-0.000123907484122,117,-1.09535217285,-3.01167726517,
1.2846155798,1.00007717341,0,-1.461581904,-0.000108472791171,118,-1.10903537273,-3.0510931015,
1.27900222297,1.0155300948,0,-1.4627945457,-9.23476844556e-05,119,-1.12268054485,-3.09058237076,
1.27332112546,1.03118042678,0,-1.46378632856,-7.55273823647e-05,120,-1.13622403145,-3.13009548187,
1.26757276411,1.04702858657,0,-1.46455002844,-5.81573895411e-05,121,-1.14967668056,-3.16966104507,
1.26175746675,1.0630748722,0,-1.4650759147,-4.00461230089e-05,122,-1.16306042671,-3.20926189423,
1.25587585922,1.07931922406,0,-1.46535556372,-2.12946167549e-05,123,-1.17632746696,-3.24888443947,
1.24992838855,1.09576158255,0,-1.46537822715,-1.72565291817e-06,124,-1.18949818611,-3.28851151466,
1.2439156806,1.1124022457,0,-1.46513589507,1.84514752895e-05,125,-1.20254123211,-3.32815074921,
1.23783836122,1.12924103469,0,-1.46461826521,3.94123632562e-05,126,-1.21546638012,-3.36776065826,
1.23169720526,1.14627765149,0,-1.46381565117,6.11098699172e-05,127,-1.22824037075,-3.40735912323,
1.22549265976,1.16351221532,0,-1.46271603001,8.37185121449e-05,128,-1.2409183979,-3.44695711136,
1.2192256486,1.18094460696,0,-1.4613108548,0.000106980073208,129,-1.25340402126,-3.48648738861,
1.21289691682,1.19857446879,0,-1.45958836251,0.000131112099941,130,-1.26574981213,-3.52599668503,
1.2065072393,1.21640150279,0,-1.45753678497,0.000156158637638,131,-1.27794134617,-3.56544113159,
1.20005751009,1.23442547053,0,-1.45514520639,0.000182035396466,132,-1.28995013237,-3.60482883453,
1.19354850407,1.252646074,0,-1.45240074849,0.000208891116001,133,-1.30180191994,-3.64416718483,
1.18698126431,1.27106301516,0,-1.44929260979,0.000236568971151,134,-1.31345903873,-3.68342161179,
1.18035662527,1.28967599601,0,-1.44580732401,0.000265270745592,135,-1.32492756844,-3.72260355949,
1.17367568965,1.30848412246,0,-1.44193151392,0.00029498956889,136,-1.33619582653,-3.76167917252,
1.16693938132,1.32748739451,0,-1.43765236622,0.00032568318686,137,-1.34726524353,-3.80068063736,
1.16014895196,1.34668509692,0,-1.43295727472,0.000357327613397,138,-1.35809898376,-3.83956289291,
1.15330520626,1.36607675284,0,-1.42782948852,0.000390253261349,139,-1.36875641346,-3.87837934494,
1.14640939589,1.38566188544,0,-1.42225587739,0.000424177336228,140,-1.37917089462,-3.91706681252,
1.13946268316,1.40543989867,0,-1.41622141266,0.000459244265061,141,-1.38934779167,-3.95566034317,
1.13246611114,1.42541031569,0,-1.40970963909,0.000495561552952,142,-1.39931607246,-3.99411082268,
1.12542096134,1.44557242125,0,-1.40270493856,0.000533067494368,143,-1.4090321064,-4.03248500824,
1.11832845564,1.46592573851,0,-1.39519111775,0.000571804784019,144,-1.41850650311,-4.07069063187,
1.11118975635,1.48646955222,0,-1.38715005806,0.000611919905508,145,-1.42774605751,-4.10881996155,
1.10400626417,1.50720326632,0,-1.37856540881,0.000653278225982,146,-1.43670582771,-4.14679336548,
1.09677911158,1.52812628478,0,-1.36941766561,0.000696118535506,147,-1.44543874264,-4.18465995789,
1.08950960989,1.54923801154,0,-1.3596881825,0.000740377676917,148,-1.45390570164,-4.22240495682,
1.08219904061,1.57053796977,0,-1.34935757903,0.000786110347991,149,-1.46212470531,-4.26003360748,
1.07484880443,1.59202520579,0,-1.33840555298,0.000833386829814,150,-1.47005403042,-4.29750156403,
1.06746012326,1.61369936198,0,-1.32681095916,0.00088227108852,151,-1.47774541378,-4.33488321304,
1.0600343978,1.63555972308,0,-1.3145525221,0.000932773081177,152,-1.4851487875,-4.37212228775,
1.05257302876,1.65760569304,0,-1.30160843695,0.000984931754152,153,-1.49228310585,-4.40925693512,
1.04507723804,1.67983679503,0,-1.28795486205,0.00103890435957,154,-1.49916362762,-4.44626617432,
1.03754827733,1.70225231379,0,-1.2735669126,0.00109472318386,155,-1.50581586361,-4.48318529129,
1.02998760696,1.7248518917,0,-1.25842133941,0.00115234798063,156,-1.51214778423,-4.5199804306,
1.02239647861,1.74763481349,0,-1.24249164239,0.00121199199617,157,-1.51823151112,-4.55666303635,
1.01477614398,1.77060072154,0,-1.22575124091,0.0012736560436,158,-1.52406930923,-4.59326457977,
1.00712797399,1.79374913901,0,-1.20817342037,0.00133734997532,159,-1.52962946892,-4.62974834442,
0.999453339533,1.81707958907,0,-1.18973061531,0.00140313956084,160,-1.53493976593,-4.66615962982,
0.991753373102,1.84059147567,0,-1.17039244433,0.00147123463101,161,-1.54000222683,-4.70248556137,
0.984029207186,1.8642847988,0,-1.15012873048,0.00154162358735,162,-1.5448371172,-4.73873376846,
0.976282093481,1.88815908164,0,-1.12890859192,0.00161436195987,163,-1.54943597317,-4.77494859695,
0.968513104872,1.91221396655,0.0,-1.10669926141,0.00168959211486,164,-1.55380558968,-4.81107568741,
0.960723314242,1.93644921511,0.0,-1.08346740338,0.00176735364837,165,-1.55796074867,-4.84714984894,
0.952913734869,1.96086494654,0,-1.05917894976,0.00184769365177,166,-1.56191837788,-4.88319921494,
0.945085439638,1.98546056479,0,-1.03379862387,0.00193072692554,167,-1.56566774845,-4.91921854019,
0.937239322619,2.01023606986,0,-1.00728997124,0.00201653177795,168,-1.5692384243,-4.95517349243,
0.929375979857,2.03519158095,0,-0.979614007941,0.00210530057399,169,-1.57266843319,-4.99118328094,
0.921496245817,2.06032709807,0,-0.950732610465,0.00219696134805,170,-1.57594680786,-5.02717924118,
0.913600895361,2.08564262122,0,-0.920606662946,0.00229160048163,171,-1.57908380032,-5.06320905685,
0.905690226511,2.11113803118,0,-0.889193471801,0.00238948497104,172,-1.58213698864,-5.09922170639,
0.897764775709,2.13681428164,0,-0.856452137042,0.00249047807808,173,-1.58509743214,-5.13534021378,
0.88982472177,2.16267125338,0,-0.82233841376,0.00259483437078,174,-1.58801817894,-5.17147541046,
0.881870183901,2.18870930403,0,-0.786807777593,0.00270257440713,175,-1.59090566635,-5.20771598816,
0.873901340918,2.21492879122,0,-0.749815822098,0.00281367963462,176,-1.5937846899,-5.24401473999,
0.865917775587,2.24133054942,0,-0.711314734783,0.00292842785194,177,-1.59671568871,-5.28044033051,
0.857919309096,2.26791493624,0,-0.671257917937,0.00304671608975,178,-1.59968829155,-5.31698417664,
0.849905345396,2.29468290538,0,-0.62959665877,0.00316870639695,179,-1.60281395912,-5.35372257233,
0.841874930815,2.32163517207,0,-0.586280573217,0.00329452546594,180,-1.60608172417,-5.39056110382,
0.833827290491,2.34877269,0,-0.54126059141,0.00342406391002,181,-1.60953617096,-5.42763328552,
0.825761172728,2.37609641284,0,-0.494485687674,0.00355748827225,182,-1.6132298708,-5.46487045288,
0.817675147013,2.40360753268,0,-0.445904576402,0.00369481014179,183,-1.61722207069,-5.50236034393,
0.809567305998,2.43130748004,0,-0.395464432542,0.00383614545908,184,-1.62158215046,-5.54012537003,
0.801435563521,2.45919720858,0,-0.343112941022,0.00398145624088,185,-1.6263500452,-5.578125,
0.793277893023,2.48727862567,0,-0.288798727551,0.00413067274504,186,-1.63154172897,-5.6164226532,
0.785091433482,2.51555340022,0,-0.232468214526,0.00428395085993,187,-1.63729739189,-5.65507125854,
0.776873323874,2.54402272433,0,-0.174069971985,0.00444114464993,188,-1.64363265038,-5.69405269623,
0.76862010713,2.57268898219,0,-0.113551043208,0.00460236141951,189,-1.65066170692,-5.73343753815,
0.760328028158,2.60155455798,0,-0.050859313524,0.00476753071584,190,-1.65843391418,-5.77324724197,
0.751993153052,2.63062088221,0,0.0140545557472,0.00493645101932,191,-1.66699063778,-5.8134431839,
0.743611011462,2.65989057749,0,0.0812405120233,0.00510915829723,192,-1.67644572258,-5.85408878326,
0.735176536993,2.68936626643,0,0.1507476836,0.00528560639879,193,-1.68690192699,-5.89530467987,
0.726684603648,2.7190503332,0,0.222621797383,0.00546552674454,194,-1.69840097427,-5.93701028824,
0.718129370169,2.74894611567,0,0.296908816012,0.00564893916153,195,-1.71105647087,-5.97928333282,
0.709504816489,2.77905599803,0,0.373649896887,0.00583547560506,196,-1.72493386269,-6.02216625214,
0.700804266886,2.80938355654,0,0.452885942174,0.00602511825388,197,-1.74011862278,-6.06566524506,
0.692020568804,2.83993189067,0,0.534653838915,0.00621754734648,198,-1.75673449039,-6.10988616943,
0.68314662929,2.87070457667,0,0.618986484859,0.00641248553825,199,-1.7748016119,-6.15472269058,
0.674174342112,2.90170542926,0,0.70591475849,0.00660976691213,200,-1.79447472095,-6.20036792755,