lower angle,upper angle,holding angle,system x,acceleration,ticks (200 tps),lower acceleration (shoulder),upper acceleration (elbow),
1.459412174,0.471352484,0,-1.07120624403,-0.0986464607294,1,0.0,0.0,
1.459412174,0.471352484,0,-1.07120624403,0.0,2,0.0,0.0,
1.459412174,0.471352484,0,-1.07120624403,0.0,3,0.0,0.0,
1.4593510124,0.471499968272,0,-1.07120490837,1.2295758011e-07,4,-0.0122323203832,-0.0294968560338,
1.45922473683,0.471804157957,0,-1.07120059548,3.97030973194e-07,5,-0.0252551138401,-0.0608379393816,
1.4590345564,0.472262271195,0,-1.07119391881,6.14624348874e-07,6,-0.0380360893905,-0.0916226506233,
1.45878086518,0.47287340827,0,-1.07118503046,8.18213568436e-07,7,-0.0507382489741,-0.122227415442,
1.45846380386,0.473637367521,0,-1.07117446941,9.72183483718e-07,8,-0.0634122639894,-0.152791857719,
1.45808326388,0.474554340976,0,-1.07116171499,1.17407994462e-06,9,-0.0761080086231,-0.18339471519,
1.45763922278,0.475624456924,0,-1.07114691936,1.36196533775e-06,10,-0.0888082310557,-0.214023172855,
1.45713157875,0.476847931665,0,-1.07112968933,1.58604159559e-06,11,-0.101528793573,-0.244694814086,
1.45656031643,0.478224874863,0,-1.07111009732,1.80343952211e-06,12,-0.114252507687,-0.275388777256,
1.45592523406,0.479755689313,0,-1.07108740643,2.08866965451e-06,13,-0.127016440034,-0.306162834167,
1.45522625947,0.481440548708,0.0,-1.07106125517,2.40715353918e-06,14,-0.139794901013,-0.336971819401,
1.45446325762,0.483279853982,0.0,-1.07103161296,2.72845254109e-06,15,-0.152600303292,-0.367861151695,
1.4536360462,0.485273986046,0,-1.0709977517,3.1167512253e-06,16,-0.165442302823,-0.398826628923,
1.45274443848,0.487423315567,0,-1.07095880154,3.58510228641e-06,17,-0.178321555257,-0.429865777493,
1.45178823283,0.489728329626,0,-1.07091424617,4.10096620844e-06,18,-0.191241070628,-0.461002886295,
1.45076726626,0.492189435211,0,-1.07086359385,4.66208624122e-06,19,-0.204193159938,-0.49222099781,
1.4496812566,0.494807219056,0,-1.07080577863,5.32130808073e-06,20,-0.217202112079,-0.523556649685,
1.44852997798,0.497582157997,0,-1.07073982161,6.07059194406e-06,21,-0.23025560379,-0.554988145828,
1.44731316127,0.50051490396,0,-1.07066504311,6.8824387859e-06,22,-0.243363395333,-0.58654910326,
1.44603054754,0.503605972898,0,-1.07058017563,7.8109266948e-06,23,-0.25652256608,-0.618213772774,
1.4446817857,0.506856121046,0,-1.07048398822,8.85269021456e-06,24,-0.26975235343,-0.650030016899,
1.44326665036,0.510265916509,0,-1.07037577129,9.95973851889e-06,25,-0.283026963472,-0.681958973408,
1.44178474665,0.513836126697,0,-1.07025373519,1.12314744452e-05,26,-0.296380668879,-0.714042067528,
1.44023572996,0.517567548824,0,-1.07011677957,1.26044569471e-05,27,-0.309803158045,-0.74628418684,
1.43861933581,0.521460805011,0,-1.06996384642,1.40747828262e-05,28,-0.323278963566,-0.77865254879,
1.43693507805,0.525516807956,0,-1.06979262242,1.57579794336e-05,29,-0.336851447821,-0.811200082302,
1.43518263817,0.529736384672,0,-1.06960230099,1.75152531454e-05,30,-0.350488185883,-0.843915343285,
1.43336166225,0.534120265317,0,-1.06939113248,1.94334650735e-05,31,-0.364195525646,-0.876776099205,
1.431471707,0.538669418466,0,-1.06915741238,2.15085164305e-05,32,-0.377991110086,-0.909830927849,
1.42951237008,0.543384734464,0,-1.06889948035,2.37362568645e-05,33,-0.39186745882,-0.94306409359,
1.42748319141,0.548267152083,0,-1.06861517018,2.6163292784e-05,34,-0.405836164951,-0.97648614645,
1.42538374074,0.55331764735,0,-1.06830278338,2.87466265502e-05,35,-0.419890195131,-1.01009869576,
1.42321361758,0.558537099433,0,-1.06796043974,3.15026890521e-05,36,-0.434025079012,-1.04389083385,
1.42097230784,0.563926603568,0,-1.06758589924,3.44648394001e-05,37,-0.448262244463,-1.0779030323,
1.41865940548,0.569487113428,0,-1.06717743933,3.75854036715e-05,38,-0.462581127882,-1.11210298538,
1.41627435915,0.575219746602,0,-1.0667323506,4.09551490779e-05,39,-0.477008074522,-1.14652454853,
1.41381677769,0.58112541951,0,-1.06624876289,4.44969071967e-05,40,-0.491516977549,-1.1811362505,
1.41128613211,0.58720526464,0,-1.06572415248,4.82706427798e-05,41,-0.50612950325,-1.21597027779,
1.40868189342,0.59346039958,0,-1.06515584697,5.22902401626e-05,42,-0.520847797394,-1.25102865696,
1.40600361086,0.599891912115,0,-1.06454186546,5.31425135797e-05,43,-0.535656511784,-1.28630256653,
1.40325075544,0.606500845325,0,-1.06387901881,5.73712910882e-05,44,-0.550570309162,-1.32178735733,
1.40042285405,0.613288368953,0,-1.0631652881,6.17748463209e-05,45,-0.565580248833,-1.35750865936,
1.39751933671,0.620255660188,0,-1.06239747267,6.6455348431e-05,46,-0.580704510212,-1.39345741272,
1.39453967817,0.627403881324,0,-1.06157273221,7.13814062222e-05,47,-0.595931887627,-1.42964625359,
1.39148345746,0.634734030736,0,-1.06068857107,7.65235174745e-05,48,-0.611245989799,-1.46603345871,
1.38835011579,0.642247345221,0,-1.05974192353,8.19309058347e-05,49,-0.626668334007,-1.50266349316,
1.38513910927,0.649945031774,0,-1.05872965735,8.76092888979e-05,50,-0.642203092575,-1.53954088688,
1.3818499238,0.657828222883,0,-1.05764853445,9.35678245948e-05,51,-0.657837450504,-1.57663941383,
1.37848206766,0.665898021233,0,-1.05649533284,9.98050980268e-05,52,-0.673572838306,-1.61396384239,
1.37503502674,0.674155663622,0,-1.05526709243,0.000106298444283,53,-0.689409792423,-1.65153062344,
1.37150828697,0.682602282536,0,-1.05396025508,0.000113099609791,54,-0.705348849297,-1.68932831287,
1.36790137149,0.691239010465,0,-1.05257157955,0.000120181159317,55,-0.72138607502,-1.72734677792,
1.36421376623,0.700066979897,0,-1.05109728038,0.000127589864985,56,-0.737520635128,-1.76559686661,
1.3604450316,0.709087293518,0,-1.04953417113,0.000135274445542,57,-0.753748059273,-1.80406689644,
1.3565946386,0.718301158321,0,-1.04787839808,0.000143292443418,58,-0.770078122616,-1.8427734375,
1.3526621104,0.727709647191,0,-1.04612596208,0.000151656384475,59,-0.786506533623,-1.88169968128,
1.34864698507,0.737313892615,0,-1.04427317998,0.000160338903253,60,-0.803025484085,-1.92085671425,
1.34454889007,0.747114922774,0,-1.04231677666,0.000169304696197,61,-0.819620370865,-1.96020376682,
1.34036732621,0.757113780749,0,-1.04025196765,0.000178684369424,62,-0.836312532425,-1.99977421761,
1.33610185392,0.767311628831,0,-1.03807505085,0.000188384251178,63,-0.853093504906,-2.0395720005,
1.33175207831,0.777709450496,0.0,-1.03578187547,0.000198443153685,64,-0.869958400726,-2.07956790924,
1.32731761195,0.788308169616,0.0,-1.03336796246,0.000208889274954,65,-0.886893928051,-2.11975049973,
1.32279804505,0.799108918679,0,-1.03082936939,0.000219670084528,66,-0.903913795948,-2.16015577316,
1.3181930796,0.810112532151,0,-1.02816192097,0.00023081665522,67,-0.920995056629,-2.20072698593,
1.31350229837,0.821319963706,0,-1.02536047999,0.00024240738851,68,-0.938157260418,-2.24149847031,
1.30872541822,0.832732167018,0,-1.02242125404,0.000254325785568,69,-0.9553784132,-2.28244400024,
1.30386217095,0.844349887145,0,-1.01933952639,0.000266650893708,70,-0.972651720047,-2.32354879379,
1.29891215421,0.856174077761,0,-1.0161098398,0.000279448880917,71,-0.990004777908,-2.36485242844,
1.2938751594,0.868205603135,0,-1.01272832908,0.000292580706881,72,-1.00739836693,-2.40630865097,
1.28875099279,0.880445089114,0,-1.00919007286,0.000306138009241,73,-1.0248349905,-2.44789981842,
1.28353940107,0.892893280757,0,-1.00548983392,0.000320147830528,74,-1.04232132435,-2.48965764046,
1.27824019052,0.905550923121,0,-1.00162285125,0.000334566890415,75,-1.05984294415,-2.53154110909,
1.27285318233,0.918418701661,0,-0.997584081568,0.000349423764662,76,-1.07740592957,-2.57356214523,
1.26737822749,0.931497152818,0,-0.993367982416,0.000364759710504,77,-1.09499597549,-2.61570525169,
1.26181522168,0.944786872638,0,-0.988969564117,0.000380526809968,78,-1.11260187626,-2.65794992447,
1.256164001,0.958288516772,0,-0.984383238367,0.000396777067339,79,-1.13024461269,-2.70033788681,
1.25042456545,0.972002472651,0,-0.979603867225,0.000413469732858,80,-1.14788937569,-2.74279785156,
1.24459685542,0.985929157508,0,-0.974625588856,0.000430669891886,81,-1.16554653645,-2.78536224365,
1.2386808262,1.00006922699,0,-0.969443481362,0.000448295547276,82,-1.18320858479,-2.82800626755,
1.23267650761,1.01442274071,0,-0.964050744533,0.000466508848639,83,-1.20086550713,-2.87072372437,
1.22658397414,1.0289901755,0,-0.958442564933,0.000485132956267,84,-1.21850800514,-2.91349363327,
1.2204033003,1.04377176977,0,-0.952612922422,0.000504281850613,85,-1.23614037037,-2.95633125305,
1.21413450099,1.05876782156,0,-0.94655518433,0.00052400392018,86,-1.25376677513,-2.9992275238,
1.20777775504,1.07397845007,0,-0.940263509629,0.000544230711975,87,-1.27135431767,-3.04214763641,
1.20133315183,1.08940383412,0,-0.933731122054,0.000565042847739,88,-1.28892278671,-3.08510255814,
1.1948009596,1.10504421212,0,-0.926953114684,0.000586277045745,89,-1.30644381046,-3.12808322906,
1.18818135716,1.12089946486,0,-0.919921989005,0.000608161530715,90,-1.3239300251,-3.17107629776,
1.18147446371,1.13696977116,0,-0.912630562782,0.000630667774209,91,-1.34138035774,-3.21408295631,
1.1746806369,1.15325519062,0,-0.905073402458,0.000653643113064,92,-1.35876822472,-3.25709438324,
1.16780023433,1.16975530602,0,-0.897242987563,0.000677216002278,93,-1.37608289719,-3.30004501343,
1.16083343483,1.18647041537,0,-0.889132436843,0.000701431756778,94,-1.39336669445,-3.34304761887,
1.15378065564,1.20340022064,0,-0.880734780695,0.000726248376969,95,-1.4105604887,-3.38598036766,
1.14664222456,1.22054460264,0,-0.872042548147,0.000751712984661,96,-1.42768919468,-3.42890119553,
1.13941852905,1.23790338255,0,-0.863048378326,0.000777812822626,97,-1.44474291801,-3.47177052498,
1.13211004592,1.25547620274,0,-0.8537448779,0.000803658949986,98,-1.46170639992,-3.51459741592,
1.12471710302,1.273262944,0,-0.844123755014,0.000831078764372,99,-1.47859525681,-3.55737471581,
1.11724023677,1.29126324869,0,-0.834177645929,0.000859136607586,100,-1.49538290501,-3.60010194778,
1.10967986442,1.30947693802,0,-0.823898348824,0.000887892848586,101,-1.51207995415,-3.6427526474,
1.1020365224,1.32790341593,0,-0.813277083901,0.000917415053379,102,-1.52868306637,-3.68534612656,
1.09431062795,1.34654268242,0,-0.80230567978,0.000947642152901,103,-1.54518306255,-3.72785949707,
1.08650280692,1.36539402224,0,-0.790975226219,0.000978637709871,104,-1.56157362461,-3.77031040192,
1.07861353613,1.38445713736,0,-0.7792765041,0.00101042437534,105,-1.57786178589,-3.81265616417,
1.07064344145,1.40373172976,0,-0.767201384724,0.00104291699723,106,-1.59402823448,-3.85494613647,
1.06259302951,1.42321720339,0,-0.754739318295,0.00107631876761,107,-1.61008954048,-3.89712095261,
1.05446295597,1.44291308142,0,-0.741881240233,0.00111050229184,108,-1.62602508068,-3.93922185898,
1.04625378705,1.46281900622,0,-0.728617299119,0.00114553560674,109,-1.64184331894,-3.98122215271,
1.03796596981,1.48293462015,0,-0.714936224122,0.00118153714044,110,-1.65756988525,-4.02315044403,
1.02960027911,1.50325932719,0,-0.700828678847,0.00121834646146,111,-1.6731454134,-4.06497144699,
1.02115734078,1.52379253126,0,-0.686283637569,0.00125610765455,112,-1.68860197067,-4.1066904068,
1.01263760187,1.54453399397,0,-0.671289217388,0.00129489401028,113,-1.70395827293,-4.14833784103,
1.00404174782,1.56548323847,0.0,-0.655834613451,0.0013346119516,114,-1.71918809414,-4.18988323212,
0.995370404495,1.58663966872,0.0,-0.639907810447,0.00137535952737,115,-1.73427832127,-4.23133468628,
0.986624078526,1.60800304629,0,-0.623496431979,0.00141718078489,116,-1.74927043915,-4.27270507813,
0.977803514971,1.62957265593,0,-0.606588494333,0.00146003569491,117,-1.76412546635,-4.31397342682,
0.968909220471,1.65134825922,0,-0.589170929088,0.00150401820713,118,-1.77886962891,-4.35518550873,
0.959941761269,1.67332949854,0,-0.571230502573,0.00154914129424,119,-1.7934987545,-4.39628314972,
0.95090170361,1.69551577784,0,-0.552753037381,0.00159548175311,120,-1.80802512169,-4.43731689453,
0.941789703144,1.71790709711,0,-0.533726240446,0.00164288773545,121,-1.82242715359,-4.47829771042,
0.932605998291,1.74050274111,0,-0.514132317146,0.00169182961911,122,-1.83674156666,-4.51920557022,
0.923351185097,1.76330270983,0,-0.493957822991,0.00174192963431,123,-1.85096740723,-4.56003236771,
0.914025859608,1.78630664564,0,-0.473188067519,0.00179314672889,124,-1.86507868767,-4.60083532333,
0.904630439057,1.80951419092,0,-0.451806635447,0.00184591555455,125,-1.8790999651,-4.64156246185,
0.895165161862,1.83292534567,0,-0.429796240473,0.00190017468222,126,-1.89307224751,-4.68228578568,
0.885630445255,1.85653987147,0,-0.407140160454,0.00195588338644,127,-1.90695345402,-4.72298049927,
0.876026706471,1.8803576491,0,-0.383821617774,0.00201303917007,128,-1.92076146603,-4.76362657547,
0.866354183926,1.90437867857,0,-0.35982245037,0.00207176060927,129,-1.93451809883,-4.80426311493,
0.856613116039,1.92860284067,0,-0.335124015451,0.00213208326644,130,-1.9482344389,-4.84490013123,
0.846803502812,1.95303037382,0,-0.309706410656,0.00219412863463,131,-1.96193158627,-4.88557767868,
0.836925642266,1.97766127802,0,-0.283551184316,0.00225776441296,132,-1.9755988121,-4.9262547493,
0.826979474797,2.00249567248,0,-0.256637398117,0.00232320629426,133,-1.98925352097,-4.96694755554,
0.8169649408,2.02753391482,0,-0.228944370361,0.00239043042819,134,-2.00292015076,-5.00771427155,
0.806882040276,2.05277600504,0,-0.200451119326,0.00245938796404,135,-2.01660561562,-5.04850292206,
0.796730415596,2.07822265841,0,-0.171135297184,0.00253034533218,136,-2.03034973145,-5.08941698074,
0.786509828343,2.10387411333,0,-0.140974587664,0.00260322694121,137,-2.04412984848,-5.13037109375,
0.776219980492,2.12973096586,0,-0.109946762864,0.00267783031985,138,-2.05799412727,-5.17145633698,
0.765860216393,2.15579381205,0,-0.078027404333,0.00275471446998,139,-2.07195210457,-5.21263599396,
0.755430238022,2.18206312872,0,-0.0451942307365,0.00283352980992,140,-2.0860247612,-5.25394296646,
0.744929032101,2.20853975035,0,-0.0114212555869,0.00291458466005,141,-2.10025835037,-5.29542255402,
0.734355764164,2.23522474982,0,0.0233159542523,0.00299774599219,142,-2.11466765404,-5.33709144592,
0.723709540142,2.26211884238,0,0.0590422537162,0.00308303000469,143,-2.12925815582,-5.37889385223,
0.712989227547,2.28922310091,0,0.0957831222589,0.00317052508929,144,-2.14407658577,-5.42094421387,
0.702193455471,2.31653871752,0,0.133564764147,0.00326028186156,145,-2.15916657448,-5.46320533752,
0.691320972218,2.34406676508,0,0.172412286609,0.00335220322225,146,-2.17452335358,-5.50570487976,
0.680369930042,2.37180879332,0,0.212352898254,0.00344646994449,147,-2.1902217865,-5.54849243164,
0.669338779225,2.39976599432,0,0.253411728282,0.00354288970712,148,-2.2062664032,-5.59155225754,
0.658225373997,2.42794015623,0,0.295615651888,0.00364163281284,149,-2.22270679474,-5.63492441177,
0.647027389778,2.45633306719,0,0.338991330953,0.00374267682153,150,-2.23960447311,-5.67866563797,
0.635742740406,2.48494591929,0,0.383563305545,0.00384583504869,151,-2.25696158409,-5.72268867493,
0.624368505253,2.51378145434,0,0.429358217285,0.00395128842252,152,-2.27486586571,-5.76719284058,
0.612902121319,2.54284110285,0,0.47639988122,0.00405876704164,153,-2.29329991341,-5.8120598793,
0.601340310349,2.57212748743,0,0.524713382931,0.00416843042772,154,-2.31238460541,-5.85738754272,
0.589679913296,2.60164251543,0,0.574321461967,0.00428005342881,155,-2.33210110664,-5.90313434601,
0.577917294277,2.63138904787,0,0.625246856535,0.00439363434215,156,-2.35253858566,-5.94941949844,
0.566048757805,2.66136970736,0,0.677510369055,0.00450900933964,157,-2.3737411499,-5.99622011185,
0.554070071949,2.69158687807,0,0.731132116473,0.00462609281555,158,-2.39576816559,-6.04358673096,
0.541976945175,2.72204389788,0,0.786130227645,0.00474476116857,159,-2.4186527729,-6.09155321121,
0.529764787926,2.75274386622,0,0.842520943353,0.00486482702606,160,-2.44246530533,-6.14011573792,
0.517428831829,2.78368988253,0,0.900318036775,0.00498607784431,161,-2.46723270416,-6.18933677673,
0.504963772072,2.81488528467,0,0.959533657605,0.00510796985715,162,-2.49303388596,-6.23922777176,
0.492364244236,2.84633412577,0,1.02017727722,0.00523104529451,163,-2.51993465424,-6.28989696503,
0.479624645485,2.87803998209,0.0,1.08225490571,0.00535465862698,164,-2.5479619503,-6.34131813049,
0.466739074959,2.91000642992,0.0,1.14576923153,0.00547849305601,165,-2.57713603973,-6.39346027374,
0.453701214565,2.94223871447,0,1.21072164796,0.00560245052833,166,-2.60760307312,-6.44656419754,
0.440504865422,2.97473993517,0,1.27710631531,0.00572590361244,167,-2.63929843903,-6.50044345856,
0.427143411411,3.00751557566,0,1.34491670233,0.00584873349469,168,-2.67233347893,-6.55529975891,