lower angle,upper angle,holding angle,system x,acceleration,ticks (200 tps),lower acceleration (shoulder),upper acceleration (elbow),
1.862180479,-0.471352484,0,-1.07120645486,-0.273205320796,1,0.0,0.0,
1.862180479,-0.471352484,0,-1.07120645486,0.0,2,0.0,0.0,
1.862180479,-0.471352484,0,-1.07120645486,0.0,3,0.0,0.0,
1.84599148495,-0.439765024853,0,-1.04204617014,0.00743610386775,4,-3.23786950111,-6.31762361526,
1.82450853674,-0.397746417594,0,-1.003425666,0.00984808455743,5,-4.29675483704,-8.40402984619,
1.79747282727,-0.344856213701,0,-0.954181763213,0.0125563862815,6,-5.40747117996,-10.5786590576,
1.76478569222,-0.280887883079,0,-0.893781430158,0.0154003803417,7,-6.53800868988,-12.7947587967,
1.72634296877,-0.205630894673,0,-0.821608741823,0.0184011447105,8,-7.68949127197,-15.0531768799,
1.68206758065,-0.118931587708,0,-0.737076116785,0.0215514632053,9,-8.85652542114,-17.3425827026,
1.63194713754,-0.0207654795769,0,-0.639754304338,0.0248109662156,10,-10.0261878967,-19.6371746063,
1.57607365413,0.0886845328686,0,-0.529515329525,0.0281026278196,11,-11.1776018143,-21.8954715729,
1.51468098922,0.208954069841,0,-0.406681768846,0.0313116087039,12,-12.2823972702,-24.061164856,
1.44816771908,0.339251253831,0,-0.272144810809,0.0342933960435,13,-13.3075561523,-26.0686683655,
1.37709236903,0.478466127145,0.0,-0.127414080137,0.0368900629473,14,-14.2210597992,-27.8542537689,
1.3021314816,0.625252340066,0.0,0.0254491249444,0.0389609960381,15,-14.9991941452,-29.3704223633,
1.22400934262,0.778165076005,0,0.183998779753,0.0404028474492,16,-15.6323881149,-30.5975093842,
1.14341802163,0.935818884599,0,0.345622081829,0.041184298584,17,-16.1270008087,-31.5471343994,
1.0609539823,1.097012017,0,0.507740977166,0.0413087093111,18,-16.5021648407,-32.2561035156,
0.977081604431,1.26079759382,0,0.667948829986,0.0408198571711,19,-16.7843112946,-32.7754745483,
0.892125673721,1.42649993681,0,0.824055085219,0.03977267239,20,-17.00141716,-33.1594924927,
0.806280620525,1.59369501852,0,0.974082277809,0.0382220764163,21,-17.179561615,-33.4585189819,
0.71962917609,1.76217350744,0,1.11621616975,0.0362093393293,22,-17.3411426544,-33.7157287598,
0.632161863277,1.93190560125,0,1.24872799587,0.0337565111054,23,-17.5046081543,-33.9668197632,
0.543795235584,2.10300478719,0,1.36990590327,0.0308677772866,24,-17.6848316193,-34.2407989502,
0.454386122654,2.27570614599,0,1.47797539667,0.027526449458,25,-17.8937511444,-34.5618362427,
0.363743074367,2.45034918569,0,1.57104259485,0.0237041227184,26,-18.1410140991,-34.9509124756,
0.271636136005,2.62737068914,0,1.64705201677,0.0193585894105,27,-18.4344348907,-35.4275283813,
0.177802927921,-3.47588219858,0,1.70379270272,0.0144505763457,28,-18.7804222107,-36.0109901428,
0.0819512681464,-3.29239979006,0,1.73894766787,0.00895271287773,29,-19.1850318909,-36.7223892212,
0.016245715191,-3.10460987307,0,1.75651187405,0.00447269279067,30,-19.6551876068,-37.5857467651,