lower angle,upper angle,holding angle,system x,acceleration,ticks (200 tps),lower acceleration (shoulder),upper acceleration (elbow),
1.638420316,0.052212642,0,-1.100644783,-0.396818580731,1,0.0,0.0,
1.638420316,0.052212642,0,-1.100644783,0.0,2,0.0,0.0,
1.638420316,0.052212642,0,-1.100644783,0.0,3,0.0,0.0,
1.62101741375,0.0861922329822,0,-1.06535069379,0.0127217760272,4,-3.48066830635,-6.79608201981,
1.59795369448,0.131324940787,0,-1.01863172271,0.0168386798035,5,-4.6129488945,-9.02692604065,
1.5691857213,0.187623219059,0,-0.959670077933,0.0212487588955,6,-5.75399160385,-11.2604017258,
1.5348161334,0.254894645379,0,-0.888336068537,0.0257057586309,7,-6.87459468842,-13.4555578232,
1.4949977571,0.332840846346,0,-0.804578809688,0.0301807927074,8,-7.96472835541,-15.5912208557,
1.44995355846,0.42102103071,0,-0.708533031758,0.0346070398398,9,-9.01036548615,-17.6388969421,
1.39998689534,0.518833593891,0,-0.600605332026,0.0388864724545,10,-9.99541091919,-19.566411972,
1.34547946097,0.6255202754,0,-0.481523247091,0.0429026850955,11,-10.9041891098,-21.3424167633,
1.28687593581,0.740196274088,0,-0.352343569418,0.0465363415169,12,-11.7240562439,-22.9414863586,
1.22465732934,0.861902104185,0,-0.214415485614,0.0496841999547,13,-12.4477348328,-24.3486938477,
1.15930810811,0.989668534563,0.0,-0.0693135588216,0.0522646943017,14,-13.0744991302,-25.5619888306,
1.09128389003,1.1225790246,0.0,0.0812518672713,0.0542284987858,15,-13.6100826263,-26.5919132233,
1.02098635079,1.25982062654,0,0.235506833896,0.0555534732167,16,-14.0653076172,-27.4591159821,
0.948746415396,1.40071480112,0,0.391685586404,0.0562421000643,17,-14.4542713165,-28.1905078888,
0.874818357248,1.54473059015,0,0.548056863755,0.0563074095453,18,-14.7923564911,-28.8156356812,
0.799379440565,1.69148425894,0,0.702939382458,0.0557670702851,19,-15.0949478149,-29.3639411926,
0.722535225172,1.84072987871,0,0.854686765877,0.0546342120152,20,-15.3764047623,-29.8630008698,
0.644326480646,1.99234609442,0,1.00166255542,0.0529122451039,21,-15.6497192383,-30.3378105164,
0.564736696501,2.14632336931,0,1.14220293351,0.0505917933607,22,-15.9263820648,-30.8107719421,
0.48369893672,2.30275385217,0,1.27457658104,0.0476479533814,23,-16.2164173126,-31.3020935059,
0.401102992315,2.46182195978,0,1.39694679788,0.044043806766,24,-16.5285873413,-31.8305034637,
0.316800805349,2.62380211191,0,1.50734372386,0.0397313832598,25,-16.8704185486,-32.4137802124,
0.230610939283,2.7890578969,0,1.60366193488,0.0346617422967,26,-17.2486610413,-33.0700836182,
0.142320605536,2.95804850893,0,1.68368678131,0.0287963623363,27,-17.6695480347,-33.8183822632,
0.0516835177136,3.13133900003,0,1.7451579238,0.022118454161,28,-18.1398239136,-34.6799697876,