lower angle,upper angle,holding angle,system x,acceleration,ticks (200 tps),lower acceleration (shoulder),upper acceleration (elbow),
2.399204851,-1.852436303,0,-0.673396910298,-0.110024690537,1,0.0,0.0,
2.399204851,-1.852436303,0,-0.673396910298,0.0,2,0.0,0.0,
2.399204851,-1.852436303,0,-0.673396910298,0.0,3,0.0,0.0,
2.3888432643,-1.83246968764,0,-0.650510939223,0.00373904071446,4,-2.07233595848,-3.99335670471,
2.37548794305,-1.80664510543,0,-0.621062571783,0.00481109003493,5,-2.67110395432,-5.16498947144,
2.35869168943,-1.77414792667,0,-0.583781879342,0.0060905688519,6,-3.35932922363,-6.4995765686,
2.33842884457,-1.73491087447,0,-0.538478928547,0.00740097652405,7,-4.05270719528,-7.84766387939,
2.31461901298,-1.68876546512,0,-0.484808449533,0.00876777417116,8,-4.76219177246,-9.22949409485,
2.28714288106,-1.63546904812,0,-0.422319232103,0.0102081856976,9,-5.49557065964,-10.6599178314,
2.25584980926,-1.57471707354,0,-0.35048618952,0.0117343391517,10,-6.25912809372,-12.1513347626,
2.22055485925,-1.50613748918,0,-0.268714867222,0.0133575275785,11,-7.05972099304,-13.7172622681,
2.18103323957,-1.42927968393,0,-0.176346025329,0.0150883554296,12,-7.90535068512,-15.3734493256,
2.13701361498,-1.34360170255,0,-0.0726624953856,0.0169362765878,13,-8.8053483963,-17.1382293701,
2.08817079744,-1.24845558296,0.0,0.0430934254305,0.018907695227,14,-9.77051258087,-19.0328292847,
2.03411892137,-1.14307486902,0.0,0.171691904487,0.021004878986,15,-10.8130083084,-21.0810317993,
1.97440773329,-1.02656692157,0,0.313854910298,0.023220007871,16,-11.9457883835,-23.3081817627,
1.90852561673,-0.897920130591,0,0.470157782482,0.0255290410492,17,-13.1811904907,-25.7382469177,
1.83591902336,-0.756041764121,0,0.640848459149,0.0278785217702,18,-14.5277023315,-28.3876037598,
1.75604146799,-0.599855898718,0,0.825564509772,0.0301687322795,19,-15.984005928,-31.2530727386,
1.66845476708,-0.428503631453,0,1.02290013688,0.0322292641667,20,-17.5285434723,-34.2914962769,
1.57299995503,-0.241680263381,0,1.229844321,0.0337979621271,21,-19.1054725647,-37.3918762207,
1.47002774557,-0.0400927055879,0,1.44126549469,0.0345285379714,22,-20.6126613617,-40.3517227173,
1.36059415421,0.174154521127,0,1.64981257288,0.034058414049,23,-21.9085845947,-42.8905334473,
1.24643695435,0.397603512903,0,1.84672339136,0.032157510257,24,-22.8562698364,-44.7363967896,
1.12960743984,0.626165629526,0,2.02350439586,0.0288696074999,25,-23.392496109,-45.762298584,
1.01192891678,0.856190444131,0,2.17353467825,0.0245006009726,26,-23.5628910065,-46.0558013916,
0.894636393397,1.08517694583,0,2.29265225929,0.0194520880149,27,-23.4854412079,-45.8474884033,
0.778341651766,-4.97134160886,0,2.37871529869,0.0140539883826,28,-23.2852058411,-45.3821105957,
0.663182974665,-4.7473499764,0,2.43079441212,0.00850430838694,29,-23.0572376251,-44.8453178406,
0.548992873041,-4.52579426656,0,2.44848313233,0.00288844628247,30,-22.8628616333,-44.3566207886,
0.435420990793,-4.30607700239,0,2.43140472347,-0.00278873275481,31,-22.7388305664,-43.9878158569,
0.322009683458,-4.08738589178,0,2.37891940157,-0.00857010324694,32,-22.7066040039,-43.782081604,
0.208241344301,-3.86876654516,0,2.28993940246,-0.0145288232251,33,-22.7782516479,-43.7676506042,
0.0935665377065,-3.64915442357,0,2.16289581247,-0.0207435382938,34,-22.9600982666,-43.966835022,
0.0225795499399,-3.42737269292,0,1.92901385525,-0.0381872879004,35,-23.255355835,-44.4022293091,