lower angle,upper angle,holding angle,system x,acceleration,ticks (200 tps),lower acceleration (shoulder),upper acceleration (elbow),
1.056643887,1.463504497,0,-0.825872465514,-1.32110371606,1,0.0,0.0,
1.056643887,1.463504497,0,-0.825872465514,0.0,2,0.0,0.0,
1.056643887,1.463504497,0,-0.825872465514,0.0,3,0.0,0.0,
1.04436282585,1.487294592,0,-0.786176342972,0.0634415766276,4,-2.45624303818,-4.75807571411,
1.02839773385,1.5182991438,0,-0.734743659563,0.0821682782931,5,-3.19308662415,-6.20103502274,
1.00846136598,1.55700692911,0,-0.670405221829,0.102756485896,6,-3.98740530014,-7.74179935455,
0.984717852013,1.60309890289,0,-0.593672996153,0.122514936042,7,-4.74892663956,-9.21880626678,
0.957315682011,1.65627818186,0,-0.50502114364,0.141505622795,8,-5.48077774048,-10.6364803314,
0.926398231225,1.716253195,0,-0.40494934524,0.159687762114,9,-6.18398094177,-11.9959049225,
0.892110704021,1.7827262618,0,-0.294029513508,0.176946920077,10,-6.85817623138,-13.2958374023,
0.85459759696,1.85539850969,0,-0.172915260277,0.19314846714,11,-7.50350189209,-14.5360527039,
0.81399813159,1.93397906799,0,-0.0423444959443,0.208168628886,12,-8.12100982666,-15.7181377411,
0.770441992717,2.01819336791,0,0.096858963324,0.221867220764,13,-8.71260356903,-16.8453502655,
0.724045290189,2.10779112954,0.0,0.243783779743,0.234106542519,14,-9.28100395203,-17.9225616455,
0.674907221036,2.20255351443,0.0,0.397427122153,0.244736819206,15,-9.82958984375,-18.9560394287,
0.623107417064,2.30229890723,0,0.556689397049,0.253610942127,16,-10.3622779846,-19.9532337189,
0.568703635173,2.4068883099,0,0.720367955797,0.260568955697,17,-10.8834466934,-20.9226913452,
0.51173047586,2.51623005051,0,0.887147184389,0.265429318932,18,-11.3977155685,-21.8738365173,
0.452198250728,2.63028425355,0,1.05559045481,0.268000651457,19,-11.9099664688,-22.8170623779,
0.390092416243,2.74906725068,0,1.22413298074,0.268080934811,20,-12.425163269,-23.7636241913,
0.325372858481,2.87265664715,0,1.39107994137,0.265462630466,21,-12.9484233856,-24.7258110046,
0.257972939448,3.00119823594,0,1.55461184308,0.259794293732,22,-13.4850950241,-25.7172317505,
0.187797053294,3.13491279263,0,1.71279917727,0.251229816656,23,-14.0409460068,-26.7529621124,