lower angle,upper angle,holding angle,system x,acceleration,ticks (200 tps),lower acceleration (shoulder),upper acceleration (elbow),
1.593668276,0.156684577,0,-1.09770423217,-0.500694927575,1,0.0,0.0,
1.593668276,0.156684577,0,-1.09770423217,0.0,2,0.0,0.0,
1.593668276,0.156684577,0,-1.09770423217,0.0,3,0.0,0.0,
1.57479475208,0.19353036536,0,-1.05828448134,0.0179752664731,4,-3.7748169899,-7.36936712265,
1.54982910075,0.242375127506,0,-1.00615788377,0.0237668118794,5,-4.99339008331,-9.76943969727,
1.518759714,0.303161575925,0,-0.940500491973,0.0299332172917,6,-6.21437740326,-12.1582279205,
1.48175805949,0.375561788213,0,-0.861306070049,0.0361024018799,7,-7.40117454529,-14.4816236496,
1.43906017535,0.459112673533,0,-0.768701837298,0.0422128788086,8,-8.54087638855,-16.7126026154,
1.39098096781,0.553190558684,0,-0.663055437996,0.0481462311631,9,-9.61769199371,-18.8190612793,
1.33791612976,0.657009958756,0,-0.545054499995,0.053771394256,10,-10.6154613495,-20.7685546875,
1.28032883399,0.769649445546,0,-0.415729279301,0.0589262257819,11,-11.5206375122,-22.5338535309,
1.21872367852,0.890102564823,0,-0.276429084535,0.0634670090463,12,-12.3249292374,-24.0979194641,
1.15361317389,1.01734399749,0,-0.128762240757,0.0672742462391,13,-13.0267066956,-25.4568939209,
1.08548348539,1.15039598895,0.0,0.0254917529229,0.0702709665871,14,-13.6312046051,-26.6202430725,
1.01476674669,1.28838330461,0.0,0.184462392081,0.0724153895384,15,-14.1492385864,-27.6084423065,
0.941822463202,1.43056958867,0,0.34625573052,0.0736961278815,16,-14.595328331,-28.4492492676,
0.866928929019,1.57637315942,0,0.508998511535,0.0741242937625,17,-14.9857063293,-29.1736488342,
0.790282601047,1.72536939336,0,0.670846772489,0.0737122260291,18,-15.336769104,-29.8130989075,
0.712002271342,1.87728303624,0,0.829976234481,0.0724680176073,19,-15.664068222,-30.3973655701,
0.632135683227,2.0319746132,0,0.984559875791,0.0703931058126,20,-15.9818210602,-30.9538040161,
0.550667458701,2.18942874624,0,1.13272282386,0.0674636711375,21,-16.3026542664,-31.5071907043,
0.467527085471,2.34974306775,0,1.27249765757,0.0636395778872,22,-16.637670517,-32.0801010132,
0.382595115828,2.51312059118,0,1.40179021993,0.0588608849125,23,-16.9966068268,-32.6937522888,
0.295709663558,2.67986696912,0,1.51835146473,0.0530596077465,24,-17.3880271912,-33.3687438965,
0.20667093389,2.85039395047,0,1.61978060725,0.0461665266747,25,-17.819524765,-34.1261672974,
0.115242415595,3.02522510244,0,1.70357189424,0.038134984217,26,-18.2984695435,-34.9886550903,
0.0211451589346,3.20501297666,0,1.76719617864,0.0289543879696,27,-18.8333148956,-35.9819641113,