lower angle,upper angle,holding angle,system x,acceleration,ticks (200 tps),lower acceleration (shoulder),upper acceleration (elbow),
0.877635763,2.007839739,0,-0.605948703522,-3.08626139108,1,0.0,0.0,
0.877635763,2.007839739,0,-0.605948703522,0.0,2,0.0,0.0,
0.877635763,2.007839739,0,-0.605948703522,0.0,3,0.0,0.0,
0.875815837734,2.01135699395,0,-0.598406592701,0.0382866981647,4,-0.363985180855,-0.703451156616,
0.873359775144,2.01613357445,0,-0.588267707449,0.0514078884855,5,-0.491212785244,-0.955316662788,
0.870204395588,2.02228068435,0,-0.575255176552,0.0659088290914,6,-0.631076335907,-1.22942304611,
0.866361032213,2.02977708695,0,-0.559416136007,0.0801410015891,7,-0.768673658371,-1.49928247929,
0.861835517894,2.03861163524,0,-0.540774154094,0.0940230959118,8,-0.905104517937,-1.76691198349,
0.856631471749,2.04877676037,0,-0.519342813077,0.107988976245,9,-1.0408115387,-2.03302907944,
0.850752592991,2.06026476962,0,-0.495136317853,0.121852789652,10,-1.17577910423,-2.29760885239,
0.844202668379,2.07306752322,0,-0.468169326114,0.135605612586,11,-1.30998897552,-2.56055927277,
0.83698586465,2.08717595754,0,-0.438458487874,0.149284292847,12,-1.44336760044,-2.82169818878,
0.829106436084,2.10258064387,0,-0.406021465191,0.162831557501,13,-1.5758934021,-3.0809533596,
0.820568990867,2.11927138237,0.0,-0.37087841129,0.176244722091,14,-1.7074996233,-3.33816671371,
0.811378189336,2.13723759321,0.0,-0.333050785088,0.189521541145,15,-1.83817183971,-3.59326505661,
0.801538885544,2.15646824208,0,-0.292562446582,0.202649796841,16,-1.96787667274,-3.84615778923,
0.791055926095,2.17695194451,0,-0.24943885592,0.215715756354,17,-2.09661197662,-4.09677934647,
0.779934220921,2.19867719678,0,-0.203708059138,0.228632037438,18,-2.22436285019,-4.34509086609,
0.768178754459,2.22163209287,0,-0.155400822754,0.241358923834,19,-2.35112142563,-4.59103298187,
0.755794190775,2.24580499498,0,-0.10454932009,0.25393457923,20,-2.47694587708,-4.83463954926,
0.742785365294,2.27118399707,0,-0.051189867543,0.266314688588,21,-2.6018037796,-5.07586574554,
0.729156673859,2.29775741664,0,0.00463969295401,0.278466688689,22,-2.7257771492,-5.31476831436,
0.714912504862,2.3255138692,0,0.0628971732277,0.290393036622,23,-2.84888219833,-5.55137777328,
0.700056836914,2.35444214908,0,0.123537842624,0.301928947173,24,-2.9711868763,-5.78575897217,
0.6845933506,2.38453155724,0,0.186513164437,0.313243368169,25,-3.0927593708,-6.0179901123,
0.668525443386,2.41577178208,0,0.251770350696,0.324302329921,26,-3.2136516571,-6.2481713295,
0.651855961393,2.44815316764,0,0.319253046912,0.335139013065,27,-3.33397436142,-6.47642993927,
0.634587363313,2.48166680304,0,0.388900025155,0.345562151095,28,-3.45380520821,-6.70288467407,
0.616721526693,2.51630461184,0,0.460645547966,0.355710098854,29,-3.57326507568,-6.9277305603,
0.598259762834,2.55205929247,0,0.534418728196,0.365412014443,30,-3.69245886803,-7.15112781525,
0.579202846597,2.58892458645,0,0.610142842413,0.374697191879,31,-3.81149363518,-7.37326335907,
0.559550956796,2.62689524857,0,0.687735055534,0.3836137247,32,-3.93049907684,-7.59435987473,
0.539303586792,2.66596734492,0,0.767106247937,0.392011715278,33,-4.04961204529,-7.81466197968,
0.518459455083,2.70613807408,0,0.84816067833,0.39990663684,34,-4.16898393631,-8.03442955017,
0.497016505311,2.74740636316,0,0.930795562149,0.407342110567,35,-4.28874874115,-8.25393772125,
0.474972144674,2.78977215258,0,1.01489954249,0.414260290123,36,-4.40905094147,-8.47347831726,
0.452322796892,2.83323734966,0,1.10035388156,0.420675779213,37,-4.53005743027,-8.69339370728,
0.429064259838,2.87780559031,0,1.18703090778,0.426450232688,38,-4.65191602707,-8.91400337219,
0.405191437314,2.92348223892,0,1.27479419348,0.43143900735,39,-4.77479362488,-9.13572216034,
0.380698517869,2.97027432886,0,1.36349755964,0.435790076907,40,-4.89883470535,-9.35886955261,
0.355578587364,3.0181918737,0,1.45298666829,0.439335005114,41,-5.02424812317,-9.58396339417,
0.329824195217,3.06724637715,0,1.54309626063,0.442003898612,42,-5.15117073059,-9.81140136719,