lower angle,upper angle,holding angle,system x,acceleration,ticks (200 tps),lower acceleration (shoulder),upper acceleration (elbow),
1.101395926,1.345454982,0,-0.866688714798,-0.74213326231,1,0.0,0.0,
1.101395926,1.345454982,0,-0.866688714798,0.0,2,0.0,0.0,
1.101395926,1.345454982,0,-0.866688714798,0.0,3,0.0,0.0,
1.09913813861,1.3498572083,0,-0.859799848602,0.00589355554112,4,-0.451557695866,-0.880445659161,
1.09610015762,1.35581301011,0,-0.850634850652,0.00783980291517,5,-0.607596755028,-1.19116139412,
1.09222622265,1.36341931716,0,-0.838979549489,0.00996862790214,6,-0.774788022041,-1.52126336098,
1.08752945674,1.37265189968,0,-0.82487296329,0.0120632617132,7,-0.939355015755,-1.84652030468,
1.08201878195,1.38349366047,0,-0.808336771153,0.0141388066636,8,-1.10213804245,-2.16835737228,
1.07570152034,1.39593015097,0,-0.789385416456,0.0162009551621,9,-1.26345646381,-2.48730659485,
1.06858550993,1.40994594105,0,-0.768034426693,0.0182497141537,10,-1.42320799828,-2.80317020416,
1.06067913634,1.42552419611,0,-0.7442995785,0.0202844860381,11,-1.5812830925,-3.11566662788,
1.05199165133,1.44264644243,0,-0.71819940265,0.0223029599099,12,-1.73750734329,-3.42446947098,
1.04253291202,1.46129286893,0,-0.68975400228,0.024303118753,13,-1.89176213741,-3.72931194305,
1.03231334549,1.48144236811,0.0,-0.658985172393,0.0262830537911,14,-2.04393053055,-4.02993297577,
1.02134393019,1.50307261057,0.0,-0.625916795669,0.0282415686067,15,-2.19390487671,-4.32609319687,
1.00963616234,1.52616030582,0,-0.59057566539,0.030177609681,16,-2.34157943726,-4.61758899689,
0.997201910735,1.55068117984,0,-0.552990438859,0.032089042997,17,-2.48688220978,-4.90423488617,
0.984053446473,1.57661019869,0,-0.513192920374,0.0339740609333,18,-2.62973165512,-5.18587732315,
0.970203048111,1.603921941,0,-0.471216023111,0.0358300871457,19,-2.77012515068,-5.462433815,
0.955663314582,1.63259040423,0,-0.427096305275,0.0376527053836,20,-2.90799999237,-5.73379230499,
0.940446785213,1.66258948155,0,-0.380872376377,0.0394428343894,21,-3.04336643219,-5.99992418289,
0.924566111089,1.6938927383,0,-0.332586089359,0.0411974854651,22,-3.1762008667,-6.26077795029,
0.908033675076,1.72647403784,0,-0.282281401562,0.0429123304782,23,-3.30656456947,-6.51640892029,
0.890861770631,1.76030742236,0,-0.230005864609,0.0445857876061,24,-3.43446230888,-6.76683092117,
0.873062199475,1.79536735125,0,-0.175808349112,0.0462174985797,25,-3.56000685692,-7.01217079163,
0.85464668882,1.83162879057,0,-0.119742913874,0.0478017364787,26,-3.68320655823,-7.25248241425,
0.835626205922,1.86906742163,0,-0.0618642979323,0.0493383579488,27,-3.80421257019,-7.48795318604,
0.816011300804,1.90766005822,0,-0.00223189578858,0.0508244457053,28,-3.92310929298,-7.71875572205,
0.795811852933,1.94738405057,0,0.0590931206848,0.0522594440034,29,-4.04002571106,-7.94507408142,
0.775037011625,1.98821841784,0,0.122045378769,0.0536396206508,30,-4.1551117897,-8.16714096069,
0.753695389749,2.03014295407,0,0.186555504576,0.05495801194,31,-4.2684841156,-8.38520240784,
0.731794437887,2.0731390626,0,0.252552288835,0.0562147083764,32,-4.38036441803,-8.59956550598,
0.709340921165,2.11718981572,0,0.319958977693,0.0574063078782,33,-4.49088764191,-8.81049156189,
0.686340651037,2.16227941819,0,0.38869556713,0.0585278772044,34,-4.60025882721,-9.01830673218,
0.662798276664,2.20839433976,0,0.458677678391,0.0595786910706,35,-4.70869159698,-9.22339439392,
0.63871755314,2.25552248068,0,0.529815797386,0.0605519561054,36,-4.81637763977,-9.42607212067,
0.614101043464,2.30365382739,0,0.602015521768,0.0614491092101,37,-4.92354679108,-9.6267414093,
0.588950297357,2.35278039284,0,0.675176185067,0.0622611569411,38,-5.03041124344,-9.82579135895,
0.56326558304,2.40289585896,0,0.749192055164,0.0629831300609,39,-5.13721895218,-10.0236358643,
0.537046155454,2.45399658986,0,0.823949362144,0.0636081671501,40,-5.24418210983,-10.2207012177,
0.510289809228,2.50608115502,0,0.899328429191,0.0641302484855,41,-5.35159778595,-10.4174785614,
0.482993325712,2.55914979287,0,0.975201280447,0.0645410302292,42,-5.45962619781,-10.6143779755,
0.455152115346,2.61320643731,0,1.05143137875,0.0648344832867,43,-5.56858968735,-10.8119602203,
0.426760694505,2.66825609513,0,1.12787286415,0.064997716682,44,-5.67866849899,-11.0106334686,
0.397811791421,2.72430770703,0,1.20437179564,0.0650369142903,45,-5.79018068314,-11.2110557556,
0.368297419073,2.78137212105,0,1.2807629586,0.0648780952721,46,-5.9032998085,-11.4136676788,
0.338207981111,2.83946388074,0,1.35687198258,0.0646289014658,47,-6.01833200455,-11.6191644669,
0.307533106328,2.89859991379,0,1.43251306483,0.0642201683396,48,-6.13546276093,-11.8280639648,
0.276260694982,2.95880072423,0,1.50749105073,0.0636448933248,49,-6.25498199463,-12.0410766602,
0.244377872468,3.0200902731,0,1.58159969052,0.0628675975943,50,-6.3771147728,-12.2588853836,
0.211869976045,3.08249633618,0,1.65462360987,0.0619356906725,51,-6.50214099884,-12.4822158813,