lower angle,upper angle,holding angle,system x,acceleration,ticks (200 tps),lower acceleration (shoulder),upper acceleration (elbow),
2.175444687,-1.230559399,0,-0.90367150976,-0.0548936593376,1,0.0,0.0,
2.175444687,-1.230559399,0,-0.90367150976,0.0,2,0.0,0.0,
2.175444687,-1.230559399,0,-0.90367150976,0.0,3,0.0,0.0,
2.1733894043,-1.2265430541,0,-0.900176666536,0.000212288162135,4,-0.411056667566,-0.803269267082,
2.17082537965,-1.22149983479,0,-0.895949421292,0.000256774692802,5,-0.512805223465,-1.00864434242,
2.1676897269,-1.21531775186,0,-0.890832075579,0.000310839062256,6,-0.62713098526,-1.23641741276,
2.16398561302,-1.20800100604,0,-0.884833244391,0.000364379949286,7,-0.740823745728,-1.46335124969,
2.15971152133,-1.19954594003,0,-0.877947246296,0.000418264404494,8,-0.854819476604,-1.69101572037,
2.15486302435,-1.18994375097,0,-0.870160267519,0.000472985149154,9,-0.969701468945,-1.92044186592,
2.14943446054,-1.17918325739,0,-0.861455378747,0.000528735021245,10,-1.08571565151,-2.15210366249,
2.14341937586,-1.16725165921,0,-0.851813724335,0.000585628601811,11,-1.20302152634,-2.38632774353,
2.13681036814,-1.15413458424,0,-0.841212718305,0.000643893146732,12,-1.3218061924,-2.62342429161,
2.12959926783,-1.13981596159,0,-0.829628423919,0.000703612199105,13,-1.44222652912,-2.86373662949,
2.1217770262,-1.12427813338,0.0,-0.817033914111,0.000764965279401,14,-1.56445586681,-3.10758066177,
2.11333363711,-1.10750160145,0.0,-0.80339955596,0.000828115779434,15,-1.68868815899,-3.35532522202,
2.10425818919,-1.08946505713,0,-0.788693411854,0.000893204944574,16,-1.81510150433,-3.60733318329,
2.09453873544,-1.07014531421,0,-0.772880168357,0.00096032929748,17,-1.94390666485,-3.86397981644,
2.08416231184,-1.04951705562,0,-0.755922456082,0.00102982058852,18,-2.07530331612,-4.12568950653,
2.07311499327,-1.02755317616,0,-0.737779916959,0.0011017617808,19,-2.20948576927,-4.39281845093,
2.06138157307,-1.00422427582,0,-0.718408086461,0.00117640073603,20,-2.34671020508,-4.66583347321,
2.0489458835,-0.979498793951,0,-0.697761227608,0.00125381533348,21,-2.48717093468,-4.94516277313,
2.03579051255,-0.953342875114,0,-0.675789963743,0.00133422386579,22,-2.63111519814,-5.2312579155,
2.02189687847,-0.925720443598,0,-0.652441782732,0.0014178207471,23,-2.7787694931,-5.52457618713,
2.00724526702,-0.896593143812,0,-0.627661802511,0.00150475471325,24,-2.93037295341,-5.82555866241,
1.99181478678,-0.865920295587,0,-0.601392613354,0.0015951738644,25,-3.08615899086,-6.13469266891,
1.97558327972,-0.833658923975,0,-0.573573287321,0.00168923513828,26,-3.24637508392,-6.45241117477,
1.95852755963,-0.799763878456,0,-0.544141650449,0.00178711875871,27,-3.41122508049,-6.77916765213,
1.94062341212,-0.764188101164,0,-0.513033261352,0.0018889142231,28,-3.58092689514,-7.11534166336,
1.92184566914,-0.726882686487,0,-0.480182261221,0.00199471089209,29,-3.75566148758,-7.46130371094,
1.90216850697,-0.687797298303,0,-0.445523132986,0.00210448505479,30,-3.93555951118,-7.81732273102,
1.88156556546,-0.646880855432,0,-0.408989183875,0.00221830743124,31,-4.12072896957,-8.18358230591,
1.86001035034,-0.604081561437,0,-0.370517607015,0.00233593937761,32,-4.31121492386,-8.56016731262,
1.83747648655,-0.559348692766,0,-0.33004422704,0.00245746849185,33,-4.50696325302,-8.94695472717,
1.81393852293,-0.51263247954,0,-0.287514278332,0.00258232182617,34,-4.70780897141,-9.34366321564,
1.78937234937,-0.463886430136,0,-0.242876606495,0.00271027851195,35,-4.9134850502,-9.74970340729,
1.76375597178,-0.413067808023,0,-0.196091448786,0.00284064892954,36,-5.12355184555,-10.1642532349,
1.73707064449,-0.360140492788,0,-0.147130563114,0.00297273229889,37,-5.33738708496,-10.5860786438,
1.70930149614,-0.305076291433,0,-0.0959792441275,0.00310570702223,38,-5.55418348312,-11.0135421753,
1.68043896019,-0.24785726296,0,-0.0426429079757,0.00323835154666,39,-5.77290344238,-11.4445972443,
1.65047999679,-0.188478162161,0,0.012849395526,0.00336923088134,40,-5.99223852158,-11.8766899109,
1.61942919551,-0.126949002615,0,0.0704436276507,0.00349682450053,41,-6.21066713333,-12.3068132401,
1.58729966938,-0.063296725622,0,0.130057464347,0.00361942111642,42,-6.42646598816,-12.7315254211,
1.55411412775,0.00243241561334,0,0.191578808307,0.00373518904741,43,-6.63771057129,-13.1470184326,
1.5199056512,0.0701724983541,0,0.254857685708,0.00384187035775,44,-6.84235429764,-13.5493001938,
1.48471751272,0.139836857447,0,0.319714056677,0.00393761989074,45,-7.03835582733,-13.9342899323,
1.44860264122,0.211319873461,0,0.385935535405,0.0040204725326,46,-7.22374916077,-14.2980937958,
1.41162302553,0.284497568735,0,0.453282651737,0.00408878427323,47,-7.39675474167,-14.6371860504,
1.37384792625,0.35923225654,0,0.521487989366,0.00414085984593,48,-7.55591917038,-14.9486551285,
1.33535172998,0.435374925265,0,0.590271875183,0.00417594551834,49,-7.70018815994,-15.2303981781,
1.29621174394,0.512771556505,0,0.659338568508,0.00419306896844,50,-7.82900047302,-15.4812488556,
1.2565058118,0.591266343722,0,0.728390759336,0.0041921542517,51,-7.94221925735,-15.7009658813,
1.2163101083,0.670706937441,0,0.797131317653,0.00417319414611,52,-8.04022789001,-15.8902235031,
1.17569639741,0.750949213633,0,0.865273466573,0.00413682606279,53,-8.12386322021,-16.0505981445,
1.13473089992,0.831859538683,0,0.932544153215,0.00408387358629,54,-8.19424629211,-16.1842517853,
1.09347280323,0.913317868838,0,0.998686865883,0.0040153423066,55,-8.25277614594,-16.2938861847,
1.05197378456,0.995218942293,0,1.0634618137,0.00393226265608,56,-8.30099201202,-16.382522583,
1.01027687847,1.07747382892,0,1.1266509702,0.00383594984266,57,-8.34058666229,-16.4533119202,
0.968417370907,1.16000885738,0,1.18805286911,0.00372740966103,58,-8.37312889099,-16.5093841553,
0.926422441593,1.24276609195,0,1.24748337815,0.00360769395955,59,-8.4002161026,-16.5537948608,
0.884311879268,1.32570118678,0,1.30477649659,0.00347789827446,60,-8.42336750031,-16.5894241333,
0.842098200908,1.40878386272,0,1.35977926445,0.00333883364109,61,-8.44395923615,-16.6189022064,
0.799788082233,1.49199504627,0,1.41234827103,0.00319107256067,62,-8.46325874329,-16.6446342468,
0.757382476917,1.57532710803,0,1.46234589949,0.00303495516694,63,-8.48240089417,-16.668794632,
0.714876855007,1.65878147853,0.0,1.50964537044,0.00287114903485,64,-8.50240707397,-16.6933021545,
0.672262395015,1.74236864818,0.0,1.55411807952,0.00269952665241,65,-8.52415752411,-16.719833374,
0.629526222339,1.82610602153,0,1.5956376989,0.00252022272301,66,-8.54852294922,-16.7499313354,
0.586652124515,1.91001839412,0,1.63407099591,0.00233285981383,67,-8.57614707947,-16.7849273682,
0.543619835964,-4.2890491985,0,1.66928716861,0.00213756792529,68,-8.60777759552,-16.82604599,
0.500407302967,-4.20468979107,0,1.70113848876,0.00193330986305,69,-8.64386940002,-16.8744163513,
0.456989014736,-4.1200473808,0,1.72947377144,0.00171987282783,70,-8.68501186371,-16.9309883118,
0.413337791553,-4.03507666813,0,1.75412789137,0.00149641738048,71,-8.73163223267,-16.9967155457,
0.369423831096,-3.94972710835,0,1.77492323373,0.00126219463645,72,-8.78419017792,-17.072555542,
0.325216377369,-3.86394338833,0,1.79166228292,0.00101598568293,73,-8.8429441452,-17.1593742371,
0.28068193256,-3.77766638028,0,1.80413858943,0.000757247349194,74,-8.9083442688,-17.2580528259,
0.235786402813,-3.69083266484,0,1.81212624359,0.000484803851594,75,-8.98060798645,-17.3694915771,
0.190494263759,-3.60337333905,0,1.81538379152,0.000197711765966,76,-9.05997943878,-17.4946651459,
0.14476856052,-3.51521473157,0,1.81365782607,-0.000104752741478,77,-9.1467590332,-17.6345977783,
0.0985711461217,-3.42627768742,0,1.80668416639,-0.000423241867347,78,-9.24112319946,-17.7903404236,
0.0518628007085,-3.3364773296,0,1.7941915673,-0.000758186981253,79,-9.34334945679,-17.9630737305,
0.0046032315404,-3.24572282063,0,1.77590660771,-0.00110972290267,80,-9.45369148254,-18.1540985107,
0.0432504767268,-3.15391450154,0,1.74596472999,-0.00181717349843,81,-9.57254219055,-18.3649139404,