lower angle,upper angle,holding angle,system x,acceleration,ticks (200 tps),lower acceleration (shoulder),upper acceleration (elbow),
1.996436564,-0.790309276,0,-1.01796723654,-0.0651898926032,1,0.0,0.0,
1.996436564,-0.790309276,0,-1.01796723654,0.0,2,0.0,0.0,
1.996436564,-0.790309276,0,-1.01796723654,0.0,3,0.0,0.0,
1.99391306516,-0.785368091926,0,-1.01373333072,0.000271126222671,4,-0.504700064659,-0.988237321377,
1.99068888065,-0.779021342785,0,-1.0084780357,0.000336528557394,5,-0.64483743906,-1.26935100555,
1.98671490953,-0.771184620947,0,-1.00205362722,0.000411388695469,6,-0.794795274734,-1.56734633446,
1.98199030452,-0.76185434641,0,-0.994458616997,0.000486342574353,7,-0.944922924042,-1.86605811119,
1.9765106791,-0.751021209672,0,-0.985678013256,0.000562254848876,8,-1.09592783451,-2.16663265228,
1.97026888442,-0.738670836702,0,-0.975688786727,0.00063963983888,9,-1.24836277962,-2.47008275986,
1.96325633091,-0.724786277429,0,-0.964462558725,0.000718839991051,10,-1.40251624584,-2.77692294121,
1.95546323967,-0.709348227397,0,-0.951967351682,0.000800085835829,11,-1.55862665176,-3.08762645721,
1.94687863973,-0.692335132078,0,-0.938167034248,0.000883641847887,12,-1.71693062782,-3.40263700485,
1.93749058035,-0.673723589197,0,-0.923021753793,0.000969748998656,13,-1.87762570381,-3.72233533859,
1.92728593734,-0.653487842098,0.0,-0.906488251926,0.00105862403122,14,-2.04094624519,-4.04718399048,
1.91625057694,-0.631600211874,0.0,-0.888519621728,0.00115049882512,15,-2.20709466934,-4.37757015228,
1.90436938939,-0.608031134621,0,-0.869065555685,0.00124559332714,16,-2.37626576424,-4.71387338638,
1.89162634102,-0.582749213592,0,-0.848072762705,0.00134404686753,17,-2.5486433506,-5.05644702911,
1.87800452647,-0.55572163643,0,-0.825483562881,0.00144623950218,18,-2.72440505028,-5.40560245514,
1.86348643688,-0.526914055959,0,-0.801239775344,0.00155215387081,19,-2.90366888046,-5.7616109848,
1.84805403438,-0.496291365043,0,-0.775279855917,0.00166200707235,20,-3.0865457058,-6.12466526031,
1.83168890861,-0.46381774129,0,-0.747540749562,0.00177590028572,21,-3.27309966087,-6.4948682785,
1.81437268642,-0.429457362309,0,-0.717959404095,0.00189382764156,22,-3.46333241463,-6.87224531174,
1.7960872331,-0.39317506136,0,-0.686472191312,0.00201582371574,23,-3.65719342232,-7.2566652298,
1.7768152186,-0.354937102214,0,-0.653018163305,0.00214160789234,24,-3.85452604294,-7.64781761169,
1.75654038575,-0.314712252036,0,-0.617537305278,0.00227132687208,25,-4.05510473251,-8.04525184631,
1.73524826554,-0.272472466842,0,-0.579976281505,0.00240445146198,26,-4.2585849762,-8.44827651978,
1.7129267135,-0.22819438161,0,-0.540287988201,0.00254058821014,27,-4.46448945999,-8.85597229004,
1.68956669954,-0.181860889808,0,-0.498433804954,0.00267920591885,28,-4.67221689224,-9.26711845398,
1.66516288904,-0.133462097064,0,-0.454386701551,0.00281955463798,29,-4.88100385666,-9.68021965027,
1.63971450713,-0.0829974073324,0,-0.408131954603,0.0029608463472,30,-5.08995103836,-10.0934743881,
1.61322617319,-0.03047653617,0,-0.359673199981,0.00310190669351,31,-5.29798364639,-10.5047912598,
1.58570831803,0.0240791183558,0,-0.309031530704,0.00324159938716,32,-5.50391483307,-10.9117898941,
1.55717801836,0.080634806737,0,-0.256248100668,0.00337865653904,33,-5.70644950867,-11.3119029999,
1.52765935448,0.139142428025,0,-0.201389555725,0.00351144649585,34,-5.90416193008,-11.7023487091,
1.4971834698,0.199539456948,0,-0.144544017837,0.00363860528469,35,-6.0956530571,-12.080332756,
1.46578833249,0.261750016793,0,-0.0858244293582,0.0037585288247,36,-6.27954339981,-12.4431209564,
1.43351855663,0.32568517743,0,-0.0253682595813,0.00386964938861,37,-6.45451498032,-12.7881202698,
1.4004241505,0.391244922265,0,0.0366674756726,0.00397072038892,38,-6.61947822571,-13.1131057739,
1.36656030801,0.458319459542,0,0.100102308717,0.00406022935288,39,-6.77342700958,-13.4161739349,
1.33198484567,0.526793037042,0,0.16474425533,0.00413744123303,40,-6.91578769684,-13.6960487366,
1.29675784496,0.596545730218,0,0.230385879493,0.0042013863371,41,-7.04612398148,-13.951965332,
1.26093956617,0.667457018479,0,0.29681217383,0.00425157277535,42,-7.16441726685,-14.1837539673,
1.22458937553,0.739408288583,0,0.363801949213,0.00428758218991,43,-7.27085113525,-14.3918094635,
1.18776371864,0.812285695657,0,0.431138464239,0.00430972920642,44,-7.36595869064,-14.5771112442,
1.15051594165,0.885982308969,0,0.498602225928,0.0043178248897,45,-7.45042419434,-14.740978241,
1.11289480117,0.960399304017,0,0.565983263988,0.00431249574164,46,-7.52511835098,-14.8851146698,
1.07494368938,1.03544822751,0,0.633079719706,0.00429424094395,47,-7.59114265442,-15.0115642548,
1.03670075324,1.11105099736,0,0.699697154946,0.00426354764893,48,-7.64951848984,-15.1223564148,
0.9981984773,1.18714037953,0,0.765651235316,0.00422106277457,49,-7.70141220093,-15.219704628,
0.959463564427,1.2636596304,0,0.830770403924,0.00416759321701,50,-7.74794530869,-15.3057565689,
0.920517412694,1.34056368886,0,0.894885812354,0.00410330980145,51,-7.7902173996,-15.3826704025,
0.881375996144,1.41781607686,0,0.957845078672,0.00402926951115,52,-7.82927846909,-15.4524087906,
0.842050043614,1.4953910452,0,1.01950065546,0.00394579310026,53,-7.86620378494,-15.5169296265,
0.802545992406,1.57327118932,0,1.07970972822,0.00385317862948,54,-7.90182590485,-15.5779705048,
0.762865988286,1.65144697247,0,1.13833507132,0.00375178400658,55,-7.93704938889,-15.6371517181,
0.723007766278,1.72991672574,0,1.19524464451,0.00364194243911,56,-7.97270107269,-15.6959609985,
0.682965723546,1.8086854559,0,1.25030544418,0.00352359125491,57,-8.00948810577,-15.7557945251,
0.642730680974,1.88776460706,0,1.30338501752,0.0033967597965,58,-8.04807662964,-15.8178520203,
0.602290598424,1.9671708685,0,1.35434828255,0.00326129349164,59,-8.08910083771,-15.8833370209,
0.561630693944,2.04692689,0,1.40305343681,0.00311675637756,60,-8.13310813904,-15.9532966614,
0.520733324559,2.12705937444,0,1.4493567917,0.00296302317658,61,-8.18062114716,-16.0286979675,
0.479577867062,2.20760170041,0,1.49310473168,0.00279946502918,62,-8.23223114014,-16.1105899811,
0.438142506154,2.28858915387,0,1.53413409548,0.0026254625606,63,-8.2882642746,-16.1997375488,
0.396402803929,-3.91312202396,0.0,1.57226932415,0.00244024355105,64,-8.34915351868,-16.2971057892,
0.354332176717,-3.83111604632,0.0,1.60732487177,0.00224314423323,65,-8.41539382935,-16.4035682678,
0.311902371915,-3.74852761211,0,1.63909907914,0.0020331604951,66,-8.48724365234,-16.519990921,
0.26908370641,-3.66530355395,0,1.66737862031,0.00180952951907,67,-8.56504440308,-16.6472587585,
0.225844470532,-3.58138402881,0,1.69193469943,0.00157125980473,68,-8.64918613434,-16.7863502502,
0.182151762517,-3.49670514049,0,1.71252568998,0.00131753289804,69,-8.73993301392,-16.9383087158,
0.137971250089,-3.41119822444,0,1.72889868878,0.00104763055256,70,-8.83756256104,-17.1040267944,
0.0932665744141,-3.32478746356,0,1.74079107657,0.000760930535435,71,-8.94240188599,-17.2848358154,
0.0480005421952,-3.23739227237,0,1.74793369752,0.000456997271206,72,-9.05476570129,-17.4818191528,
0.0021328606919,-3.14892419757,0,1.75005502207,0.000135724813858,73,-9.17512893677,-17.6965332031,
0.0443783125564,-3.05928691806,0,1.78518002379,0.00224731905049,74,-9.30392456055,-17.9304103851,