lower angle,upper angle,holding angle,system x,acceleration,ticks (200 tps),lower acceleration (shoulder),upper acceleration (elbow),
1.32515609,0.790309276,0,-1.01796725616,-0.773997185982,1,0.0,0.0,
1.32515609,0.790309276,0,-1.01796725616,0.0,2,0.0,0.0,
1.32515609,0.790309276,0,-1.01796725616,0.0,3,0.0,0.0,
1.31173503973,0.816462177351,0,-0.983944128542,0.0258548098436,4,-2.68425059319,-5.23065519333,
1.2941392671,0.850830778048,0,-0.939501762585,0.0337676804529,5,-3.51924514771,-6.8738899231,
1.27226435874,0.893555376247,0,-0.883950764265,0.0422021786546,6,-4.37515640259,-8.54524612427,
1.2462855551,0.94429714562,0,-0.817605817812,0.0503952271433,7,-5.19605302811,-10.1489009857,
1.21639079336,1.00268561722,0,-0.740805317327,0.0583281764313,8,-5.97939682007,-11.6785230637,
1.18278111253,1.06832068743,0,-0.653946793775,0.0659579965785,9,-6.72257041931,-13.128194809,
1.14567222927,1.14077135505,0,-0.557519746782,0.0732141039537,10,-7.42262983322,-14.4917221069,
1.10528979931,1.21958538474,0,-0.452113640229,0.0800208449897,11,-8.07758331299,-15.7648553848,
1.06186189983,1.30430385055,0,-0.338412875847,0.0863060291321,12,-8.68694591522,-16.9462337494,
1.01561188433,1.39447518767,0,-0.217189697671,0.0920022908944,13,-9.25165367126,-18.037322998,
0.966751066187,1.48966905059,0.0,-0.0892910559139,0.0970551352782,14,-9.77411079407,-19.0423736572,
0.915472802856,1.58948835315,0.0,0.044370466816,0.101412467525,15,-10.2579040527,-19.9680213928,
0.861947712639,1.6935782689,0,0.18282757485,0.105036160018,16,-10.707575798,-20.8226985931,
0.806319949367,1.80163332404,0,0.325066154827,0.10788894497,17,-11.1284141541,-21.6162910461,
0.748705563286,1.91340156974,0,0.47002415541,0.109935459418,18,-11.5260648727,-22.3594703674,
0.689190683105,2.02868696632,0,0.616595450139,0.111142130516,19,-11.9064769745,-23.0634803772,
0.627832112053,2.14735063495,0,0.76361692805,0.111467192167,20,-12.2755556107,-23.7397155762,
0.564657387474,2.26931091727,0,0.909862064629,0.110862026166,21,-12.6391553879,-24.3996429443,
0.49966549609,2.39454361381,0,1.05402894046,0.109269085423,22,-13.0029659271,-25.0547637939,
0.432828244903,2.52308222236,0,1.19472640734,0.106623033841,23,-13.3724155426,-25.7165813446,
0.364092108944,2.65501829566,0,1.3304629148,0.102847979721,24,-13.7526397705,-26.3968582153,
0.293378946522,2.79050477923,0,1.45964499371,0.0978659104392,25,-14.1485290527,-27.1076927185,
0.220586297253,2.92975863399,0,1.58058641918,0.0916068579488,26,-14.5649623871,-27.8621234894,
0.145586726406,3.07306798877,0,1.69152771673,0.0840165085654,27,-15.0069389343,-28.6741867065,
0.0682247850684,3.22079810084,0,1.79066801497,0.0750670142509,28,-15.4801101685,-29.5595817566,