lower angle,upper angle,holding angle,system x,acceleration,ticks (200 tps),lower acceleration (shoulder),upper acceleration (elbow),
1.548916254,0.261297867,0,-1.09182131553,-0.524865692374,1,0.0,0.0,
1.548916254,0.261297867,0,-1.09182131553,0.0,2,0.0,0.0,
1.548916254,0.261297867,0,-1.09182131553,0.0,3,0.0,0.0,
1.53338211662,0.291624700948,0,-1.05843871945,0.0160365123805,4,-3.10688996315,-6.0654835701,
1.51285013537,0.331798963547,0,-1.01442746645,0.0211398964973,5,-4.10654067993,-8.03512382507,
1.48730017226,0.381793573797,0,-0.959145319527,0.0265512123463,6,-5.11027193069,-9.9994430542,
1.45686941947,0.44134648174,0,-0.892639667073,0.0319387263494,7,-6.08662033081,-11.9114627838,
1.42173196729,0.510116532743,0,-0.815017978766,0.0372735284782,8,-7.02821445465,-13.7553710938,
1.38210709746,0.587669864595,0,-0.726515170716,0.0424940949433,9,-7.92601156235,-15.5126113892,
1.33826184626,0.673476383388,0,-0.627543496484,0.0475160857579,10,-8.77045440674,-17.163942337,
1.29050609823,0.766919777095,0,-0.51871720439,0.0522424436486,11,-9.55296611786,-18.6920871735,
1.23918101545,0.86732034415,0,-0.400853703528,0.0565746962724,12,-10.2672653198,-20.0843315125,
1.18464288469,0.97396622628,0,-0.274951531429,0.0604269780797,13,-10.9103298187,-21.3342323303,
1.12724507208,1.08614872426,0.0,-0.14215499707,0.0637291352548,14,-11.4827136993,-22.4423866272,
1.06732094641,1.20319591492,0.0,-0.00371256171985,0.0664278289269,15,-11.9884166718,-23.4161491394,
1.00516966339,1.32450084418,0,0.139063769874,0.0685006041521,16,-12.434258461,-24.2684288025,
0.941046330885,1.44953946799,0,0.284837624159,0.0699327062593,17,-12.8290500641,-25.0158958435,
0.875157329993,1.57788173884,0,0.432261647114,0.0707177433868,18,-13.1825714111,-25.6772823334,
0.807657751993,1.70919446677,0,0.579997445717,0.0708540846469,19,-13.5050554276,-26.2720222473,
0.7386529779,1.84323959082,0,0.726707670119,0.0703564135414,20,-13.8064308167,-26.8190803528,
0.66820201631,1.97986833781,0,0.871042504445,0.0692116198348,21,-14.0960283279,-27.3364276886,
0.596320245222,2.11901633471,0,1.01162380512,0.0674045398537,22,-14.3825531006,-27.8408737183,
0.52298370357,2.2606972906,0,1.14701956443,0.0649113129669,23,-14.6738815308,-28.3480987549,
0.448132905917,2.40499870509,0,1.27571883105,0.0616947349448,24,-14.977191925,-28.872882843,
0.371676120714,2.55207936496,0,1.39611188366,0.0577076217371,25,-15.2988071442,-29.4294471741,
0.293493542628,2.70216815203,0,1.50647576255,0.0528961678298,26,-15.6444911957,-30.0319404602,
0.213438425021,2.85556785792,0,1.60498300545,0.0472106559144,27,-16.0195655823,-30.6950912476,
0.131338272051,3.01265971392,0,1.68972782786,0.0406103088268,28,-16.4292697906,-31.4346427917,
0.0469906663459,3.17391340464,0,1.75877637875,0.0330853062297,29,-16.8795490265,-32.2683563232,