lower angle,upper angle,holding angle,system x,acceleration,ticks (200 tps),lower acceleration (shoulder),upper acceleration (elbow),
1.727924378,-0.156684577,0,-1.09770425039,-0.390947476886,1,0.0,0.0,
1.727924378,-0.156684577,0,-1.09770425039,0.0,2,0.0,0.0,
1.727924378,-0.156684577,0,-1.09770425039,0.0,3,0.0,0.0,
1.71225282864,-0.126084871125,0,-1.06759440598,0.010721556226,4,-3.13437414169,-6.12006092072,
1.69144867488,-0.0853689606308,0,-1.02771822232,0.0141982891608,5,-4.16098070145,-8.14346408844,
1.66540302464,-0.0343878339051,0,-0.977217422624,0.0179802108035,6,-5.20942497253,-10.1967763901,
1.63412395992,0.0268524591805,0,-0.915801228379,0.021865612249,7,-6.25632143021,-12.2490158081,
1.59764470287,0.0982901160599,0,-0.84317980934,0.02585340261,8,-7.29666233063,-14.289056778,
1.55604869255,0.179760873783,0,-0.759163603461,0.029908177949,9,-8.32040119171,-16.2964076996,
1.50949075945,0.270958155859,0,-0.663760356342,0.033959668938,10,-9.3132686615,-18.2426223755,
1.45821160205,0.371404588688,0,-0.557255243444,0.0379092242242,11,-10.2580766678,-20.0935096741,
1.40254247316,0.480442286003,0,-0.440267797582,0.0416373195772,12,-11.1366977692,-21.8129425049,
1.34289598592,0.597251117695,0,-0.313774268377,0.0450177971641,13,-11.9328422546,-23.3684215546,
1.27974191435,0.720895350444,0.0,-0.179075478502,0.0479343740217,14,-12.635014534,-24.7367267609,
1.21357336768,0.850390732753,0.0,-0.0377304213932,0.0502957987981,15,-13.2385501862,-25.9081459045,
1.14486870297,0.984778702724,0,0.108544742276,0.0520455848986,16,-13.7463359833,-26.8877334595,
1.0740599347,1.12318915175,0,0.257969690245,0.0531605533106,17,-14.1676826477,-27.693157196,
1.00151017436,1.26488381671,0,0.408783548576,0.0536505515512,18,-14.5163211823,-28.3508243561,
0.927503259264,1.40927702235,0,0.559290906088,0.0535374810995,19,-14.8081445694,-28.8912353516,
0.852242918096,1.55593794631,0,0.707877019192,0.0528504141945,20,-15.0591821671,-29.3453330994,
0.775856824003,1.7045806055,0,0.853010728413,0.0516176223678,21,-15.2846441269,-29.7422714233,
0.698405535303,1.85504943179,0,0.993208158722,0.0498587524952,22,-15.498000145,-30.1080207825,
0.619890244089,2.00730305957,0,1.12700643315,0.0475799047779,23,-15.7111406326,-30.4654655457,
0.540261418901,2.16139870929,0,1.25292262376,0.044774050275,24,-15.9341878891,-30.8344402313,
0.459426910959,2.31748181628,0,1.36940558709,0.0414170626636,25,-16.1757164001,-31.23254776,
0.377257139765,2.47577911662,0,1.47480735689,0.0374743789355,26,-16.4432067871,-31.6760864258,
0.293591411195,2.63659364032,0,1.56735836518,0.0329033207269,27,-16.7429180145,-32.1803283691,
0.208241493784,2.80030661868,0,1.64516809524,0.0276608219582,28,-17.0803718567,-32.7609825134,
0.120992572389,2.96738320636,0,1.70625760608,0.0217154873113,29,-17.4608573914,-33.4348754883,
0.0316019368989,-3.14480394078,0,1.74862058642,0.0150578000396,30,-17.8900585175,-34.2206726074,