lower angle,upper angle,holding angle,system x,acceleration,ticks (200 tps),lower acceleration (shoulder),upper acceleration (elbow),
1.190899988,1.118062055,0,-0.937124733427,-0.388287647995,1,0.0,0.0,
1.190899988,1.118062055,0,-0.937124733427,0.0,2,0.0,0.0,
1.190899988,1.118062055,0,-0.937124733427,0.0,3,0.0,0.0,
1.19310726721,1.11380342234,0,-0.943506644453,-0.00264366513763,4,0.441446453333,0.851658344269,
1.19590773184,1.10841182459,0,-0.951645238451,-0.00337110629473,5,0.560080826283,1.07836747169,
1.19936146337,1.10177949656,0,-0.961743886119,-0.00418267412243,6,0.69072085619,1.3264721632,
1.20346607763,1.09390882243,0,-0.973784478398,-0.00498662153668,7,0.820910453796,1.57414865494,
1.20822348196,1.08479408015,0,-0.987761278272,-0.00578806940541,8,0.951547324657,1.82288861275,
1.21363987524,1.07442573298,0,-1.0036977296,-0.00659902241336,9,1.08321630955,2.07374072075,
1.21972050268,1.06278947581,0,-1.02158754189,-0.00740731783816,10,1.21619832516,2.3272395134,
1.22647394735,1.04987100352,0,-1.04145839164,-0.00822694680875,11,1.350664258,2.5837328434,
1.23390831548,1.03565267313,0,-1.06331839374,-0.00904983126037,12,1.48682582378,2.84361028671,
1.24203219015,1.02011684168,0,-1.08717909133,-0.00987736928606,13,1.62487030029,3.10724401474,
1.25085749227,1.00324157465,0.0,-1.11306848304,-0.0107163649655,14,1.76499927044,3.37502765656,
1.26039423544,0.985004937538,0.0,-1.1409920771,-0.0115573459638,15,1.90743017197,3.64739179611,
1.27065624792,0.965381657966,0,-1.17098020758,-0.0124109009683,16,2.05234837532,3.92470145226,
1.28165592748,0.944344556221,0,-1.2030370812,-0.013266072581,17,2.20001125336,4.2074341774,
1.29340900976,0.921864545234,0,-1.23719177495,-0.0141331773808,18,2.35063648224,4.49601697922,
1.30593123037,0.897910630592,0,-1.27346171138,-0.0150073322993,19,2.50442838669,4.79088783264,
1.31923927862,0.872448480018,0,-1.31185623103,-0.0158816597877,20,2.66164922714,5.09250497818,
1.33335127432,0.845442330726,0,-1.35238917329,-0.0167649074727,21,2.82251882553,5.40131998062,
1.34828772146,0.816853558906,0,-1.39508280474,-0.0176572142116,22,2.98728370667,5.71779823303,
1.36406817037,0.786642110237,0,-1.43993601252,-0.0185487499252,23,3.15616679192,6.04237651825,
1.38071455557,0.754765546211,0,-1.48695636503,-0.0194435749349,24,3.32938408852,6.37546825409,
1.39824976522,0.721179044136,0,-1.53614316608,-0.0203378476857,25,3.50713324547,6.71744918823,
1.4166976412,0.685836827644,0,-1.58749266102,-0.0212303731477,26,3.68961763382,7.06870365143,
1.43608154852,0.648690736183,0,-1.64097396375,-0.0221099502827,27,3.87695145607,7.42943668365,
1.45642723638,0.609692609199,0,-1.69657117915,-0.0229825225902,28,4.06925153732,7.79985427856,
1.47775902349,0.568793809303,0,-1.75423614203,-0.0238353959237,29,4.26655435562,8.18002986908,
1.50010218221,0.525946175941,0,-1.81391869606,-0.0246673982817,30,4.46881914139,8.56983566284,
1.52348055441,0.481103455909,0,-1.87554422605,-0.0254685750312,31,4.67588996887,8.9689617157,
1.54791702825,0.434220826515,0,-1.93901527123,-0.0262292928307,32,4.88754415512,9.37690925598,
1.57343258459,0.385259187111,0,-2.00421930895,-0.0269438724918,33,5.10336732864,9.7928352356,
1.60004486639,0.334184205421,0,-2.07100603118,-0.0275964678255,34,5.32278203964,10.2155513763,
1.62776817877,0.280969655403,0,-2.13920236072,-0.0281770800786,35,5.54503393173,10.6435441971,
1.65661205847,0.225598847755,0,-2.20860186938,-0.0286719661489,36,5.76915788651,11.0748577118,
1.68657984335,0.168067490944,0,-2.27896172543,-0.0290664583969,37,5.99397754669,11.5070934296,
1.71766771871,0.108384644874,0,-2.34999658109,-0.0293415800033,38,6.21806812286,11.9374017715,
1.74986424047,0.046577012428,0,-2.42139595552,-0.0294899048008,39,6.43984699249,12.3625793457,
1.78314890463,-0.0173129678882,0,-2.49279982167,-0.0294894474189,40,6.65754127502,12.779042244,
1.81749167043,-0.0832218767322,0,-2.56382312562,-0.0293299077366,41,6.86927461624,13.183016777,
1.85285391409,-0.151068651787,0,-2.63405464,-0.0290008177075,42,7.07315778732,13.5706806183,
1.88918652136,-0.22075315725,0,-2.703046893,-0.0284873794651,43,7.26737880707,13.9383220673,
1.92643370229,-0.292158091179,0,-2.77035795751,-0.0277900704181,44,7.45024776459,14.2825565338,
1.96453108389,-0.365153277031,0,-2.83551280522,-0.026898184585,45,7.62042379379,14.6005916595,
2.00341047842,-0.439595663658,0,-2.89806620683,-0.0258229268587,46,7.77690076828,14.8902902603,
2.04300083715,-0.515338862053,0,-2.95756945362,-0.0245625739701,47,7.91909742355,15.1503829956,
2.08322968084,-0.592231237999,0,-3.01360205179,-0.0231285772518,48,8.04686164856,15.3804836273,
2.12402691442,-0.670126879326,0,-3.06576176426,-0.0215282306175,49,8.16055393219,15.5810489655,
2.16532530386,-0.748883211724,0,-3.11368457916,-0.0197778464687,50,8.26086997986,15.7533588409,
2.20706381399,-0.828369104973,0,-3.15704025151,-0.0178915573424,51,8.34886646271,15.8993263245,
2.24918665487,-0.908465349785,0,-3.19551852347,-0.0158774765649,52,8.42581748962,16.0213603973,
2.29164661962,-0.989065134636,0,-3.22886054213,-0.0137569690124,53,8.49328041077,16.1222190857,
2.33440365392,-1.0700783373,0,-3.25681790956,-0.0115341703451,54,8.55276870728,16.2048358917,
2.37742676336,-1.15142771017,0,-3.27918738842,-0.00922817630819,55,8.60589408875,16.2721672058,
2.4206911524,-1.23305174123,0,-3.29576266991,-0.00683722859335,56,8.6542224884,16.3271026611,
2.46418060857,-1.31490250837,0,-3.30636395047,-0.00437261110933,57,8.69927501678,16.3724479675,
2.50788559515,-1.39694448721,0,-3.31081932368,-0.00183751469599,58,8.74240207672,16.4107761383,
2.55180277425,-1.47915478956,0,-3.30895433739,0.000769109363191,59,8.78494167328,16.4443778992,
2.5959359606,-1.56152006399,0,-3.30060916041,0.00344109404181,60,8.82797622681,16.4754486084,
2.64029182989,-1.64403792631,0,-3.28559082131,0.00619206555612,61,8.87265205383,16.5059356689,
2.68488325674,-1.72671314489,0,-3.26371472138,0.00901873775115,62,8.91980171204,16.5374736786,
2.72972740728,-1.80955930959,0,-3.23477641413,0.0119292503424,63,8.97032737732,16.5716400146,
2.77484383184,-1.89259573232,0.0,-3.19854824747,0.0149330736602,64,9.02482891083,16.6097450256,
2.8202554186,-1.97584911596,0.0,-3.15477746233,0.0180405441771,65,9.08392810822,16.6531276703,
2.86598839361,4.22383502711,0,-3.10319666729,0.0212578317573,66,9.14809989929,16.7027664185,
2.91206850607,4.14004901636,0,-3.04349206938,0.0246039745902,67,9.21769714355,16.7597579956,
2.95852531988,4.05593661059,0,-2.97533656989,0.028084419004,68,9.29300308228,16.8250846863,
3.00538744528,3.97145155657,0,-2.89836422663,0.0317147525209,69,9.37413597107,16.8995914459,
3.05268349249,3.886543548,0,-2.81218347289,0.0354986006189,70,9.4610452652,16.9842376709,
3.10044302541,3.80115798701,0,-2.71638499401,0.0394572765819,71,9.55368328094,17.0798835754,
3.13449303708,3.71523479212,0,-2.57007463213,0.0602555848445,72,9.65176010132,17.1874198914,