lower angle,upper angle,holding angle,system x,acceleration,ticks (200 tps),lower acceleration (shoulder),upper acceleration (elbow),
1.996436564,-0.790309276,0,-1.01796723654,-0.0645484020151,1,0.0,0.0,
1.996436564,-0.790309276,0,-1.01796723654,0.0,2,0.0,0.0,
1.996436564,-0.790309276,0,-1.01796723654,0.0,3,0.0,0.0,
1.99924132016,-0.795739974395,0,-1.02296417692,-0.00031683652953,4,0.560949206352,1.08609986305,
2.00302883771,-0.803068007842,0,-1.02972338785,-0.000428569057903,5,0.757514417171,1.46558570862,
2.00783630994,-0.812352504149,0,-1.03835925937,-0.000547550297762,6,0.961406111717,1.85697793961,
2.01365038541,-0.823572005645,0,-1.04880728213,-0.000662440782568,7,1.16285514832,2.24386501312,
2.02046152738,-0.83670600833,0,-1.06103698747,-0.000775395737448,8,1.36227285862,2.62684774399,
2.02826067594,-0.851736392394,0,-1.07500726853,-0.00088574156247,9,1.55979418755,3.00606250763,
2.03703686384,-0.868641700164,0,-1.09066753898,-0.000992875106048,10,1.75523722172,3.38111019135,
2.04677864698,-0.887399520293,0,-1.10796205332,-0.00109646448027,11,1.94839978218,3.75152611732,
2.0574736276,-0.907983149901,0,-1.12684056021,-0.00119687355295,12,2.13901615143,4.11680698395,
2.06910797742,-0.93036540927,0,-1.14723455959,-0.00129293726509,13,2.3268699646,4.47644710541,
2.08166643766,-0.954514827147,0.0,-1.16907561826,-0.00138465694258,14,2.51173186302,4.82996845245,
2.09513327268,-0.980398978606,0.0,-1.1922897115,-0.00147168897933,15,2.69339036942,5.17694091797,
2.10949131635,-1.00798353137,0,-1.21679139707,-0.00155330501164,16,2.87165403366,5.51694107056,
2.12472244886,-1.03723081531,0,-1.24249570279,-0.00162953340658,17,3.04635167122,5.84956073761,
2.14080855039,-1.0681022066,0,-1.26931692383,-0.00170032769228,18,3.21730995178,6.17444992065,
2.15773054746,-1.10055812778,0,-1.29715842856,-0.00176498979491,19,3.38440537453,6.49130153656,
2.17546745923,-1.13455661716,0,-1.32590955893,-0.00182262747201,20,3.54752469063,6.79987716675,
2.19400021222,-1.17005523624,0,-1.3554764367,-0.00187431542002,21,3.70660066605,7.09993743896,
2.21330734876,-1.20701154651,0,-1.38573549178,-0.00191816865569,22,3.86159563065,7.39139413834,
2.23336884168,-1.24538072528,0,-1.41658325058,-0.00195545711894,23,4.0124707222,7.67411470413,
2.25416466382,-1.28511985721,0,-1.44790226075,-0.00198528735255,24,4.15925884247,7.94810390472,
2.27567383436,-1.32618555011,0,-1.47956266434,-0.00200690328206,25,4.30202245712,8.21341609955,
2.29787727979,-1.3685344118,0,-1.5114479126,-0.00202113011599,26,4.44083499908,8.4701385498,
2.3207554498,-1.41212495746,0,-1.5434233252,-0.00202681974509,27,4.57583093643,8.71845054626,
2.34428974775,-1.45691617908,0,-1.57535605988,-0.00202408889,28,4.70713424683,8.95856285095,
2.36846348432,-1.50286802234,0,-1.60712114724,-0.00201343303833,29,4.83493709564,9.19075584412,
2.39325949338,-1.54994234027,0,-1.63857566127,-0.00199372427838,30,4.95943546295,9.41535377502,
2.41866251615,-1.59810384692,0,-1.66957659872,-0.00196495157039,31,5.08086967468,9.63276576996,
2.4446582475,-1.64731821002,0,-1.69997949147,-0.00192701668688,32,5.19945812225,9.84335136414,
2.47123428968,-1.69755348147,0,-1.72964030888,-0.00187995837075,33,5.31550312042,10.0475950241,
2.49837872175,-1.74878057422,0,-1.7584015902,-0.00182291203157,34,5.42924547195,10.2459354401,
2.52608200696,-1.80097183169,0,-1.78611265893,-0.00175632889394,35,5.54098653793,10.4389057159,
2.55433508542,-1.85410388888,0,-1.81260390631,-0.0016789956778,36,5.65104389191,10.6270275116,
2.58313175824,-1.90815481128,0,-1.83771448564,-0.0015914172827,37,5.75971603394,10.8108310699,
2.61246630338,-1.96310552539,0,-1.86126875912,-0.00149276693851,38,5.86729335785,10.9908790588,
2.6423344293,-2.01894077243,0,-1.88308044247,-0.00138231488308,39,5.97409391403,11.1677379608,
2.67273422864,-2.07564672412,0,-1.90296566445,-0.00126021630508,40,6.08043384552,11.3420181274,
2.70366474775,-2.13321384372,0,-1.92072392026,-0.00112541288966,41,6.1865811348,11.5142383575,
2.73512646344,-2.19163497867,0,-1.93614703608,-0.000977418765699,42,6.29285526276,11.6850614548,
2.76712128309,-2.25090583743,0,-1.9490172916,-0.000815625921957,43,6.39950084686,11.8550710678,
2.79965206769,-2.31102546634,0,-1.95910360114,-0.000639190083301,44,6.50679254532,12.0248317719,
2.83272406247,-2.37199577273,0,-1.9661698247,-0.000447797916881,45,6.61495351791,12.1950092316,
2.8663420358,-2.43382200183,0,-1.96996002649,-0.000240189202882,46,6.72423315048,12.3662576675,
2.9005126634,-2.49651225986,0,-1.97021190565,-1.59617310922e-05,47,6.83477401733,12.539141655,
2.93524309781,-2.56007894458,0,-1.96664828057,0.000225826681978,48,6.94678163528,12.7144002914,
2.97054096845,-2.62453636111,0,-1.958984147,0.000485671338627,49,7.06035518646,12.8926134109,
3.00641533521,-2.68990358295,0,-1.94692578598,0.000764122547758,50,7.1756272316,13.0745868683,
3.04287478116,-2.75620159091,0,-1.93017255802,0.00106162238024,51,7.29265260696,13.2609434128,
3.07992788938,-2.82345804156,0,-1.9084150029,0.00137872504365,52,7.4115357399,13.4525156021,
3.11758515027,-2.8917010683,0,-1.88135130652,0.00171495002776,53,7.53228664398,13.6500053406,
3.12733016026,-2.96096595706,0,-1.82177288571,0.00377528619988,54,7.65501737595,13.8543720245,