lower angle,upper angle,holding angle,system x,acceleration,ticks (200 tps),lower acceleration (shoulder),upper acceleration (elbow),
1.369908112,0.683285197,0,-1.03871744571,-0.11629829068,1,0.0,0.0,
1.369908112,0.683285197,0,-1.03871744571,0.0,2,0.0,0.0,
1.369908112,0.683285197,0,-1.03871744571,0.0,3,0.0,0.0,
1.37258984418,0.678090056161,0,-1.04541976902,-0.000750111582124,4,0.536348760128,1.03899168968,
1.37606551022,0.671365221719,0,-1.05413720336,-0.000975616028512,5,0.695110321045,1.34492838383,
1.38037897916,0.663036307077,0,-1.06502247169,-0.00121820889668,6,0.862691164017,1.66583371162,
1.38553168149,0.653097590188,0,-1.07805741994,-0.00145876318395,7,1.03056228161,1.98777163029,
1.39152886243,0.641538103799,0,-1.09324148345,-0.00169924665144,8,1.19943904877,2.31186628342,
1.39837815137,0.628343065958,0,-1.11058164123,-0.0019405038218,9,1.3698246479,2.63901591301,
1.40608813138,0.613494356851,0,-1.13007775851,-0.00218173796136,10,1.54200685024,2.9697637558,
1.41466929288,0.596971472482,0,-1.15173776702,-0.00242385184297,11,1.71622776985,3.30456829071,
1.42413260312,0.578752478342,0,-1.17556516147,-0.00266633078058,12,1.8926845789,3.64383459091,
1.43449045987,0.558812578897,0,-1.20156283973,-0.00290913866807,13,2.07161331177,3.98799133301,
1.44575669141,0.537126024942,0.0,-1.22974171821,-0.00315316361418,14,2.25321364403,4.33743095398,
1.45794464917,0.51366372941,0.0,-1.26008630505,-0.00339544313627,15,2.43764948845,4.69245862961,
1.47106959195,0.488397082071,0,-1.29260033472,-0.00363813588785,16,2.62507796288,5.05339384079,
1.48514773221,0.46129508851,0,-1.32728118019,-0.00388052844692,17,2.81563520432,5.42048168182,
1.50019432874,0.432326277475,0,-1.36410563747,-0.00412029553379,18,3.00940942764,5.7938709259,
1.51622654767,0.401458700876,0,-1.40306297899,-0.00435887472235,19,3.20644855499,6.17365455627,
1.5332596478,0.368660410623,0,-1.44411103351,-0.00459272680522,20,3.4067504406,6.55980539322,
1.55131031842,0.333900412302,0,-1.48721965974,-0.00482281781175,21,3.61022758484,6.95213317871,
1.57039334149,0.297150095682,0,-1.53233708658,-0.0050474700509,22,3.81673979759,7.35032510757,
1.59052302213,0.258381804208,0,-1.57939883357,-0.00526490157807,23,4.02602624893,7.75386381149,
1.61171080441,0.217573126535,0,-1.62831958909,-0.00547278314984,24,4.23773527145,8.16201210022,
1.63396670194,0.17470594285,0,-1.67900480459,-0.00567008012409,25,4.45139932632,8.57382774353,
1.65729786725,0.129767378549,0,-1.73133748219,-0.00585425552143,26,4.66642522812,8.9880771637,
1.68170716138,0.0827531420989,0,-1.78517730758,-0.00602275998662,27,4.88205289841,9.40326309204,
1.70719267697,0.0336675250334,0,-1.84035461374,-0.00617228477065,28,5.09741783142,9.81761169434,
1.73374869199,-0.0174751675325,0,-1.89668931102,-0.00630165498398,29,5.31150722504,10.2290992737,
1.76136280866,-0.0706491863923,0,-1.95396407542,-0.00640671555535,30,5.52321338654,10.6354446411,
1.790017384,-0.125816861411,0,-2.01194503056,-0.00648560729591,31,5.73130464554,11.0342025757,
1.81968809934,-0.182926694174,0,-2.07037578153,-0.0065358177358,32,5.93451118469,11.4227867126,
1.8503434834,-0.241915742178,0,-2.1289611881,-0.00655298742367,33,6.13155555725,11.798614502,
1.88194681973,-0.302706757803,0,-2.18740769419,-0.00653735092042,34,6.32120895386,12.1591701508,
1.91445566983,-0.365212003012,0,-2.2454002954,-0.00648648466809,35,6.50231790543,12.5021095276,
1.94782187314,-0.429333726187,0,-2.30260321026,-0.00639806368328,36,6.67390871048,12.8254375458,
1.98199488492,-0.494965592642,0,-2.3586950495,-0.00627369976081,37,6.8352227211,13.1275253296,
2.0169198689,-0.561995545645,0,-2.41333444209,-0.00611115811076,38,6.98570919037,13.4072437286,
2.0525419888,-0.630308667441,0,-2.46619817142,-0.0059124707279,39,7.12516450882,13.6639900208,
2.08880545468,-0.699790040274,0,-2.51695756385,-0.00567703051317,40,7.25354909897,13.8976602554,
2.12565733762,-0.770326176901,0,-2.56531640427,-0.00540843666426,41,7.37116146088,14.1086997986,
2.16304518552,-0.84180835845,0,-2.61096805103,-0.00510560504091,42,7.47852325439,14.2979869843,
2.20092274518,-0.91413454177,0,-2.65364972158,-0.00477339106682,43,7.57633781433,14.4668369293,
2.23924567075,-0.987210789938,0,-2.69308776028,-0.00384566818982,44,7.66553640366,14.6168622971,
2.27797581525,-1.06095127227,0,-2.72904351719,-0.00350603642016,45,7.74706411362,14.7498350143,
2.31708075375,-1.13528160216,0,-2.76128923626,-0.00314423588143,46,7.82198381424,14.8677330017,
2.35653282971,-1.21013549926,0,-2.78961273923,-0.00276175548012,47,7.89142847061,14.9726009369,
2.39631010861,-1.28545908095,0,-2.81380397844,-0.00235880244602,48,7.95646715164,15.066444397,
2.43639590115,-1.36120609405,0,-2.8336705119,-0.00193709493927,49,8.01821327209,15.1512413025,
2.47677876325,-1.43734125258,0,-2.84901861601,-0.00149650754214,50,8.07767391205,15.2288684845,
2.517452496,-1.51383737685,0,-2.85966336678,-0.00103789903403,51,8.13583660126,15.3011522293,
2.55841471524,-1.59067682387,0,-2.86540656147,-0.000559974882593,52,8.19364833832,15.3697490692,
2.59966875882,-1.66784814956,0,-2.86606449062,-6.41487771897e-05,53,8.25192737579,15.4362287521,
2.64121987195,-1.74534801604,0,-2.86142512772,0.000452337524282,54,8.3114528656,15.501958847,
2.68307854504,-1.82317976119,0,-2.85127877126,0.000989248241784,55,8.3729095459,15.5683021545,
2.72525717587,-1.90135196807,0,-2.83539551005,0.00154856515006,56,8.4369802475,15.6365156174,
2.76777150006,-1.97987989547,0,-2.8135286379,0.00213178376058,57,8.50414085388,15.7076473236,
2.81063963742,-2.05878333213,0,-2.78541470361,0.00274074876409,58,8.57495117188,15.7827529907,
2.85388161511,-2.13808683517,0,-2.75076864927,0.00337750601511,59,8.64973640442,15.8628644943,
2.89751889081,-2.21782044532,0,-2.7092789459,0.00404462126388,60,8.72887134552,15.9489088058,
2.94157435269,-2.29801801803,0,-2.66061456085,0.00474399247012,61,8.81251049042,16.0417079926,
2.98607088895,-2.37871770026,0,-2.6044184838,0.0054781522601,62,8.90081691742,16.142206192,
3.03103281827,3.82322307466,0,-2.5403168463,0.00624871869909,63,8.99386692047,16.2512588501,
3.076482552,3.74138589738,0.0,-2.46790940313,0.00705830483625,64,9.09155273438,16.3698043823,
3.12244345517,3.65890498994,0.0,-2.38679259068,0.0079072066929,65,9.19373512268,16.4986133575,
3.11424927541,3.57572360871,0,-2.1758012532,0.0205670629835,66,9.30020141602,16.6387424469,