lower angle,upper angle,holding angle,system x,acceleration,ticks (200 tps),lower acceleration (shoulder),upper acceleration (elbow),
1.32515609,0.790309276,0,-1.01796725616,-0.16161435293,1,0.0,0.0,
1.32515609,0.790309276,0,-1.01796725616,0.0,2,0.0,0.0,
1.32515609,0.790309276,0,-1.01796725616,0.0,3,0.0,0.0,
1.32771956656,0.785347308532,0,-1.02460070717,-0.00105293804604,4,0.512697637081,0.992356181145,
1.33102452491,0.778959121123,0,-1.03318684842,-0.00136286386414,5,0.660989522934,1.27763199806,
1.33512007926,0.771060313598,0,-1.04389571091,-0.00169975385066,6,0.81905567646,1.57980418205,
1.34000622962,0.76164659442,0,-1.05670157115,-0.00203255893463,7,0.977270483971,1.88272368908,
1.3456882212,0.750708903686,0,-1.07161500484,-0.00236703098434,8,1.13637495041,2.18757820129,
1.35217272971,0.738231982604,0,-1.0886329874,-0.00270100741386,9,1.29691982269,2.49534273148,
1.35946881507,0.724199141875,0,-1.10777106478,-0.0030374413004,10,1.45918989182,2.80658435822,
1.36758601401,0.708590354339,0,-1.12903268893,-0.00337440658903,11,1.623447299,3.12178087234,
1.3765352938,0.691383685485,0,-1.15242620736,-0.00371268757902,12,1.78989708424,3.44135212898,
1.38632905219,0.672555293456,0,-1.17796452574,-0.00405300428752,13,1.95878016949,3.76575231552,
1.39698064063,0.652078475371,0.0,-1.20565477388,-0.00439438992296,14,2.13030576706,4.09538650513,
1.40850388739,0.629925097838,0.0,-1.23549883799,-0.00473610069531,15,2.30470466614,4.43069267273,
1.42091452811,0.606065120116,0,-1.26750711966,-0.00507945024376,16,2.48215126991,4.77203226089,
1.43422877524,0.580466594115,0,-1.30168135187,-0.00542306013875,17,2.66285824776,5.11978912354,
1.44846331809,0.553095664397,0,-1.33801374829,-0.00576542815577,18,2.84697246552,5.47425746918,
1.46363627646,0.52391752185,0,-1.37650185173,-0.00610739372463,19,3.03465604782,5.83572244644,
1.47976577018,0.492896403686,0,-1.41713095885,-0.00644699796007,20,3.22599124908,6.20435571671,
1.49687039588,0.459996070281,0,-1.45988100419,-0.00678337765493,21,3.42104268074,6.58026218414,
1.51496922705,0.425179805175,0,-1.50472555921,-0.00711559346015,22,3.61982679367,6.96344614029,
1.53407990668,0.38841184558,0,-1.5516150411,-0.00743992831035,23,3.82227134705,7.35373783112,
1.55422055457,0.349659289733,0,-1.60050766998,-0.00775760045677,24,4.02821207047,7.7508149147,
1.57540690635,0.308889712707,0,-1.65132252749,-0.00806193570749,25,4.23743104935,8.15418815613,
1.59765374396,0.266075934783,0,-1.70397907055,-0.00835383881804,26,4.4495382309,8.56309318542,
1.62097251151,0.221195067779,0,-1.75836291458,-0.00862754431138,27,4.66404485703,8.97652626038,
1.64537322257,0.174231376067,0,-1.81436229447,-0.00888362590455,28,4.8803396225,9.39320755005,
1.67085969184,0.125175799743,0,-1.87180758839,-0.0091126697703,29,5.09761381149,9.81154632568,
1.69743287299,0.074030722991,0,-1.93053548855,-0.0093153419255,30,5.31493425369,10.2296361923,
1.72508704398,0.0208075899038,0,-1.99033091376,-0.00948449741104,31,5.5312037468,10.6452617645,
1.75381123755,-0.0344688039866,0,-2.05096683261,-0.00961764810397,32,5.74518728256,11.0559501648,
1.78358685706,-0.0917598348704,0,-2.11217915743,-0.0097089067329,33,5.95558261871,11.4590129852,
1.81438910697,-0.151013527497,0,-2.17368329117,-0.00975502483836,34,6.16092681885,11.8515853882,
1.84618556235,-0.212162647828,0,-2.2351691548,-0.00975196131334,35,6.35984563828,12.2308034897,
1.8789375994,-0.27512708722,0,-2.29630886353,-0.00969689509456,36,6.55094718933,12.593870163,
1.91259896491,-0.339812431916,0,-2.35675053979,-0.00958596529145,37,6.73295354843,12.9382019043,
1.94711959098,-0.406113777741,0,-2.41614754452,-0.00942012265293,38,6.90478515625,13.2615432739,
1.98244416449,-0.473918114289,0,-2.47413264974,-0.00919604530342,39,7.06562948227,13.5621747971,
2.01851451133,-0.543105278596,0,-2.53034506762,-0.00891476099794,40,7.21487998962,13.8388023376,
2.0552719805,-0.613552246675,0,-2.58443895612,-0.00857863143862,41,7.35227394104,14.0908489227,
2.09265696738,-0.685135994538,0,-2.63606579336,-0.00818724804124,42,7.47789573669,14.3182830811,
2.13061272834,-0.757736359223,0,-2.68490524637,-0.00774507172287,43,7.59205627441,14.5216426849,
2.16908490393,-0.831237946137,0,-2.73065083878,-0.00694232784513,44,7.69541692734,14.7020616531,
2.20802390311,-0.905534420594,0,-2.77301478381,-0.00642898909935,45,7.78876924515,14.8610038757,
2.24738490317,-0.980527554139,0,-2.81173217628,-0.00587549144082,46,7.87317562103,15.0003471375,
2.2871278498,-1.05612865506,0,-2.84655270405,-0.00528403260787,47,7.94968748093,15.1220912933,
2.32722031806,-1.13226190625,0,-2.87725172561,-0.00465850575652,48,8.01952457428,15.2284641266,
2.36763417456,-1.20886102734,0,-2.90360984991,-0.00399971241864,49,8.08389186859,15.3217153549,
2.40834891532,-1.28587165891,0,-2.92543185335,-0.00331130918632,50,8.14402294159,15.4040632248,
2.44934832785,-1.36324993192,0,-2.94251753705,-0.00259256372368,51,8.20104217529,15.4776000977,
2.49062239859,-1.44096199094,0,-2.95467932677,-0.00184538391237,52,8.25607776642,15.5443954468,
2.53216731284,-1.51898375569,0,-2.96173861351,-0.00107113025109,53,8.3101682663,15.6063308716,
2.57398259375,-1.59729949056,0,-2.96350350873,-0.000267788949566,54,8.36425113678,15.665145874,
2.61607300971,-1.67590180455,0,-2.95978237677,0.000564600343242,55,8.41925048828,15.7225131989,
2.6584461901,-1.75479045926,0,-2.95036645178,0.00142863530693,56,8.47591400146,15.7797870636,
2.70111453269,-1.8339721304,0,-2.9350430702,0.00232479074044,57,8.53499126434,15.8384590149,
2.74409329627,-1.91345969258,0,-2.91358100509,0.00325604781897,58,8.59706878662,15.8996562958,
2.78740012381,-1.99327174245,0,-2.88572770082,0.004225594279,59,8.66275310516,15.9645519257,
2.83105551932,-2.07343188344,0,-2.85121379881,0.00523597251127,60,8.7324848175,16.0342292786,
2.8750814173,-2.15396872579,0,-2.80974339144,0.00629120477701,61,8.80660629272,16.1096134186,
2.91950165961,-2.23491540967,0,-2.760999062,0.00739455228718,62,8.88543605804,16.1916503906,
2.96433961127,-2.31631032048,0,-2.70462915209,0.00855120090871,63,8.96911334991,16.2812614441,
3.00962054465,3.88499030055,0.0,-2.64026985124,0.00976289499293,64,9.05781173706,16.3793621063,
3.05536973212,3.80256899776,0.0,-2.56753227915,0.011033484221,65,9.15141677856,16.4866962433,
3.10161101554,3.71955975474,0,-2.48600678316,0.0123662239204,66,9.24991416931,16.6043338776,
3.13481754726,3.63590701999,0,-2.36152590493,0.0188815537742,67,9.35301589966,16.7330856323,