lower angle,upper angle,holding angle,system x,acceleration,ticks (200 tps),lower acceleration (shoulder),upper acceleration (elbow),
1.101395926,1.345454982,0,-0.866688714798,-0.548768919574,1,0.0,0.0,
1.101395926,1.345454982,0,-0.866688714798,0.0,2,0.0,0.0,
1.101395926,1.345454982,0,-0.866688714798,0.0,3,0.0,0.0,
1.10444434595,1.33957653351,0,-0.876206497758,-0.00602421314903,4,0.609607934952,1.1756272316,
1.10832627726,1.3320949585,0,-0.88833651534,-0.00767687514186,5,0.776461839676,1.49630594254,
1.11314090204,1.32283382721,0,-0.903435411903,-0.00955482805198,6,0.962921857834,1.8522516489,
1.11888440561,1.31179647751,0,-0.9214737462,-0.0114104207806,7,1.1486748457,2.20750665665,
1.12556155634,1.29897146531,0,-0.942453454283,-0.0132697237632,8,1.33539366722,2.56496047974,
1.13318189097,1.28433924027,0,-0.96639334605,-0.0151405276721,9,1.52408242226,2.92645478249,
1.14175780726,1.26787453003,0,-0.993318304387,-0.0170263532226,10,1.71526277065,3.29296779633,
1.151304564,1.24954872437,0,-1.02326716996,-0.0189361391519,11,1.9092912674,3.66522908211,
1.16183694315,1.22932844468,0,-1.05625400642,-0.0208544113519,12,2.10657811165,4.04403877258,
1.17337449503,1.20717792817,0,-1.09232785018,-0.0228037538776,13,2.30752420425,4.43018722534,
1.1859372468,1.18305569001,0.0,-1.13151737864,-0.0247707202889,14,2.51258206367,4.82454299927,
1.19954808664,1.15691595383,0.0,-1.17385869213,-0.0267602501697,15,2.72220849991,5.22800731659,
1.21423228693,1.12870865174,0,-1.21938950873,-0.0287722528794,16,2.93686938286,5.64151096344,
1.23001750422,1.09837894745,0,-1.26814611484,-0.0308079261956,17,3.15708780289,6.06607055664,
1.24693425608,1.06586628266,0,-1.32016313146,-0.032864583724,18,3.38340568542,6.50273227692,
1.26501544428,1.03110390015,0,-1.37546474764,-0.034936676839,19,3.61636710167,6.9525718689,
1.28429778528,0.994021228033,0,-1.43408703626,-0.0370307053259,20,3.85655713081,7.41673755646,
1.30481942606,0.954541018682,0,-1.49603921934,-0.0391301141099,21,4.10455083847,7.89633274078,
1.32662328196,0.912579825597,0,-1.56133822513,-0.0412393650471,22,4.36093902588,8.39252281189,
1.34975417566,0.868049910741,0,-1.62998277699,-0.0433480766381,23,4.62631130219,8.90641784668,
1.37425883722,0.820856860357,0,-1.70193956305,-0.0454360600618,24,4.90117406845,9.43902301788,
1.4001868577,0.770903399664,0,-1.7771654545,-0.047495662858,25,5.18598079681,9.99119853973,
1.42759068918,0.718088439184,0,-1.85559962231,-0.0495177363194,26,5.48108863831,10.5636024475,
1.45652230692,0.662309458929,0,-1.93713145766,-0.051468968738,27,5.78666973114,11.1565294266,
1.48703273249,0.603464892583,0,-2.02159997262,-0.0533179733859,28,6.10265445709,11.7698001862,
1.5191734643,0.541456988531,0,-2.10881795006,-0.0550453843174,29,6.4286236763,12.4025611877,
1.55298884821,0.476197531896,0,-2.19850514917,-0.0565967940169,30,6.76375770569,13.0530910492,
1.58851846171,0.407611182409,0,-2.2903266758,-0.0579381247227,31,7.10669565201,13.7186393738,
1.62579139185,0.335643580633,0,-2.38386132316,-0.0590144831286,32,7.45539474487,14.3950805664,
1.66482146692,0.260268023687,0,-2.47857607611,-0.0597543782428,33,7.80705928802,15.0768165588,
1.70560630274,0.181495478826,0,-2.5738655943,-0.0601126977053,34,8.15810394287,15.7566556931,
1.74812062693,0.0993779213005,0,-2.66899547547,-0.0600049646309,35,8.50415039063,16.4257793427,
1.79231437159,0.0140202552849,0,-2.76314968527,-0.0593841594745,36,8.8401222229,17.0741043091,
1.83810933542,-0.0744192092842,0,-2.85540990302,-0.0581845009548,37,9.16063976288,17.690782547,
1.88540204477,-0.165727326197,0,-2.94481833762,-0.0563807033988,38,9.46025848389,18.2648830414,
1.93406232309,-0.259642788691,0,-3.03035165789,-0.0539322423597,39,9.73403167725,18.7865142822,
1.9839428277,-0.35586280517,0,-3.11102645475,-0.0508649019874,40,9.97811698914,19.2477645874,
2.03488143397,-0.454060742182,0,-3.18586107541,-0.0471789310785,41,10.1899967194,19.6435012817,
2.08671458674,-0.553899475855,0,-3.25398312833,-0.0429429891738,42,10.3689680099,19.9719924927,
2.13928206873,-0.655051895899,0,-3.31459111856,-0.0382021949503,43,10.5159034729,20.2347717285,
2.19243606043,-0.757211396021,0,-3.36700952136,-0.0330368971515,44,10.6332454681,20.4363231659,
2.24604590845,-0.860105225367,0,-3.41067067923,-0.0275130826904,45,10.7245512009,20.5833969116,
2.30000337076,-0.963502356333,0,-3.44512229725,-0.0217075307736,46,10.7941093445,20.6840820313,
2.35422213984,-1.06721419982,0,-3.47000405184,-0.0156761328979,47,10.8463878632,20.7470245361,
2.40863831949,-1.17109460525,0,-3.48503528792,-0.00946897373574,48,10.8859701157,20.7807846069,
2.46320994806,-1.27503843002,0,-3.48999754546,-0.00312559426792,49,10.9170398712,20.79347229,
2.51791366053,-1.37897653274,0,-3.48470715147,0.0033318713674,50,10.9434700012,20.7923202515,
2.57274278116,-1.48287100486,0,-3.46900243657,0.00988956484773,51,10.9686136246,20.7836475372,
2.62770589304,-1.58671230964,0,-3.44272697579,0.0165441001334,52,10.9953355789,20.7729511261,
2.68282254648,-1.69051236801,0,-3.40571039633,0.0233045015944,53,11.0260925293,20.7647457123,
2.73812278223,-1.79430360488,0,-3.35775704389,0.0301861087525,54,11.062921524,20.7629508972,
2.79364570093,4.38505153962,0,-3.29864659966,0.0372048793018,55,11.1074228287,20.7707824707,
2.84943612528,4.28112035103,0,-3.22810666172,0.0443936225576,56,11.1609563828,20.7909927368,
2.90554364634,4.17701440163,0,-3.1458150287,0.0517832398462,57,11.2244615555,20.8259601593,
2.96202262354,4.07264952965,0,-3.05140256911,0.0594023835064,58,11.2987699509,20.8777885437,
3.01892789316,3.96793227501,0,-2.94443725554,0.0672910012683,59,11.3841981888,20.9483757019,
3.0763171525,3.86275964089,0,-2.82444325702,0.0754752438688,60,11.4809455872,21.0394763947,
3.13424523783,3.75702052422,0,-2.69089375675,0.0839903648715,61,11.5888595581,21.1528987885,
3.09041927544,3.65059404679,0,-2.28150968179,0.257434423522,62,11.7075815201,21.2904930115,