lower angle,upper angle,holding angle,system x,acceleration,ticks (200 tps),lower acceleration (shoulder),upper acceleration (elbow),
2.175444687,-1.230559399,0,-0.90367150976,-0.0559158278412,1,0.0,0.0,
2.175444687,-1.230559399,0,-0.90367150976,0.0,2,0.0,0.0,
2.175444687,-1.230559399,0,-0.90367150976,0.0,3,0.0,0.0,
2.17895373165,-1.23733668553,0,-0.909966135054,-0.000389474034656,4,0.701742351055,1.35542941093,
2.18365010082,-1.24640660512,0,-0.918367451804,-0.000519817077618,5,0.939267516136,1.81393647194,
2.18961151897,-1.25790267216,0,-0.929061105594,-0.000661644138784,6,1.19230377674,2.2992401123,
2.19681557476,-1.271782925,0,-0.941970073927,-0.000798701961838,7,1.44079995155,2.77604866028,
2.20524414836,-1.28801207768,0,-0.957025153742,-0.000931475428923,8,1.68575942516,3.24589681625,
2.21488150417,-1.30655818211,0,-0.97415976167,-0.0010601269646,9,1.92747676373,3.70924043655,
2.22570999919,-1.32738595234,0,-0.993295406166,-0.00118391870027,10,2.16575169563,4.16559410095,
2.23771151363,-1.35045724141,0,-1.01435343593,-0.0013028386968,11,2.40029573441,4.61430692673,
2.25086506664,-1.37573056447,0,-1.03723382481,-0.00141556609345,12,2.63080024719,5.05471324921,
2.26515015422,-1.40316157567,0,-1.06184503868,-0.00152262852348,13,2.85701131821,5.48626852036,
2.28054341137,-1.43270354497,0.0,-1.08807016922,-0.00162246059242,14,3.078738451,5.90851211548,
2.29702194988,-1.46430783497,0.0,-1.11579641474,-0.00171530960127,15,3.2957971096,6.32101726532,
2.31456192791,-1.49792437779,0,-1.14489943423,-0.00180046380215,16,3.5080678463,6.72349834442,
2.33313902675,-1.53350215184,0,-1.17524582921,-0.00187736172775,17,3.71548438072,7.11570358276,
2.35272845089,-1.57098870503,0,-1.20669484131,-0.00194555239251,18,3.91800951958,7.49752998352,
2.37330588161,-1.61033206212,0,-1.2390993534,-0.00200463867893,19,4.11566305161,7.86892318726,
2.39484747707,-1.65148024785,0,-1.27230727499,-0.00205431767163,20,4.30853557587,8.22997283936,
2.41733034908,-1.69438271748,0,-1.30615994717,-0.00209418178662,21,4.49673843384,8.58077716827,
2.44073160945,-1.73898892628,0,-1.34048904228,-0.0021236298211,22,4.68041706085,8.92160701752,
2.46502932369,-1.7852507137,0,-1.37511601994,-0.00214203287355,23,4.85980319977,9.25279426575,
2.49020346462,-1.83312182652,0,-1.4098608377,-0.00214930069765,24,5.03513240814,9.57471466064,
2.5162354356,-1.88255887257,0,-1.44453429607,-0.00214486444578,25,5.20669746399,9.88784599304,
2.54310807048,-1.93351941334,0,-1.47894348394,-0.00212849154798,26,5.37481021881,10.192732811,
2.57080515682,-1.98596625554,0,-1.51287486277,-0.00209891219848,27,5.53980779648,10.4899663925,
2.59931382,-2.0398641132,0,-1.54612049746,-0.00205647212234,28,5.70208072662,10.7802467346,
2.62862166225,-2.09518199193,0,-1.57845072885,-0.00199982719571,29,5.86199235916,11.0642166138,
2.65871914684,-2.15189128148,0,-1.60963479967,-0.00192890989226,30,6.0199637413,11.3426990509,
2.68959864437,-2.20996957051,0,-1.63942363709,-0.00184258819014,31,6.17640399933,11.6164665222,
2.72125490963,-2.26939683186,0,-1.66756210679,-0.00174048534641,32,6.33172082901,11.8863372803,
2.75368365108,-2.33015828358,0,-1.69377381225,-0.00162129046704,33,6.48632097244,12.1532154083,
2.78688343822,-2.39224343525,0,-1.71777373141,-0.00148446674109,34,6.64062833786,12.4179944992,
2.82085570156,-2.455646088,0,-1.73926655315,-0.00132938045361,35,6.79506111145,12.6816539764,
2.8556018716,-2.52036576497,0,-1.75793185325,-0.00115447908482,36,6.94995164871,12.9451198578,
2.89112671672,-2.58640723454,0,-1.77344074214,-0.000959239006936,37,7.10569429398,13.2094650269,
2.92743595897,-2.65377907979,0,-1.7854492355,-0.000742727194174,38,7.2626285553,13.475736618,
2.9645367509,-2.72249751317,0,-1.79359663806,-0.000503912403419,39,7.42104578018,13.7450017929,
3.00243862926,-2.79258256184,0,-1.79751607258,-0.000242412108217,40,7.58129549026,14.0185050964,
3.04115208446,-2.86406188237,0,-1.79682814528,4.25469573987e-05,41,7.74359416962,14.2973947525,
3.08068808376,-2.93696885335,0,-1.79114791177,0.000351307315348,42,7.90828800201,14.5830459595,
3.12106093227,-3.01134400593,0,-1.78009217053,0.000683760441294,43,8.07563686371,14.8767910004,
3.12089989523,-3.08723550068,0,-1.75147599675,0.00176978193441,44,8.24601078033,15.1801567078,