lower angle,upper angle,holding angle,system x,acceleration,ticks (200 tps),lower acceleration (shoulder),upper acceleration (elbow),
2.354452829,-1.714349745,0,-0.730439672626,-0.0311759936959,1,0.0,0.0,
2.354452829,-1.714349745,0,-0.730439672626,0.0,2,0.0,0.0,
2.354452829,-1.714349745,0,-0.730439672626,0.0,3,0.0,0.0,
2.35739634478,-1.7199974043,0,-0.736549254134,-0.000260755761888,4,0.588713407516,1.12951493263,
2.36134074175,-1.72756242582,0,-0.744726659451,-0.00034900666652,5,0.788812160492,1.51301455498,
2.36637614214,-1.73720550367,0,-0.755178462533,-0.000446065609954,6,1.00711143017,1.92861557007,
2.37248347246,-1.74888944455,0,-0.767842627908,-0.000540480700896,7,1.22142314911,2.33675146103,
2.37964938128,-1.76258897611,0,-0.782660702104,-0.000632399637128,8,1.43323230743,2.73994445801,
2.38786433184,-1.77828407117,0,-0.79958284205,-0.000722189897436,9,1.64302682877,3.13900995255,
2.39711831057,-1.79595279523,0,-0.818555256092,-0.000809683377864,10,1.85078763962,3.53379368782,
2.40739987337,-1.81557226011,0,-0.839509744625,-0.000894264604194,11,2.0563480854,3.92390751839,
2.41869757616,-1.83711719343,0,-0.862378810394,-0.000975962941009,12,2.25955820084,4.30901432037,
2.43099902117,-1.86056089231,0,-0.887085102664,-0.00105435956228,13,2.46031165123,4.688788414,
2.44429133379,-1.88587522336,0.0,-0.913544775015,-0.00112917483801,14,2.65847969055,5.0629734993,
2.45856116259,-1.91303157636,0.0,-0.941664503559,-0.00120000612334,15,2.85400271416,5.43135452271,
2.47379515612,-1.94199991056,0,-0.97134725596,-0.00126669958008,16,3.04684305191,5.79379653931,
2.4899794861,-1.97275066205,0,-1.00248333562,-0.00132870921273,17,3.23698806763,6.15019512177,
2.50710127794,-2.00525235959,0,-1.0349661985,-0.00138617172907,18,3.42443180084,6.50048875809,
2.5251471802,-2.03947496244,0,-1.06867319254,-0.00143839727673,19,3.60924696922,6.84473133087,
2.54410384142,-2.07538890668,0,-1.10347145434,-0.00148495271706,20,3.79147911072,7.18296098709,
2.56395934069,-2.11296415159,0,-1.1392287873,-0.00152586719248,21,3.97123551369,7.5153169632,
2.58470175707,-2.15217304059,0,-1.17579702638,-0.00156045448354,22,4.14865016937,7.84200382233,
2.60632060015,-2.19298791715,0,-1.21302596251,-0.00158863362603,23,4.32387542725,8.1632566452,
2.62880490267,-2.23538303205,0,-1.25074727858,-0.00160962945819,24,4.49707078934,8.47934150696,
2.65214608156,-2.27933454343,0,-1.2887906931,-0.00162336174932,25,4.66843366623,8.79064178467,
2.67633555376,-2.32482003995,0,-1.32697089493,-0.0016291871201,26,4.83818006516,9.09750938416,
2.70136712038,-2.37181997129,0,-1.3650968411,-0.00162685345333,27,5.00654792786,9.40044212341,
2.72723458254,-2.4203171713,0,-1.40296023493,-0.00161563618583,28,5.17376327515,9.69988441467,
2.75393317186,-2.4702963812,0,-1.4403433496,-0.00159513013742,29,5.34009790421,9.99639225006,
2.78146050417,-2.5217461569,0,-1.47701912275,-0.00156493559736,30,5.50579118729,10.2905483246,
2.80981419527,-2.57465791532,0,-1.5127426658,-0.00152429687072,31,5.67112588882,10.5829811096,
2.83899424517,-2.62902641126,0,-1.54726017631,-0.00147282944003,32,5.83635854721,10.8743486404,
2.86900065386,-2.68484973737,0,-1.58030061074,-0.00140979341852,33,6.00176858902,11.1654109955,
2.89983628237,-2.74213027784,0,-1.61158453595,-0.00133483747266,34,6.16761398315,11.4569206238,
2.93150446856,-2.80087470838,0,-1.64081738711,-0.00124731464592,35,6.3341627121,11.7497005463,
2.96400998079,-2.86109304258,0,-1.6676943312,-0.00114678696709,36,6.50166845322,12.0446119308,
2.99735901796,-2.92280101606,0,-1.69189978662,-0.00103279500239,37,6.67041349411,12.3426361084,
3.03155920946,-2.98601960965,0,-1.71310991075,-0.000904985564978,38,6.84068012238,12.64478302,
3.06661913836,-3.05077409574,0,-1.73099464863,-0.000763095564936,39,7.01271438599,12.9520683289,
3.10254929506,-3.1170964224,0,-1.74522082412,-0.000606989038001,40,7.18687582016,13.2657155991,
3.13936255419,-3.18502473661,0,-1.75545485901,-0.000436652037013,41,7.36350393295,13.5869455338,