lower angle,upper angle,holding angle,system x,acceleration,ticks (200 tps),lower acceleration (shoulder),upper acceleration (elbow),
2.130692665,-1.118062055,0,-0.937124772936,-0.0589013239118,1,0.0,0.0,
2.130692665,-1.118062055,0,-0.937124772936,0.0,2,0.0,0.0,
2.130692665,-1.118062055,0,-0.937124772936,0.0,3,0.0,0.0,
2.13435715856,-1.12514833201,0,-0.943612933081,-0.000407773447993,4,0.732836484909,1.41724300385,
2.13926047506,-1.1346302389,0,-0.952266971223,-0.000543892029172,5,0.980707943439,1.89639568329,
2.14547557058,-1.14663175333,0,-0.963266202429,-0.000691277186265,6,1.24303221703,2.40027046204,
2.15297955694,-1.16110900629,0,-0.976535106789,-0.000833915014489,7,1.50075340271,2.89550971985,
2.16175288381,-1.17802575816,0,-0.991991858756,-0.000971404674105,8,1.75470817089,3.38337349892,
2.17177838506,-1.19734672297,0,-1.00956761996,-0.00110456847043,9,2.0051445961,3.86418247223,
2.18303746404,-1.21903327692,0,-1.02918594124,-0.00123292205241,10,2.25180053711,4.33734607697,
2.19550913991,-1.24304345835,0,-1.05075303257,-0.0013553785299,11,2.49433898926,4.80213356018,
2.20917100133,-1.26933244456,0,-1.07416534669,-0.00147132960081,12,2.73241305351,5.25779628754,
2.22399920644,-1.29785016764,0,-1.09931952243,-0.00158078376423,13,2.96574354172,5.70371246338,
2.23996943655,-1.3285465597,0.0,-1.12609923179,-0.00168292294352,14,3.19407010078,6.13932991028,
2.25705498876,-1.36136678446,0.0,-1.15437663681,-0.00177702225144,15,3.41720438004,6.56418704987,
2.27522916021,-1.39625505198,0,-1.18401945985,-0.00186281165001,16,3.63497853279,6.97791385651,
2.29446524801,-1.43315509547,0,-1.2148887061,-0.00193985413118,17,3.84729790688,7.38022136688,
2.31473511877,-1.47200874079,0,-1.24683104596,-0.00200727381764,18,4.05413913727,7.77096652985,
2.33601159276,-1.51275781382,0,-1.27969318173,-0.00206505904995,19,4.2554769516,8.15006637573,
2.35826796712,-1.55534414042,0,-1.31331688329,-0.00211289870602,20,4.45139932632,8.51758766174,
2.38147706213,-1.59971050013,0,-1.34752688317,-0.00214972590081,21,4.64202642441,8.87366485596,
2.4056136054,-1.645801103,0,-1.38214988793,-0.00217566278796,22,4.8275475502,9.21856021881,
2.43065280141,-1.69356206644,0,-1.41700005264,-0.00218992238264,23,5.0081486702,9.55261421204,
2.45657176198,-1.74294093836,0,-1.45189231309,-0.00219254759986,24,5.18411254883,9.87626075745,
2.48334902944,-1.79388812769,0,-1.48663257279,-0.0021829816138,25,5.35575151443,10.189994812,
2.51096457662,-1.84635738123,0,-1.5210159275,-0.00216054010379,26,5.5234375,10.4944496155,
2.53940028371,-1.9003053068,0,-1.55483158971,-0.00212485389529,27,5.68751096725,10.7902822495,
2.56863993825,-1.95569280375,0,-1.58785774096,-0.00207523014479,28,5.84839487076,11.078168869,
2.59867066564,-2.01248363245,0,-1.61987495607,-0.00201181892958,29,6.00652599335,11.3589191437,
2.62947959127,-2.07064584483,0,-1.6506384069,-0.00193302499784,30,6.1623468399,11.6333522797,
2.66105860891,-2.13015321482,0,-1.67990499643,-0.00183895726656,31,6.31629991531,11.9023151398,
2.69340008916,-2.19098190058,0,-1.70741418036,-0.00172851977765,32,6.46887016296,12.1667423248,
2.7264997405,-2.25311473597,0,-1.73289363873,-0.00160097067931,33,6.62049531937,12.4275112152,
2.76035422506,-2.31653741587,0,-1.75605538212,-0.00145533019754,34,6.77161216736,12.6856155396,
2.79496449651,-2.38124183405,0,-1.77660441427,-0.00129115626947,35,6.92271852493,12.9420661926,
2.83033198537,-2.44722560633,0,-1.79422097794,-0.0011068932197,36,7.07420873642,13.1979122162,
2.86646050634,-2.51448968638,0,-1.80857586493,-0.000901947842553,37,7.22647666931,13.4541378021,
2.90335578146,-2.58304265726,0,-1.81932037096,-0.000675095531753,38,7.37990522385,13.7118968964,
2.94102544012,-2.65289643992,0,-1.82609574962,-0.000425705550001,39,7.53482723236,13.9723052979,
2.97947854223,-2.72407201517,0,-1.82852430352,-0.000152588029297,40,7.69159889221,14.2365722656,
3.01872605505,-2.79659322489,0,-1.82622337005,0.000144568518633,41,7.85047674179,14.5059213638,
3.05877942266,-2.87049297083,0,-1.81879694208,0.000466600495165,42,8.01176071167,14.7816295624,
3.09965247335,-2.94580939997,0,-1.80584972804,0.00081346452382,43,8.17572879791,15.0651226044,
3.14135998907,-3.02258924235,0,-1.78698583824,0.00118519079296,44,8.34269046783,15.3578605652,
3.09926712491,-3.10088590372,0,-1.74373773833,0.00271719674065,45,8.51297092438,15.6614160538,