lower angle,upper angle,holding angle,system x,acceleration,ticks (200 tps),lower acceleration (shoulder),upper acceleration (elbow),
1.235652028,1.007432301,0,-0.967245059178,-0.369750507275,1,0.0,0.0,
1.235652028,1.007432301,0,-0.967245059178,0.0,2,0.0,0.0,
1.235652028,1.007432301,0,-0.967245059178,0.0,3,0.0,0.0,
1.23919778911,1.00056918378,0,-0.977054562055,-0.00374937106573,4,0.709080457687,1.37261688709,
1.24376922694,0.991722423986,0,-0.989697807058,-0.00483221031123,5,0.914338290691,1.76929795742,
1.24945455638,0.980738003209,0,-1.00547925498,-0.00603131519483,6,1.13705945015,2.19691848755,
1.25625520793,0.967608292058,0,-1.02437177851,-0.00721998778803,7,1.36015450954,2.62597036362,
1.26418119518,0.952313263372,0,-1.04638628799,-0.00841273809475,8,1.58514094353,3.05903625488,
1.27324634639,0.934823353246,0,-1.07153148979,-0.00960871796954,9,1.81304526329,3.49800801277,
1.28346878139,0.915102798894,0,-1.09983223017,-0.0108139940676,10,2.04450821877,3.94411873817,
1.29486852733,0.893111069158,0,-1.13130870535,-0.0120269772638,11,2.28001785278,4.39833068848,
1.30746894923,0.868803341344,0,-1.16599316827,-0.0132521865034,12,2.5200984478,4.86166954041,
1.32129484264,0.84212811704,0,-1.20389743339,-0.0144608920983,13,2.76526880264,5.33511543274,
1.33637481776,0.813030083135,0.0,-1.24505004634,-0.015698814624,14,3.01601672173,5.81967115402,
1.35273891536,0.781449158147,0.0,-1.28946414485,-0.0169397438511,15,3.27288651466,6.31636619568,
1.37042003719,0.747319061712,0,-1.33714501078,-0.0181845631452,16,3.53636431694,6.82613420486,
1.38945442287,0.71057065244,0,-1.38810823694,-0.0194352330754,17,3.80690717697,7.34989595413,
1.40987831203,0.671130020574,0,-1.44233087971,-0.0206772093451,18,4.08492517471,7.88841724396,
1.43173128215,0.628919918493,0,-1.49979290435,-0.0219111475376,19,4.37077474594,8.44237232208,
1.45505338756,0.583860714391,0,-1.56044577844,-0.0231268156973,20,4.66465234756,9.01215267181,
1.47988515941,0.535873730138,0,-1.62422452601,-0.0243176020347,21,4.96666526794,9.59788513184,
1.50626712886,0.484880287603,0,-1.69103430443,-0.0254721027835,22,5.27665090561,10.1992511749,
1.53423648921,0.430806477025,0,-1.76072997919,-0.0265712142762,23,5.59419775009,10.8153772354,
1.5638270959,0.373586971715,0,-1.83313076226,-0.0276013228028,24,5.91856575012,11.4447469711,
1.59506708232,0.313166458562,0,-1.90799569577,-0.0285394326671,25,6.2485833168,12.0850095749,
1.62797742931,0.249507744268,0,-1.98504377841,-0.0293703916563,26,6.58258724213,12.7328109741,
1.66256576625,0.182595093206,0,-2.06389508453,-0.0300559845403,27,6.91840076447,13.3837490082,
1.69882827846,0.112441379979,0,-2.14412957275,-0.0305818825357,28,7.25323629379,14.0322666168,
1.73674255458,0.0390904736074,0,-2.22521567295,-0.0309051321853,29,7.58381748199,14.6717481613,
1.77626901714,-0.0373732257334,0,-2.30658126477,-0.0310102804012,30,7.90632295609,15.2946434021,
1.8173471078,-0.116826694056,0,-2.38756642375,-0.030863932403,31,8.21677398682,15.8928394318,
1.85989576427,-0.199105899378,0,-2.46745265075,-0.0304437954514,32,8.51105117798,16.4581546783,
1.9038158044,-0.284007709071,0,-2.54549548383,-0.029740000939,33,8.7853717804,16.9829330444,
1.94899087993,-0.371297519251,0,-2.62091161875,-0.028737751804,34,9.03653812408,17.4606933594,
1.99529367534,-0.460715930506,0,-2.69293357721,-0.0274420234483,35,9.26226520538,17.8867034912,
2.0425916299,-0.55199209933,0,-2.76082131889,-0.0258656404298,36,9.46133232117,18.2583999634,
2.09075075237,-0.64485279803,0,-2.82387114355,-0.0240208370377,37,9.63370800018,18.5755157471,
2.13964372722,-0.739035766169,0,-2.88144722908,-0.0219342916829,38,9.78054141998,18.8400154114,
2.18915325252,-0.834295909449,0,-2.93299012852,-0.0196350222264,39,9.9038476944,19.0556564331,
2.23917442409,-0.930415313288,0,-2.97799121694,-0.01714219943,40,10.0063648224,19.2276515961,
2.28962045757,-1.02720658068,0,-3.01603293609,-0.0144905171568,41,10.0913362503,19.3620376587,
2.34041982738,-1.12451330905,0,-3.04674730172,-0.0116987842782,42,10.1621046066,19.4652252197,
2.39151912776,-1.22221199755,0,-3.06982609976,-0.00879009149636,43,10.2220516205,19.5436096191,
2.44287973491,-1.32020823245,0,-3.08499456083,-0.00577348667973,44,10.2743835449,19.6032180786,
2.49447876064,-1.41843692546,0,-3.09200790777,-0.00266920392132,45,10.3220911026,19.649728775,
2.5463066682,-1.51685754542,0,-3.0906392487,0.000520861220514,46,10.3678655624,19.6881389618,
2.59836488811,-1.61545173411,0,-3.08065863649,0.00379799984422,47,10.414059639,19.7228908539,
2.65066629497,-1.7142204452,0,-3.06183957947,0.00716088230511,48,10.4626865387,19.7577819824,
2.70323186961,-1.81318132167,0,-3.03393366057,0.0106178143313,49,10.5155258179,19.7962551117,
2.75609022227,-1.91236655001,0,-2.99666902228,0.0141775241433,50,10.5741214752,19.8411808014,
2.80927568523,-2.01182142977,0,-2.94973711254,0.0178543003055,51,10.6396198273,19.8951225281,
2.86282831279,-2.11160198931,0,-2.89279815274,0.0216598309534,52,10.7130708694,19.9603309631,
2.91679149715,4.07141049619,0,-2.8254652805,0.0256119975936,53,10.7952470779,20.0388622284,
2.9712114915,3.97076900716,0,-2.74730714753,0.0297277790563,54,10.8866910934,20.1326084137,
3.02613597957,3.86957414861,0,-2.65785110213,0.0340226249471,55,10.9876461029,20.2433853149,
3.0816131219,3.76773198362,0,-2.55658531435,0.0385107635374,56,11.0982961655,20.3729362488,
3.13769060222,3.66513951536,0,-2.44296974819,0.0432041995201,57,11.2184123993,20.5230903625,
3.0887711103,3.56168492551,0,-2.0903550686,0.134078610979,58,11.3477916718,20.6956977844,