lower angle,upper angle,holding angle,system x,acceleration,ticks (200 tps),lower acceleration (shoulder),upper acceleration (elbow),
1.996436564,-0.790309276,0,-1.01796723654,-0.0661627817937,1,0.0,0.0,
1.996436564,-0.790309276,0,-1.01796723654,0.0,2,0.0,0.0,
1.996436564,-0.790309276,0,-1.01796723654,0.0,3,0.0,0.0,
2.00057360318,-0.798333014861,0,-1.02526862116,-0.000474537768449,4,0.8273614645,1.60468399525,
2.00610729841,-0.809065665618,0,-1.03500097979,-0.000632528030002,5,1.10671615601,2.14656472206,
2.01309010175,-0.822592582122,0,-1.04730626741,-0.000799739789337,6,1.39662075043,2.70539355278,
2.02150007871,-0.838871802703,0,-1.06210351769,-0.000961684207205,7,1.68201828003,3.25584435463,
2.03131672529,-0.85786327304,0,-1.07931008005,-0.00111825212724,8,1.96334064007,3.79834771156,
2.04251953748,-0.879526461974,0,-1.09883696532,-0.00126903425859,9,2.24057531357,4.33272171021,
2.05508610395,-0.90381702365,0,-1.12058358596,-0.00141327310033,10,2.51331233978,4.85809087753,
2.06899115232,-0.930683459655,0,-1.14444312077,-0.00155056815181,11,2.78106713295,5.37340211868,
2.08420750287,-0.960070933715,0,-1.17029454374,-0.00167999441265,12,3.0433216095,5.87763404846,
2.10070559171,-0.991919841186,0,-1.19800421653,-0.00180073376502,13,3.29967021942,6.36986780167,
2.1184529939,-1.02616485538,0.0,-1.22742530641,-0.00191193389146,14,3.54965472221,6.84918117523,
2.13741728452,-1.06273778857,0.0,-1.25841489316,-0.00201384626242,15,3.79293775558,7.31484365463,
2.15756270078,-1.10156759204,0,-1.29079850782,-0.0021044169339,16,4.02921676636,7.76616191864,
2.17885347989,-1.14257940234,0,-1.32441007194,-0.00218419583972,17,4.25827074051,8.2026348114,
2.20125195173,-1.18569692554,0,-1.35906105645,-0.0022517220719,18,4.47993564606,8.62386894226,
2.22472139982,-1.230842914,0,-1.39456801919,-0.00230732508005,19,4.69412851334,9.02959251404,
2.24922463086,-1.27793964328,0,-1.43073572167,-0.00235023686817,20,4.90087127686,9.41979408264,
2.27472445157,-1.32690986575,0,-1.46735815313,-0.00237976802833,21,5.10025405884,9.794506073,
2.30118509916,-1.37767728747,0,-1.50423053864,-0.00239599341291,22,5.29242372513,10.1540079117,
2.3285717645,-1.43016752185,0,-1.54114041888,-0.00239840985206,23,5.47768545151,10.4986801147,
2.35685154584,-1.48430952014,0,-1.57787066797,-0.00238671838538,24,5.65629959106,10.8290271759,
2.38599297193,-1.54003414096,0,-1.61420075243,-0.00236069119781,25,5.82868337631,11.1456985474,
2.41596695569,-1.59727796496,0,-1.64989988278,-0.00231967370906,26,5.99529409409,11.4495124817,
2.44674774793,-1.655979957,0,-1.68474763538,-0.00226433417051,27,6.15660810471,11.7413043976,
2.47831102994,-1.71608528079,0,-1.71850227435,-0.00219321400089,28,6.31316804886,12.0219945908,
2.5106358209,-1.77754386844,0,-1.75092217808,-0.00210645892146,29,6.46555757523,12.2926301956,
2.54370447782,-1.84030994357,0,-1.78176582386,-0.00200402702173,30,6.61435317993,12.554271698,
2.57750221875,-1.90434488238,0,-1.81077694764,-0.00188493847773,31,6.76018476486,12.808057785,
2.61201712278,-1.9696143526,0,-1.83769380014,-0.00174884769039,32,6.90363645554,13.0550460815,
2.64724012998,-2.03609022082,0,-1.86224184461,-0.0015949237054,33,7.04538202286,13.2965145111,
2.68316599515,-2.10375150622,0,-1.88413634325,-0.00142250731123,34,7.18595790863,13.5335388184,
2.71979233411,-2.17258199634,0,-1.9030820837,-0.00123091284636,35,7.32606124878,13.7674236298,
2.75711867002,-2.24257072391,0,-1.91876573332,-0.00101896409955,36,7.46614789963,13.9992675781,
2.79514834073,-2.31371530475,0,-1.930857669,-0.000785604896446,37,7.60684299469,14.2303714752,
2.8338870683,-2.38601669253,0,-1.93901724745,-0.000530116491019,38,7.74864292145,14.4619350433,
2.87334200528,-2.45948490085,0,-1.94287543454,-0.000250659155036,39,7.8920135498,14.6952342987,
2.91352316526,-2.53413375796,0,-1.94205540059,5.32755192713e-05,40,8.03737449646,14.9315290451,
2.95444294599,-2.60998472156,0,-1.93616249816,0.000382843709202,41,8.18508434296,15.1721115112,
2.99611422208,-2.68706687869,0,-1.92478193272,0.000739354462849,42,8.33551216125,15.4183835983,
3.03855272916,-2.76541503848,0,-1.9074941034,0.00112311727764,43,8.48890113831,15.6716909409,
3.08177372602,-2.84507211627,0,-1.88386685995,0.00153493488649,44,8.64554786682,15.9335479736,
3.12579485563,-2.92608817996,0,-1.853471268,0.0019746236683,45,8.80566692352,16.2054805756,
3.11255011571,-3.00852235736,0,-1.77542961531,0.00506987063273,46,8.96957874298,16.489200592,