lower angle,upper angle,holding angle,system x,acceleration,ticks (200 tps),lower acceleration (shoulder),upper acceleration (elbow),
1.235652028,1.007432301,0,-0.967245059178,-0.824407955689,1,0.0,0.0,
1.235652028,1.007432301,0,-0.967245059178,0.0,2,0.0,0.0,
1.235652028,1.007432301,0,-0.967245059178,0.0,3,0.0,0.0,
1.22576230985,1.02668286341,0,-0.940289073394,0.0229638981603,4,-1.97795963287,-3.85014224052,
1.21279163507,1.05199749808,0,-0.905117650089,0.0299579972082,5,-2.59417152405,-5.06299495697,
1.19659712759,1.08360626216,0,-0.861075153646,0.0375082948563,6,-3.23897266388,-6.32188558578,
1.17728949932,1.12129649188,0,-0.808402868874,0.0448508732845,7,-3.86164426804,-7.53826761246,
1.15497895179,1.16485104378,0,-0.747325265599,0.0520001569241,8,-4.4622964859,-8.71125793457,
1.12977924046,1.21404321905,0,-0.678082653467,0.0589418388756,9,-5.04020881653,-9.83893299103,
1.10181185452,1.26862983818,0,-0.600957613832,0.0656416975188,10,-5.59384012222,-10.9180049896,
1.07120473531,1.32835396047,0,-0.51628207969,0.0720570019973,11,-6.12190341949,-11.9457168579,
1.03808928875,1.39295067306,0,-0.424437895877,0.0781455004823,12,-6.62369680405,-12.9204730988,
1.00259734539,1.46215303655,0,-0.325856315355,0.0838653186704,13,-7.09913682938,-13.8418521881,
0.964857964193,1.53569807525,0.0,-0.2210149788,0.0891760308034,14,-7.54877471924,-14.7106676102,
0.924994347965,1.61333306547,0.0,-0.110435763506,0.0940412281186,15,-7.97377490997,-15.5289583206,
0.88312142936,1.69482036348,0,0.00531720437443,0.0984261968285,16,-8.37580394745,-16.2997169495,
0.839343248284,1.77994193549,0,0.125642836623,0.102298898743,17,-8.75703334808,-17.026889801,
0.793751297867,1.86850293393,0,0.249903143626,0.105628779373,18,-9.11997032166,-17.7151088715,
0.746423004543,1.96033485647,0,0.377423647645,0.108384542084,19,-9.46742343903,-18.3696117401,
0.697420893585,2.05529709573,0,0.507492386318,0.110532716786,20,-9.80239582062,-18.9960289001,
0.646791456616,2.15327902551,0,0.639359017944,0.112044388965,21,-10.1280517578,-19.600353241,
0.594565509236,2.25420137163,0,0.772225618041,0.112877452892,22,-10.4475688934,-20.1887817383,
0.540757654583,2.35801621194,0,0.905245844477,0.11299156648,23,-10.7641716003,-20.7676506042,
0.485366521752,2.4647086453,0,1.03751640219,0.112338327039,24,-11.0810499191,-21.3435497284,
0.428375123417,2.57429726835,0,1.16807142408,0.110865336837,25,-11.4013576508,-21.9232368469,
0.369751451885,2.68683572526,0,1.29587701935,0.108513264417,26,-11.7280912399,-22.5136489868,
0.309448061859,2.8024144959,0,1.41983259864,0.105229280859,27,-12.0643463135,-23.1222476959,
0.247402845299,2.92116316076,0,1.53877163089,0.100956290513,28,-12.4130220413,-23.7567558289,
0.183538137352,3.04325350042,0,1.65147173592,0.0956475585004,29,-12.7772712708,-24.4256782532,
0.117759166634,3.16890414472,0,1.75666839396,0.0892671476273,30,-13.1605377197,-25.138463974,