lower angle,upper angle,holding angle,system x,acceleration,ticks (200 tps),lower acceleration (shoulder),upper acceleration (elbow),
2.041188603,-0.898280405,0,-0.99416309873,-0.192611504978,1,0.0,0.0,
2.041188603,-0.898280405,0,-0.99416309873,0.0,2,0.0,0.0,
2.041188603,-0.898280405,0,-0.99416309873,0.0,3,0.0,0.0,
2.0311233529,-0.87867206943,0,-0.976881753745,0.00334772094173,4,-2.01306724548,-3.92169857025,
2.01792861867,-0.852892928317,0,-0.95440252484,0.00435452412053,5,-2.63898491859,-5.15589952469,
2.00134716715,-0.820484325782,0,-0.925933843893,0.00551457289572,6,-3.31636667252,-6.48186302185,
1.98131392311,-0.781308763221,0,-0.891234847868,0.00672117328467,7,-4.00678253174,-7.83536434174,
1.9577323326,-0.735171668723,0,-0.849959534061,0.00799456523653,8,-4.71653747559,-9.22782707214,
1.93048149134,-0.681832500294,0,-0.80168509125,0.00934984245585,9,-5.45050573349,-10.6684703827,
1.89942424531,-0.621019088224,0,-0.745938408143,0.0107966953452,10,-6.21194887161,-12.1636199951,
1.86441267069,-0.552438579992,0,-0.682213287984,0.0123414107497,11,-7.00303077698,-13.7174520493,
1.82529554303,-0.475791894391,0,-0.609997959719,0.013985068375,12,-7.82442331314,-15.3312149048,
1.78193003471,-0.390797101453,0,-0.528813394748,0.0157212497829,13,-8.67445755005,-17.0015220642,
1.73419905241,-0.297223531202,0.0,-0.438271589475,0.0175324555143,14,-9.54801177979,-18.7181243896,
1.68203458722,-0.194938503698,0.0,-0.338149576859,0.0193868613753,15,-10.4352617264,-20.461479187,
1.62544704016,-0.0839644302876,0,-0.228489618094,0.021232871226,16,-11.3205366135,-22.2005214691,
1.5645554715,0.0354604492633,0,-0.109695336897,0.0230008330871,17,-12.1820745468,-23.892074585,
1.49961197908,0.162834263846,0,0.0173809776068,0.0246036460107,18,-12.993265152,-25.4833946228,
1.43100834425,0.29737780194,0,0.151405840869,0.0259484198888,19,-13.7261123657,-26.9188671112,
1.3592566305,0.438072300956,0,0.290608273224,0.026950272132,20,-14.3564929962,-28.1505241394,
1.28494245346,0.583751894042,0,0.432902294069,0.0275482424333,21,-14.869679451,-29.1488265991,
1.20866132315,0.733228064582,0,0.576070895853,0.0277169821622,22,-15.2636384964,-29.9091873169,
1.13095766838,0.885409928366,0,0.71794381517,0.0274655772159,23,-15.5485506058,-30.4510917664,
1.05228227909,1.03938863377,0,0.856525978966,0.0268278740998,24,-15.7432126999,-30.8109931946,
0.972972636775,1.19447515111,0,0.990067526684,0.0258515339336,25,-15.8702344894,-31.0328464508,
0.893254285411,1.35019800763,0,1.11706480394,0.0245839870675,26,-15.9521303177,-31.1603755951,
0.813252335147,1.50628111462,0,1.23622469663,0.0230663553348,27,-16.008934021,-31.2324485779,
0.733009105281,1.66260717015,0,1.34641608038,0.0213298415701,28,-16.0572547913,-31.2811889648,
0.652500515537,1.81918881039,0,1.44659733778,0.0193917739026,29,-16.1104297638,-31.3324012756,
0.571650152759,1.97613928418,0,1.53576723399,0.0172599648715,30,-16.1788902283,-31.4062347412,
0.490341072635,2.13365171055,0,1.61290743549,0.0149310792182,31,-16.2707767487,-31.518825531,
0.40842474039,-3.99119975467,0,1.67693424644,0.0123924957138,32,-16.3924407959,-31.683429718,
0.32572734888,-3.83172681232,0,1.72666707618,0.00962553614968,33,-16.5488986969,-31.9115276337,
0.242055540637,-3.67074444194,0,1.76081282316,0.00660844950175,34,-16.7441253662,-32.213973999,
0.157199626521,-3.50782658954,0,1.77797016249,0.00332045035204,35,-16.9813919067,-32.6017112732,
0.0709347778123,-3.34248831172,0,1.77666972178,-0.0002516668351,36,-17.2636814117,-33.0865859985,
0.0169812387664,-3.17417647739,0,1.74962977438,-0.00523275332886,37,-17.5945301056,-33.6823577881,