lower angle,upper angle,holding angle,system x,acceleration,ticks (200 tps),lower acceleration (shoulder),upper acceleration (elbow),
1.011891864,1.58584836,0,-0.780734897519,-1.85382890647,1,0.0,0.0,
1.011891864,1.58584836,0,-0.780734897519,0.0,2,0.0,0.0,
1.011891864,1.58584836,0,-0.780734897519,0.0,3,0.0,0.0,
1.00402998528,1.60106344396,0,-0.75404462409,0.0632859837447,4,-1.57238376141,-3.0430316925,
0.993759106604,1.62100119391,0,-0.71931851063,0.0823053879764,5,-2.05419397354,-3.9875831604,
0.980859448893,1.64604398483,0,-0.675680191544,0.103384608489,6,-2.57996749878,-5.00862407684,
0.965411677716,1.67603703463,0,-0.623397242429,0.123812749571,7,-3.08961582184,-5.99872112274,
0.94748223549,1.71084824824,0,-0.562685343579,0.143713591699,8,-3.58598351479,-6.96242046356,
0.92713355994,1.75035095089,0,-0.493755750548,0.163097619476,9,-4.069876194,-7.90080070496,
0.904430113493,1.79441290968,0,-0.416844040358,0.181908743259,10,-4.54088449478,-8.81274604797,
0.87943880981,1.842896043,0,-0.332219448885,0.200067977882,11,-4.998524189,-9.69711112976,
0.852227501331,1.89565941566,0,-0.240186407365,0.217494744363,12,-5.44259643555,-10.5532932281,
0.822863347588,1.95256206268,0,-0.141084788964,0.234110365876,13,-5.87325382233,-11.3812923431,
0.791411466656,2.0134659397,0.0,-0.035292426856,0.249843931483,14,-6.29089450836,-12.1817216873,
0.757933310924,2.07823905223,0.0,0.0767742829581,0.264585319246,15,-6.69625663757,-12.9557552338,
0.722485296188,2.14675810808,0,0.194659000841,0.278166592505,16,-7.09034633636,-13.7051525116,
0.685117594658,2.21891102069,0,0.317863333314,0.29057600097,17,-7.47441196442,-14.4321537018,
0.645872972665,2.29459932321,0,0.445844673096,0.301697322481,18,-7.84992837906,-15.1394824982,
0.604785941301,2.3737405824,0,0.578012486014,0.31141917891,19,-8.21855545044,-15.8303012848,
0.561882070957,2.45626953119,0,0.713725345852,0.319610764037,20,-8.58209323883,-16.5081520081,
0.51717697805,2.54214122766,0,0.85228778987,0.326167025286,21,-8.94250583649,-17.1769943237,
0.470676205812,2.63133194917,0,0.992945541132,0.330940986731,22,-9.30182266235,-17.8411178589,
0.422374747453,2.72384169572,0,1.13488239025,0.333790918418,23,-9.66217136383,-18.5052719116,
0.372256539522,2.81969585889,0,1.27721867755,0.334567346701,24,-10.0257444382,-19.1745262146,
0.320294163881,2.91894760603,0,1.41901031073,0.333115993885,25,-10.3948068619,-19.8544425964,
0.266448102651,3.02168109888,0,1.55925125211,0.329312694234,26,-10.7718133926,-20.5512580872,
0.210666142164,3.1280137586,0,1.69687709223,0.323073692572,27,-11.1592655182,-21.2715511322,