lower angle,upper angle,holding angle,system x,acceleration,ticks (200 tps),lower acceleration (shoulder),upper acceleration (elbow),
1.32515609,0.790309276,0,-1.01796725616,-0.668763007956,1,0.0,0.0,
1.32515609,0.790309276,0,-1.01796725616,0.0,2,0.0,0.0,
1.32515609,0.790309276,0,-1.01796725616,0.0,3,0.0,0.0,
1.3143990656,0.811276517377,0,-0.990732867395,0.0178843329869,4,-2.15142583847,-4.19348669052,
1.30025845502,0.838908686802,0,-0.955115051287,0.0233864868058,5,-2.82816934586,-5.52652168274,
1.2826335441,0.873352195636,0,-0.91053707456,0.0292658279121,6,-3.52507328987,-6.88887310028,
1.26164167855,0.914381663815,0,-0.857206812731,0.0350075262223,7,-4.19852590561,-8.20618057251,
1.2374066535,0.961753855959,0,-0.795330924842,0.0406120525977,8,-4.84724330902,-9.47488021851,
1.21006092165,1.01520551325,0,-0.725142563769,0.0460618506076,9,-5.46948719025,-10.6909713745,
1.17974896465,1.07444878997,0,-0.646931306233,0.0513205559969,10,-6.0628528595,-11.849521637,
1.14662530754,1.13917478503,0,-0.561048519962,0.0563474513814,11,-6.62533855438,-12.9463310242,
1.11085064445,1.20906140985,0,-0.467909232735,0.0611007732541,12,-7.15569591522,-13.9787502289,
1.07258790467,1.28378086866,0,-0.367989950329,0.0655403107477,13,-7.65348291397,-14.9456329346,
1.03199776743,1.36300846519,0.0,-0.261824059476,0.0696275594199,14,-8.11914253235,-15.8475971222,
0.989234593847,1.44643052997,0.0,-0.149996111651,0.0733307714543,15,-8.55393886566,-16.6868476868,
0.944442716577,1.53375169219,0,-0.0331355509279,0.0766217133259,16,-8.95986747742,-17.467010498,
0.897753295639,1.62470098914,0,0.0880894528719,0.0794736648792,17,-9.33958435059,-18.1929950714,
0.849281785229,1.71903642596,0,0.212978172185,0.0818650388543,18,-9.69619846344,-18.8705825806,
0.799126264789,1.81654855193,0,0.340798944738,0.0837754075623,19,-10.0332126617,-19.5063037872,
0.747366127708,1.91706320228,0,0.470790078298,0.0851873739735,20,-10.3543281555,-20.1071472168,
0.694061813095,2.02044173659,0,0.602158490391,0.0860794937808,21,-10.6633758545,-20.6803436279,
0.639254567364,2.12658306541,0,0.734073157762,0.086426625236,22,-10.9642086029,-21.2332706451,
0.582965967396,2.23542329253,0,0.865664802407,0.0862047781531,23,-11.2606887817,-21.7734184265,
0.525199529865,2.34693499984,0,0.996012148195,0.0853790101457,24,-11.55651474,-22.3081703186,
0.465940413215,2.46112927379,0,1.12413647522,0.0839133341179,25,-11.8552951813,-22.8450698853,
0.405156490543,2.57805415572,0,1.24899530462,0.0817653125488,26,-12.1605348587,-23.391702652,
0.342799243667,2.69779738368,0,1.36947499668,0.0788886928403,27,-12.4754867554,-23.9558334351,
0.278804061153,2.82048686923,0,1.48439335635,0.0752387804048,28,-12.8034009933,-24.5456428528,
0.213090536335,2.94629391612,0,1.59250486135,0.0707742295313,29,-13.1474494934,-25.1697673798,
0.145560977199,3.07543739261,0,1.69251548556,0.0654623933659,30,-13.5110330582,-25.8377113342,
0.0760990354803,3.2081881422,0,1.78309996007,0.0592858239627,31,-13.8979692459,-26.5599708557,