lower angle,upper angle,holding angle,system x,acceleration,ticks (200 tps),lower acceleration (shoulder),upper acceleration (elbow),
1.57079632679,0.0,0,1.87524041119e-15,5.50767575695e-17,1,0.0,0.0,
1.57087834279,-0.00015926361084,0,-0.000421404837959,-1.19598259341e-05,2,0.0163504686207,0.0318212658167,
1.57104618947,-0.000486850738525,0,-0.00126212833673,-2.38602474699e-05,3,0.033557638526,0.0654884204268,
1.57129843632,-0.000979423522949,0,-0.00252217041233,-3.57605470124e-05,4,0.0504454895854,0.0984981283545,
1.57163412968,-0.00163507461548,0,-0.00419735847847,-4.75422452193e-05,5,0.0671701952815,0.131175816059,
1.57205326954,-0.00245332717896,0,-0.00629395041893,-5.95014294226e-05,6,0.0838033258915,0.16368278861,
1.57255490223,-0.00343370437622,0,-0.00878899731528,-7.08091111553e-05,7,0.100336581469,0.196017727256,
1.57313855092,-0.00457429885864,0,-0.0116929280374,-8.24126646122e-05,8,0.116776362062,0.228154987097,
1.57380421559,-0.00587463378906,0,-0.0150119979968,-9.41935259829e-05,9,0.133093699813,0.260083973408,
1.57455046574,-0.00733375549316,0,-0.0187149104076,-0.000105086112223,10,0.149288237095,0.291763931513,
1.57537730137,-0.00894927978516,0,-0.0228329512509,-0.000116866376463,11,0.165341183543,0.323169827461,
1.57628329197,-0.0107207298279,0,-0.0273285614219,-0.000127580653579,12,0.181230142713,0.35427621007,
1.57726843754,-0.0126461982727,0,-0.0322267634474,-0.000139004904932,13,0.196961089969,0.38506090641,
1.57833083073,-0.014723777771,0,-0.0374941651276,-0.000149481428456,14,0.212514579296,0.41551053524,
1.57947047154,-0.0169515609741,0,-0.0431557820702,-0.000160667714798,15,0.227877542377,0.445574998856,
1.58068545262,-0.0193276405334,0,-0.0491782149673,-0.000170905239171,16,0.24302880466,0.475246489048,
1.58197529713,-0.0218501091003,0,-0.0555718681239,-0.000181438505338,17,0.257972419262,0.504502594471,
1.58333857457,-0.0245170593262,0,-0.0623179360627,-0.000191438124259,18,0.272696197033,0.533321380615,
1.58477480809,-0.0273251533508,0,-0.0694455861687,-0.000202265420238,19,0.287180900574,0.561671257019,
1.58628161351,-0.0302729606628,0,-0.0769005402428,-0.000208962350111,20,0.301421046257,0.589545428753,
1.58785851399,-0.0333576202393,0,-0.0847056954197,-0.000218777067649,21,0.315403431654,0.616900384426,
1.58950407902,-0.0365762710571,0,-0.0928547380558,-0.000228414636751,22,0.329114198685,0.643726944923,
1.59121687809,-0.0399260520935,0,-0.101341347384,-0.000237875060031,23,0.342556834221,0.670017659664,
1.5929954807,-0.0434050559998,0,-0.110146680964,-0.00024680716006,24,0.355706393719,0.695739150047,
1.59483845631,-0.0470089912415,0,-0.119283174605,-0.000256087809453,25,0.368560940027,0.720860481262,
1.5967438976,-0.05073595047,0,-0.128717371748,-0.00026443059909,26,0.381112277508,0.745390892029,
1.59871085087,-0.0545825958252,0,-0.13846377664,-0.000273179252665,27,0.393354386091,0.769308209419,
1.60073693196,-0.058545589447,0,-0.148493090247,-0.000281107086509,28,0.405265539885,0.792563378811,
1.60282118718,-0.0626215934753,0,-0.158819798086,-0.000289440883431,29,0.416858494282,0.815175771713,
1.60496170918,-0.0668067932129,0,-0.169435436959,-0.000297537443699,30,0.428110033274,0.837113916874,
1.60715706746,-0.0710988044739,0,-0.180327364911,-0.000305279427887,31,0.439010709524,0.858354926109,
1.60940487782,-0.0754933357239,0,-0.191478764207,-0.000312550114943,32,0.449568718672,0.878910541534,
1.61170370976,-0.0799870491028,0,-0.202889487321,-0.00031981623138,33,0.459763288498,0.898737192154,
1.61405165593,-0.0845761299133,0,-0.214551038948,-0.000326844436444,34,0.469598263502,0.917851686478,
1.61644680897,-0.0892572402954,0,-0.226448663472,-0.000333459053113,35,0.479062736034,0.936213970184,
1.61888773839,-0.0940265655518,0,-0.23858843917,-0.000330344321497,36,0.488143712282,0.953812837601,
1.62137205998,-0.0988798141479,0,-0.250953511408,-0.000336472826062,37,0.496854007244,0.970668077469,
1.62389786641,-0.103813648224,0,-0.26352910519,-0.000342198959454,38,0.50517553091,0.986741900444,
1.62646325032,-0.108823776245,0,-0.276312941673,-0.00034786345713,39,0.513104498386,1.00202965736,
1.6290667812,-0.113906383514,0,-0.289311063599,-0.000353692152095,40,0.520642995834,1.01653039455,
1.63170559804,-0.119057178497,0,-0.302492016276,-0.000350981563586,41,0.52778428793,1.03022217751,
1.63437827031,-0.124272823334,0,-0.31585558479,-0.000355820765476,42,0.534520506859,1.04311060905,
1.63708241383,-0.129549026489,0,-0.329384892157,-0.000359392322172,43,0.540858507156,1.05518805981,
1.63981612126,-0.134881019592,0,-0.343083878861,-0.000363897474049,44,0.546778380871,1.06643772125,
1.64257796208,-0.140265464783,0,-0.356952309987,-0.000368396431508,45,0.552299797535,1.07688140869,
1.64536459843,-0.145697593689,0,-0.370950413358,-0.000371838826838,46,0.557403326035,1.08646512032,
1.64817507664,-0.151174068451,0,-0.385092522693,-0.000375661942199,47,0.562096178532,1.0952334404,
1.65100701252,-0.15668964386,0,-0.399374239534,-0.000379367550911,48,0.56637942791,1.10317444801,
1.65385849873,-0.162240982056,0,-0.413780762547,-0.000382680667283,49,0.570246458054,1.11026465893,
1.65672667424,-0.167823314667,0,-0.428286907071,-0.00038532453805,50,0.57368761301,1.11649703979,
1.65961058537,-0.173433303833,0,-0.442906991082,-0.00038834888973,51,0.576725363731,1.12190365791,
1.66250737111,-0.179065227509,0,-0.457628310174,-0.000391035807885,52,0.579342842102,1.12646687031,
1.66541464726,-0.18471622467,0,-0.472415312031,-0.000392778256573,53,0.581543445587,1.13019001484,
1.66833146016,-0.190381526947,0,-0.487301013986,-0.000395397174307,54,0.583331048489,1.13306844234,
1.67125494877,-0.196057319641,0,-0.502247806532,-0.000397017521387,55,0.584694683552,1.13509345055,
1.67418320576,-0.201738357544,0,-0.51726586193,-0.000398907771913,56,0.585656702518,1.13628351688,
1.67711432377,-0.207421779633,0,-0.532334208901,-0.000400241323716,57,0.58620518446,1.13664782047,
1.68004591862,-0.213102817535,0,-0.547442279566,-0.000401294192696,58,0.586340606213,1.13616967201,
1.68297608296,-0.218777179718,0,-0.562587813377,-0.000402287061246,59,0.586069941521,1.13486075401,
1.68590338627,-0.224440574646,0,-0.577783065706,-0.000403605455674,60,0.585398316383,1.13272094727,
1.68882496754,-0.230089187622,0,-0.592990542351,-0.000403927373349,61,0.584317743778,1.12976622581,
1.69173891942,-0.235719203949,0,-0.608201803479,-0.000404025483996,62,0.582840263844,1.12598538399,
1.69464381138,-0.241326332092,0,-0.623429136741,-0.000404449756444,63,0.580968081951,1.12139940262,
1.69753725926,-0.246906280518,0,-0.638655836665,-0.000404430550281,64,0.578694224358,1.11599254608,
1.7004173557,-0.252455234528,0,-0.653873502016,-0.000404188166969,65,0.576029241085,1.10980129242,
1.70328219334,-0.257969379425,0,-0.669073750192,-0.000403723151273,66,0.57297039032,1.10279107094,
1.70612986485,-0.263444423676,0,-0.684254425375,-0.000403200456376,67,0.569540858269,1.09501695633,
1.70895846287,-0.268876552582,0,-0.699407178744,-0.000402456468192,68,0.565720617771,1.08644199371,
1.71176608006,-0.274261951447,0,-0.714523682745,-0.000401491032432,69,0.561524033546,1.07709670067,
1.7145512859,-0.279596805573,0,-0.729610091361,-0.000400689334447,70,0.556950569153,1.06698584557,
1.71731121937,-0.284877300262,0,-0.744629197819,-0.000398899018953,71,0.552016973495,1.05611276627,
1.7200449268,-0.290100097656,0,-0.759595460114,-0.000397493056146,72,0.546711623669,1.04448282719,
1.722750024,-0.295260429382,0,-0.774498579633,-0.000395813777504,73,0.541044473648,1.03210687637,
1.72542508046,-0.300355434418,0,-0.789332393525,-0.000393970454189,74,0.535024285316,1.0190103054,
1.72806818882,-0.305381298065,0,-0.804088707994,-0.000391909823218,75,0.528651356697,1.00518357754,
1.73067791859,-0.310334682465,0,-0.818767593677,-0.000389850862441,76,0.521926939487,0.99062871933,
1.73325236241,-0.315211296082,0,-0.833367084977,-0.000387740033682,77,0.514870047569,0.975359976292,
1.73578961293,-0.320008277893,0,-0.847866684448,-0.000385084681054,78,0.507464647293,0.959397912025,
1.73828823964,-0.324721813202,0,-0.862272711275,-0.000382597560683,79,0.499721735716,0.942742526531,
1.74074633519,-0.329349040985,0,-0.876564728273,-0.000379524400258,80,0.491659730673,0.925409555435,
1.74316294591,-0.333886146545,0,-0.890763493578,-0.000377045610262,81,0.483268529177,0.907386183739,
1.7455356876,-0.338329792023,0,-0.904840396966,-0.000373806380118,82,0.474570095539,0.888731300831,
1.74786312977,-0.342676639557,0,-0.918795661314,-0.000370574243366,83,0.465531826019,0.869389593601,
1.75014431874,-0.346923351288,0,-0.932643906149,-0.000367730412258,84,0.456190824509,0.849404275417,
1.75237687031,-0.35106754303,0,-0.94634427844,-0.000363801699216,85,0.446558982134,0.82880371809,
1.75456030766,-0.355105400085,0,-0.959931983633,-0.000360807867763,86,0.436616361141,0.807559013367,
1.75669224659,-0.359034061432,0,-0.97337239975,-0.000356894302256,87,0.426372498274,0.7856990695,
1.7587712566,-0.362850189209,0,-0.986665853971,-0.000352989899242,88,0.415841728449,0.763224363327,
1.76079638402,-0.366550922394,0,-0.99982088318,-0.000349312141501,89,0.405018001795,0.740151405334,
1.76276619832,-0.370133399963,0,-1.01283167635,-0.000345479881847,90,0.393932282925,0.716503977776,
1.76467879216,-0.373594760895,0,-1.0256780992,-0.000341113292188,91,0.382542431355,0.692257642746,
1.76653321187,-0.376931667328,0,-1.03837489713,-0.000337138349926,92,0.370894044638,0.667442440987,
1.76832802693,-0.380142211914,0,-1.05090401195,-0.000332684013181,93,0.358963251114,0.642061114311,
1.77006180684,-0.383223056793,0,-1.06326587808,-0.000328241126543,94,0.346780210733,0.616135001183,
1.77173359791,-0.386171340942,0,-1.075469121,-0.00032402739153,95,0.334344118834,0.589663863182,
1.77334196965,-0.388984203339,0,-1.08750804566,-0.000319662414455,96,0.321637749672,0.562641382217,
1.77488501469,-0.391659736633,0,-1.09935035942,-0.00031444000131,97,0.308680772781,0.535101473331,
1.77636273304,-0.394195079803,0,-1.11103337451,-0.00031020850258,98,0.295488655567,0.507043540478,
1.77777274052,-0.396587371826,0,-1.12252281227,-0.000305066832279,99,0.282038748264,0.478461056948,
1.77911456028,-0.398834228516,0,-1.1338355324,-0.000300372978927,100,0.268356144428,0.449389100075,
1.78038676182,-0.400933265686,-0.0400933265686,-1.14495977567,-0.000295366655645,101,0.254433751106,0.419807940722,
1.78158839146,-0.402882099152,0.0,-1.15589810569,-0.000290428600413,102,0.240276604891,0.389752268791,
1.7827323238,-0.404706478119,0,-1.16670539591,-0.000286947673936,103,0.228815197945,0.364870220423,
1.78380282322,-0.406375408173,0,-1.17730939889,-0.000281548511046,104,0.214148119092,0.333752632141,
1.78479988972,-0.407886505127,0,-1.18774130193,-0.000276977426881,105,0.199336856604,0.302295178175,
1.78572113911,-0.40923833847,0,-1.19794853084,-0.000271010522821,106,0.18429338932,0.270354241133,
1.78656609456,-0.410428524017,0,-1.20794799071,-0.000265487695324,107,0.169031962752,0.237970739603,
1.78733427922,-0.411454200745,0,-1.21776272075,-0.000260581536355,108,0.153561651707,0.205125361681,
1.78802330891,-0.412313461304,0,-1.22734632276,-0.000254443724243,109,0.137875020504,0.171854108572,
1.78863366047,-0.413003921509,0,-1.2367442794,-0.00024951353167,110,0.121995031834,0.138154134154,
1.78916294972,-0.413524150848,0,-1.24590406393,-0.000243188704295,111,0.105910696089,0.104025512934,
1.78961117665,-0.413871765137,0,-1.25485686629,-0.00023769201888,112,0.0896294042468,0.0694923400879,
1.78997691075,-0.414044380188,0,-1.26359101387,-0.000231885479415,113,0.0731544643641,0.0345543324947,
1.79025919835,-0.414040565491,0,-1.27209683743,-0.00022582229855,114,0.0564880333841,-0.000793758779764,
1.7904575626,-0.413857936859,0,-1.28039122716,-0.000220207532253,115,0.0396422743797,-0.036538630724,
1.79057057301,-0.413494586945,0,-1.28845635707,-0.000214119643084,116,0.0226067639887,-0.072655543685,
1.79059775273,-0.412948608398,0,-1.29630296324,-0.000208316857263,117,0.00538538955152,-0.109159775078,
1.79053767125,-0.412218570709,0,-1.30390705779,-0.000201877316754,118,-0.0120082739741,-0.146032556891,
1.79038985173,-0.411302089691,0,-1.3112854971,-0.000195885351766,119,-0.0295813977718,-0.183288395405,
1.79015286366,-0.410197734833,0,-1.31841426315,-0.000189255803338,120,-0.0473241247237,-0.220895260572,
1.78982670704,-0.408903121948,0,-1.32532447703,-0.000183452614992,121,-0.0652418509126,-0.258856713772,
1.7894104282,-0.407417297363,0,-1.33200023279,-0.000177226984784,122,-0.0833180248737,-0.297166109085,
1.78890259663,-0.405738353729,0,-1.33842359724,-0.000170525505189,123,-0.101566299796,-0.335822939873,
1.78830273549,-0.403864383698,0,-1.34460520165,-0.000164106374673,124,-0.119969695807,-0.374799251556,
1.7876098911,-0.401793479919,0,-1.35054136211,-0.000157589540462,125,-0.138534530997,-0.414128422737,
1.78682358662,-0.399524688721,0,-1.35623036567,-0.000151027279253,126,-0.157252952456,-0.453761816025,
1.78594286839,-0.397056102753,0,-1.36166847263,-0.000144365815793,127,-0.176126539707,-0.493718951941,
1.78496725956,-0.394386291504,0,-1.36686006633,-0.000137820814321,128,-0.195149689913,-0.533994793892,
1.78389532963,-0.391513347626,0,-1.37178703324,-0.000130795022405,129,-0.21433134377,-0.574574947357,
1.78272755543,-0.388436317444,0,-1.37647616227,-0.000124480465771,130,-0.233641386032,-0.615447998047,
1.78146155278,-0.38515329361,0,-1.38088062341,-0.000116922804946,131,-0.253111004829,-0.656617105007,
1.78009827534,-0.381662845612,0,-1.38504762408,-0.000110618414594,132,-0.2726983428,-0.698058843613,
1.77863629262,-0.377964019775,0,-1.38894656047,-0.000103501685175,133,-0.292430639267,-0.739797115326,
1.77707465092,-0.374054908752,0,-1.39257342424,-9.62786418594e-05,134,-0.312305241823,-0.781811833382,
1.77541335026,-0.369934558868,0,-1.39594049903,-8.93817497467e-05,135,-0.332297801971,-0.824077010155,
1.77365096013,-0.365601062775,0,-1.39902934369,-8.19953416289e-05,136,-0.352424174547,-0.866615653038,
1.77178748051,-0.361054420471,0,-1.40183979183,-7.46046778656e-05,137,-0.372678786516,-0.909408569336,
1.76982243458,-0.356292247772,0,-1.40438816817,-6.76474490301e-05,138,-0.393049120903,-0.952439367771,
1.76775486867,-0.351313591003,0,-1.40665785379,-6.02491821274e-05,139,-0.413539171219,-0.995716392994,
1.76558382908,-0.34611749649,0,-1.4086321448,-5.24075804053e-05,140,-0.434149593115,-1.03923308849,
1.76330979268,-0.340702533722,0,-1.410343579,-4.5429779761e-05,141,-0.454857051373,-1.08295869827,
1.76093132893,-0.335067749023,0,-1.41176095202,-3.76237553981e-05,142,-0.475682795048,-1.12690627575,
1.75844796101,-0.329212665558,0,-1.41287552943,-2.958597476e-05,143,-0.496613532305,-1.17107021809,
1.75586016575,-0.323135375977,0,-1.41372589203,-2.25723905585e-05,144,-0.517635166645,-1.21542453766,
1.75316603581,-0.316835403442,0,-1.4142599809,-1.41767588054e-05,145,-0.538766980171,-1.2599799633,
1.75036604802,-0.310311794281,0,-1.41450384484,-6.47304186979e-06,146,-0.559990167618,-1.30472767353,
1.74745972554,-0.303563594818,0,-1.41445466568,1.30538756679e-06,147,-0.581292688847,-1.34963285923,
1.74444659153,-0.296590328217,0,-1.41410333222,9.32556714529e-06,148,-0.602672934532,-1.3947031498,
1.74132569233,-0.289390563965,0,-1.41343862708,1.76433836746e-05,149,-0.624144732952,-1.43994426727,
1.73809702794,-0.281963825226,0,-1.41246568363,2.5824860414e-05,150,-0.645683705807,-1.48532247543,
1.73476059834,-0.274310112,0,-1.41118334253,3.40370081528e-05,151,-0.667291522026,-1.53083205223,
1.73131592671,-0.266427516937,0,-1.40960079086,4.20052094808e-05,152,-0.688959240913,-1.57645750046,
1.72776253621,-0.258316516876,0,-1.40769601198,5.0557691382e-05,153,-0.710680246353,-1.62219703197,
1.72410042683,-0.249976634979,0,-1.40547379011,5.89830821197e-05,154,-0.732464909554,-1.66804480553,
1.72032912175,-0.241406440735,0,-1.40293680809,6.73371594784e-05,155,-0.754280865192,-1.71397304535,
1.71644814412,-0.232606887817,0,-1.40005648189,7.64450438905e-05,156,-0.776138961315,-1.75995206833,
1.71245797078,-0.223577022552,0,-1.3968580249,8.48878032297e-05,157,-0.79802685976,-1.8060092926,
1.70835812489,-0.214316368103,0,-1.39333134948,9.3598217761e-05,158,-0.819941759109,-1.85211336613,
1.7041490833,-0.204824924469,0,-1.38948902989,0.000101974835984,159,-0.841856956482,-1.89822900295,
1.69982989232,-0.195103168488,0,-1.38529375866,0.000111341482702,160,-0.863794922829,-1.94435727596,
1.69540150563,-0.185151100159,0,-1.38077241186,0.000119994724947,161,-0.885732114315,-1.99049043655,
1.69086344639,-0.174968242645,0,-1.37591446032,0.000128926990837,162,-0.907653391361,-2.0365858078,
1.68621523778,-0.164555072784,0,-1.37069674377,0.000138474194646,163,-0.929555892944,-2.08263206482,
1.68145831028,-0.153912067413,0,-1.36515414282,0.000147095514427,164,-0.95142608881,-2.12861728668,
1.67659218709,-0.143039226532,0,-1.35926953664,0.000156170971786,165,-0.973249197006,-2.17451405525,
1.67161686818,-0.131937980652,0,-1.35302145584,0.000165816192642,166,-0.995026767254,-2.22031092644,
1.66653330723,-0.120607852936,0,-1.34644245236,0.000174597318387,167,-1.01673781872,-2.26597976685,
1.66134150425,-0.109050750732,0,-1.33950458243,0.000184120041142,168,-1.03837621212,-2.31148338318,
1.65604193608,-0.0972666740417,0,-1.33221937384,0.000193336593018,169,-1.05992543697,-2.35681343079,
1.65063507954,-0.0852570533752,0,-1.3245794766,0.000202748189736,170,-1.08137321472,-2.40193653107,
1.64512141148,-0.0730228424072,0,-1.31658368953,0.000212191533536,171,-1.10270595551,-2.44683218002,
1.63950188557,-0.0605654716492,0,-1.30823902805,0.000221444527729,172,-1.12390911579,-2.49146795273,
1.63377697865,-0.0478863716125,0,-1.29953782532,0.000230904772602,173,-1.1449739933,-2.53582382202,
1.62794764439,-0.0349869728088,0,-1.29048689491,0.000240184100668,174,-1.16586875916,-2.57985305786,
1.62201483647,-0.0218696594238,0,-1.28108044,0.000249617115877,175,-1.18659067154,-2.62352609634,
1.61597903172,-0.00853538513184,0,-1.27131674642,0.000259095554326,176,-1.20711767673,-2.6668241024,
1.60984213749,0.00501317391172,0,-1.2612151771,0.000268059828879,177,-1.22744369507,-2.70970630646,
1.60360415379,0.0187737662345,0,-1.25074221838,0.00027791360024,178,-1.24753510952,-2.75213027,
1.5972674648,0.0327440612018,0,-1.2399361846,0.000286750540504,179,-1.26738131046,-2.79407095909,
1.59083254735,0.0469214729965,0,-1.22877360122,0.000296210340633,180,-1.28696227074,-2.83549356461,
1.58430130879,0.0613031536341,0,-1.2172712501,0.000305224811154,181,-1.30626761913,-2.87634992599,
1.57767517964,0.0758861601353,0,-1.20543000489,0.000314215925053,182,-1.32526648045,-2.91661405563,
1.57095559041,0.0906672999263,0,-1.19324740625,0.000323272229493,183,-1.34393894672,-2.95624256134,
1.56414390035,0.105643190444,0,-1.18071627786,0.000332518107644,184,-1.36226785183,-2.9951915741,
1.55724276236,0.120810233057,0,-1.16786609947,0.000340982173772,185,-1.3802331686,-3.0334239006,
1.55025372753,0.136164575815,0,-1.15468931113,0.000349646841117,186,-1.39781296253,-3.0708835125,
1.54317886295,0.151702284813,0,-1.14119300537,0.000358123255126,187,-1.41497838497,-3.10755801201,
1.5360202911,0.167419135571,0,-1.12738213555,0.00036646779721,188,-1.43172073364,-3.14338588715,
1.52878022666,0.183310672641,0,-1.11326142887,0.000374686957579,189,-1.44801938534,-3.17832684517,
1.52146107058,0.199372306466,0,-1.09883951949,0.000382676503124,190,-1.46383786201,-3.21234083176,
1.51406528155,0.215599134564,0,-1.08412271209,0.000390499092655,191,-1.47916460037,-3.24538564682,
1.50659546355,0.231986150146,0,-1.06912036578,0.000398072732911,192,-1.49397206306,-3.27742242813,
1.49905426899,0.248528167605,0,-1.05384098172,0.00040542108032,193,-1.50824642181,-3.30841970444,
1.49144446949,0.265219628811,0,-1.03829186459,0.000412575640774,194,-1.52196598053,-3.33831214905,
1.48376897077,0.282054960728,0,-1.02248420314,0.000419433318244,195,-1.53510653973,-3.36708641052,
1.47603076051,0.299028247595,0,-1.00642725918,0.000426045269215,196,-1.54764938354,-3.3946852684,
1.46823293815,0.31613355875,0,-0.990133501777,0.000432249370073,197,-1.5595728159,-3.42108106613,
1.46037866274,0.333364605904,0,-0.973612627465,0.000436603028143,198,-1.57086348534,-3.44623064995,
1.45247120509,0.350715041161,0,-0.956876976437,0.000442276159744,199,-1.58149921894,-3.47010731697,
1.44451391796,0.368178337812,0,-0.939939102733,0.000447617730668,200,-1.59146726131,-3.49267864227,
1.43651020626,0.385747730732,0,-0.922810129717,0.000452665385981,201,-1.60074949265,-3.51390123367,
1.42846357922,0.40341642499,0,-0.905503986682,0.000457344889356,202,-1.60933279991,-3.53376603127,
1.42037764291,0.421177476645,0,-0.888035658552,0.000461627682821,203,-1.61719536781,-3.55223035812,
1.41225595871,0.439023792744,0,-0.870416954079,0.000464454479424,204,-1.62434124947,-3.56928706169,
1.40410231153,0.456948190928,0,-0.8526652984,0.000466137181416,205,-1.63073968887,-3.58490753174,
1.39592039684,0.474943429232,0,-0.834794742256,0.000469242618692,206,-1.6363941431,-3.5990691185,
1.38771393994,0.49300211668,0,-0.816818425754,0.000472016802768,207,-1.64129984379,-3.61176586151,
1.37948675553,0.511116862297,0,-0.798752224442,0.000474373658241,208,-1.6454461813,-3.62297534943,
1.3712426732,0.529280245304,0,-0.780612149084,0.000476310770729,209,-1.64882850647,-3.63270258904,
1.36298550765,0.547484815121,0,-0.762413469506,0.000477846929104,210,-1.65144205093,-3.64093399048,
1.35471914808,0.565723001957,0,-0.744172257119,0.000478961109066,211,-1.65328192711,-3.64767217636,
1.34644743899,0.583987474442,0,-0.725906281549,0.000479608528454,212,-1.65435278416,-3.65291023254,
1.33817415039,0.602270662785,0,-0.707628267571,0.000477442392969,213,-1.6546677351,-3.6566734314,
1.32990315656,0.62056517601,0,-0.689356289172,0.000476105867302,214,-1.65420496464,-3.65893268585,
1.3216382126,0.638863742352,0,-0.671106459486,0.000475525800653,215,-1.6529955864,-3.65972948074,
1.31338314811,0.657158970833,0,-0.652895692005,0.000474505038383,216,-1.65102517605,-3.65906906128,
1.30514152447,0.675443649292,0,-0.634735376235,0.000473187854487,217,-1.64832472801,-3.65695953369,
1.29691715638,0.693710744381,0,-0.616646493938,0.000471324005203,218,-1.64488697052,-3.65345025063,
1.2887135605,0.711953163147,0,-0.598640769864,0.0004691546464,219,-1.64072942734,-3.64851593971,
1.28053431312,0.730164289474,0,-0.580737445586,0.000466484015723,220,-1.63585579395,-3.64223241806,
1.27238287131,0.748337209225,0,-0.562948860949,0.000463491463348,221,-1.63030278683,-3.63461112976,
1.26426260273,0.766465306282,0,-0.54528845916,0.000460149029434,222,-1.62406241894,-3.62564897537,
1.25617687503,0.78454220295,0,-0.527772589088,0.000456379382138,223,-1.61715698242,-3.61541318893,
1.24812875787,0.802561938763,0,-0.51041410637,0.000452275575296,224,-1.60962343216,-3.60395550728,
1.2401215593,0.820518016815,0,-0.493226455551,0.000447450382861,225,-1.6014444828,-3.59125137329,
1.23215825955,0.83840495348,0,-0.476225696793,0.000442582196368,226,-1.59266972542,-3.57740569115,
1.22424177925,0.856216788292,0,-0.459420790147,0.000437481082612,227,-1.58329916,-3.56240177155,
1.21637494961,0.873948276043,0,-0.442826537688,0.000431994235264,228,-1.57337713242,-3.54631948471,
1.20856048266,0.891594231129,0,-0.426455159622,0.000426189684365,229,-1.56289756298,-3.52919960022,
1.20080100099,0.909149289131,0,-0.410314484525,0.000420173747417,230,-1.55190503597,-3.51105117798,
1.1930990378,0.926608920097,0,-0.394419412695,0.00041377778946,231,-1.54039502144,-3.49194478989,
1.18545697729,0.943968474865,0,-0.378779454316,0.000407134680152,232,-1.52841615677,-3.47191405296,
1.17787714402,0.961223304272,0,-0.363402615948,0.000400282973455,233,-1.51597177982,-3.45099782944,
1.17036168376,0.97836959362,0,-0.348301386235,0.000393106246695,234,-1.50309801102,-3.42926073074,
1.16291259328,0.995403110981,0,-0.333479694468,0.000385827303171,235,-1.48982107639,-3.40673446655,
1.15553195874,1.01232028008,0,-0.318951203677,0.000378192643207,236,-1.47613298893,-3.38345575333,
1.14822147886,1.02911758423,0,-0.304719854662,0.000370455488011,237,-1.46209573746,-3.35948085785,
1.14098306099,1.04579162598,0,-0.290796595446,0.000362433468357,238,-1.4476981163,-3.33483123779,
1.13381822506,1.06233930588,0,-0.277185327554,0.000354310028128,239,-1.43297505379,-3.30957794189,
1.12672846118,1.07875800133,0,-0.263894368767,0.000345969515497,240,-1.41796338558,-3.28374743462,
1.11971528927,1.09504473209,0,-0.250929112789,0.00033748950947,241,-1.40264797211,-3.25736474991,
1.11277987162,1.11119711399,0,-0.238291968573,0.000328946841742,242,-1.3870896101,-3.23050999641,
1.10592351953,1.12721300125,0,-0.225991843992,0.00032017246427,243,-1.37127995491,-3.20318651199,
1.09914727608,1.14309024811,0,-0.214030728766,0.000311346391452,244,-1.35524940491,-3.17545127869,
1.09245230357,1.158826828,0,-0.202415059702,0.000302352375888,245,-1.33900535107,-3.14732980728,
1.08583934704,1.17442107201,0,-0.191144283942,0.000293373335971,246,-1.32259047031,-3.118881464,
1.07930936018,1.18987154961,0,-0.18022574862,0.000284203156926,247,-1.30600488186,-3.09010410309,
1.07286305825,1.20517671108,0,-0.169659582585,0.000275029746273,248,-1.2892690897,-3.06108140945,
1.06650115649,1.22033560276,0,-0.159451996673,0.000265694502901,249,-1.27239179611,-3.03179645538,
1.06022413174,1.23534715176,0,-0.149602053863,0.000256383774327,250,-1.25540411472,-3.00230550766,
1.05403252045,1.25021028519,0,-0.140110476108,0.000247054501838,251,-1.23832440376,-2.9726395607,
1.04792673985,1.2649242878,0,-0.130978630295,0.000237689786187,252,-1.22114956379,-2.94283127785,
1.04190732638,1.27948880196,0,-0.122214365172,0.000228120913666,253,-1.20390415192,-2.91291475296,
1.03597428004,1.29390323162,0,-0.113810013011,0.000218751750303,254,-1.18661737442,-2.88291025162,
1.03012777964,1.30816733837,0,-0.105765948169,0.000209372942327,255,-1.16928529739,-2.85282802582,
1.02436836163,1.32228088379,0,-0.0980913378007,0.000199755554389,256,-1.15190267563,-2.8227148056,
1.01869578759,1.33624374866,0,-0.0907776264867,0.000190361000248,257,-1.13450992107,-2.79257631302,
1.01311017672,1.350055933,0,-0.0838262441749,0.000180929195005,258,-1.11712241173,-2.76245689392,
1.00761152903,1.36371779442,0,-0.0772390998472,0.000171447917536,259,-1.09974682331,-2.73239326477,
1.0021996061,1.37722957134,0,-0.0710113643256,0.000162092420086,260,-1.0823816061,-2.70236349106,
0.996874348321,1.3905916214,0,-0.0651436937887,0.000152719968299,261,-1.06504809856,-2.67241573334,
0.991635755697,1.40380442142,0,-0.0596392649507,0.000143265017398,262,-1.04771637917,-2.64254498482,
0.986483291784,1.41686856747,0,-0.0544897294622,0.00013402729679,263,-1.03049063683,-2.61282634735,
0.981416837373,1.42978453636,0,-0.0496956448601,0.000124775263087,264,-1.01327323914,-2.58320498466,
0.976436154046,1.44255328178,0,-0.0452589990985,0.000115471613558,265,-0.996133804321,-2.55374312401,
0.971540764966,1.45517539978,0,-0.0411731771727,0.000106340267683,266,-0.979074954987,-2.52444505692,
0.966730312505,1.46765220165,0,-0.0374405967162,9.71460437884e-05,267,-0.962095856667,-2.49535608292,
0.962004260221,1.47998440266,0,-0.0340544829232,8.81268942837e-05,268,-0.945208966732,-2.46645641327,
0.957362190881,1.49217307568,0,-0.0310139541573,7.91321901473e-05,269,-0.928415238857,-2.4377348423,
0.952803568044,1.50421953201,0,-0.0283174443553,7.01784359273e-05,270,-0.91172516346,-2.40928411484,
0.948327795663,1.51612472534,0,-0.0259591215764,6.13765484795e-05,271,-0.895151913166,-2.38104057312,
0.943934456506,1.52789008617,0,-0.023941180245,5.25174661521e-05,272,-0.878665328026,-2.35306406021,
0.939622775712,1.53951692581,0,-0.0222568319303,4.38353644303e-05,273,-0.862341046333,-2.32537031174,
0.93539221684,1.55100631714,0,-0.0209027727002,3.52393428282e-05,274,-0.846112430096,-2.29790854454,
0.931242183843,1.5623601675,0,-0.0198810835275,2.65892707312e-05,275,-0.830029249191,-2.27076649666,
0.927171782651,1.57357954979,0,-0.019180647143,1.82286288706e-05,276,-0.814078688622,-2.24389433861,
0.923180536428,1.58466625214,0,-0.0188052211336,9.7702864961e-06,277,-0.798256516457,-2.21734523773,
0.919267372289,1.59562194347,0,-0.0187446020375,1.57757499872e-06,278,-0.782627940178,-2.19113612175,
0.915431992212,1.6064478159,0,-0.0190017590387,-6.6923178962e-06,279,-0.76708316803,-2.16518783569,
0.911673263707,1.61714589596,0,-0.0195680498347,-1.47372132725e-05,280,-0.751745641232,-2.1396176815,
0.90799059073,1.62771773338,0,-0.0204427435536,-2.27630013634e-05,281,-0.736532866955,-2.11436343193,
0.904383198419,1.6381649971,0,-0.0216221689703,-3.0693163991e-05,282,-0.721484184265,-2.0894780159,
0.900850073495,1.64848983288,0,-0.0231011358651,-3.84881789539e-05,283,-0.706620872021,-2.06494498253,
0.897390441098,1.65869367123,0,-0.0248742252298,-4.61420886261e-05,284,-0.691929996014,-2.04077291489,
0.894003526368,1.66877841949,0,-0.0269395113763,-5.37458262625e-05,285,-0.677380859852,-2.01696753502,
0.890688375631,1.67874610424,0,-0.0292921393864,-6.12230787615e-05,286,-0.663033545017,-1.99352002144,
0.887444214025,1.68859839439,0,-0.0319283917397,-6.86034831279e-05,287,-0.648847103119,-1.97047674656,
0.884269909063,1.69833755493,0,-0.0348413620609,-7.58039857365e-05,288,-0.634849309921,-1.94784128666,
0.881164805093,1.70796525478,0,-0.0380297304467,-8.29701832664e-05,289,-0.621017575264,-1.92554414272,
0.878127888837,1.71748387814,0,-0.0414897335751,-9.00383782229e-05,290,-0.607383131981,-1.90369772911,
0.87515832583,1.7268948555,0,-0.0452146633328,-9.69319133369e-05,291,-0.593920052052,-1.88220691681,
0.872254923978,1.73620057106,0,-0.0491970699967,-0.000103631503805,292,-0.580678224564,-1.86115944386,
0.869417027631,1.74540328979,0,-0.0534393741691,-0.000110394013754,293,-0.56759095192,-1.84050631523,
0.8666435043,1.75450456142,0,-0.0579296093491,-0.000116845017536,294,-0.554693818092,-1.82027554512,
0.863933459916,1.76350700855,0,-0.0626675990458,-0.000123291437599,295,-0.542013585567,-1.80047154427,
0.861285940805,1.77241230011,0,-0.0676456503294,-0.000129537617262,296,-0.529509723186,-1.78107094765,
0.858699814477,1.78122293949,0,-0.0728578769857,-0.000135629557709,297,-0.517215549946,-1.76213526726,
0.856174246469,1.78994095325,0,-0.0783010828455,-0.000140585268072,298,-0.505111932755,-1.74359321594,
0.85370834271,1.79856848717,0,-0.0839715323941,-0.000146453525138,299,-0.493187785149,-1.72548687458,
0.851300911107,1.80710780621,0,-0.0898603427661,-0.000151150748369,300,-0.481479406357,-1.70783948898,
0.848951117196,1.81556069851,0,-0.0959625556829,-0.00015662728654,301,-0.46995228529,-1.69060277939,
0.846657947698,1.82392978668,0,-0.102274709773,-0.00016201497269,302,-0.458629488945,-1.6738306284,
0.844420389333,1.83221721649,0,-0.108790302688,-0.000167235761486,303,-0.447525978088,-1.65749239922,
0.842237309614,1.84042513371,0,-0.11550047866,-0.000172228571947,304,-0.436624079943,-1.64162528515,
0.84010781447,1.84855616093,0,-0.122403534558,-0.00017717818758,305,-0.425899356604,-1.62617611885,
0.838030831018,1.85661220551,0,-0.129490076098,-0.000181885908891,306,-0.415388017893,-1.61118626595,
0.836005584398,1.86459517479,0,-0.136756221045,-0.000186494629111,307,-0.405059397221,-1.59661340714,
0.834030822912,1.87250781059,0,-0.144193740956,-0.000190892063481,308,-0.394955277443,-1.58256244659,
0.83210565249,1.88035237789,0,-0.151798178498,-0.000195175154021,309,-0.385040462017,-1.56892538071,
0.830229000249,1.88813114166,0,-0.159561593799,-0.000199254037571,310,-0.375327289104,-1.55573153496,
0.828400031724,1.89584612846,0,-0.167478974213,-0.000203204618114,311,-0.365799516439,-1.54300773144,
0.826617614427,1.90349984169,0,-0.175542236716,-0.000206943555259,312,-0.356491565704,-1.5307264328,
0.824880615869,1.9110943079,0,-0.183740626564,-0.000210409835229,313,-0.347391605377,-1.51892054081,
0.823188320794,1.91863226891,0,-0.192074455438,-0.000213884577406,314,-0.338451117277,-1.50755524635,
0.821539715925,1.92611539364,0,-0.200532878858,-0.000217081086762,315,-0.329712569714,-1.49663615227,
0.81993378798,1.9335463047,0,-0.209109764546,-0.000220120188223,316,-0.321187525988,-1.48618519306,
0.818369464078,1.94092726707,0,-0.21779587646,-0.00022188167927,317,-0.312859117985,-1.47619605064,
0.816845909753,1.94826066494,0,-0.226586563619,-0.000224551550696,318,-0.304708600044,-1.46665155888,
0.815361992517,1.95554828644,0,-0.235468821342,-0.000226889133162,319,-0.296775400639,-1.4575483799,
0.813916877904,1.96279287338,0,-0.24443926258,-0.000229140338527,320,-0.289016246796,-1.44893169403,
0.81250973145,1.96999645233,0,-0.253490783434,-0.000231210127412,321,-0.281421989202,-1.44071853161,
0.811139361062,1.97716152668,0,-0.262612064117,-0.000232990861463,322,-0.274058848619,-1.43297982216,
0.809805111089,1.98429000378,0,-0.27179808147,-0.000234643180852,323,-0.266855955124,-1.42568647861,
0.808505908647,1.9913841486,0,-0.281038011162,-0.000236018858066,324,-0.259833335876,-1.41883695126,
0.807240800061,1.99844622612,0,-0.290322831892,-0.000237164238454,325,-0.253012299538,-1.41241276264,
0.806009129682,2.00547838211,0,-0.299647779185,-0.000238186874109,326,-0.246336475015,-1.40644359589,
0.80480976502,2.01248288155,0,-0.309000237314,-0.000238888183936,327,-0.23988237977,-1.40091836452,
0.803641931215,2.01946187019,0,-0.318372859738,-0.000239401905855,328,-0.233556240797,-1.39579212666,
0.802504734197,2.02641773224,0,-0.327756969819,-0.000239693969914,329,-0.227427110076,-1.39113807678,
0.801397458711,2.03335189819,0,-0.337142721886,-0.000239734294666,330,-0.221451684833,-1.38685357571,
0.800319270292,2.04026699066,0,-0.346522814084,-0.00023958833069,331,-0.215647891164,-1.38304698467,
0.799269215265,2.04716515541,0,-0.355885726767,-0.000239147701868,332,-0.21001842618,-1.37963080406,
0.79824651877,2.05404829979,0,-0.365221685807,-0.000238457777107,333,-0.204538434744,-1.37663972378,
0.797250346341,2.06091856956,0,-0.374520557792,-0.000237509158213,334,-0.199231222272,-1.3740581274,
0.796280280748,2.06777763367,0,-0.383776888896,-0.000236421266281,335,-0.194018572569,-1.37183082104,
0.795335249105,2.0746281147,0,-0.392977748672,-0.000235002913931,336,-0.18900860846,-1.37008547783,
0.794414655366,2.08147120476,0,-0.402112476143,-0.000233312578481,337,-0.184130832553,-1.36866760254,
0.793517665067,2.08830952644,0,-0.411171316158,-0.00023137271134,338,-0.179399460554,-1.36765754223,
0.792643860975,2.09514451027,0,-0.420146667615,-0.000229239090085,339,-0.174765706062,-1.36701107025,
0.791792289415,2.101978302,0,-0.429024541952,-0.00022674815041,340,-0.170308917761,-1.36677694321,
0.790962533155,2.10881257057,0,-0.43779749298,-0.000224062251678,341,-0.165956258774,-1.36683928967,
0.790153876939,2.11564922333,0,-0.446453820208,-0.000221082424248,342,-0.161740392447,-1.36734569073,
0.789365605512,2.12249016762,0,-0.454981481359,-0.000217795255691,343,-0.157644361258,-1.36815571785,
0.78859742085,2.12933659554,0,-0.463372398105,-0.000214301636269,344,-0.153639450669,-1.36931228638,
0.787848548093,2.13619089127,0,-0.47161432695,-0.000210495361855,345,-0.14976619184,-1.37083482742,
0.787118689218,2.14305400848,0,-0.479697820154,-0.000206447575859,346,-0.145973905921,-1.37265431881,
0.786407128969,2.14992833138,0,-0.487610760716,-0.000202090622383,347,-0.142314583063,-1.3748306036,
0.785713509717,2.15681481361,0,-0.495342150644,-0.000197452558787,348,-0.138723224401,-1.3772906065,
0.785037414232,2.16371512413,0,-0.502881703642,-0.000192552114557,349,-0.135228082538,-1.38007354736,
0.784378365674,2.17063069344,0,-0.51021725833,-0.000187341107043,350,-0.131807565689,-1.38313794136,
0.783736066022,2.17756295204,0,-0.517338962755,-0.000181878585685,351,-0.128463238478,-1.38647532463,
0.783110098043,2.1845138073,0,-0.52423591616,-0.000176137617175,352,-0.125194489956,-1.39012551308,
0.782500282922,2.19148349762,0,-0.530896517944,-0.000170100620939,353,-0.121972508729,-1.39398705959,
0.781906084218,2.1984744072,0,-0.537308474212,-0.000163749593361,354,-0.11883033067,-1.39814162254,
0.781327501931,2.20548701286,0,-0.54346269194,-0.00015641064001,355,-0.115723378956,-1.40253889561,
0.780764178434,2.21252274513,0,-0.5493466278,-0.000148528467118,356,-0.11267977953,-1.40715670586,
0.780215994516,2.2195827961,0,-0.554950278489,-0.000141452334412,357,-0.10964050144,-1.41198217869,
0.779682652154,2.22666788101,0,-0.560259873315,-0.00013402862061,358,-0.106667198241,-1.41706669331,
0.779164151349,2.23377966881,0,-0.565267231087,-0.000126398632279,359,-0.103694804013,-1.42229712009,
0.778660432496,2.24091815948,0,-0.569960051937,-0.000118458248813,360,-0.100744642317,-1.42773008347,
0.778171376386,2.24808478355,0,-0.574327343753,-0.000109634872412,361,-0.0977980047464,-1.43334662914,
0.777697042623,2.25528049469,0,-0.578359377712,-9.9537164064e-05,362,-0.0948682278395,-1.43914675713,
0.777237371602,2.26250576973,0,-0.582043752311,-9.09540825152e-05,363,-0.0919376909733,-1.4450558424,
0.776792482534,2.26976132393,0,-0.585370574907,-8.06106069777e-05,364,-0.0889937207103,-1.45112717152,
0.776362375417,2.27704811096,0,-0.588328269893,-7.16658196694e-05,365,-0.0860067009926,-1.45732188225,
0.775947348275,2.28436589241,0,-0.590907558572,-6.24965809507e-05,366,-0.0830135941505,-1.46358656883,
0.7755472819,2.29171586037,0,-0.593094949493,-5.3000398416e-05,367,-0.0799993872643,-1.47001409531,
0.775162831941,2.29909825325,0,-0.594885833264,-4.33927476494e-05,368,-0.0768962875009,-1.47644746304,
0.77479387919,2.30651330948,0,-0.596265097917,-3.34190924612e-05,369,-0.0738008990884,-1.48303699493,
0.774440840879,2.31396126747,0,-0.597224466198,-2.3245031917e-05,370,-0.0705930888653,-1.48959720135,
0.774104193845,2.32144260406,0,-0.597756256492,-1.28849612875e-05,371,-0.0673398897052,-1.49624621868,
0.773783938089,2.32895708084,0,-0.597845919304,-2.17245360665e-06,372,-0.0640411600471,-1.50291383266,
0.773480788865,2.33650517464,0,-0.597488271737,8.66545132746e-06,373,-0.0606206841767,-1.50959336758,
0.773195223012,2.34408640862,0,-0.596674311043,1.97213547174e-05,374,-0.0571224242449,-1.51626121998,
0.772927538553,2.35170102119,0,-0.595392902177,3.10469433173e-05,375,-0.0535284690559,-1.52291929722,
0.772678391137,2.35934877396,0,-0.593636994578,4.25426209003e-05,376,-0.0498317070305,-1.52954232693,
0.772448317209,2.36702919006,0,-0.591397844611,5.42504560585e-05,377,-0.046007540077,-1.53610420227,
0.772237912813,2.37474226952,0,-0.58866731479,6.61552430964e-05,378,-0.0420874506235,-1.54263961315,
0.772047893205,2.38248753548,0,-0.585438490342,7.82274912555e-05,379,-0.0380051061511,-1.54906380177,
0.771878914037,2.39026451111,0,-0.581703593828,9.0488005075e-05,380,-0.0337952747941,-1.55540311337,
0.771731690564,2.39807271957,0,-0.577455429618,0.000102922755728,381,-0.0294481422752,-1.56164431572,
0.771607057252,2.40591144562,0,-0.572688168556,0.000115498454885,382,-0.0249255597591,-1.5677485466,
0.771505669751,2.41377973557,0,-0.567393946121,0.000128264702998,383,-0.0202752389014,-1.57370758057,
0.771428481736,2.421677351,0,-0.561567932925,0.000141147712284,384,-0.0154237616807,-1.57950997353,
0.771376506486,2.42960309982,0,-0.555206395484,0.000154121136817,385,-0.0103906430304,-1.58515667915,
0.771350578466,2.43755626678,0,-0.548303201146,0.00016724303941,386,-0.00519067980349,-1.59062600136,
0.771351770559,2.44553542137,0,-0.540855525452,0.000180433205132,387,0.000229214318097,-1.59585285187,
0.771380798021,2.45353984833,0,-0.532855925752,0.000193803615244,388,0.00581019092351,-1.60091924667,
0.771439031759,2.46156811714,0,-0.524305022989,0.000206347774735,389,0.0116427876055,-1.60568976402,
0.771527425447,2.46961951256,0,-0.515197986097,0.000219766045121,390,0.0176725015044,-1.61024582386,
0.771647171178,2.47769188881,0,-0.505534483161,0.000233193046846,391,0.0239506550133,-1.61449885368,
0.771799341836,2.48578453064,0,-0.495311163604,0.000246700781532,392,0.0304312258959,-1.61854302883,
0.771985189119,2.49389576912,0,-0.484527994899,0.000260209300632,393,0.037162233144,-1.62225365639,
0.772205964723,2.50202417374,0,-0.473184750604,0.000273637063682,394,0.0441578477621,-1.6256660223,
0.772462920347,2.51016759872,0,-0.461282651732,0.000282119113176,395,0.0513928681612,-1.62873029709,
0.772757367292,2.51832509041,0,-0.448821653536,0.000293220646594,396,0.0588879697025,-1.63148057461,
0.773090616861,2.52649450302,0,-0.435804089568,0.000306315414114,397,0.0666430965066,-1.63389205933,
0.773464099565,2.53467392921,0,-0.422233426473,0.000319328732561,398,0.0746983662248,-1.63590025902,
0.773879067102,2.54286146164,0,-0.408111665064,0.000332294855203,399,0.0830033943057,-1.6375234127,
0.774337128797,2.55105543137,0,-0.393444154829,0.000345134467502,400,0.0916047692299,-1.63880491257,
0.774839715162,2.55925345421,0,-0.378236459026,0.000357843429057,401,0.1005172804,-1.63963425159,
0.775388077894,2.56745386124,0,-0.362491112577,0.000370492612099,402,0.109666623175,-1.64006781578,
0.775984005132,2.57565379143,0,-0.34621935842,0.000382877147689,403,0.119188264012,-1.64004635811,
0.776628927388,2.58385181427,0,-0.329425661931,0.00039515632883,404,0.128975465894,-1.63958191872,
0.777324513593,2.59204483032,0,-0.31212183994,0.000407157495743,405,0.139113143086,-1.63863945007,
0.778072253862,2.60023117065,0,-0.29431452086,0.000419002054688,406,0.149535045028,-1.63726830482,
0.778873817125,2.60840797424,0,-0.276016066536,0.000430555523035,407,0.160308212042,-1.63537669182,
0.779730753103,2.6165728569,0,-0.257236977261,0.000441862480281,408,0.171385377645,-1.63300490379,
0.780644730726,2.62472343445,0,-0.237989450552,0.00045288222948,409,0.18279838562,-1.63013005257,
0.781617538133,2.63285708427,0,-0.218288180197,0.000463556135262,410,0.194545358419,-1.62672114372,
0.78265078465,2.64097094536,0,-0.198147861394,0.000473883941332,411,0.206631600857,-1.622828722,
0.783746079603,2.64906263351,0,-0.177582278663,0.000482864579634,412,0.219045713544,-1.61836349964,
0.784905211129,2.65712952614,0,-0.15660834327,0.000492448860837,413,0.231835901737,-1.61336565018,
0.786130026975,2.66516828537,0,-0.13524706676,0.000501540451576,414,0.244947060943,-1.60777890682,
0.78742195765,2.67317652702,0,-0.113513145578,0.000510287012791,415,0.258402854204,-1.60167896748,
0.788783148923,2.68115139008,0,-0.0914299568229,0.00051848466274,416,0.272231608629,-1.59498667717,
0.790215090909,2.6890900135,0,-0.0690163408087,0.000526239866268,417,0.286386907101,-1.58771443367,
0.791719512143,2.69698929787,0,-0.0462951487623,0.000533458529328,418,0.30088314414,-1.5798830986,
0.793298319974,2.70484638214,0,-0.0232906269103,0.000540107986142,419,0.315766334534,-1.57143700123,
0.794953362146,2.7126584053,0,-2.74711352022e-05,0.00054617750645,420,0.331012755632,-1.56238639355,
0.796686188379,2.72042226791,0,0.0234698139825,0.000551663075259,421,0.346564054489,-1.55278646946,
0.798498646417,2.72813487053,0,0.0471732607573,0.000556500607985,422,0.362497448921,-1.54252636433,
0.8003925244,2.73579359055,0,0.0710566552336,0.00056072272894,423,0.378773540258,-1.53173363209,
0.802369610467,2.74339485168,0,0.0950879431276,0.000564192525245,424,0.395416975021,-1.5202729702,
0.804431454339,2.75093603134,0,0.119240474835,0.00056703650023,425,0.412372112274,-1.50822079182,
0.80657990376,2.75841379166,0,0.143480550623,0.000569088891528,426,0.429700821638,-1.49556744099,
0.808816806474,2.76582527161,0,0.167775824652,0.0005703819393,427,0.447381258011,-1.48228669167,
0.81114395062,2.77316713333,0,0.192090623633,0.000570837428015,428,0.465417087078,-1.4684009552,
0.813562707105,2.78043651581,0,0.216393601023,0.00057055699449,429,0.483748018742,-1.45393109322,
0.816074864068,2.78763079643,0,0.240650671839,0.000569476366065,430,0.502427458763,-1.43884575367,
0.818682150045,2.79474616051,0,0.264820029063,0.000567414267788,431,0.521461129189,-1.42314076424,
0.821386114755,2.80178070068,0,0.288871073837,0.000564633865277,432,0.540800035,-1.40686321259,
0.824188605943,2.80873036385,0,0.312757145789,0.00056075811427,433,0.560505926609,-1.38993597031,
0.827090934911,2.81559252739,0,0.336442453538,0.000556042193245,434,0.580471694469,-1.37247896194,
0.830094710985,2.82236456871,0,0.359888063909,0.000550412312194,435,0.600760638714,-1.35443425179,
0.833201543489,2.82904362679,0,0.383052368251,0.000543805696906,436,0.621376276016,-1.33581399918,
0.836413041749,2.83562684059,0,0.405892526021,0.00053619341969,437,0.642293155193,-1.31663751602,
0.839730397859,2.84211111069,0,0.428365469408,0.000527570430276,438,0.663470685482,-1.29689383507,
0.843155221143,2.84849429131,0,0.450430620993,0.000517994672579,439,0.684965193272,-1.27661085129,
0.846688822904,2.85477304459,0,0.472039997918,0.000507292322899,440,0.706718027592,-1.25581216812,
0.850332454839,2.86094546318,0,0.493154575633,0.000495674029518,441,0.728729605675,-1.23449897766,
0.854087607065,2.86700868607,0,0.51372612325,0.000482923215459,442,0.751029610634,-1.21265864372,
0.857955412069,2.87296032906,0,0.533710744527,0.000469142095125,443,0.773564517498,-1.19035053253,
0.861937121549,2.87879824638,0,0.553064456228,0.000454329004578,444,0.796341836452,-1.16757678986,
0.866033927598,2.88451981544,0,0.571739028758,0.00043838270952,445,0.819366276264,-1.144323349,
0.870246843496,2.89012312889,0,0.589691485148,0.000421428982574,446,0.842588305473,-1.12065076828,
0.874577001729,2.89560580254,0,0.606873533626,0.000403341928911,447,0.866036653519,-1.09657120705,
0.879025236764,2.90096616745,0,0.623243045104,0.00038426610151,448,0.889664888382,-1.07209217548,
0.883592800298,2.90620231628,0,0.638752790345,0.000364081281874,449,0.913508892059,-1.04722177982,
0.888280407586,2.91131234169,0,0.653357645485,0.000342837889925,450,0.937508523464,-1.02202391624,
0.89308871428,2.91629481316,0,0.667015720792,0.000320611519642,451,0.961674928665,-0.996489048004,
0.89801861445,2.92114806175,0,0.679681093298,0.000297307377614,452,0.985971271992,-0.970660150051,
0.903070763746,2.92587065697,0,0.691310310918,0.000272983229147,453,1.0104367733,-0.944527387619,
0.908245758214,2.93046140671,0,0.701861514431,0.000247676720646,454,1.03501284122,-0.918196678162,
0.913544193902,2.93491959572,0,0.71129627559,0.000221468301627,455,1.05969464779,-0.89161324501,
0.918966428438,2.93924379349,0,0.719570831646,0.000194233003519,456,1.08445155621,-0.864840865135,
0.924513057866,2.94343328476,0,0.726645677963,0.000166070732688,457,1.10933065414,-0.837895393372,
0.930184261003,2.94748735428,0,0.732483096276,0.000137023492556,458,1.13424420357,-0.810847640038,
0.935980276265,2.95140576363,0,0.737048876496,0.000107173395719,459,1.15920031071,-0.783692479134,
0.941901282468,2.95518803596,0,0.740306751717,7.64723243266e-05,460,1.1842058897,-0.756454586983,
0.947947518029,2.95883393288,0,0.742222024893,4.49563063273e-05,461,1.2092487812,-0.729193329811,
0.954118804136,2.96234345436,0,0.742764140292,1.27247571818e-05,462,1.23425209522,-0.701929450035,
0.960415081182,2.96571707726,0,0.741906250391,-2.0136632872e-05,463,1.25926804543,-0.674708485603,
0.966836289563,2.96895456314,0,0.739614912368,-5.37826816527e-05,464,1.28425037861,-0.647540450096,
0.973382131257,2.97205710411,0,0.735871269163,-8.78710136208e-05,465,1.30917978287,-0.620500445366,
0.980052367845,2.975025177,0,0.730649722672,-0.000122559784625,466,1.33405041695,-0.593607187271,
0.98684628407,2.97785973549,0,0.72393179302,-0.000157682009836,467,1.35880160332,-0.566904902458,
0.993763820329,2.98056149483,0,0.715693744682,-0.000193360556788,468,1.38351023197,-0.540382146835,
1.00080408255,2.98313236237,0,0.705927943056,-0.000229217442174,469,1.40807080269,-0.514150738716,
1.0079665343,2.98557329178,0,0.694616243018,-0.000265500080894,470,1.43250393867,-0.488216280937,
1.0152504007,2.98788642883,0,0.681753941746,-0.000301892867831,471,1.456777215,-0.462632775307,
1.0226548473,2.99007320404,0,0.667330247525,-0.000338538884721,472,1.48089706898,-0.437372326851,
1.03017886082,2.99213624001,0,0.651347894486,-0.000375120107235,473,1.5048186779,-0.412607550621,
1.03782154719,2.99407744408,0,0.633802723189,-0.00041179887661,474,1.52853727341,-0.388242006302,
1.04558165471,2.99589943886,0,0.614700445486,-0.000448343017786,475,1.55204284191,-0.36439538002,
1.05345817009,2.99760460854,0,0.594044157449,-0.000484814160859,476,1.57530772686,-0.341074466705,
1.06144966284,2.99919629097,0,0.571849890358,-0.000520908640659,477,1.59830284119,-0.318334341049,
1.06955482165,3.00067734718,0,0.548129344352,-0.000556728434927,478,1.62104034424,-0.296210646629,
1.07777233521,3.00205087662,0,0.522897872055,-0.000592187755236,479,1.64350795746,-0.274738550186,
1.08610050479,3.00332069397,0,0.496181532695,-0.000627035153927,480,1.66564512253,-0.253935337067,
1.09453789989,3.0044901371,0,0.468001400366,-0.000661387699821,481,1.68748641014,-0.233900666237,
1.10308270256,3.00556302071,0,0.438386865051,-0.000695050186665,482,1.70897042751,-0.214600682259,
1.11173333327,3.00654363632,0,0.407372790973,-0.00072789408745,483,1.7301299572,-0.196112751961,