lower angle,upper angle,holding angle,system x,acceleration,ticks (200 tps),lower acceleration (shoulder),upper acceleration (elbow),
1.57079632679,0.0,0,1.87524041119e-15,1.97268675225e-17,1,0.0,0.0,
1.57095225255,-0.000300884246826,0,-0.000826120372191,-8.68968109459e-06,2,0.0311186872423,0.0601230189204,
1.57126791874,-0.000914096832275,0,-0.00244498241232,-1.70282132399e-05,3,0.0632067322731,0.122615963221,
1.57174237172,-0.00183439254761,0,-0.00489622260904,-2.57836271501e-05,4,0.0948730185628,0.184149473906,
1.57237418095,-0.00306081771851,0,-0.00814854666391,-3.42098261865e-05,5,0.126317277551,0.245259672403,
1.57316239277,-0.00459146499634,0,-0.0121977780049,-4.25920565637e-05,6,0.157622426748,0.306086212397,
1.57410605351,-0.00642442703247,0,-0.0170397362019,-5.09302509458e-05,7,0.188749060035,0.366597354412,
1.57520420949,-0.00855827331543,0,-0.0226639767306,-5.91585655059e-05,8,0.219691649079,0.426757097244,
1.57645638386,-0.0109906196594,0,-0.0290871671385,-6.75621231875e-05,9,0.250422596931,0.486523866653,
1.57786114613,-0.013720035553,0,-0.0362842418795,-7.57020114971e-05,10,0.280912697315,0.545836448669,
1.57941658894,-0.016743183136,0,-0.0442405536816,-8.36877775671e-05,11,0.311140656471,0.60463988781,
1.58112223546,-0.0200576782227,0,-0.0529727309964,-9.1848425862e-05,12,0.341119319201,0.662936210632,
1.58297617833,-0.02366065979,0,-0.0624598336992,-9.97887620329e-05,13,0.370768040419,0.720616102219,
1.58497651021,-0.0275492668152,0,-0.0726809007021,-0.00010750860021,14,0.400090813637,0.777653813362,
1.58712227742,-0.0317192077637,0,-0.0836629230588,-0.000115512304027,15,0.429085731506,0.834037423134,
1.58941061894,-0.0361676216125,0,-0.0953556829244,-0.000122986795515,16,0.457705497742,0.889677584171,
1.5918405811,-0.0408906936646,0,-0.107779851561,-0.00013067918912,17,0.485945731401,0.94457423687,
1.59440930287,-0.0458836555481,0,-0.120910175857,-0.00013810629591,18,0.513780236244,0.998658835888,
1.59711535374,-0.0511431694031,0,-0.134746392479,-0.000145530341084,19,0.541180729866,1.05189418793,
1.59995587269,-0.0566649436951,0,-0.14925691334,-0.000152622318836,20,0.568156063557,1.1042727232,
1.60292942921,-0.0624432563782,0,-0.164472666207,-0.000160039563659,21,0.594663858414,1.15571725368,
1.60603268544,-0.0684742927551,0,-0.180341116691,-0.000166904216556,22,0.620708405972,1.20622396469,
1.60926421086,-0.0747532844543,0,-0.19688057488,-0.00017396140543,23,0.646250009537,1.25574469566,
1.61262066762,-0.0812745094299,0,-0.214063425307,-0.000180728124971,24,0.671296715736,1.30424356461,
1.61609967152,-0.0880327224731,0,-0.231884928026,-0.000187444966178,25,0.695824027061,1.35171580315,
1.61969883839,-0.0950236320496,0,-0.250327774919,-0.000193979368199,26,0.719825088978,1.39810574055,
1.6234153072,-0.102240562439,0,-0.26939126808,-0.00020050674292,27,0.743288695812,1.44340181351,
1.62724621693,-0.109678268433,0,-0.289055887898,-0.000206828722962,28,0.766191363335,1.48757266998,
1.63118870656,-0.117331027985,0,-0.30930830158,-0.000213010503652,29,0.788524448872,1.53058242798,
1.63523991505,-0.125193119049,0,-0.330135108909,-0.000219051298961,30,0.81027764082,1.5724375248,
1.63939745823,-0.13325881958,0,-0.351537411494,-0.000225103680593,31,0.831449508667,1.61309027672,
1.64365752141,-0.141521453857,0,-0.373485013457,-0.000230838456452,32,0.852045714855,1.65255022049,
1.64801772038,-0.149975299835,0,-0.395978869806,-0.000236583232012,33,0.872019231319,1.69076156616,
1.6524747173,-0.15861415863,0,-0.418996972339,-0.000242096493298,34,0.891392409801,1.7277315855,
1.6570251743,-0.167431354523,0,-0.442523491301,-0.000247443259409,35,0.910153925419,1.76344823837,
1.6616667072,-0.176420688629,0,-0.466565387182,-0.000252863048769,36,0.928296923637,1.79788815975,
1.66639597813,-0.185575962067,0,-0.491100437697,-0.000258049197422,37,0.945805311203,1.83103299141,
1.67120917241,-0.194890022278,0,-0.516104292557,-0.000262979219184,38,0.96269518137,1.86289846897,
1.67610390584,-0.204357624054,0,-0.541571222561,-0.000267848991651,39,0.978950321674,1.89344263077,
1.68107684056,-0.213970661163,0,-0.567503727229,-0.000272744944823,40,0.994577229023,1.92268395424,
1.68612463872,-0.223723888397,0,-0.593866880086,-0.000277273105742,41,1.0095590353,1.95060873032,
1.69124443928,-0.233609676361,0,-0.620671331263,-0.000281913722989,42,1.02390348911,1.97719025612,
1.69643242756,-0.243622303009,0,-0.647873769342,-0.000286098825575,43,1.03760576248,2.00245165825,
1.70168574254,-0.253754138947,0,-0.67548471193,-0.000290394417019,44,1.05067837238,2.02637720108,
1.70700104634,-0.263998508453,0,-0.703487674829,-0.000294516732468,45,1.0630941391,2.0489616394,
1.71237547795,-0.274349689484,0,-0.731868189125,-0.000298486735848,46,1.07489264011,2.07021641731,
1.71780569951,-0.28480052948,0,-0.760615883246,-0.000302345969079,47,1.08603990078,2.09012770653,
1.72328837315,-0.295343875885,0,-0.789720335553,-0.000306096855414,48,1.09654593468,2.10869884491,
1.72882063786,-0.305973529816,0,-0.819173128908,-0.000309759609785,49,1.10641622543,2.1259162426,
1.73439867894,-0.316682338715,0,-0.848949327472,-0.000313160135176,50,1.11566138268,2.14181947708,
1.7400201122,-0.327464580536,0,-0.879048685119,-0.000316555933755,51,1.12427604198,2.15638661385,
1.74568159977,-0.338312625885,0,-0.909466797601,-0.000319907552148,52,1.13226950169,2.16963624954,
1.75137980382,-0.349220275879,0,-0.940180702992,-0.000323017561744,53,1.13961684704,2.18152570724,
1.75711138646,-0.360180854797,0,-0.971173625647,-0.00032595119084,54,1.14636969566,2.19212770462,
1.76287396351,-0.37118768692,0,-1.00245749787,-0.000329010298414,55,1.15249693394,2.20139861107,
1.76866419713,-0.382234573364,0,-1.03400932555,-0.000331827567342,56,1.15800356865,2.20936059952,
1.77447874943,-0.393314838409,0,-1.0658123048,-0.000334468070986,57,1.16291797161,2.21602153778,
1.78031475941,-0.404421806335,0,-1.09786396305,-0.000337082618618,58,1.16722726822,2.22140574455,
1.78616936604,-0.415548801422,0,-1.13016179876,-0.000339670832133,59,1.17092037201,2.22546052933,
1.79203923146,-0.426690101624,0,-1.16267676391,-0.000341953553478,60,1.17403793335,2.2282576561,
1.79792197148,-0.437839031219,0,-1.19542065692,-0.000344360342306,61,1.17655324936,2.22977519035,
1.80381472508,-0.44898891449,0,-1.2283909611,-0.000346740537397,62,1.17849755287,2.23002433777,
1.8097141544,-0.460134029388,0,-1.26155872671,-0.000348816382452,63,1.17986094952,2.22902441025,
1.81561692158,-0.471268177032,0,-1.29490123528,-0.000350653305519,64,1.18064463139,2.2267575264,
1.82152159611,-0.482384204865,0,-1.32846476722,-0.000352976901517,65,1.18086063862,2.22325086594,
1.82742388646,-0.493476867676,0,-1.36218608609,-0.000354630819067,66,1.18050456047,2.21851062775,
1.83332188527,-0.504539489746,0,-1.39609121002,-0.000356562756165,67,1.17961120605,2.21255350113,
1.83921273152,-0.51556634903,0,-1.43016565951,-0.000358342519968,68,1.17814421654,2.20536470413,
1.84509308735,-0.526551246643,0,-1.46438702081,-0.000359886576236,69,1.17613220215,2.19696950912,
1.85096104542,-0.537487983704,0,-1.49877525699,-0.000361640678268,70,1.1735817194,2.18736791611,
1.8568137447,-0.548370838165,0,-1.53331609987,-0.000363244671715,71,1.17050158978,2.17658805847,
1.86264784733,-0.559194087982,0,-1.56798137778,-0.000364552192655,72,1.16686463356,2.16461205482,
1.86846144597,-0.569951057434,0,-1.6027972156,-0.000366134354324,73,1.16270911694,2.15145683289,
1.87425167958,-0.580636978149,0,-1.63773759253,-0.000367442905183,74,1.1580221653,2.13712906837,
1.88001568715,-0.591245174408,0,-1.67280075185,-0.000368733233942,75,1.15283310413,2.12166070938,
1.88575108449,-0.601769924164,0,-1.70798696383,-0.000370026407179,76,1.14710938931,2.10500860214,
1.89145548741,-0.612205982208,0,-1.74329058362,-0.000371260141641,77,1.14087772369,2.08722734451,
1.89712603489,-0.622547626495,0,-1.77869818336,-0.000372352720361,78,1.13414216042,2.06830692291,
1.90276081959,-0.632788658142,0,-1.81423023629,-0.000373660590266,79,1.12689340115,2.04823732376,
1.90835650364,-0.642924308777,0,-1.84984775706,-0.00037455848875,80,1.11914527416,2.0270524025,
1.91391070286,-0.652947902679,0,-1.88556361257,-0.000375591691159,81,1.11090445518,2.00475883484,
1.9194215099,-0.662854671478,0,-1.92138071259,-0.000376655508196,82,1.10216271877,1.98133993149,
1.92488654057,-0.67263841629,0,-1.95730613126,-0.000377793116043,83,1.09293758869,1.95681715012,
1.93030245701,-0.682294845581,0,-1.99329581719,-0.000378465691913,84,1.08322238922,1.93119311333,
1.93566735188,-0.691816806793,0,-2.02938289253,-0.000379488973836,85,1.07301867008,1.90447449684,
1.94097931782,-0.701200485229,0,-2.06555901358,-0.000380424494135,86,1.06233346462,1.87666881084,
1.94623501698,-0.71043920517,0,-2.1018104838,-0.00038121596027,87,1.05116689205,1.84777283669,
1.951432542,-0.719528198242,0,-2.13814125459,-0.000382048973155,88,1.03950846195,1.8177857399,
1.95656950871,-0.728461742401,0,-2.17455359881,-0.000382905874452,89,1.02739310265,1.78674650192,
1.96164353291,-0.737235069275,0,-2.21103821573,-0.000383664986177,90,1.01479887962,1.75462961197,
1.96665223042,-0.74584197998,0,-2.24760371361,-0.00038451459953,91,1.00171554089,1.72142958641,
1.97159274022,-0.754278182983,0,-2.28422184837,-0.000385067213291,92,0.988167524338,1.68717241287,
1.97646363179,-0.762537479401,0,-2.32092883923,-0.000386000676709,93,0.97414368391,1.65186500549,
1.98126204411,-0.770614624023,0,-2.35770868858,-0.000386765927024,94,0.95965474844,1.61549592018,
1.985985593,-0.778505325317,0,-2.39454755412,-0.000387385614264,95,0.944697082043,1.57807087898,
1.99063141743,-0.786202907562,0,-2.43144768576,-0.000388028966638,96,0.929257273674,1.53958535194,
1.99519856373,-0.793703556061,0,-2.46843037801,-0.000388896234122,97,0.913360476494,1.50006389618,
1.99968321721,-0.801000595093,0,-2.50547150639,-0.000389509833443,98,0.896969914436,1.45946979523,
2.00408394734,-0.808090209961,0,-2.5425794841,-0.000390211852175,99,0.88013279438,1.4178570509,
2.00839789311,-0.814966201782,0,-2.57975190217,-0.000390888539435,100,0.862816333771,1.37519681454,
2.01262314717,-0.821623325348,-0.0821623325348,-2.61700179746,-0.000391702311016,101,0.845029354095,1.33149087429,
2.01675684849,-0.828057289124,0.0,-2.65430416897,-0.000392253131311,102,0.826759278774,1.28672790527,
2.02081425587,-0.83429479599,0,-2.69176334397,-0.00039390102616,103,0.811488926411,1.24756515026,
2.02477486531,-0.840297222137,0,-2.72927939944,-0.000394498223503,104,0.792108774185,1.20043218136,
2.02863724629,-0.846060276031,0,-2.76686837411,-0.000395264088118,105,0.772469103336,1.15263319016,
2.03239853779,-0.851578712463,0,-2.80451834137,-0.000395904646392,106,0.752289533615,1.10371148586,
2.03605683247,-0.856847286224,0,-2.84224428485,-0.000396702514596,107,0.731627583504,1.05371582508,
2.0396092693,-0.861860752106,0,-2.88003502467,-0.000397382952251,108,0.710476458073,1.00268721581,
2.04305346409,-0.866613864899,0,-2.91789301637,-0.000398089196758,109,0.688840150833,0.950602412224,
2.04638703267,-0.871100902557,0,-2.95582684986,-0.000398885777886,110,0.666708946228,0.897469639778,
2.04960759083,-0.875317573547,0,-2.99382814656,-0.000399594279181,111,0.644094765186,0.843289852142,
2.05271227757,-0.879257678986,0,-3.03189882477,-0.000400322945034,112,0.620982348919,0.788052558899,
2.05569918553,-0.8829164505,0,-3.07005019549,-0.000401170550873,113,0.597353160381,0.731755137444,
2.05856545369,-0.886288642883,0,-3.10827336891,-0.000401924605994,114,0.573239386082,0.674401283264,
2.06130822102,-0.889368534088,0,-3.14656562335,-0.000402650029532,115,0.548599481583,0.615984857082,
2.06392558018,-0.892150878906,0,-3.18494509182,-0.000403566119205,116,0.523463666439,0.556518793106,
2.06641467015,-0.894630908966,0,-3.22339822423,-0.000404339754204,117,0.497796833515,0.495952993631,
2.0687726299,-0.896802425385,0,-3.26192914328,-0.000405156581456,118,0.471619546413,0.434316724539,
2.07099707524,-0.89866065979,0,-3.3005381182,-0.000405976302728,119,0.44490724802,0.371629476547,
2.07308562199,-0.900199890137,0,-3.33923726416,-0.000406923435248,120,0.41766256094,0.30782532692,
2.07503493229,-0.901414394379,0,-3.37801284791,-0.000407726190444,121,0.389899492264,0.242949217558,
2.0768430988,-0.902299404144,0,-3.41687914585,-0.000408679050637,122,0.361576467752,0.176983773708,
2.07850630681,-0.902848720551,0,-3.4558157306,-0.000409417192237,123,0.332693368196,0.109868094325,
2.08002264897,-0.903057098389,0,-3.49484319463,-0.000410360261474,124,0.303272843361,0.0416833460331,
2.08138926426,-0.902918815613,0,-3.53396200517,-0.000411319635982,125,0.273285597563,-0.0276255905628,
2.08260281483,-0.902428627014,0,-3.5731540139,-0.000412088288812,126,0.242713019252,-0.0980821996927,
2.08366091649,-0.90158033371,0,-3.61243896956,-0.000413064583739,127,0.211581528187,-0.169665157795,
2.08455975453,-0.900368213654,0,-3.65179182735,-0.000413777533554,128,0.179854482412,-0.242392271757,
2.08529742161,-0.898787021637,0,-3.69123413479,-0.000414717075377,129,0.147538527846,-0.316280603409,
2.08587057988,-0.896830558777,0,-3.73075995211,-0.000415593747855,130,0.114625066519,-0.391314834356,
2.0862763683,-0.89449262619,0,-3.77037649807,-0.000416546480644,131,0.0810725092888,-0.467566668987,
2.08651097218,-0.891767501831,0,-3.81005907196,-0.000417239758519,132,0.0469186678529,-0.54498809576,
2.0865715305,-0.888649463654,0,-3.8498090897,-0.000417947873777,133,0.0121106877923,-0.623638987541,
2.0864547054,-0.885131835938,0,-3.88962648464,-0.000418655328028,134,-0.0233161300421,-0.703477621078,
2.08615763585,-0.881209373474,0,-3.92950668525,-0.000419314621886,135,-0.0594080127776,-0.784575641155,
2.08567698399,-0.876874446869,0,-3.9694610794,-0.000420093640596,136,-0.0961627662182,-0.86691236496,
2.08500893513,-0.872121810913,0,-4.0094585063,-0.000420545040174,137,-0.133604511619,-0.950523614883,
2.08415015141,-0.866944789886,0,-4.04949815812,-0.000420987680815,138,-0.171735554934,-1.03542852402,
2.08309729497,-0.861336708069,0,-4.08957891495,-0.000421418837062,139,-0.210565954447,-1.12163865566,
2.0818465511,-0.85529088974,0,-4.12968611058,-0.000421695757444,140,-0.250116705894,-1.20916342735,
2.08039458195,-0.84880065918,0,-4.1698177549,-0.000421951772689,141,-0.290425717831,-1.2980568409,
2.07873757283,-0.841858863831,0,-4.20996404395,-0.000422104679697,142,-0.331448704004,-1.38830435276,
2.07687123219,-0.83445930481,0,-4.25008947497,-0.000421884341133,143,-0.373257726431,-1.47995972633,
2.07479174534,-0.826593875885,0,-4.290194643,-0.00042167005524,144,-0.415859788656,-1.5730496645,
2.07249577443,-0.818255901337,0,-4.33027484304,-0.000421406534772,145,-0.459252983332,-1.66758418083,
2.06997807423,-0.809438228607,0,-4.3702773184,-0.000420588330631,146,-0.503459453583,-1.76357996464,
2.06723578373,-0.800132751465,0,-4.41022652246,-0.000420027207687,147,-0.5484983325,-1.86107826233,
2.06426365773,-0.790332317352,0,-4.4500674432,-0.000418887632238,148,-0.59442204237,-1.96015405655,
2.06105740468,-0.780028343201,0,-4.48978825989,-0.000417623883104,149,-0.641230106354,-2.06079626083,
2.05761273304,-0.769213199615,0,-4.52936383681,-0.000416095583404,150,-0.688917458057,-2.16304063797,
2.0539253513,-0.757878303528,0,-4.56877956664,-0.000414413973555,151,-0.737556517124,-2.26694941521,
2.0499895374,-0.746015548706,0,-4.60797293927,-0.000412075063471,152,-0.78711783886,-2.37252879143,
2.0458009998,-0.733616352081,0,-4.64692583223,-0.000409545640963,153,-0.837687969208,-2.47987508774,
2.04135497014,-0.720671653748,0,-4.68561086395,-0.000406728197761,154,-0.889245986938,-2.58899021149,
2.03664572636,-0.707171916962,0,-4.72397763395,-0.000403381024178,155,-0.941848695278,-2.69993472099,
2.03166802327,-0.693108081818,0,-4.76198083105,-0.000399554782396,156,-0.995499670506,-2.81275057793,
2.02641709248,-0.678470611572,0,-4.79959236533,-0.000395435939502,157,-1.05025100708,-2.92751717567,
2.02088625828,-0.663249492645,0,-4.83673328051,-0.000390487012227,158,-1.10613107681,-3.04427146912,
2.01507027546,-0.647434234619,0,-4.87336862409,-0.000385170621467,159,-1.1631706953,-3.1630859375,
2.00896342198,-0.631014347076,0,-4.90944689402,-0.000379312599816,160,-1.22138845921,-3.28399658203,
2.00255949894,-0.613978862762,0,-4.94490583383,-0.000372800239962,161,-1.28084874153,-3.40708780289,
1.9958513538,-0.596316814423,0,-4.97965218572,-0.000365307450363,162,-1.34157085419,-3.53244400024,
1.98883326451,-0.578016281128,0,-5.01364250968,-0.0003573580048,163,-1.40361201763,-3.66013002396,
1.98149855534,-0.559065341949,0,-5.04680203859,-0.000348622531102,164,-1.46699464321,-3.79020309448,
1.97383959691,-0.539452075958,0,-5.07902410138,-0.00033876511379,165,-1.53175652027,-3.92275190353,
1.96584971348,-0.519162654877,0,-5.11025003083,-0.000328291492968,166,-1.5979719162,-4.0578994751,
1.95752175252,-0.498184204102,0,-5.14039032293,-0.000316876948619,167,-1.66566109657,-4.19569158554,
1.94884713093,-0.476503372192,0,-5.16931483753,-0.000304094252437,168,-1.73488235474,-4.33625984192,
1.93981869618,-0.454105377197,0,-5.19694865492,-0.000290517007269,169,-1.80568575859,-4.47965717316,
1.93042834202,-0.430975437164,0,-5.22318347017,-0.000275808379339,170,-1.87813913822,-4.62603712082,
1.92066700856,-0.407098293304,0,-5.2478832284,-0.000259669517638,171,-1.95228266716,-4.77548837662,
1.91052611271,-0.382457733154,0,-5.27093216998,-0.000242313776263,172,-2.02815461159,-4.92810726166,
1.89999707142,-0.357038021088,0,-5.29220185442,-0.000223607814286,173,-2.10584831238,-5.08405399323,
1.88907034794,-0.33082151413,0,-5.31155379689,-0.000203446115626,174,-2.18540596962,-5.24340629578,
1.87773592869,-0.303790092468,0,-5.32883436254,-0.000181669374393,175,-2.26688838005,-5.40632200241,
1.86598427693,-0.275926113129,0,-5.3438903094,-0.00015828166548,176,-2.35036182404,-5.57291889191,
1.85380490223,-0.247210025787,0,-5.35655713661,-0.000133164743189,177,-2.43589496613,-5.74335098267,
1.84118731419,-0.217621803284,0,-5.36666832904,-0.000106297427973,178,-2.52355599403,-5.91773176193,
1.82812054554,-0.187141418457,0,-5.37403449728,-7.74392289109e-05,179,-2.61340093613,-6.0962266922,
1.8145931522,-0.155747413635,0,-5.37846171193,-4.65421133595e-05,180,-2.70550084114,-6.27895641327,
1.80059369008,-0.123417377472,0,-5.37975915678,-1.3639652482e-05,181,-2.79992222786,-6.46606826782,
1.78611023823,-0.0901298522949,0,-5.37769955787,2.16518984143e-05,182,-2.89671468735,-6.65770339966,
1.77113087575,-0.0558609962463,0,-5.37207676544,5.91104030367e-05,183,-2.9959654808,-6.85400104523,
1.75564272801,-0.0205864906311,0,-5.36265169582,9.90818585364e-05,184,-3.09770607948,-7.05507659912,
1.73963292042,0.0157180838287,0,-5.34917587673,0.000141665359354,185,-3.20200753212,-7.26105499268,
1.72308905522,0.0530771240592,0,-5.33140408249,0.00018682661663,186,-3.30888271332,-7.47203111649,
1.70599730412,0.0915163010359,0,-5.30905332751,0.000234962541767,187,-3.41836667061,-7.68807697296,
1.68834526936,0.131061181426,0,-5.28187115032,0.000285752248044,188,-3.5304877758,-7.90924072266,
1.6701195995,0.171737447381,0,-5.24956653471,0.000339601019145,189,-3.64522910118,-8.13554668427,
1.65130741993,0.213570639491,0,-5.21184978362,0.000396495015594,190,-3.76255249977,-8.36695098877,
1.6318963329,0.256585747004,0,-5.16842747724,0.000456473225355,191,-3.88239884377,-8.60336685181,
1.61187346379,0.3008069098,0,-5.11897060528,0.000519909865936,192,-4.00466918945,-8.84460544586,
1.59122832219,0.346257150173,0,-5.06319739522,0.000586308268085,193,-4.12921762466,-9.09044837952,
1.56994958385,0.392957538366,0,-5.00076766968,0.000656282445468,194,-4.25584506989,-9.34051322937,
1.54802909034,0.44092670083,0,-4.93139715863,0.000729244631701,195,-4.38427448273,-9.59431362152,
1.52545920486,0.490180283785,0,-4.8547737225,0.000805487792902,196,-4.51416873932,-9.85121631622,
1.50223481009,0.54072958231,0,-4.7706020861,0.00088483442071,197,-4.64508867264,-10.110414505,
1.47835349391,0.592581033707,0,-4.6786055364,0.000967089649502,198,-4.776491642,-10.3708753586,
1.45381604234,0.645734667778,0,-4.57852500798,0.00105206477889,199,-4.90773582458,-10.6313781738,
1.42862723867,0.70018351078,0,-4.47013867261,0.00113937409452,200,-5.03802728653,-10.8904466629,
1.40279640357,0.755911409855,0,-4.35325656943,0.00122867996724,201,-5.16645383835,-11.1463069916,
1.37633816997,0.812892138958,0,-4.22773737278,0.00131947112192,202,-5.2919549942,-11.3969345093,
1.34927308659,0.871088385582,0,-4.09349903003,0.001411124419,203,-5.41334342957,-11.6400718689,
1.32162836293,0.930449724197,0,-3.95052303197,0.00150297106787,204,-5.52929639816,-11.8731536865,
1.29343836109,0.990912258625,0,-3.79886973639,0.00159418352597,205,-5.63837146759,-12.0934314728,
1.26474489371,1.05239737034,0,-3.63867907224,0.00168392400192,206,-5.73908519745,-12.2980213165,
1.23559738795,1.11481225491,0,-3.47018538248,0.00177120126909,207,-5.82991027832,-12.4839820862,
1.20605282585,1.17804908752,0,-3.2937122143,0.00185507672627,208,-5.90934753418,-12.6484556198,
1.17617498437,1.24198722839,0,-3.10967712707,0.00193456271951,209,-5.97600650787,-12.7887201309,
1.146034048,1.30649387836,0,-2.91858985682,0.00200868901036,210,-6.02864599228,-12.9024581909,
1.11570470134,1.37142693996,0,-2.72103109509,0.00207671165344,211,-6.06633377075,-12.9877681732,
1.08526541392,1.43663775921,0,-2.51765764424,0.00213782973794,212,-6.08832597733,-13.0433349609,
1.05479641358,1.50197446346,0,-2.30917830121,0.00219149678339,213,-6.09427022934,-13.0685043335,
1.02437771956,1.56728518009,0,-2.09632971261,0.00223741973166,214,-6.08420467377,-13.0633249283,
0.994087831178,1.63242173195,0,-1.87986912955,0.00227538272611,215,-6.05843448639,-13.0284805298,
0.964001731077,1.69724273682,0,-1.66054603303,0.00230546602668,216,-6.01766681671,-12.9653148651,
0.934189991155,1.76161527634,0,-1.43908840153,0.00232789847875,217,-5.96279859543,-12.8756580353,
0.904717222848,1.82541871071,0,-1.21618791895,0.00234306016089,218,-5.89497470856,-12.7617702484,
0.875641957917,1.88854408264,0,-0.992487884782,0.00235144185887,219,-5.81547546387,-12.6261386871,
0.847015813985,1.95089590549,0,-0.768571803352,0.00235370574778,220,-5.72562551498,-12.4714183807,
0.818883613744,2.01239228249,0,-0.544961309654,0.00235048797778,221,-5.62679767609,-12.3002529144,
0.791283861795,2.0729637146,0,-0.322115055167,0.00234244788509,222,-5.5202999115,-12.1152381897,
0.764248506227,2.13255310059,0,-0.100421984381,0.00233032071863,223,-5.40739965439,-11.9187831879,
0.737804011503,2.19111442566,0,0.119788234128,0.00231444615724,224,-5.28920888901,-11.7131233215,
0.711971537271,2.24861168861,0,0.338247573368,0.00229603672438,225,-5.16678333282,-11.500248909,
0.686767951646,2.30501723289,0,0.554740003884,0.0022753578396,226,-5.04098129272,-11.2818870544,
0.662205831209,2.3603117466,0,0.769101838063,0.00225295184698,227,-4.91265773773,-11.0596151352,
0.638295010724,2.41448140144,0,0.981207169416,0.00222922916464,228,-4.78239536285,-10.8346357346,
0.615042165914,2.46751832962,0,1.19097189966,0.00220462381497,229,-4.65079069138,-10.6080675125,
0.592451409498,2.51941895485,0,1.39834749394,0.0021795084619,230,-4.51835536957,-10.3807420731,
0.570525006452,2.57018303871,0,1.60331224008,0.00215416517927,231,-4.38544416428,-10.1533842087,
0.549264506498,2.61981272697,0,1.80585969316,0.00212875425901,232,-4.2522687912,-9.92648887634,
0.528669313588,2.66831278801,0,2.00601126706,0.0021035685991,233,-4.1191778183,-9.70052337646,
0.508738354841,2.7156894207,0,2.2037989732,0.00207871931215,234,-3.98630857468,-9.47578430176,
0.489470199743,2.76194930077,0,2.39926319245,0.00205429531469,235,-3.85374617577,-9.25242805481,
0.470862106481,2.80710053444,0,2.59245892434,0.00203044909337,236,-3.72172498703,-9.03066062927,
0.452911810079,2.85115122795,0,2.78344026163,0.00200717156016,237,-3.59014987946,-8.81048965454,
0.435616330304,2.8941090107,0,2.97226572971,0.00198450872347,238,-3.4591884613,-8.59192562103,
0.418972806134,2.93598222733,0,3.15899426521,0.0019624652971,239,-3.328779459,-8.37499237061,
0.402978376546,2.97677826881,0,3.34368133662,0.0019410049702,240,-3.19896578789,-8.15956783295,
0.387629942098,3.01650452614,0,3.52638082066,0.00192011217372,241,-3.06972551346,-7.94553947449,
0.372925118604,3.0551674366,0,3.70713773198,0.00189969228473,242,-2.94102501869,-7.7328748703,
0.358861045041,3.09277296066,0,3.88599269373,0.00187969843779,243,-2.81286215782,-7.52139282227,
0.345435218015,3.12932634354,0,4.06297718243,0.00186003556168,244,-2.68521666527,-7.3109292984,
0.332645372548,-3.11835336685,0,4.23811242086,0.0018405956165,245,-2.55802536011,-7.10135936737,
0.320489124456,-3.08389210701,0,4.41140859594,0.00182126323937,246,-2.43127655983,-6.89249897003,
0.308964924016,-3.05047225952,0,4.58286489278,0.00180192249331,247,-2.30487537384,-6.68421697617,
0.298070863881,-3.0180914402,0,4.75247016672,0.00178246381327,248,-2.17883563042,-6.47634315491,
0.287805275121,-2.98674869537,0,4.92019668393,0.00176270423575,249,-2.05313658714,-6.26870822906,
0.278166965642,-2.95644378662,0,5.08600321835,0.00174252210987,250,-1.92767560482,-6.06114721298,
0.269154862561,-2.92717695236,0,5.24983605553,0.00172177561019,251,-1.80243039131,-5.85351371765,
0.260768131414,-2.89894938469,0,5.41162583164,0.00170030035938,252,-1.67735564709,-5.64565324783,
0.253005699315,-2.87176299095,0,5.5712874101,0.00167793050754,253,-1.55251169205,-5.4374294281,
0.24586697022,-2.84562015533,0,5.72872214074,0.00165452407147,254,-1.42773473263,-5.22871446609,
0.239351824918,-2.82052397728,0,5.88381657443,0.00162992556731,255,-1.30304837227,-5.01932573318,
0.233459905782,-2.79647874832,0,6.03643686616,0.00160392039455,256,-1.1784068346,-4.80916309357,
0.228190735975,-2.77348852158,0,6.18643826061,0.00157639407609,257,-1.0538392067,-4.5981502533,
0.223544673124,-2.75155830383,0,6.33365980073,0.00154717641186,258,-0.929213166237,-4.38612413406,
0.219521836438,-2.73069357872,0,6.47792412623,0.00151609491141,259,-0.804563522339,-4.17300748825,
0.216122821965,-2.71090078354,0,6.61903604068,0.00148296226994,260,-0.679819703102,-3.9586648941,
0.213347510495,-2.69218540192,0,6.75679253808,0.00144769638772,261,-0.55505657196,-3.74310922623,
0.211196617284,-2.67455506325,0,6.89096449921,0.00141002284701,262,-0.430187135935,-3.52618479729,
0.209670857587,-2.65801596642,0,7.0213219694,0.0013699329088,263,-0.30515614152,-3.30785679817,
0.208770827451,-2.64257574081,0,7.147610321,0.00132716718507,264,-0.180017724633,-3.0880715847,
0.208497122922,-2.62824201584,0,7.26956218951,0.00128159189751,265,-0.0547043383121,-2.86677408218,
0.208850936094,-2.61502242088,0,7.38690067196,0.00123310565578,266,0.0707381814718,-2.64397311211,
0.209832743802,-2.60292458534,0,7.49933282207,0.00118154211572,267,0.196372419596,-2.41960048676,
0.211443499723,-2.59195661545,0,7.60655140457,0.00112675021847,268,0.322124391794,-2.19368648529,
0.213684157529,-2.58212590218,0,7.70824323353,0.0010686673029,269,0.448119103909,-1.96616363525,
0.216555074849,-2.57344055176,0,7.8040730518,0.0010070616831,270,0.574209928513,-1.73711180687,
0.220057682195,-2.56590795517,0,7.8937057287,0.000941934544355,271,0.700498700142,-1.50653207302,
0.224192098775,-2.55953598022,0,7.97678228595,0.000873035268429,272,0.826892137527,-1.27442550659,
0.228959159055,-2.55433154106,0,8.05294456355,0.000800372670216,273,0.9534252882,-1.04088842869,
0.234359339872,-2.55030179024,0,8.12181829012,0.0007237771751,274,1.08002460003,-0.805934786797,
0.240392998853,-2.54745388031,0,8.18301670227,0.000643117626641,275,1.20674514771,-0.569615840912,
0.247060374418,-2.54579377174,0,8.2361523675,0.000558387003551,276,1.33345413208,-0.332040786743,
0.254361108938,-2.54532718658,0,8.28082576866,0.000469458396005,277,1.46016526222,-0.0932958126068,
0.262295440831,-2.5460600853,0,8.31662743086,0.000376227126933,278,1.58688163757,0.146605014801,
0.270862654844,-2.54799723625,0,8.34314392252,0.000278651838426,279,1.71344196796,0.387430906296,
0.280062035718,-2.5511431694,0,8.35995426817,0.000176653177993,280,1.83988893032,0.629180073738,
0.289892510572,-2.55550122261,0,8.36663816236,7.02381892039e-05,281,1.96611332893,0.87166929245,
0.300352648893,-2.56107497215,0,8.36276237457,-4.07289026782e-05,282,2.09207034111,1.11477398872,
0.311441139379,-2.56786680222,0,8.34789824876,-0.000156200039481,283,2.21772265434,1.35840845108,
0.323155478635,-2.57587838173,0,8.32161144313,-0.000276235021045,284,2.34292721748,1.60232996941,
0.335493401685,-2.58511042595,0,8.28347247508,-0.000400782356896,285,2.46761107445,1.8464370966,
0.348452166715,-2.59556293488,0,8.23305189744,-0.000529842044482,286,2.59178876877,2.09057879448,
0.362028197446,-2.60723543167,0,8.1699177486,-0.000663440289479,287,2.71523761749,2.33451628685,
0.376217798391,-2.62012553215,0,8.09365483231,-0.000801400928619,288,2.83798313141,2.57812547684,
0.391016678014,-2.63423132896,0,8.00383980478,-0.000943809484599,289,2.95983672142,2.82117009163,
0.406420425573,-2.64954829216,0,7.90007643504,-0.00109038057779,290,3.08080363274,3.06346821785,
0.422423557439,-2.6660721302,0,7.78196468261,-0.00124099823185,291,3.20067811012,3.3048043251,
0.439020351568,-2.68379640579,0,7.64913024107,-0.00139568512537,292,3.31943821907,3.5449552536,
0.456204609075,-2.70271444321,0,7.50120608956,-0.00155422813841,293,3.43691277504,3.78367567062,
0.473969177404,-2.72281765938,0,7.3378506778,-0.00171635949481,294,3.55300807953,4.02070426941,
0.492306784787,-2.74409604073,0,7.15874753949,-0.00188181481756,295,3.66762089729,4.25581455231,
0.511209324994,-2.76653909683,0,6.96359614027,-0.00205042707197,296,3.78063011169,4.48871421814,
0.530668095746,-2.79013395309,0,6.75213452191,-0.00222179100609,297,3.89186811447,4.71910572052,
0.550673798719,-2.81486678123,0,6.52412723823,-0.00239562786967,298,4.00127983093,4.9467124939,
0.571216122308,-2.84072184563,0,6.27937733383,-0.00257151559627,299,4.10861349106,5.17115116119,
0.592284516492,-2.86768174171,0,6.01772732319,-0.00274907269073,300,4.2138299942,5.39213085175,
0.61386741797,-2.89572739601,0,5.73906112042,-0.00292784887511,301,4.31673765182,5.6092710495,
0.635952250161,-2.92483711243,0,5.44331662811,-0.00310727663524,302,4.41714859009,5.8221449852,
0.658526078859,-2.95498800278,0,5.13047391247,-0.00328691290599,303,4.51494836807,6.03038024902,
0.681574360528,-2.98615431786,0,4.80057495697,-0.00346610722301,304,4.60986757278,6.23347854614,
0.705082194009,-3.01830816269,0,4.45371822609,-0.00364426403392,305,4.70177602768,6.43097352982,
0.729033188024,-3.05141854286,0,4.09007132988,-0.00382066068547,306,4.79042387009,6.62230682373,
0.753409938016,-3.08545184135,0,3.7098680788,-0.00399459993357,307,4.87559270859,6.80693006516,
0.778193489709,-3.12037134171,0,3.31341621717,-0.00416530500044,308,4.95696401596,6.98419284821,
0.803363815942,3.12704801559,0,2.90109748536,-0.00433199871222,309,5.03433942795,7.15346813202,
0.828899101415,3.09047985077,0,2.47338445265,-0.0044937266818,310,5.1073346138,7.31396579742,
0.854775563875,3.05315685272,0,2.03083020099,-0.00464964097094,311,5.17559194565,7.46492576599,
0.880968467393,3.01513075829,0,1.57407624044,-0.0047988167526,312,5.23886537552,7.60551166534,
0.907450036207,2.9764585495,0,1.10386896997,-0.00494015018686,313,5.29662227631,7.73476457596,
0.934190766015,2.93720197678,0,0.621049876405,-0.00507264221881,314,5.34845590591,7.8517074585,
0.961158529916,2.89742732048,0,0.126556810704,-0.00519528045022,315,5.39387893677,7.955265522,
0.988318995633,2.8572075367,0,-0.378560928896,-0.00530689435223,316,5.43243312836,8.04431724548,
1.01563461224,2.81662130356,0,-0.893147607853,-0.00540636643744,317,5.4634680748,8.11763191223,
1.04306544463,2.77575349808,0,-1.41594479398,-0.00549260963429,318,5.48651790619,8.1739654541,
1.0705679814,2.73469567299,0,-1.94558354795,-0.00556447458548,319,5.50084733963,8.21194934845,
1.09809549252,2.69354653358,0,-2.48058701888,-0.00562082448349,320,5.50584888458,8.23019695282,
1.12559793989,2.65241217613,0,-3.01937340052,-0.0056605559856,321,5.50083684921,8.22727870941,
1.15302191774,2.61140537262,0,-3.56026722926,-0.00568265212197,322,5.48514270782,8.20174980164,
1.18031068245,2.57064628601,0,-4.10150062927,-0.00568620467465,323,5.45809793472,8.15216445923,
1.20740385453,2.53026294708,0,-4.64121454659,-0.00567022387673,324,5.41896247864,8.07707309723,
1.2342377464,2.49038910866,0,-5.17748491619,-0.00563403109681,325,5.36710643768,7.97510719299,
1.26074580947,2.45116591454,0,-5.70832182147,-0.00557692332362,326,5.30192804337,7.84498786926,
1.28685857455,2.41273999214,0,-6.23169047386,-0.00549844538181,327,5.22285366058,7.68551635742,
1.3125040094,2.37526321411,0,-6.74552281504,-0.00539824431695,328,5.12936449051,7.49569034576,
1.33760809998,2.33889126778,0,-7.24773894147,-0.00527619309604,329,5.02108192444,7.27465724945,
1.3620955805,2.30378341675,0,-7.73626082839,-0.00513231133612,330,4.89774227142,7.02185058594,
1.38589038054,2.27009987831,0,-8.20903763231,-0.00496688429698,331,4.75918531418,6.73693275452,
1.40891611675,2.23800182343,0,-8.66405173338,-0.0047802616381,332,4.60535049438,6.41981983185,
1.43109724025,2.20764899254,0,-9.09934549632,-0.0045730667345,333,4.43640756607,6.07077455521,
1.45235987107,2.17919778824,0,-9.51303909724,-0.00434613131627,334,4.2526845932,5.6904001236,
1.4726319919,2.15280056,0,-9.90333132323,-0.00410027423128,335,4.05456256866,5.27956676483,
1.4918449233,2.12860369682,0,-10.2685199284,-0.00383653526525,336,3.84270262718,4.83950519562,
1.5099337856,2.10674548149,0,-10.6070099939,-0.00355604189918,337,3.61787104607,4.37174797058,
1.52683846752,2.08735513687,0,-10.9173190016,-0.00325997534972,338,3.38101625443,3.87812328339,
1.5425037882,2.07055211067,0,-11.1980701609,-0.00294944399166,339,3.13312840462,3.36071205139,
1.55688086903,2.05644273758,0,-11.4480145914,-0.0026257961974,340,2.87546539307,2.8218793869,
1.56992732681,2.04512214661,0,-11.6660086146,-0.002290135073,341,2.6093287468,2.26418495178,
1.58160765568,2.0366704464,0,-11.8510279498,-0.00194371503187,342,2.33603382111,1.69035434723,
1.59189303319,2.03115391731,0,-12.0021467519,-0.00158756976371,343,2.05714654922,1.10331559181,
1.60076411168,2.02862334251,0,-12.1185697819,-0.00122307189568,344,1.77417469025,0.50608253479,
1.60820801655,2.02911424637,0,-12.1995891386,-0.000851138910843,345,1.48883962631,-0.098127245903,
1.61422140996,2.03264474869,0,-12.2446279345,-0.000473148447901,346,1.20266854763,-0.706124663353,
1.61880906025,2.03921771049,0,-12.253209414,-9.01512516836e-05,347,0.917527735233,-1.31458044052,
1.62198431889,2.04881811142,0,-12.2249812144,0.000296545503914,348,0.63508605957,-1.9201362133,
1.62377007405,2.06141519547,0,-12.1597178065,0.000685609591197,349,0.357147395611,-2.51944971085,
1.62419779698,2.07696032524,0,-12.0573333805,0.00107557327755,350,0.0854677557945,-3.10913038254,
1.62330658833,2.09538936615,0,-11.9178689464,0.00146510268049,351,-0.178212612867,-3.68591761589,
1.62114603917,2.11662173271,0,-11.741544305,0.0018523223995,352,-0.432123243809,-4.24656867981,
1.61777289311,2.14056110382,0,-11.5287363607,0.00223558045318,353,-0.674649655819,-4.78803157806,
1.61325152318,2.16709709167,0,-11.27999245,0.00261308700126,354,-0.904218018055,-5.30739068985,
1.60765488545,2.19610595703,0,-10.9960546566,0.00298279466738,355,-1.11933803558,-5.80197143555,
1.60106165806,2.22745132446,0,-10.6778476133,0.00334278838023,356,-1.31866359711,-6.26935195923,
1.59355671803,2.26098704338,0,-10.3264811078,0.0036911180173,357,-1.50100457668,-6.70742750168,
1.58522971074,2.29655766487,0,-9.94325180335,0.0040258284828,358,-1.6654355526,-7.11447525024,
1.5761745731,2.3340010643,0,-9.52963388907,0.00434502215712,359,-1.81103539467,-7.48905849457,
1.56648820086,2.37314987183,0,-9.08726907351,0.00464699106314,360,-1.93722105026,-7.83019161224,
1.55627040478,2.41383361816,0,-8.61795774308,0.0049269962467,361,-2.0435769558,-8.1372461319,
1.54562137561,2.45588064194,0,-8.12362815173,0.00518963164881,362,-2.12982583046,-8.40993595123,
1.53464151646,2.49911928177,0,-7.60632905062,0.00543075932424,363,-2.19599461555,-8.64834213257,
1.52343065391,2.54338097572,0,-7.06819418116,0.00564948189614,364,-2.24219512939,-8.85291671753,
1.51208720828,2.58849906921,0,-6.511446978,0.00584486431409,365,-2.26871490479,-9.02430534363,
1.50070768694,2.6343126297,0,-5.93835376502,0.00601644615918,366,-2.27592754364,-9.16339302063,
1.489385658,2.68066549301,0,-5.35122087483,0.00616382172787,367,-2.26442909241,-9.27131652832,
1.47821181367,2.72740793228,0,-4.75237007495,0.00628682226409,368,-2.23479318619,-9.34929275513,
1.46727307985,2.77439761162,0,-4.14411364385,0.00638554779985,369,-2.1877682209,-9.39869689941,
1.45665241877,2.82149815559,0,-3.52876125342,0.00646002070147,370,-2.1241517067,-9.42095756531,
1.44642936538,2.86858105659,0,-2.90859214701,0.00651057111576,371,-2.04462790489,-9.41744232178,
1.4366788725,2.91552495956,0,-2.28584802654,0.00653758788351,372,-1.95011341572,-9.38964557648,
1.42747156421,2.962215662,0,-1.6627264011,0.00654151620004,373,-1.84147369862,-9.33903121948,
1.41887427966,3.00854563713,0,-1.04138128708,0.00652285058205,374,-1.71946668625,-9.26688575745,
1.41094908217,3.05441403389,0,-0.423911140528,0.00648214936253,375,-1.58504474163,-9.1746263504,
1.40375425021,3.09972667694,0,0.187643144171,0.0064200301287,376,-1.43897175789,-9.06346893311,
1.39734317462,-3.1387898922,0,0.791301200114,0.00633712053429,377,-1.28222024441,-8.93470573425,
1.39176568488,-3.09484767914,0,1.38513647189,0.00623398800271,378,-1.11550080776,-8.78939056396,
1.38706706563,-3.05170893669,0,1.96728767285,0.0061113153177,379,-0.939726352692,-8.62867164612,