lower angle,upper angle,holding angle,system x,acceleration,ticks (200 tps),lower acceleration (shoulder),upper acceleration (elbow),
1.57079632679,0.0,0,1.87524041119e-15,2.72584910494e-17,1,0.0,0.0,
1.57093556325,-0.000269889831543,0,-0.000721812245234,-1.04922177236e-05,2,0.0278199817985,0.0539531745017,
1.57121928135,-0.000822067260742,0,-0.00216335050051,-2.09540444128e-05,3,0.0567450299859,0.110416390002,
1.57164557377,-0.00165176391602,0,-0.00432878667097,-3.14764508512e-05,4,0.0852127671242,0.16591347754,
1.57221253315,-0.00275659561157,0,-0.00719099935236,-4.16045007428e-05,5,0.113461047411,0.220959797502,
1.57292063633,-0.00413513183594,0,-0.010783364135,-5.22176770029e-05,6,0.141553759575,0.275719195604,
1.57376797596,-0.00578594207764,0,-0.0150662382806,-6.22545508935e-05,7,0.169490605593,0.330191671848,
1.57475407521,-0.0077075958252,0,-0.0200437844738,-7.23518766885e-05,8,0.197259664536,0.384340643883,
1.57587845723,-0.00989818572998,0,-0.0257264182878,-8.26000945152e-05,9,0.224820226431,0.438102126122,
1.57713921467,-0.0123553276062,0,-0.032086997591,-9.23529230504e-05,10,0.252160459757,0.491438031197,
1.57853539387,-0.0150771141052,0,-0.039121319048,-0.00010213374196,11,0.279266357422,0.544322729111,
1.58006604115,-0.0180602073669,0,-0.0468439431471,-0.000112127067619,12,0.306084275246,0.59666800499,
1.58172924916,-0.0213027000427,0,-0.0552214370778,-0.000121634806196,13,0.33263745904,0.648477911949,
1.58352358738,-0.0248012542725,0,-0.0642537306016,-0.000131141579508,14,0.358876109123,0.699673652649,
1.58544714848,-0.0285520553589,0,-0.0739323917558,-0.000140525832718,15,0.384783297777,0.750242471695,
1.58749897877,-0.0325527191162,0,-0.0842593982181,-0.000149938753484,16,0.410353213549,0.800126791,
1.58967669407,-0.0367994308472,0,-0.0952116744801,-0.000159016523443,17,0.435554862022,0.849300861359,
1.59197886387,-0.0412878990173,0,-0.10680157998,-0.000168273693586,18,0.460367381573,0.897707939148,
1.59440262715,-0.0460143089294,0,-0.118991388588,-0.000176983016711,19,0.484780520201,0.945313572884,
1.59694655339,-0.0509748458862,0,-0.131787146226,-0.000185780111132,20,0.508777618408,0.992108345032,
1.59960825841,-0.0561652183533,0,-0.145171925223,-0.000194331337597,21,0.532345473766,1.03802776337,
1.60238535801,-0.061580657959,0,-0.159135022236,-0.000202727165431,22,0.555457174778,1.08305692673,
1.60527594487,-0.0672163963318,0,-0.173680293872,-0.000211178938388,23,0.578101813793,1.12715435028,
1.60827715794,-0.0730676651001,0,-0.188782367309,-0.000219262209084,24,0.600264489651,1.17029941082,
1.61138708989,-0.0791301727295,0,-0.20443876627,-0.000227309514738,25,0.621939361095,1.21245872974,
1.61460240284,-0.0853977203369,0,-0.220628212881,-0.000235047758068,26,0.643092036247,1.25358939171,
1.61792118947,-0.0918664932251,0,-0.237341895184,-0.000242658143931,27,0.663739681244,1.29369676113,
1.62134058873,-0.098530292511,0,-0.254573042464,-0.000250169585947,28,0.683856785297,1.33272719383,
1.62485773961,-0.105383396149,0,-0.272308587348,-0.000257491681573,29,0.703435063362,1.37067914009,
1.62846978108,-0.112421035767,0,-0.290522920852,-0.000264442046417,30,0.722455859184,1.40752828121,
1.63217432896,-0.119637012482,0,-0.309223720589,-0.000271503706253,31,0.740909695625,1.44322657585,
1.63596852223,-0.127026081085,0,-0.328391536318,-0.000278283069391,32,0.758798897266,1.47778987885,
1.63984902302,-0.134582042694,0,-0.348004799222,-0.000284749185828,33,0.776106774807,1.51118540764,
1.64381297032,-0.142299175262,0,-0.368050228571,-0.000291022539462,34,0.792836904526,1.54339885712,
1.64785797993,-0.150171279907,0,-0.388535305025,-0.000297404567202,35,0.808979392052,1.57442355156,
1.651980714,-0.158192157745,0,-0.409438328377,-0.00030347121261,36,0.824519872665,1.60423564911,
1.65617783467,-0.166356563568,0,-0.430725091404,-0.000309041312373,37,0.839460790157,1.63282752037,
1.66044695775,-0.174657344818,0,-0.452415413437,-0.000314898946093,38,0.853792726994,1.66018128395,
1.66478474537,-0.183088779449,0,-0.47448124514,-0.000320349475682,39,0.867524385452,1.68631052971,
1.66918785969,-0.191644668579,0,-0.496900753585,-0.000325482768379,40,0.880628407001,1.7111839056,
1.67365343968,-0.200318813324,0,-0.519666615849,-0.000329750023019,41,0.893132030964,1.73480415344,
1.67817814747,-0.209104537964,0,-0.542763171149,-0.000334538628824,42,0.905006170273,1.75716626644,
1.68275959889,-0.217996120453,0,-0.566191320132,-0.000339340396444,43,0.916269600391,1.77827703953,
1.68739445607,-0.226986408234,0,-0.589941552798,-0.000344004356389,44,0.926918685436,1.79810428619,
1.69207890431,-0.23606967926,0,-0.613971175553,-0.000348049683496,45,0.936945617199,1.81667792797,
1.69681055943,-0.24523973465,0,-0.638287229368,-0.000352197136435,46,0.946365356445,1.83399629593,
1.70158656041,-0.254489898682,0,-0.662888420318,-0.000356325520204,47,0.955150485039,1.85002231598,
1.70640309254,-0.263813972473,0,-0.687738255213,-0.000359925698571,48,0.963332414627,1.864798069,
1.71125777165,-0.273205280304,0,-0.712849889951,-0.00036371631933,49,0.970902919769,1.87830591202,
1.71614678303,-0.282658100128,0,-0.738180639572,-0.000366888776432,50,0.977854192257,1.89055168629,
1.72106821934,-0.292165756226,0,-0.763758071972,-0.00037046050069,51,0.98421305418,1.90155172348,
1.72601778904,-0.30172252655,0,-0.789525082343,-0.000373200703651,52,0.989962279797,1.91130185127,
1.73099358479,-0.311321258545,0,-0.815515385677,-0.00037643356099,53,0.995108366013,1.91979956627,
1.73599179188,-0.320956707001,0,-0.841680183672,-0.000378959642263,54,0.999650120735,1.92706561089,
1.7410095493,-0.330622196198,0,-0.868018140852,-0.000381466319816,55,1.00360822678,1.93308353424,
1.74604447285,-0.340311527252,0,-0.894536124345,-0.000380493263249,56,1.00698161125,1.93789720535,
1.75109322468,-0.350018978119,0,-0.921206035074,-0.000382671688264,57,1.00977790356,1.94149696827,
1.75615342061,-0.359738349915,0,-0.948034747935,-0.000384948954778,58,1.01198399067,1.9438791275,
1.76122124592,-0.369463443756,0,-0.974986045122,-0.000386706573527,59,1.0136256218,1.94506418705,
1.76629479329,-0.379189014435,0,-1.00206888314,-0.000388592705717,60,1.01469671726,1.94505763054,
1.77137072484,-0.38890838623,0,-1.02926764633,-0.000390254418506,61,1.01520895958,1.94388222694,
1.77644665638,-0.398615837097,0,-1.05658311915,-0.00039192761125,62,1.01516604424,1.94153428078,
1.78151972691,-0.408306121826,0,-1.0839956516,-0.000393318882609,63,1.01457226276,1.93802690506,
1.78658659855,-0.417973041534,0,-1.1114836567,-0.000394400337296,64,1.0134370327,1.93336308002,
1.7916458408,-0.427610874176,0,-1.13907659413,-0.000395904589179,65,1.01177799702,1.92759656906,
1.79669363896,-0.437214374542,0,-1.16672643518,-0.000396719710836,66,1.00956392288,1.92066287994,
1.80172760884,-0.44677734375,0,-1.1944403092,-0.000397637191513,67,1.00684380531,1.9126406908,
1.80674584309,-0.456295013428,0,-1.22222124083,-0.000398597958393,68,1.00359129906,1.9034923315,
1.81174500386,-0.465761184692,0,-1.25004795241,-0.000399253437402,69,0.999837994576,1.89326322079,
1.81672270695,-0.475171089172,0,-1.27790938981,-0.000399750302215,70,0.995572209358,1.88196969032,
1.82167656819,-0.484519004822,0,-1.30580675815,-0.000400264466521,71,0.990814566612,1.86959052086,
1.82660468022,-0.493799686432,0,-1.3337493718,-0.000400912257493,72,0.985562026501,1.85615885258,
1.83150370518,-0.503008365631,0,-1.36169805256,-0.000400997928582,73,0.979825973511,1.84168434143,
1.83637173573,-0.512138843536,0,-1.38967442456,-0.000401393846277,74,0.973591923714,1.82617068291,
1.84120638768,-0.52118730545,0,-1.41765564889,-0.000401462091113,75,0.966899693012,1.80961561203,
1.8460048,-0.53014755249,0,-1.44563523738,-0.000401437261077,76,0.959732592106,1.79207384586,
1.85076554219,-0.539014816284,0,-1.47363086166,-0.000401665964355,77,0.952099919319,1.77350485325,
1.85548527638,-0.547784805298,0,-1.50159791662,-0.000401254688696,78,0.944023966789,1.75397396088,
1.8601630489,-0.556452274323,0,-1.52957432628,-0.000401387527643,79,0.935477256775,1.73344135284,
1.86479552189,-0.565011501312,0,-1.55753384615,-0.000401143832764,80,0.926484525204,1.71192646027,
1.86938078801,-0.573459148407,0,-1.58546232627,-0.000400697109417,81,0.917057931423,1.6894646883,
1.87391646306,-0.581789493561,0,-1.61336185861,-0.000400280400436,82,0.907201170921,1.66606450081,
1.87840111653,-0.589997768402,0,-1.64125052363,-0.000400122420023,83,0.89688616991,1.64168989658,
1.8828318874,-0.598079681396,0,-1.66909855693,-0.000399538061828,84,0.886158049107,1.61641860008,
1.88720686833,-0.60603094101,0,-1.69690428918,-0.00039892979195,85,0.875028371811,1.59019970894,
1.89152415196,-0.613846302032,0,-1.72467813467,-0.000398471013284,86,0.863459765911,1.56307053566,
1.89578183095,-0.621521472931,0,-1.75241859125,-0.000397990456893,87,0.851488649845,1.53504228592,
1.89997704426,-0.629051685333,0,-1.78010249273,-0.000397177755944,88,0.839088380337,1.50610077381,
1.90410883824,-0.636433124542,0,-1.80775038655,-0.000396659741916,89,0.826303005219,1.47627854347,
1.90817435185,-0.643661022186,0,-1.83533939002,-0.000395813474863,90,0.813105106354,1.44558060169,
1.91217167775,-0.650731086731,0,-1.86286853903,-0.000394953408464,91,0.799509227276,1.41399550438,
1.91609938542,-0.657639026642,0,-1.89035079789,-0.000394279313825,92,0.785532236099,1.38155341148,
1.91995509068,-0.664380073547,0,-1.91777755608,-0.000393481733127,93,0.771138370037,1.34823489189,
1.92373688618,-0.67095041275,0,-1.94514226017,-0.000392590104477,94,0.756372094154,1.31406593323,
1.92744286458,-0.677345752716,0,-1.97244444771,-0.000391691926896,95,0.741213679314,1.27905201912,
1.93107111851,-0.68356180191,0,-1.99968378863,-0.000390784689803,96,0.725672006607,1.24320030212,
1.93462021748,-0.689594268799,0,-2.02687381565,-0.000390075854211,97,0.709736287594,1.20648741722,
1.93808730046,-0.695438861847,0,-2.05398700061,-0.000388972081798,98,0.693436563015,1.16895079613,
1.94147093693,-0.701091766357,0,-2.08103124922,-0.000387981845489,99,0.676756680012,1.13059735298,
1.94476921956,-0.706549167633,0,-2.10800088369,-0.000386910144803,100,0.659674167633,1.09140729904,
1.94798071782,-0.711805820465,-0.0711805820465,-2.13492178949,-0.000386209811199,101,0.642253756523,1.05140519142,
1.95110304753,-0.716858863831,0.0,-2.16176306077,-0.000385066095876,102,0.624433100224,1.01056218147,
1.95415194432,-0.721737384796,0,-2.18861691647,-0.000385245280643,103,0.609774529934,0.975723266602,
1.95710690419,-0.726402759552,0,-2.21537676547,-0.000383895339853,104,0.591068744659,0.933016657829,
1.95996792714,-0.730851650238,0,-2.24208632705,-0.000383172612086,105,0.572166740894,0.889809012413,
1.96273215214,-0.735080242157,0,-2.26871356038,-0.000381990231819,106,0.552864551544,0.845740139484,
1.96539814869,-0.739084720612,0,-2.29526746313,-0.000380936924405,107,0.533177375793,0.800865054131,
1.96796353261,-0.74286031723,0,-2.3217417563,-0.000379793612525,108,0.513102948666,0.755143165588,
1.97042687336,-0.746403694153,0,-2.34813982914,-0.000378698922385,109,0.49267655611,0.708662629128,
1.97278626362,-0.749710559845,0,-2.37446339859,-0.000377628849309,110,0.471858143806,0.661345601082,
1.97503979603,-0.752776622772,0,-2.40071432672,-0.000376585424203,111,0.450669288635,0.613236546516,
1.97718508641,-0.755598545074,0,-2.42686931223,-0.000375207750558,112,0.429099202156,0.564327299595,
1.97922118107,-0.75817155838,0,-2.45296348934,-0.000374334131909,113,0.407169759274,0.514614999294,
1.98114521901,-0.760491847992,0,-2.4789661837,-0.000373020491093,114,0.384817808867,0.464085042477,
1.9829557697,-0.762555599213,0,-2.50488748781,-0.000371851514661,115,0.362124919891,0.412784516811,
1.98465092579,-0.764358997345,0,-2.53072408033,-0.000370635058369,116,0.339036166668,0.360645204782,
1.98622877995,-0.765897274017,0,-2.55648452131,-0.000369541408772,117,0.315554529428,0.307698607445,
1.98768694798,-0.76716709137,0,-2.58214634818,-0.000368125546401,118,0.291689604521,0.253960758448,
1.98902399937,-0.768164157867,0,-2.60772599215,-0.000366945456543,119,0.267421007156,0.199386224151,
1.99023802678,-0.768884181976,0,-2.63322647388,-0.000365808843103,120,0.242756068707,0.143999010324,
1.99132664601,-0.769323348999,0,-2.65863153491,-0.000364439034961,121,0.217702373862,0.087796613574,
1.99228794972,-0.769476890564,0,-2.68395027569,-0.000363199683103,122,0.192244276404,0.0307662039995,
1.99311955372,-0.769341468811,0,-2.70916073311,-0.000361644850829,123,0.166372194886,-0.027091100812,
1.99382002751,-0.768912315369,0,-2.73428565757,-0.000360416628351,124,0.140098154545,-0.0857928395271,
1.99438698689,-0.768186092377,0,-2.75930320434,-0.000358875046673,125,0.11340624094,-0.145328462124,
1.99481852452,-0.767157554626,0,-2.78422862669,-0.000357552156995,126,0.0862923413515,-0.205708131194,
1.99511225621,-0.765822410583,0,-2.80905194531,-0.000356086252853,127,0.0587299466133,-0.266961961985,
1.99526627461,-0.764177322388,0,-2.83376490011,-0.00035450166965,128,0.0307681635022,-0.32904458046,
1.9952777187,-0.76221704483,0,-2.85835581176,-0.000352749822241,129,0.00235422886908,-0.392023950815,
1.99514515797,-0.759937763214,0,-2.88283580574,-0.000351157625265,130,-0.0265041850507,-0.455884695053,
1.99486620823,-0.757334709167,0,-2.90720077534,-0.000349506481966,131,-0.05579604581,-0.520603299141,
1.9944384853,-0.754403591156,0,-2.93144065183,-0.000347710847359,132,-0.0855708196759,-0.586236417294,
1.99385960499,-0.751139640808,0,-2.95555120563,-0.000345854596484,133,-0.115794353187,-0.65278506279,
1.99312718312,-0.747538566589,0,-2.97952218883,-0.000343851163257,134,-0.146493643522,-0.720231056213,
1.99223883549,-0.743595600128,0,-3.00334915457,-0.000341784230904,135,-0.177660107613,-0.788616001606,
1.99119217793,-0.739305973053,0,-3.02702751852,-0.000339648024349,136,-0.209325417876,-0.857936143875,
1.98998482625,-0.734664916992,0,-3.05055253317,-0.000337446923948,137,-0.241496935487,-0.928230881691,
1.98861391942,-0.729667186737,0,-3.07391163425,-0.000335065875593,138,-0.274144083261,-0.999473333359,
1.98707707325,-0.72430896759,0,-3.09708772279,-0.00033243953782,139,-0.307330101728,-1.07170331478,
1.98537238041,-0.718584537506,0,-3.12010088362,-0.000330101364858,140,-0.341007053852,-1.14490544796,
1.9834960262,-0.712488651276,0,-3.14291056324,-0.000327181445022,141,-0.37525883317,-1.21915006638,
1.98144562642,-0.706016540527,0,-3.16551068005,-0.000324174423692,142,-0.410033166409,-1.29441380501,
1.97921927372,-0.699162960052,0,-3.18791444729,-0.000321356907795,143,-0.445342123508,-1.37070953846,
1.97681267659,-0.691922664642,0,-3.21006643569,-0.000317744385691,144,-0.481248855591,-1.44809174538,
1.97422440449,-0.684289932251,0,-3.23199869544,-0.000314591728127,145,-0.51772159338,-1.52656435966,
1.97145016591,-0.676259040833,0,-3.25366078267,-0.000310715513467,146,-0.554782211781,-1.60612535477,
1.96848805348,-0.667825222015,0,-3.27505808574,-0.000306916492064,147,-0.592442035675,-1.68681120872,
1.96533472935,-0.658981800079,0,-3.29617844372,-0.000302943010025,148,-0.630726993084,-1.76865410805,
1.96198637883,-0.649723529816,0,-3.31697717524,-0.000298328675297,149,-0.669618785381,-1.85164761543,
1.95844061772,-0.640044212341,0,-3.33746222086,-0.000293828026804,150,-0.709163308144,-1.93585050106,
1.95469363133,-0.62993812561,0,-3.3575934481,-0.000288752017109,151,-0.749368667603,-2.02127075195,
1.95074255864,-0.619398117065,0,-3.37737569317,-0.000283745431098,152,-0.790263831615,-2.10795760155,
1.94658358494,-0.608418941498,0,-3.39676103629,-0.000278051549002,153,-0.831801712513,-2.19587826729,
1.94221289555,-0.59699344635,0,-3.41572486672,-0.000272004716969,154,-0.874078452587,-2.28511977196,
1.93762762944,-0.585114955902,0,-3.43426326674,-0.000265901702777,155,-0.917067825794,-2.37569999695,
1.93282349507,-0.572776794434,0,-3.45232964004,-0.000259130415782,156,-0.960793018341,-2.46763801575,
1.92779763142,-0.559971809387,0,-3.46992410325,-0.000252360857951,157,-1.00524938107,-2.56095457077,
1.92254479329,-0.546693325043,0,-3.48696977089,-0.000244488497497,158,-1.05052006245,-2.65573096275,
1.91706211964,-0.532933712006,0,-3.50347044672,-0.000236670810639,159,-1.09653770924,-2.75192308426,
1.91134531895,-0.518685817719,0,-3.51938060748,-0.00022820022115,160,-1.14338219166,-2.84962415695,
1.90539009968,-0.50394153595,0,-3.53466555634,-0.000219232048483,161,-1.19106507301,-2.94887423515,
1.8991921703,-0.488693237305,0,-3.54928290529,-0.000209655968589,162,-1.23957943916,-3.04967737198,
1.89274723927,-0.472932815552,0,-3.56319482401,-0.000199537302742,163,-1.28896129131,-3.15208530426,
1.88605101506,-0.456652164459,0,-3.57636180897,-0.000188851748666,164,-1.33923685551,-3.25614833832,
1.87909920613,-0.439842700958,0,-3.58874880587,-0.000177663945961,165,-1.39041256905,-3.36187744141,
1.87188656727,-0.422496318817,0,-3.60028437876,-0.000165451570991,166,-1.44251286983,-3.46933746338,
1.86440880696,-0.404603481293,0,-3.61094203646,-0.000152859381808,167,-1.49557375908,-3.57856678963,
1.85666067997,-0.386155605316,0,-3.62065244875,-0.000139272888915,168,-1.54959011078,-3.68959116936,
1.84863789479,-0.367143630981,0,-3.62937876512,-0.000125157995904,169,-1.60460162163,-3.80246210098,
1.84033472935,-0.347557544708,0,-3.63705163698,-0.000110048551719,170,-1.66062998772,-3.91722297668,
1.8317464153,-0.327388286591,0,-3.64361537108,-9.41396655166e-05,171,-1.71767818928,-4.03391551971,
1.82286770741,-0.306625843048,0,-3.64901003559,-7.73721587365e-05,172,-1.77577626705,-4.15256214142,
1.81369288365,-0.285259723663,0,-3.65316504619,-5.95924373474e-05,173,-1.83493840694,-4.2732167244,
1.80421717564,-0.263280391693,0,-3.65602333632,-4.09943613088e-05,174,-1.89518404007,-4.39590024948,
1.79443486134,-0.24067735672,0,-3.65750890696,-2.13063328431e-05,175,-1.95653152466,-4.52065420151,
1.78433974186,-0.217440128326,0,-3.65752845222,-2.80320928957e-07,176,-2.01897072792,-4.64750671387,
1.77392704884,-0.193558216095,0,-3.65602891541,2.15064974267e-05,177,-2.08255052567,-4.7764787674,
1.76319106022,-0.169020652771,0,-3.65293169167,4.44205255591e-05,178,-2.14725136757,-4.90760707855,
1.75212557713,-0.1438164711,0,-3.6481405763,6.87141751252e-05,179,-2.2130818367,-5.04088401794,
1.74072583119,-0.117935180664,0,-3.64159327314,9.39011087206e-05,180,-2.28005003929,-5.17633867264,
1.72898514668,-0.091365814209,0,-3.63317262396,0.000120768139815,181,-2.34814929962,-5.31393718719,
1.71689827839,-0.0640978813171,0,-3.62279529496,0.00014883016119,182,-2.41736698151,-5.45369434357,
1.70445998112,-0.0361204147339,0,-3.61038086079,0.000178045443465,183,-2.48767971992,-5.5955619812,
1.69166500966,-0.00742340087891,0,-3.59583304559,0.000208641301918,184,-2.55905389786,-5.73950958252,
1.67850764195,0.0220036134124,0,-3.57904341535,0.00024079209084,185,-2.63147759438,-5.88546943665,
1.66498358647,0.0521699078381,0,-3.55992836368,0.000274141726049,186,-2.70490145683,-6.03337574005,
1.651087598,0.0830847918987,0,-3.53837234942,0.000309148184856,187,-2.77925729752,-6.1831035614,
1.63681538502,0.114756830037,0,-3.51427589334,0.000345581087419,188,-2.85447788239,-6.3345451355,
1.62216313283,0.147193640471,0,-3.48753860715,0.00038345348757,189,-2.93045973778,-6.48751020432,
1.60712798039,0.180402129889,0,-3.45807683322,0.000422525257482,190,-3.00713014603,-6.64185237885,
1.59170658986,0.214387685061,0,-3.42577007138,0.000463325147637,191,-3.08433675766,-6.79727935791,
1.57589705388,0.249154597521,0,-3.39052459807,0.000505468471606,192,-3.16194581985,-6.95355558395,
1.55969840481,0.284705340862,0,-3.35224960015,0.000548914114397,193,-3.23977279663,-7.11034154892,
1.54311058956,0.321040809155,0,-3.31085981739,0.000593070224053,194,-3.31763911247,-7.26729679108,
1.52613447706,0.358159393072,0,-3.2662645796,0.000638998265629,195,-3.39530420303,-7.42393445969,
1.50877235929,0.396057397127,0,-3.21838869311,0.000686003760762,196,-3.47251009941,-7.5798368454,
1.49102785538,0.434728264809,0,-3.1671604174,0.000734036881081,197,-3.54899334908,-7.73440933228,
1.47290629248,0.47416228056,0,-3.11251988317,0.000782925339657,198,-3.62441110611,-7.88706493378,
1.45441470394,0.514346599579,0,-3.05442011257,0.000832489211443,199,-3.69842410088,-8.03713512421,
1.43556194107,0.55526471138,0,-2.99282456773,0.00088257642763,200,-3.77066206932,-8.18390750885,
1.41635905305,0.596895933151,0,-2.92771314264,0.000932950371016,201,-3.84069705009,-8.32656288147,
1.39681910078,0.639215826988,0,-2.85908258135,0.000983371239679,202,-3.90811562538,-8.46430110931,
1.37695755164,0.682195365429,0,-2.786948964,0.0010335600276,203,-3.97244358063,-8.59623718262,
1.35679206351,0.725800991058,0,-2.71134316855,0.00108330716707,204,-4.03323459625,-8.72149276733,
1.33634276787,0.769994854927,0,-2.63232269168,0.00113222914905,205,-4.09000205994,-8.83912658691,
1.31563206116,0.814734339714,0,-2.54996104786,0.00118009790288,206,-4.14228963852,-8.94826793671,
1.2946846048,0.859972596169,0,-2.46435477377,0.00122657009432,207,-4.18963956833,-9.04803466797,
1.2735273699,0.905658662319,0,-2.37562656948,0.00127129670814,208,-4.23160886765,-9.13762283325,
1.25218902627,0.951737821102,0,-2.28391281956,0.00131406846742,209,-4.26783180237,-9.2162437439,
1.23070009152,0.998152136803,0,-2.18937401995,0.00135454087597,210,-4.2979516983,-9.28328323364,
1.20909251372,1.0448410511,0,-2.09218979958,0.00139243856701,211,-4.32168292999,-9.33819389343,
1.18739922444,1.0917416811,0,-1.99255018648,0.00142761376628,212,-4.33882808685,-9.38055229187,
1.16565393011,1.13879001141,0,-1.89066224855,0.00145982164582,213,-4.34922170639,-9.41010093689,
1.14389069478,1.1859215498,0,-1.78674516026,0.00148889023333,214,-4.35282373428,-9.4267616272,
1.12214331428,1.23307192326,0,-1.68101947383,0.00151479715964,215,-4.34964561462,-9.4305305481,
1.10044534604,1.28017795086,0,-1.57371749449,0.00153737415451,216,-4.33976840973,-9.42163658142,
1.07882930438,1.32717776299,0,-1.46506341842,0.00155673958303,217,-4.32337713242,-9.40040779114,
1.05732674996,1.37401199341,0,-1.35528577815,0.00157283208302,218,-4.30068063736,-9.36727619171,
1.03596766392,1.42062401772,0,-1.24460329233,0.00158579088461,219,-4.27197027206,-9.32283782959,
1.01478047768,1.46696066856,0,-1.1332308895,0.00159567023531,220,-4.23759555817,-9.26774787903,
0.993791774907,1.51297211647,0,-1.02137075007,0.00160265147664,221,-4.19789075851,-9.2027053833,
0.973026053109,1.55861258507,0,-0.9092119972,0.00160692418281,222,-4.15330123901,-9.12851524353,
0.952505962053,1.6038402319,0,-0.796934206408,0.00160862295434,223,-4.10416173935,-9.04593753815,
0.932252065339,1.6486171484,0,-0.684701303479,0.00160797428167,224,-4.05092000961,-8.95576190948,
0.912282900014,1.69290947914,0,-0.572663138392,0.00160517947925,225,-3.99397492409,-8.85882663727,
0.892614857354,1.73668694496,0,-0.460949343505,0.00160052788738,226,-3.93373274803,-8.75585842133,
0.873262778917,1.77992331982,0,-0.349684265086,0.00159409384464,227,-3.8705227375,-8.64758872986,
0.854239658513,1.82259523869,0,-0.238972538595,0.0015861611656,228,-3.80474686623,-8.53471374512,
0.835556701818,1.86468303204,0,-0.128905569375,0.00157691816745,229,-3.73670148849,-8.41789913177,
0.817223505178,1.90616989136,0,-0.0195597629713,0.00156658091071,230,-3.66673707962,-8.29768562317,
0.799248532453,1.94704174995,0,0.0889954967014,0.00155524952096,231,-3.59509849548,-8.17466163635,
0.781638995805,1.98728644848,0,0.19670466958,0.00154312257608,232,-3.52200484276,-8.04925537109,
0.76440073649,2.02689480782,0,0.303522538992,0.00153034720433,233,-3.44772982597,-7.92192554474,
0.747538820901,2.06585860252,0,0.40941367257,0.00151706471303,234,-3.37246966362,-7.79304885864,
0.731057242551,2.10417222977,0,0.514349653103,0.00150337474359,235,-3.29638433456,-7.66297483444,
0.714959279695,2.14183115959,0,0.618310094853,0.0014893934074,236,-3.21967363358,-7.53198623657,
0.699247614541,2.1788315773,0,0.721281598801,0.0014752199818,237,-3.14239001274,-7.40030860901,
0.683924392858,2.21517133713,0,0.823253198971,0.00146089069275,238,-3.06470489502,-7.26817655563,
0.66899110476,2.25084900856,0,0.924221474517,0.00144651109471,239,-2.98671150208,-7.13575315475,
0.654449001947,2.28586387634,0,1.02418418975,0.00143210014758,240,-2.90848302841,-7.00322055817,
0.640298561254,2.32021641731,0,1.12314620874,0.00141775799269,241,-2.83014369011,-6.87065601349,
0.626540557542,2.35390615463,0,1.22111031173,0.00140345665496,242,-2.75165748596,-6.73814582825,
0.613174931207,2.38693451881,0,1.31808464954,0.00138927224699,243,-2.67314815521,-6.60582685471,
0.600201920667,2.41930222511,0,1.41407432109,0.00137516100991,244,-2.59464454651,-6.47372341156,
0.587621585527,2.45101070404,0,1.50908428744,0.00136112054235,245,-2.5161087513,-6.34183692932,
0.575433270135,2.48206114769,0,1.6031264548,0.00134723549489,246,-2.43769049644,-6.21024608612,
0.563636855283,2.51245546341,0,1.69620412192,0.00133341290811,247,-2.35929489136,-6.07895088196,
0.552232102552,2.54219436646,0,1.78832143856,0.00131965023529,248,-2.28098392487,-5.94792556763,
0.541218237081,2.57127952576,0,1.87948469421,0.00130597898142,249,-2.20278024673,-5.81717777252,
0.53059525887,2.59971284866,0,1.96969056947,0.001292259538,250,-2.12463235855,-5.68671703339,
0.520362095037,2.62749481201,0,2.05894360415,0.00127860517418,251,-2.04663062096,-5.55651092529,
0.51051874558,2.65462660789,0,2.14723537792,0.00126482967124,252,-1.96867871284,-5.42648124695,
0.501064376035,2.68110966682,0,2.23456204146,0.00125099975147,253,-1.89086997509,-5.29668807983,
0.491998867193,2.70694446564,0,2.32091041953,0.00123698080304,254,-1.81311571598,-5.1670331955,
0.483321623006,2.73213148117,0,2.4062676493,0.00122277766165,255,-1.73547923565,-5.03750944138,
0.475032047429,2.75667142868,0,2.49061732322,0.00120833971322,256,-1.65792024136,-4.90808010101,
0.467130021253,2.78056454659,0,2.57393562529,0.00119356076899,257,-1.58041930199,-4.77867507935,
0.459615186849,2.80381035805,0,2.6561956157,0.00117839562551,258,-1.50298297405,-4.64925861359,
0.45248706738,2.8264093399,0,2.73736838769,0.00116281693708,259,-1.42560982704,-4.51982164383,
0.445745543638,2.84836053848,0,2.81741643111,0.00114670076417,260,-1.34831440449,-4.39030456543,
0.439390377202,2.86966347694,0,2.89629943461,0.00113000763955,261,-1.2710313797,-4.2606678009,
0.433421329656,2.89031767845,0,2.97397284828,0.00111267642513,262,-1.19382405281,-4.13088655472,
0.427838281789,2.91032195091,0,3.05038549231,0.00109461220125,263,-1.11661505699,-4.00091028214,
0.422640995183,2.92967534065,0,3.1254827435,0.00107576567432,264,-1.0394487381,-3.87068939209,
0.417829589048,2.94837594032,0,3.19920114168,0.00105600985905,265,-0.962279260159,-3.74021029472,
0.413404063382,2.96642303467,0,3.27147654683,0.0010353358449,266,-0.885139644146,-3.60944962502,
0.40936394135,2.98381471634,0,3.34223857639,0.00101365364396,267,-0.808030724525,-3.47840309143,
0.40570934216,3.00054931641,0,3.41141026201,0.000990868780295,268,-0.730911254883,-3.34694719315,
0.402440385022,3.0166246891,0,3.47890834725,0.000966891693272,269,-0.653802394867,-3.21512365341,
0.399556831517,3.0320391655,0,3.54464760825,0.000941694061348,270,-0.576680004597,-3.08293938637,
0.397059039274,3.04679083824,0,3.60853539663,0.000915168754519,271,-0.499565243721,-2.9503364563,
0.394946531453,3.06087732315,0,3.67047493413,0.000887257726859,272,-0.422478467226,-2.81730747223,
0.393219904104,3.07429623604,0,3.73036148387,0.000857846411734,273,-0.345327079296,-2.68383169174,
0.391878799596,3.08704566956,0,3.78809015798,0.000826933015112,274,-0.268231540918,-2.54990100861,
0.390922979512,3.09912347794,0,3.84354997369,0.000794429804487,275,-0.191157266498,-2.415558815,
0.390352563062,3.11052727699,0,3.89662338075,0.000760243346332,276,-0.114067286253,-2.28076958656,
0.390167431035,3.12125468254,0,3.94718870161,0.000724313594804,277,-0.0370185524225,-2.14552617073,
0.390367583432,3.13130378723,0,3.99512172882,0.000686605536289,278,0.040045440197,-2.00983309746,
0.390952662626,3.1406724453,0,4.04029339794,0.000647048676796,279,0.117005996406,-1.87375712395,
0.391922430196,-3.13382673264,0,4.08257031385,0.0006055817116,280,0.193970873952,-1.73724901676,
0.393276647725,-3.12582492828,0,4.12181628457,0.00056206346565,281,0.270855844021,-1.60035634041,
0.395014957586,-3.1185092926,0,4.15789095745,0.000516643623792,282,0.347680985928,-1.46312379837,
0.397137240567,-3.11188197136,0,4.19064797573,0.000469127962157,283,0.424419820309,-1.32553315163,
0.399642185369,-3.10594344139,0,4.21994772926,0.000419613400441,284,0.500999450684,-1.18768835068,
0.40252967278,-3.10069584846,0,4.24563623776,0.000367894056078,285,0.577493071556,-1.04955732822,
0.405798987546,-3.09613966942,0,4.26756598727,0.000314062479643,286,0.653865635395,-0.911194384098,
0.409449175992,-3.09227633476,0,4.28558102244,0.000257997702623,287,0.730020046234,-0.772688508034,
0.413479284444,-3.0891058445,0,4.2995304044,0.000199771852615,288,0.806015610695,-0.634088039398,
0.4178880016,-3.08662891388,0,4.3092565264,0.000139289129423,289,0.881731390953,-0.495429992676,
0.422674254575,-3.08484506607,0,4.31460582817,7.6607824353e-05,290,0.95725607872,-0.356760025024,
0.42783649365,-3.08375430107,0,4.31541998485,1.16595701945e-05,291,1.0324627161,-0.218161940575,
0.433373288312,-3.08335566521,0,4.31154408167,-5.55067784264e-05,292,1.10737299919,-0.079728603363,
0.439283088842,-3.0836482048,0,4.30282140656,-0.00012491685304,293,1.18192720413,0.0585094690323,
0.445563511052,-3.08463025093,0,4.28909901513,-0.000196516680898,294,1.25607430935,0.196397185326,
0.452212528386,-3.08630013466,0,4.27022222696,-0.000270331052024,295,1.32980108261,0.333957731724,
0.459227637449,-3.08865499496,0,4.24604352235,-0.000346257697124,296,1.40304708481,0.470969378948,
0.466606692472,-3.09169220924,0,4.21641276224,-0.000424333990433,297,1.47581064701,0.607451498508,
0.474346594014,-3.09540820122,0,4.18118690942,-0.000504301249159,298,1.54798674583,0.743226289749,
0.482444123426,-3.09979915619,0,4.14022482849,-0.000556547725748,299,1.61952853203,0.878217339516,
0.490896300473,-3.10486102104,0,4.09338704826,-0.000636377669071,300,1.69044542313,1.01234650612,
0.49969942967,-3.11058783531,0,4.04054868902,-0.00071790422528,301,1.76061964035,1.14536392689,
0.508849457898,-3.11697435379,0,3.98158222016,-0.000801161943556,302,1.83002376556,1.27732753754,
0.518342332044,-3.12401413918,0,3.91636988386,-0.000886019945891,303,1.89860033989,1.40796113014,
0.528173760572,-3.13170027733,0,3.84479982173,-0.000972397229277,304,1.96629488468,1.5372543335,
0.538338736692,-3.14002490044,0,3.76677081842,-0.00106014915735,305,2.03301095963,1.66493284702,
0.548832134404,3.13420581818,0,3.68218969644,-0.00114916653909,306,2.09872770309,1.79098808765,
0.55964894692,3.12463021278,0,3.59096963014,-0.00123936299784,307,2.16336345673,1.91516935825,
0.570782856145,3.11444330215,0,3.49303643361,-0.00133056598547,308,2.22680068016,2.03737282753,
0.582227842012,3.10365653038,0,3.38833193728,-0.00142256032945,309,2.28903269768,2.15739631653,
0.593977646032,3.09228086472,0,3.27680067305,-0.00151530750001,310,2.34998655319,2.27514314651,
0.606024877229,3.08032941818,0,3.15841098488,-0.00160848426099,311,2.40947294235,2.39034295082,
0.618362621465,3.06781506538,0,3.03313468796,-0.00170202394937,312,2.46757435799,2.50287413597,
0.630982832113,3.05475234985,0,2.90096553055,-0.00179566541113,313,2.52408456802,2.61257433891,
0.643877641359,3.0411567688,0,2.76191069629,-0.00188920883099,314,2.5790014267,2.71917819977,
0.657038227716,3.02704429626,0,2.61599200395,-0.00198245538094,315,2.63215517998,2.82254576683,
0.670455531278,3.01243209839,0,2.46324889299,-0.00207516563411,316,2.68350529671,2.92244791985,
0.684120015302,2.99733924866,0,2.3037446099,-0.00216701488612,317,2.73295021057,3.01865434647,
0.698021785417,2.98178458214,0,2.1375516911,-0.0022578787943,318,2.78039336205,3.1109790802,
0.7121502916,2.96578884125,0,1.9647682548,-0.00234740919203,319,2.825745821,3.19918417931,
0.72649432818,2.94937396049,0,1.78551377843,-0.00243531585195,320,2.86886143684,3.28300738335,
0.741042570272,2.93256306648,0,1.59992691653,-0.00252133820016,321,2.90970730782,3.36226582527,
0.755782679715,2.91538000107,0,1.40816709909,-0.00260519406475,322,2.94807720184,3.43664813042,
0.770702079931,2.89785051346,0,1.21041900775,-0.00268653875601,323,2.98392891884,3.50595903397,
0.785787479081,2.88000154495,0,1.0068905182,-0.00276506021638,324,3.01714038849,3.5698800087,
0.801025287309,2.86186075211,0,0.79780749977,-0.00284051134274,325,3.04762744904,3.62821316719,
0.816401020685,2.84345793724,0,0.583426839694,-0.00291247333208,326,3.07520198822,3.68064403534,
0.831899718442,2.82482337952,0,0.364023299816,-0.00298070197807,327,3.09979438782,3.72692370415,
0.847505525747,2.80599021912,0,0.139907753895,-0.00304470705058,328,3.12122964859,3.76672053337,
0.863202528158,2.7869913578,0,-0.0885983125633,-0.00310434222162,329,3.13947343826,3.7998342514,
0.878973917165,2.76786208153,0,-0.321140516811,-0.00315916434384,330,3.15433645248,3.825922966,
0.894802049794,2.74863862991,0,-0.557341015098,-0.00320884698575,331,3.16568255424,3.84472751617,
0.910668925443,2.72935914993,0,-0.796795940288,-0.00325304739621,332,3.17346143723,3.8559551239,
0.926555947461,2.71006274223,0,-1.03908006564,-0.00329147168296,333,3.17747092247,3.85932683945,
0.94244374434,2.69079041481,0,-1.28373964281,-0.00332372970693,334,3.17762422562,3.85455751419,
0.958312706151,2.67158341408,0,-1.5303072717,-0.00334964009577,335,3.17386507988,3.84144926071,
0.974142328897,2.65248560905,0,-1.77828229187,-0.00336874800798,336,3.16599822044,3.81963205338,
0.989911512533,2.6335413456,0,-2.02714666729,-0.00338081810138,337,3.153901577,3.78890824318,
1.00559909741,2.61479640007,0,-2.27636409542,-0.00338560221954,338,3.13758802414,3.74904060364,
1.02118320862,2.59629774094,0,-2.52537644825,-0.00338280498468,339,3.11688494682,3.69982194901,
1.03664143483,2.57809281349,0,-2.77360985509,-0.00337220945494,340,3.09170103073,3.64102888107,
1.05195118586,2.56023073196,0,-3.02047112364,-0.00335355852788,341,3.062022686,3.5724902153,
1.06708969275,2.54276061058,0,-3.26535826151,-0.00332673015286,342,3.02776479721,3.4940662384,
1.08203370968,2.52573275566,0,-3.5076509112,-0.00329147475946,343,2.98885846138,3.40561723709,
1.09676008026,2.50919771194,0,-3.7467216125,-0.00319840775562,344,2.94532370567,3.30706715584,
1.11124552886,2.49320602417,0,-3.98193551431,-0.00314679870102,345,2.89714384079,3.19834446907,
1.12546680967,2.47780895233,0,-4.21264776313,-0.00308656179369,346,2.84430289268,3.07948255539,
1.13940097491,2.46305680275,0,-4.43821605113,-0.0030177349479,347,2.78688025475,2.95046544075,
1.1530253152,2.44900012016,0,-4.65799308799,-0.00294024840764,348,2.72490930557,2.81136488914,
1.1663173298,2.43568873405,0,-4.8713317518,-0.00277564939942,349,2.65844035149,2.66231489182,
1.17925532261,2.42317152023,0,-5.07759236113,-0.00268355080196,350,2.58763456345,2.50350666046,
1.19181813399,2.411495924,0,-5.2761425031,-0.00258322478938,351,2.51259088516,2.33513402939,
1.20398549835,2.40070867538,0,-5.46635618886,-0.00247475688277,352,2.43350529671,2.15749835968,
1.21573792497,2.39085412025,0,-5.64762194326,-0.00235833080099,353,2.35050725937,1.97093582153,
1.22705723444,2.38197517395,0,-5.81934235985,-0.00223413542348,354,2.26388049126,1.7757935524,
1.23792614142,2.37411260605,0,-5.98093335752,-0.00210234151517,355,2.17380785942,1.57254886627,
1.2483292381,2.36730408669,0,-6.13183967922,-0.00196332521752,356,2.08063936234,1.36173284054,
1.25825221936,2.36158490181,0,-6.2715219419,-0.00181729083757,357,1.9846123457,1.14382791519,
1.26768238942,2.35698771477,0,-6.39946281732,-0.00166452788508,358,1.88604569435,0.919476866722,
1.27660893003,2.35354137421,0,-6.51517662155,-0.00150544568108,359,1.78531992435,0.689299345016,
1.28502307931,2.3512711525,0,-6.6182094949,-0.00134044856113,360,1.6828430891,0.454028487206,
1.29291762511,2.35019946098,0,-6.70812931112,-0.00115512370653,361,1.57891654968,0.214364886284,
1.30028770963,2.35034418106,0,-6.78454442634,-0.000981636504811,362,1.47403144836,-0.0289225578308,
1.30713076989,2.35171890259,0,-6.84710180446,-0.000803615895364,363,1.36861073971,-0.274990797043,
1.31344603101,2.3543343544,0,-6.89547274081,-0.000621373984842,364,1.26305699348,-0.523076653481,
1.31923540036,2.35819554329,0,-6.92938121804,-0.00043558758144,365,1.15787577629,-0.772292017937,
1.32450263301,2.36330461502,0,-6.94857733932,-0.00024659210376,366,1.05345463753,-1.02179336548,
1.3292543302,2.36965799332,0,-6.95286763663,-5.51126940398e-05,367,0.950342476368,-1.27070593834,
1.33349914948,2.37724876404,0,-6.94209224769,0.00013841905122,368,0.848967909813,-1.51817190647,
1.33724814753,2.38606500626,0,-6.91614137677,0.000333360004302,369,0.749798595905,-1.76332426071,
1.34051457147,2.3960916996,0,-6.87494148878,0.000529244365209,370,0.653289437294,-2.00532388687,
1.34331396321,2.40730810165,0,-6.8184772627,0.000725324339715,371,0.559878110886,-2.24334168434,
1.34566401044,2.4196908474,0,-6.7467698438,0.000921131684628,372,0.470012426376,-2.47659730911,
1.34758468071,2.43321180344,0,-6.65989624743,0.00111594864098,373,0.384133338928,-2.70426607132,
1.34909764031,2.44783973694,0,-6.55797390153,0.00130925477647,374,0.302590072155,-2.92566418648,
1.35022650758,2.46353960037,0,-6.44117119504,0.0015003975872,375,0.225774437189,-3.14008116722,
1.35099692742,2.48027348518,0,-6.30970317139,0.00168877695693,376,0.154081702232,-3.34685611725,
1.35143587092,2.49800014496,0,-6.16383182505,0.00187378984061,377,0.0877916291356,-3.54540872574,
1.35157208244,2.51667547226,0,-6.00386904094,0.00205479542641,378,0.0272426754236,-3.73517036438,
1.35143539409,2.53625321388,0,-5.83016720562,0.00223127338938,379,-0.0273403637111,-3.9156730175,
1.3510569642,2.55668473244,0,-5.64312585607,0.00240261819023,380,-0.0756865143776,-4.08645486832,
1.35046894948,2.5779197216,0,-5.44318505234,0.00256830928373,381,-0.117601588368,-4.24713611603,
1.34970459441,2.59990572929,0,-5.23083274653,0.00272773151527,382,-0.152871027589,-4.39737653732,
1.34879773954,2.62258934975,0,-5.00659208835,0.00288043282917,383,-0.181372538209,-4.53691101074,
1.34778256814,2.64591622353,0,-4.77102133026,0.00302596252966,384,-0.203033775091,-4.66553544998,
1.3466938446,2.66983056068,0,-4.52472217465,0.00316376306253,385,-0.217746272683,-4.78307056427,
1.34556675056,2.69427609444,0,-4.26833085461,0.00329339092938,386,-0.225421145558,-4.88935899734,
1.34443642298,2.71919679642,0,-4.00250869578,0.00341452313447,387,-0.226064190269,-4.98435306549,
1.34333798389,2.74453568459,0,-3.72795572304,0.00352666163585,388,-0.219686686993,-5.06801891327,
1.34230634669,2.77023625374,0,-3.44539563248,0.00362950355356,389,-0.206327736378,-5.14035987854,
1.34137621621,2.79624199867,0,-3.15558139801,0.00372267058014,390,-0.186027482152,-5.20142364502,
1.34058182041,2.82249712944,0,-2.85928633475,0.00380590554064,391,-0.15888017416,-5.25129032135,
1.33995694021,2.84894609451,0,-2.55730976872,0.00387887231784,392,-0.124973788857,-5.29005050659,
1.33953470091,2.8755338192,0,-2.25047344761,0.00394128337121,393,-0.0844507887959,-5.3178524971,
1.3393472741,2.90220665932,0,-1.93960889475,0.00399301367077,394,-0.0374840982258,-5.33487844467,
1.33942613105,2.92891144753,0,-1.62556942227,0.00403377776158,395,0.0157740116119,-5.34129714966,
1.33980196814,2.95559620857,0,-1.30922095626,0.0040633961034,396,0.0751657783985,-5.33727312088,
1.34050433437,2.98220992088,0,-0.991442234698,0.00408174513187,397,0.140472114086,-5.32309341431,
1.34156164626,3.00870299339,0,-0.673118416032,0.00408873481275,398,0.211461409926,-5.29895734787,
1.34300133685,3.03502678871,0,-0.355146552934,0.00408418607155,399,0.287937790155,-5.26509714127,
1.34484943847,3.06113386154,0,-0.038429621742,0.00406805377214,400,0.369620710611,-5.22181177139,
1.34713073174,3.08697891235,0,0.276136061368,0.00404041077295,401,0.456259608269,-5.16937303543,
1.34986907343,3.11251711845,0,0.587640156746,0.00400107283505,402,0.547666966915,-5.10800647736,