lower angle,upper angle,holding angle,system x,acceleration,ticks (200 tps),lower acceleration (shoulder),upper acceleration (elbow),
1.57079632679,0.0,0,1.87524041119e-15,2.33150379151e-16,1,0.0,0.0,
1.57066543088,0.000254097802099,0,0.000673653837391,8.37525728517e-05,2,-0.0261791851372,-0.0508195646107,
1.57039805583,0.000774755841121,0,0.00202837768098,0.000168421346493,3,-0.0534750074148,-0.104131609201,
1.56999651989,0.0015571564436,0,0.00405640760079,0.00025212021732,4,-0.0803071931005,-0.156480118632,
1.56946190581,0.00259910547175,0,0.00675338091692,0.000335271378833,5,-0.106922835112,-0.208389803767,
1.56879485125,0.00389934284613,0,0.0101163052109,0.000418046834037,6,-0.133410915732,-0.260047495365,
1.56799622934,0.00545633304864,0,0.014138590296,0.000499993491169,7,-0.159724369645,-0.311398029327,
1.56706680876,0.00726861180738,0,0.0188159055852,0.000581396486644,8,-0.185884147882,-0.362455844879,
1.56600751734,0.00933432858437,0,0.0241441120553,0.00066227759882,9,-0.211858257651,-0.41314342618,
1.5648194892,0.0116514805704,0,0.0301147458269,0.000742081671854,10,-0.237605765462,-0.463430553675,
1.56350386708,0.0142177529633,0,0.0367231666732,0.000821324482,11,-0.263124465942,-0.513254284859,
1.56206181,0.0170308947563,0,0.0439633888723,0.000899810169018,12,-0.288411468267,-0.562628507614,
1.56049479737,0.0200880728662,0,0.051827244275,0.000977260002828,13,-0.313402473927,-0.611435711384,
1.55880423641,0.0233865864575,0,0.0603070268448,0.00105376890997,14,-0.338112294674,-0.659703016281,
1.55699172529,0.0269233044237,0,0.0693948164844,0.00112929256029,15,-0.362502396107,-0.707343757153,
1.55505890871,0.030694950372,0,0.0790831574904,0.00120388618878,16,-0.386563539505,-0.754329800606,
1.55300746026,0.0346982739866,0,0.0893633495208,0.00127738477101,17,-0.410289525986,-0.800665378571,
1.55083923514,0.0389296188951,0,0.100226439857,0.00134972654756,18,-0.433644890785,-0.846269130707,
1.54855612392,0.043385181576,0,0.111664301006,0.00142106995817,19,-0.456622719765,-0.891112327576,
1.54616017553,0.0480609685183,0,0.123666426927,0.00149113418232,20,-0.479189932346,-0.935158252716,
1.54365341837,0.0529530160129,0,0.136222522282,0.00155990219615,21,-0.501351833344,-0.978409767151,
1.54103800195,0.0580569580197,0,0.149323836652,0.0016274857157,22,-0.523083388805,-1.02078866959,
1.53831615771,0.0633684247732,0,0.162959130456,0.00169376466121,23,-0.544368743896,-1.0622947216,
1.53549018229,0.0688828155398,0,0.177118168344,0.00175877465698,24,-0.565195083618,-1.10287928581,
1.53256243194,0.0745954811573,0,0.191789494162,0.00182234331822,25,-0.585550546646,-1.14253342152,
1.5295352983,0.0805015787482,0,0.206963076695,0.00188467677974,26,-0.605427086353,-1.18122124672,
1.5264112773,0.0865961536765,0,0.222627124435,0.00194503794151,27,-0.624804496765,-1.21891534328,
1.52319290216,0.0928741469979,0,0.238770039415,0.00200444625327,28,-0.643676578999,-1.25559949875,
1.51988278801,0.0993302688003,0,0.255380709525,0.00206244021366,29,-0.662023365498,-1.29122614861,
1.51648356865,0.105959303677,0,0.272446440397,0.0021188851425,30,-0.679844379425,-1.32580912113,
1.51299787412,0.112755946815,0,0.289955787909,0.00217390743556,31,-0.697139382362,-1.35932779312,
1.50942849467,0.119714595377,0,0.307896279597,0.00222737868288,32,-0.713876783848,-1.39173173904,
1.50577818702,0.126829713583,0,0.32625555399,0.00227930046786,33,-0.730063557625,-1.42302441597,
1.50204968552,0.134095698595,0,0.345022775718,0.00232988495487,34,-0.745699524879,-1.45319867134,
1.49824588845,0.141506820917,0,0.364183724611,0.00237868574916,35,-0.760760426521,-1.48222398758,
1.49436964939,0.149057254195,0,0.383726781829,0.00242605718528,36,-0.775250315666,-1.51008999348,
1.49042385916,0.156741186976,0,0.403638962702,0.00247181293216,37,-0.789159297943,-1.53678882122,
1.48641140858,0.1645527035,0,0.423908616461,0.00251555922861,38,-0.802491545677,-1.56230449677,
1.48233524064,0.172485902905,0,0.444522275276,0.00255817271639,39,-0.815234899521,-1.58664357662,
1.47819834302,0.180534750223,0,0.465466834369,0.00259914130273,40,-0.827381670475,-1.60976910591,
1.47400356928,0.188693329692,0,0.486731694376,0.00263881900433,41,-0.838955163956,-1.6317191124,
1.46975399653,0.196955502033,0,0.508302337015,0.00267663393009,42,-0.849915206432,-1.6524374485,
1.46545258264,0.20531527698,0,0.530165910846,0.00271291014852,43,-0.860285103321,-1.67195463181,
1.46110228548,0.213766515255,0,0.552311490765,0.00274779442251,44,-0.870061099529,-1.6902513504,
1.4567060704,0.222303196788,0,0.574726349866,0.0027811082406,45,-0.879244148731,-1.7073366642,
1.45226695488,0.230919152498,0,0.597398104428,0.00281290236765,46,-0.887825369835,-1.72319555283,
1.44778787444,0.239608407021,0,0.620314326067,0.00284315499346,47,-0.895816862583,-1.73785161972,
1.44327181677,0.248364835978,0,0.643462934786,0.00287190908368,48,-0.903209924698,-1.75128686428,
1.4387217472,0.257182359695,0,0.666831941737,0.00289917473779,49,-0.910015642643,-1.76350140572,
1.43414063851,0.266054868698,0,0.690409517363,0.00292495369424,50,-0.916226446629,-1.77450942993,
1.42953138153,0.274976372719,0,0.714184768208,0.00294940416009,51,-0.921849310398,-1.78430223465,
1.42489694158,0.283940851688,0,0.738144931358,0.00297198890254,52,-0.926888883114,-1.79289603233,
1.4202402095,0.292942285538,0,0.762279511194,0.00299351328837,53,-0.931351006031,-1.80029249191,
1.4155640761,0.301974743605,0,0.786576859334,0.00301330029517,54,-0.935228168964,-1.80649614334,
1.41087140242,0.311032325029,0,0.811025857062,0.00303200315836,55,-0.938537478447,-1.81151986122,
1.40616503457,0.32010909915,0,0.835616239742,0.00304944395477,56,-0.941271305084,-1.81535315514,
1.40144778887,0.32919922471,0,0.860337503187,0.00306558728663,57,-0.943451583385,-1.81802392006,
1.39672248165,0.338296800852,0,0.88517993809,0.00308053290963,58,-0.945061385632,-1.81952428818,
1.39199189941,0.347396165133,0,0.9101316739,0.00309400712149,59,-0.946116447449,-1.81987524033,
1.38725878397,0.356491535902,0,0.935183763533,0.00310600509762,60,-0.946626007557,-1.81908047199,
1.38252587716,0.365577250719,0,0.960325749907,0.00309462379449,61,-0.946586966515,-1.81715095043,
1.37779578666,0.374647796154,0,0.985549325707,0.00310455926271,62,-0.946018338203,-1.8141067028,
1.37307120959,0.383697509766,0,1.01084545322,0.00310027918363,63,-0.944917023182,-1.8099386692,
1.36835478345,0.392720878124,0,1.03620500617,0.00310196301123,64,-0.943284213543,-1.80467581749,
1.36364916066,0.401712328196,0,1.06161922455,0.00310856460337,65,-0.941124200821,-1.79829883575,
1.35895685951,0.410666644573,0,1.08707881571,0.00311400805067,66,-0.938461661339,-1.79085767269,
1.35428045789,0.419578313828,0,1.1125765865,0.00311859777516,67,-0.935282349586,-1.78234124184,
1.34962247411,0.428442060947,0,1.13810411539,0.00312215677501,68,-0.931596636772,-1.77275443077,
1.34498532216,0.437252789736,0,1.16365386201,0.00312479452794,69,-0.927429974079,-1.76214528084,
1.34037152032,0.446005165577,0,1.18921828604,0.00312626225803,70,-0.922759652138,-1.75047302246,
1.33578340808,0.454694151878,0,1.21479142626,0.00312720893245,71,-0.917622625828,-1.7378013134,
1.33122344414,0.463314712048,0,1.24036382796,0.00312703374889,72,-0.911992251873,-1.72410798073,
1.32669395308,0.471861720085,0,1.26593124841,0.0031257975986,73,-0.905897498131,-1.70940101147,
1.32219731907,0.480330199003,0,1.29148582857,0.00312411278999,74,-0.89932924509,-1.69369888306,
1.3177357773,0.488715350628,0,1.31702193105,0.00312177534078,75,-0.892310321331,-1.6770349741,
1.31331153313,0.497012406588,0,1.3425344934,0.00310331140559,76,-0.88484454155,-1.65940916538,
1.30892692606,0.505216479301,0,1.36801606788,0.00309942874011,77,-0.876924216747,-1.64081454277,
1.30458401243,0.513322949409,0,1.39346426234,0.00309454249486,78,-0.86858445406,-1.62130057812,
1.30028514663,0.521327018738,0,1.41887020906,0.00308931175838,79,-0.85976934433,-1.60080873966,
1.29603238503,0.529224157333,0,1.4442305369,0.00308368746354,80,-0.850554943085,-1.57942867279,
1.29182787339,0.537009775639,0,1.46954006836,0.00307741598442,81,-0.840901494026,-1.5571103096,
1.28767363826,0.544679284096,0,1.49479722782,0.00307096034235,82,-0.830844581127,-1.53390669823,
1.28357188503,0.552228271961,0,1.5199929835,0.00306340758431,83,-0.820348680019,-1.50980401039,
1.27952452103,0.559652388096,0,1.54512642544,0.00305571570509,84,-0.809475898743,-1.48482775688,
1.27553363244,0.566947221756,0,1.57019221881,0.00304737899117,85,-0.798179209232,-1.45897436142,
1.271601216,0.574108541012,0,1.59518549308,0.00301516266141,86,-0.786485791206,-1.43225371838,
1.26772914926,0.581131994724,0,1.62010647574,0.00300620355862,87,-0.774414777756,-1.40469098091,
1.26391948859,0.588013350964,0,1.64494873299,0.00299504152714,88,-0.761925756931,-1.37626791,
1.26017417113,0.5947483778,0,1.66970942899,0.0029851150384,89,-0.749068379402,-1.34701061249,
1.25649498502,0.601333141327,0,1.69438642894,0.00297345493049,90,-0.735841274261,-1.31694507599,
1.25288383762,0.60776335001,0,1.7189787086,0.00296315005987,91,-0.72222417593,-1.28603816032,
1.24934272567,0.614034950733,0,1.74347973419,0.00295207626676,92,-0.708220243454,-1.25432240963,
1.24587340752,0.62014400959,0,1.76788853978,0.00294088774425,93,-0.693866789341,-1.22181129456,
1.24247770111,0.62608653307,0,1.79220326713,0.0029294796984,94,-0.679140865803,-1.18849349022,
1.23915748397,0.631858408451,0,1.81642192025,0.00291783340095,95,-0.66405081749,-1.15438890457,
1.23591451446,0.637455940247,0,1.84054084436,0.00290574331694,96,-0.648598492146,-1.11950361729,
1.23275058071,0.64287507534,0,1.86456010494,0.00289366219052,97,-0.632785141468,-1.08383488655,
1.22966747085,0.64811205864,0,1.88847613817,0.00288114492944,98,-0.616620182991,-1.04738986492,
1.22666703264,0.653162956238,0,1.91228599928,0.00286827510875,99,-0.600090384483,-1.01018607616,
1.22375090519,0.658024072647,0,1.93598991528,0.00285542554973,100,-0.583222568035,-0.972216725349,
1.22092084686,0.66269159317,0.066269159317,1.95958625137,0.00284239038741,101,-0.566008150578,-0.933494150639,
1.21817858616,0.66716170311,0.0,1.98307434061,0.00282927485704,102,-0.548446834087,-0.894021809101,
1.21550841729,0.671464443207,0,2.00653482354,0.00282587658796,103,-0.53403121233,-0.86055970192,
1.21293018858,0.675561249256,0,2.02987705818,0.00281156129114,104,-0.515639841557,-0.819355726242,
1.21044491331,0.679449617863,0,2.05310500373,0.00279772316736,105,-0.497055709362,-0.777669489384,
1.20805432002,0.683125793934,0,2.07621767219,0.00278352058477,106,-0.478116154671,-0.735237717628,
1.20576019684,0.686586022377,0,2.09921246232,0.00276925486584,107,-0.458830296993,-0.692048966885,
1.20356430213,0.6898265481,0,2.12208773713,0.00275479456714,108,-0.439177066088,-0.648098230362,
1.20146830479,0.692843556404,0,2.14484527544,0.00274055031543,109,-0.419195652008,-0.603417277336,
1.19947396318,0.695633649826,0,2.16747918892,0.00272559907048,110,-0.398867368698,-0.558011233807,
1.19758297602,0.698193073273,0,2.18998985279,0.00271069259182,111,-0.378197729588,-0.511875629425,
1.19579704205,0.700518190861,0,2.21237625143,0.00269566494619,112,-0.357189506292,-0.465025246143,
1.19411786,0.702605307102,0,2.23463820048,0.0026806159493,113,-0.335824966431,-0.417419314384,
1.19254724781,0.704450845718,0,2.25677069911,0.00266496071446,114,-0.314119368792,-0.369098991156,
1.19108693401,0.706051051617,0,2.27877362248,0.00264929165256,115,-0.292067945004,-0.320047050714,
1.18973849813,0.707402527332,0,2.30064675193,0.00263359664956,116,-0.269687324762,-0.270293325186,
1.18850387732,0.708501398563,0,2.32238561386,0.00261736422751,117,-0.246930643916,-0.219776332378,
1.1873846511,0.709344148636,0,2.3439916147,0.00260130235674,118,-0.223843038082,-0.168554544449,
1.18638263742,0.709927082062,0,2.36546161124,0.00258486406784,119,-0.200399458408,-0.116588465869,
1.18549974362,0.710246503353,0,2.38678995784,0.0025677467707,120,-0.176580816507,-0.0638756155968,
1.18473760883,0.710298776627,0,2.40797800539,0.00255079282002,121,-0.152428597212,-0.0104492902756,
1.18409808079,0.710080087185,0,2.42902339459,0.00253355490064,122,-0.127908498049,0.0437273681164,
1.18358291785,0.709586858749,0,2.44992339771,0.00251598947675,123,-0.103034041822,0.0986384227872,
1.18319402734,0.708815336227,0,2.47067326917,0.00249785494948,124,-0.077773950994,0.154315531254,
1.18293322722,0.707761645317,0,2.49127232834,0.00247963938213,125,-0.0521652512252,0.210728749633,
1.18280233542,0.706422269344,0,2.51171544766,0.00246079456433,126,-0.0261717420071,0.26788443327,
1.1828033785,0.704793155193,0,2.53199820037,0.00244142820632,127,0.000211071223021,0.325826942921,
1.1829381446,0.702870488167,0,2.55212001008,0.00242199558104,128,0.0269497800618,0.384527087212,
1.18320860068,0.700650572777,0,2.57207365843,0.00240169731622,129,0.0540898218751,0.443988829851,
1.18361668388,0.698129415512,0,2.59185645938,0.00238107378092,130,0.0816175341606,0.504239737988,
1.18416439096,0.695303022861,0,2.61146396515,0.00235991947954,131,0.10953784734,0.565267503262,
1.18485368887,0.692167699337,0,2.63088878677,0.00233787013509,132,0.137860581279,0.627083659172,
1.18568672339,0.6887190938,0,2.65012651353,0.00231529279103,133,0.166604340076,0.689722955227,
1.18666546146,0.684953272343,0,2.66917255173,0.0022921649408,134,0.195741832256,0.753154575825,
1.18779195944,0.68086618185,0,2.68802111171,0.00226833963116,135,0.22530053556,0.817409276962,
1.18906839291,0.676453709602,0,2.7066635812,0.0022434819128,136,0.255286961794,0.882493972778,
1.19049690763,0.671711683273,0,2.72509279138,0.00221776296132,137,0.285705149174,0.948412239552,
1.19207967917,0.666635870934,0,2.74330128329,0.00219114983863,138,0.316554993391,1.01516854763,
1.19381900231,0.661221861839,0,2.76128020723,0.00216346192672,139,0.347872167826,1.08281219006,
1.19571705262,0.655465364456,0,2.77902242751,0.00213490752858,140,0.379612416029,1.15129363537,
1.19777624408,0.649361908436,0,2.79651592514,0.00210489530661,141,0.411837458611,1.22069859505,
1.19999875227,0.642907083035,0,2.81375454406,0.0020741335655,142,0.4445078969,1.29095900059,
1.20238714019,0.636096358299,0,2.83072211948,0.00204144320465,143,0.477674126625,1.36215567589,
1.20494364301,0.628925085068,0,2.84741315348,0.00200809752421,144,0.511305630207,1.43425655365,
1.20767088334,0.621388494968,0,2.86381207094,0.00197290183754,145,0.545441269875,1.50731086731,
1.21057121555,0.613482058048,0,2.87990765957,0.00193636576962,146,0.580075621605,1.58130276203,
1.21364741127,0.605200588703,0,2.89568448079,0.00189796771395,147,0.615237534046,1.65629577637,
1.21690194408,0.596539378166,0,2.91112924343,0.00185797274419,148,0.650913655758,1.73225545883,
1.220337526,0.587493300438,0,2.92622652947,0.0018161241956,149,0.687114238739,1.80921578407,
1.22395686904,0.578057289124,0,2.94095962816,0.00177227151829,150,0.723874747753,1.88721084595,
1.22776271502,0.568226158619,0,2.95531190952,0.00172642189344,151,0.761174321175,1.96624076366,
1.23175792495,0.557994604111,0,2.96926417056,0.00167811711652,152,0.799040436745,2.04632520676,
1.23594535986,0.547357141972,0,2.98279884681,0.00162733311325,153,0.837488770485,2.12749528885,
1.24032791058,0.536308407784,0,2.99589528313,0.00157459158193,154,0.876512944698,2.20974683762,
1.24490852753,0.524842858315,0,3.0085326322,0.0015193530904,155,0.916119456291,2.29312229156,
1.24969033996,0.512954711914,0,3.02068706783,0.00146125634323,156,0.956362962723,2.37764000893,
1.25467641751,0.500638067722,0,3.03233722618,0.00140059404565,157,0.997216463089,2.46332883835,
1.25986994902,0.487887114286,0,3.04345619993,0.00133669971108,158,1.0387057066,2.55019521713,
1.26527412335,0.474695831537,0,3.05401884438,0.00126978554389,159,1.08083403111,2.63826322556,
1.27089221875,0.461058139801,0,3.06399716512,0.00119950921796,160,1.12362515926,2.72755336761,
1.27672757308,0.446967661381,0,3.07336423274,0.0011260003688,161,1.16707456112,2.81810665131,
1.28278367321,0.432418078184,0,3.08208683814,0.00104850223393,162,1.21121573448,2.90992689133,
1.2890638272,0.417403012514,0,3.09013672648,0.000967612799327,163,1.25603795052,3.00302696228,
1.29557170073,0.401915699244,0,3.09747884254,0.000882513463759,164,1.30157887936,3.09747743607,
1.30231075088,0.385949671268,0,3.1040792255,0.000793336470853,165,1.34781730175,3.19323205948,
1.30928473274,0.369497835636,0,3.10990186281,0.000699836473144,166,1.39480400085,3.2903854847,
1.31649725238,0.352553427219,0,3.11490956643,0.00060187199115,167,1.4425098896,3.38889884949,
1.32395206491,0.335109502077,0,3.11906160164,0.000499016431794,168,1.49096667767,3.48881149292,
1.33165286581,0.317158967257,0,3.12231949904,0.000391539896157,169,1.54016852379,3.59013295174,
1.33960360388,0.298694521189,0,3.12463837513,0.000278678941287,170,1.59015202522,3.69291472435,
1.34780801932,0.279709041119,0,3.125975696,0.000160713139815,171,1.64089405537,3.79713058472,
1.35627001623,0.260195106268,0,3.12628625822,3.73208712677e-05,172,1.6924123764,3.9028172493,
1.36499346892,0.240145519376,0,3.125521134,-9.19440879164e-05,173,1.7447053194,4.00996112823,
1.37398235599,0.219552710652,0,3.12363138033,-0.000227083770921,174,1.7977848053,4.11859607697,
1.38324047724,0.198409438133,0,3.12056737211,-0.000368179724249,175,1.85163450241,4.22869300842,
1.39277179638,0.176708191633,0,3.1162762026,-0.000515625896371,176,1.90627944469,4.34029245377,
1.40258008341,0.154441803694,0,3.11070446028,-0.000669480984302,177,1.96167218685,4.45332574844,
1.41266913811,0.131603002548,0,3.10379728702,-0.000829919840216,178,2.01782631874,4.56780910492,
1.42304271559,0.10818465054,0,3.09549747455,-0.000997223529452,179,2.07473468781,4.6837272644,
1.43370452622,0.084179662168,0,3.08574651304,-0.00117155013751,180,2.13238096237,4.80105829239,
1.44465798239,0.0595814473927,0,3.07448647734,-0.00135282653899,181,2.19071483612,4.91970920563,
1.45590648154,0.0343834459782,0,3.06165751616,-0.00154128562171,182,2.24972319603,5.0396695137,
1.46745321999,0.00857948604971,0,3.04719882623,-0.00173689430053,183,2.30937290192,5.16086578369,
1.47930116306,-0.0178365707397,0,3.03105421379,-0.00193937127537,184,2.36961698532,5.28321647644,
1.49145302276,-0.0448689460754,0,3.01314824154,-0.00215089879024,185,2.4304022789,5.40660953522,
1.50391123543,-0.0725235939026,0,2.99343456218,-0.00236798396919,186,2.49167490005,5.53097057343,
1.51667777548,-0.100803375244,0,2.97183878205,-0.00259399413914,187,2.55334329605,5.6561217308,
1.52975436772,-0.129712581635,0,2.94831094971,-0.00282599414298,188,2.61535596848,5.78194999695,
1.54314212973,-0.15925359726,0,2.92279313904,-0.00306494031205,189,2.67759227753,5.90824699402,
1.55684175721,-0.189426898956,0,2.89521411222,-0.00331242963732,190,2.73996853828,6.03483724594,
1.57085354725,-0.220233917236,0,2.86552564807,-0.00356569150845,191,2.80233812332,6.16146850586,
1.58517630497,-0.251672744751,0,2.83368062867,-0.00382460491404,192,2.86459803581,6.28791666031,
1.59980853001,-0.283740997314,0,2.79963405929,-0.00408891109162,193,2.9265601635,6.41385650635,
1.61474879185,-0.316435337067,0,2.76332584219,-0.00436042249275,194,2.98806929588,6.53896903992,
1.6299932758,-0.349749088287,0,2.72472493805,-0.00463565074846,195,3.04896235466,6.66293811798,
1.64553816716,-0.383675098419,0,2.68379397655,-0.0049153341227,196,3.10900521278,6.78534269333,
1.66137774388,-0.418203353882,0,2.64051683735,-0.0051969523642,197,3.16799449921,6.90578651428,
1.67750580708,-0.453321456909,0,2.59486222323,-0.00548231442083,198,3.22570705414,7.02382183075,
1.69391472737,-0.489015102386,0,2.54681858849,-0.00576684996387,199,3.28186964989,7.13894796371,
1.71059592167,-0.525267601013,0,2.49637438275,-0.00605483532026,200,3.33625650406,7.25070667267,
1.72753794591,-0.562059402466,0,2.44356888803,-0.0063380768518,201,3.38854718208,7.35852766037,
1.74473030964,-0.599367618561,0,2.38837458886,-0.00662463462926,202,3.43849873543,7.46189308167,
1.76215870778,-0.637167930603,0,2.33086079609,-0.0069027911831,203,3.48582315445,7.56026029587,
1.77980931202,-0.675431728363,0,2.27103401339,-0.00718021176225,204,3.53020858765,7.65305614471,
1.79766590992,-0.714129447937,0,2.20896165055,-0.00744953568527,205,3.57139420509,7.73977565765,
1.8157108585,-0.753227710724,0,2.14471047106,-0.00771083046598,206,3.60909843445,7.81985521317,
1.83392556111,-0.7926902771,0,2.0783449555,-0.00796361584187,207,3.64304375648,7.89279842377,
1.85228999058,-0.832479476929,0,2.00995760105,-0.00820601887991,208,3.67302274704,7.95815849304,
1.87078364293,-0.872556209564,0,1.93964182083,-0.00843720518051,209,3.69881105423,8.01554107666,
1.88938410679,-0.912877559662,0,1.86750577686,-0.00865540315427,210,3.72021079063,8.06455230713,
1.90806897084,-0.953400611877,0,1.79366179062,-0.0088600793424,211,3.73708820343,8.10496711731,
1.92681534688,-0.99408197403,0,1.71823406907,-0.00904566183366,212,3.749314785,8.13651275635,
1.94559891621,-1.03487586975,0,1.64136395533,-0.00921830631912,213,3.75681948662,8.15907382965,
1.96439583699,-1.07573747635,0,1.56319349902,-0.00937401143676,214,3.75958943367,8.17261886597,
1.98318369786,-1.11662197113,0,1.48383075893,-0.00950292548015,215,3.757614851,8.17715263367,
2.00193770329,-1.15748405457,0,1.40344532953,-0.00960050880078,216,3.75096392632,8.17279720306,
2.02063591877,-1.19828128815,0,1.32216376069,-0.00970726091976,217,3.73971366882,8.15972995758,
2.03925545613,-1.23897123337,0,1.24013990363,-0.00979554688949,218,3.72399544716,8.1381893158,
2.05777485768,-1.2795124054,0,1.15750305716,-0.00986851512967,219,3.70396780968,8.10850811005,
2.07617314259,-1.31986618042,0,1.07439973848,-0.00992398671202,220,3.67982196808,8.07104969025,
2.09443171422,-1.35999584198,0,0.990937372218,-0.00996662454442,221,3.65174531937,8.0262298584,
2.11253102223,-1.3998670578,0,0.907269355436,-0.00999090925097,222,3.61997461319,7.97446584702,
2.13045437733,-1.43944692612,0,0.82349416147,-0.0100034596618,223,3.58476519585,7.91625976563,
2.14818556706,-1.47870588303,0,0.739729076325,-0.0100020104849,224,3.54633259773,7.85205554962,
2.16570980946,-1.51761627197,0,0.656074720724,-0.00998854802275,225,3.50494265556,7.78236675262,
2.18301327626,-1.55615329742,0,0.572633557142,-0.00996285272691,226,3.46082806587,7.70767116547,
2.20008404652,-1.59429454803,0,0.489484396122,-0.00992766580161,227,3.41424369812,7.62841129303,
2.21691067616,-1.63201856613,0,0.40670353476,-0.00988338602559,228,3.36542320251,7.54506635666,
2.23348315159,-1.66930770874,0,0.324364924817,-0.00983034174155,229,3.31455421448,7.45806455612,
2.24979241292,-1.7061457634,0,0.242532331668,-0.00976968736965,230,3.26191544533,7.36783504486,
2.26583035389,-1.74251890182,0,0.161265974615,-0.00970182303976,231,3.20767068863,7.27477884293,
2.28158982197,-1.77841377258,0,0.0806097607968,-0.00962874584267,232,3.15197706223,7.17918682098,
2.29706509511,-1.81381988525,0,0.000598190662336,-0.0095515595205,233,3.09506964684,7.08149003983,
2.31224997441,-1.84872865677,0,-0.0787136801815,-0.00946779548261,234,3.03708744049,6.98191642761,
2.32714064518,-1.88313150406,0,-0.157316583083,-0.00938291483756,235,2.97815561295,6.8807849884,
2.34173233906,-1.91702222824,0,-0.235169204743,-0.00929304315495,236,2.91839313507,6.77830600739,
2.35602171818,-1.95039558411,0,-0.312251993204,-0.00920092070677,237,2.85796570778,6.67477035522,
2.37000639836,-1.98324584961,0,-0.388564116682,-0.00910871426901,238,2.79694747925,6.57031488419,
2.38368304173,-2.0155711174,0,-0.464068652521,-0.00900873499578,239,2.73544716835,6.46514129639,
2.39705069462,-2.04736757278,0,-0.538779014992,-0.00886740788041,240,2.67354512215,6.35942268372,
2.41010697285,-2.07863283157,0,-0.612676785212,-0.00871517905623,241,2.61132788658,6.25325202942,
2.42285092274,-2.10936641693,0,-0.685758643771,-0.00856978607487,242,2.5488255024,6.14678573608,
2.43528159062,-2.13956594467,0,-0.758028449297,-0.00847432104954,243,2.486120224,6.04009723663,
2.44739754597,-2.16923189163,0,-0.829470768277,-0.00837707993244,244,2.42326188087,5.9332857132,
2.45919926564,-2.19836330414,0,-0.900103735485,-0.00828195387271,245,2.36027956009,5.82640075684,
2.4706853191,-2.22696065903,0,-0.969911128279,-0.00818295888564,246,2.29723787308,5.71954727173,
2.48185570637,-2.25502347946,0,-1.03890008352,-0.00808678085504,247,2.23415064812,5.61273193359,
2.49271090428,-2.28255319595,0,-1.10707678818,-0.00799135935767,248,2.17102766037,5.50600671768,
2.50324995915,-2.30954957008,0,-1.17443190622,-0.00789483632409,249,2.10789251328,5.39938259125,
2.51347382466,-2.33601355553,0,-1.24097671843,-0.00779966943024,250,2.04478788376,5.29291248322,
2.52338250081,-2.36194610596,0,-1.30670838808,-0.00770417660087,251,1.98174333572,5.18660211563,
2.53297598759,-2.38734793663,0,-1.37162337898,-0.00760827161404,252,1.91868960857,5.08043861389,
2.54225476185,-2.4122197628,0,-1.43572224941,-0.00751178876353,253,1.85573959351,4.97445011139,
2.55121882359,-2.43656253815,0,-1.4989977152,-0.00741510241674,254,1.79283308983,4.86859416962,
2.55986864964,-2.4603767395,0,-1.56144696745,-0.00731810986314,255,1.7299798727,4.76290750504,
2.56820424,-2.48366332054,0,-1.62305921292,-0.00721985090422,256,1.66721081734,4.65738677979,
2.57622702519,-2.50642299652,0,-1.68383713448,-0.0071219110681,257,1.60449838638,4.55201816559,
2.58393605153,-2.52865624428,0,-1.74375632858,-0.00702111820209,258,1.54187512398,4.44673442841,
2.59133274952,-2.55036377907,0,-1.80281461326,-0.00692007448511,259,1.47932076454,4.34158706665,
2.59841664235,-2.57154631615,0,-1.86098842422,-0.00681627454964,260,1.41682696342,4.23653745651,
2.60518868367,-2.59220385551,0,-1.91826611282,-0.00671111943706,261,1.35439968109,4.13156032562,
2.61164935032,-2.61233687401,0,-1.97462839833,-0.00660370321929,262,1.2920819521,4.02664899826,
2.61779816548,-2.63194561005,0,-2.0300452552,-0.00649277402018,263,1.2298065424,3.92176485062,
2.62363608281,-2.65102982521,0,-2.08449666867,-0.00637950528924,264,1.16759741306,3.81693601608,
2.62916357914,-2.66959023476,0,-2.13795574359,-0.00626309174494,265,1.10546171665,3.71210861206,
2.63438017766,-2.68762636185,0,-2.19038493367,-0.0061422869836,266,1.04337060452,3.60726594925,
2.63928730885,-2.70513820648,0,-2.24175927421,-0.00601856908416,267,0.981372416019,3.50239706039,
2.64388449589,-2.72212553024,0,-2.29203581847,-0.00588981980953,268,0.919427037239,3.39749145508,
2.64817221562,-2.73858833313,0,-2.34117657645,-0.00575662835773,269,0.85754519701,3.29254293442,
2.65215046803,-2.75452566147,0,-2.38913617042,-0.00561812582187,270,0.795687198639,3.18750667572,
2.6558202068,-2.76993775368,0,-2.43587438498,-0.00547491687438,271,0.733907878399,3.08241772652,
2.65918143193,-2.7848238945,0,-2.48134023737,-0.00532574370815,272,0.672213435173,2.97722530365,
2.66223414341,-2.79918336868,0,-2.5254799559,-0.00517028052678,273,0.61055970192,2.87193822861,
2.6649788181,-2.81301593781,0,-2.56824082004,-0.00500864978417,274,0.548992931843,2.76655745506,
2.66741640965,-2.82632112503,0,-2.6095695973,-0.00484079702374,275,0.487485170364,2.66106843948,
2.66954644124,-2.83909845352,0,-2.64940158216,-0.00466536873751,276,0.42600864172,2.55545759201,
2.67136986653,-2.8513469696,0,-2.68767668834,-0.00448291013233,277,0.36463317275,2.44972777367,
2.67288620869,-2.86306619644,0,-2.72432484241,-0.00429225257735,278,0.303325891495,2.34388542175,
2.67409689824,-2.87425589561,0,-2.75928443498,-0.00409438988543,279,0.242088973522,2.23796749115,
2.67500145833,-2.88491535187,0,-2.79247955882,-0.00388763193725,280,0.180998176336,2.13191771507,
2.67560131947,-2.89504432678,0,-2.82384290952,-0.00367301487964,281,0.119925625622,2.02576804161,
2.67589648167,-2.90464186668,0,-2.85329502831,-0.00344910713532,282,0.0589974373579,1.91953742504,
2.67588694493,-2.91370820999,0,-2.88075755051,-0.00321603377045,283,-0.00183046609163,1.81324660778,
2.67557413975,-2.92224264145,0,-2.90615369434,-0.002973978782,284,-0.0625761449337,1.70689117908,
2.67495854298,-2.93024492264,0,-2.92940088947,-0.00272226639647,285,-0.123134881258,1.60049772263,
2.67404063145,-2.93771529198,0,-2.95041586674,-0.00246081201177,286,-0.18357282877,1.49409389496,
2.67282135884,-2.94465398788,0,-2.9691153621,-0.00218962171286,287,-0.243852317333,1.3877184391,
2.67130167882,-2.95106053352,0,-2.98541132394,-0.00190813458891,288,-0.303974121809,1.28133916855,
2.66948206822,-2.95693588257,0,-2.99921660427,-0.00161645234078,289,-0.363876968622,1.17506337166,
2.66736395756,-2.96228003502,0,-3.01044275158,-0.00131443108536,290,-0.423655718565,1.06886184216,
2.66494830052,-2.96709418297,0,-3.01900182487,-0.00100212884987,291,-0.483122587204,0.962798237801,
2.66223605076,-2.97137856483,0,-3.02480052291,-0.000678917437841,292,-0.542428970337,0.856901526451,
2.65922911564,-2.97513461113,0,-3.02775243518,-0.000345603809798,293,-0.601409733295,0.751236259937,
2.65592844883,-2.97836399078,0,-3.02776685072,-1.68769089089e-06,294,-0.66015702486,0.645843565464,
2.65233548085,-2.98106741905,0,-3.02474973217,0.000353216910607,295,-0.718623161316,0.540694475174,
2.64845164219,-2.98324728012,0,-3.01861277978,0.000718441316486,296,-0.776704251766,0.435982048512,
2.64427931706,-2.98490548134,0,-3.00926851564,0.00109388928315,297,-0.834464907646,0.331634640694,
2.63982041279,-2.98604416847,0,-2.99662769369,0.00147976691512,298,-0.891850233078,0.227778553963,
2.63507588307,-2.98666644096,0,-2.9806008509,0.00187549306251,299,-0.948861479759,0.124413371086,
2.63004906575,-2.98677492142,0,-2.96110539091,0.00228132905457,300,-1.00539529324,0.0216865539551,
2.62474186818,-2.98637294769,0,-2.93805596299,0.00269714539776,301,-1.06147611141,-0.0803725123405,
2.61915619771,-2.98546433449,0,-2.91136931494,0.003122669978,302,-1.11706054211,-0.181721627712,
2.61329586903,-2.98405313492,0,-2.88097112372,0.00355687844156,303,-1.1721265316,-0.282259941101,
2.60716231267,-2.9821434021,0,-2.8467777472,0.00400080999585,304,-1.22663092613,-0.38190984726,
2.60075982014,-2.97974061966,0,-2.80872458441,0.0044523086813,305,-1.28051042557,-0.480576872826,
2.59409125248,-2.97684955597,0,-2.76673863558,0.00491233263245,306,-1.33375263214,-0.578215479851,
2.58715947072,-2.97347593307,0,-2.72075245801,0.00538022606514,307,-1.38635087013,-0.674724519253,
2.57996828953,-2.96962594986,0,-2.67070622759,0.00585507904611,308,-1.4382225275,-0.77000272274,
2.57252200047,-2.96530628204,0,-2.61654616036,0.00633620947196,309,-1.48928749561,-0.863952100277,
2.56482394139,-2.96052384377,0,-2.55821729522,0.00682375095598,310,-1.53959882259,-0.956480145454,
2.55687888066,-2.95528650284,0,-2.49567781407,0.00731616271144,311,-1.5890263319,-1.04748177528,
2.54869110981,-2.94960212708,0,-2.42888614372,0.00781341344097,312,-1.63758850098,-1.1369137764,
2.54026539723,-2.94347929955,0,-2.35780908636,0.00831446640403,313,-1.68519902229,-1.22456240654,
2.53160651127,-2.93692755699,0,-2.28242118227,0.00881852577859,314,-1.7317854166,-1.31038439274,
2.52271969716,-2.92995619774,0,-2.20270110386,0.0093250575679,315,-1.77737188339,-1.39426219463,
2.51361067692,-2.92257618904,0,-2.11864193915,0.00983237184609,316,-1.82183647156,-1.47605395317,
2.50428469578,-2.9147977829,0,-2.03023431175,0.0103407591682,317,-1.86515212059,-1.55566453934,
2.49474842946,-2.90663313866,0,-1.93749001551,0.0108477445379,318,-1.90727317333,-1.63296616077,
2.48500807683,-2.89809393883,0,-1.84042022061,0.0113533967645,319,-1.94814193249,-1.70783352852,
2.47506935994,-2.88919353485,0,-1.73904657933,0.0118564961936,320,-1.98768389225,-1.7801078558,
2.46494038502,-2.87994503975,0,-1.6334072114,0.0123551107798,321,-2.02586650848,-1.84970939159,
2.45462735096,-2.87036275864,0,-1.52354099324,0.0128491565515,322,-2.06259131432,-1.91644716263,
2.444138364,-2.86046171188,0,-1.40950652052,0.0133362145006,323,-2.09782361984,-1.98023843765,
2.43348057667,-2.8502573967,0,-1.29136482129,0.0138161952496,324,-2.13155412674,-2.04091739655,
2.4226630489,-2.83976578712,0,-1.16919651134,0.014286727446,325,-2.16358137131,-2.09831666946,
2.41169293324,-2.8290040493,0,-1.04308274092,0.0147477319637,326,-2.19399285316,-2.15234088898,
2.40057976643,-2.81799030304,0,-0.913130461252,0.0151961387264,327,-2.22265410423,-2.20281338692,
2.38933260838,-2.80674242973,0,-0.779448786774,0.0156318385505,328,-2.24951386452,-2.24961233139,
2.37796004216,-2.79527974129,0,-0.642157512536,0.016053503491,329,-2.27448129654,-2.29255962372,
2.36647255818,-2.78362226486,0,-0.501399434769,0.0164584579678,330,-2.29750156403,-2.33149766922,
2.35488017003,-2.77179074287,0,-0.357324813168,0.0168442822752,331,-2.31857776642,-2.36630821228,
2.34319241444,-2.759806633,0,-0.210090941243,0.0172131484524,332,-2.33755230904,-2.3968539238,
2.33142025868,-2.74769234657,0,-0.0598770182359,0.01756111235,333,-2.35440969467,-2.42292761803,
2.31957514683,-2.73547005653,0,0.0931284101632,0.0178869993079,334,-2.36908268929,-2.44444870949,
2.30766804616,-2.72316431999,0,0.248720626578,0.0181889232011,335,-2.38145756721,-2.46119785309,
2.29571040074,-2.71079897881,0,0.406688235239,0.0184661534498,336,-2.39159631729,-2.47310447693,
2.28371365468,-2.69839906693,0,0.566806643405,0.0187167549653,337,-2.39930820465,-2.47996115685,
2.27169068257,-2.68599104881,0,0.728825401747,0.0189384196359,338,-2.40464138985,-2.48167800903,
2.25965388218,-2.67360043526,0,0.892495672475,0.0191310025327,339,-2.40744924545,-2.47813272476,
2.24761517445,-2.66125512123,0,1.05755310471,0.0192926814133,340,-2.40773320198,-2.46913409233,
2.23558791081,-2.64898204803,0,1.223719747,0.0194218543741,341,-2.40545868874,-2.45462179184,
2.2235854427,-2.6368098259,0,1.39070176583,0.0195166868325,342,-2.4005689621,-2.4344587326,
2.21162064473,-2.62476730347,0,1.55820135455,0.0195767062674,343,-2.39298987389,-2.4085354805,
2.19970686833,-2.61288380623,0,1.72590746412,0.0195986513025,344,-2.38273620605,-2.37676882744,
2.18785841862,-2.60118842125,0,1.89349512461,0.0195842696816,345,-2.36975336075,-2.33908486366,
2.17608817021,-2.58971142769,0,2.06063921835,0.019531898647,346,-2.3540289402,-2.29538726807,
2.1644104282,-2.57848334312,0,2.22699403794,0.0194391498997,347,-2.33555006981,-2.24564242363,
2.15283902089,-2.56753444672,0,2.39221289806,0.0193058890001,348,-2.31429791451,-2.18978834152,
2.14138777653,-2.55689573288,0,2.55593893169,0.0191309516455,349,-2.29030442238,-2.12781357765,
2.13007052342,-2.54659724236,0,2.71781396161,0.0189141686924,350,-2.26352858543,-2.05971837044,
2.11890013615,-2.53666996956,0,2.87747758815,0.0186551944157,351,-2.23404121399,-1.98545944691,
2.10789139668,-2.52714443207,0,3.03454740844,0.0183516767883,352,-2.20183753967,-1.90514564514,
2.09705670277,-2.51805090904,0,3.18865887445,0.0180055922332,353,-2.16693949699,-1.81871724129,
2.08640940587,-2.5094192028,0,3.33943457707,0.0176154310164,354,-2.12946653366,-1.7263212204,
2.07596238057,-2.50127911568,0,3.48649539729,0.0171809991536,355,-2.08940958977,-1.62803220749,
2.06572850148,-2.49365949631,0,3.62946093127,0.0167021487202,356,-2.0468378067,-1.5239610672,
2.05571873585,-2.48658847809,0,3.7679672022,0.0161808026481,357,-2.00192070007,-1.41424274445,
2.04594548146,-2.48009324074,0,3.90163476098,0.0156151562592,358,-1.95465767384,-1.2990270853,
2.03641970555,-2.47420072556,0,4.03009312934,0.0150062566644,359,-1.90522825718,-1.17852830887,
2.02715094487,-2.46893620491,0,4.15298880486,0.0143560356656,360,-1.85371768475,-1.05292463303,
2.01814968983,-2.46432375908,0,4.26995861479,0.0136634818625,361,-1.80025804043,-0.92247569561,
2.00942452351,-2.4603869915,0,4.3806544309,0.0129302653902,362,-1.74500274658,-0.787388920784,
2.00098402897,-2.45714688301,0,4.48473607565,0.0121571885838,363,-1.68817770481,-0.648045539856,
1.99283488194,-2.45462369919,0,4.58187983853,0.0113464867903,364,-1.62980437279,-0.504627108574,
1.98498375813,-2.45283603668,0,4.67176458104,0.010498360745,365,-1.57020127773,-0.357550024986,
1.97743637959,-2.45180034637,0,4.75408433303,0.00961453648086,366,-1.50948393345,-0.207115292549,
1.97019703785,-2.45153188705,0,4.82854758101,0.00869672835997,367,-1.44790828228,-0.0536983013153,
1.96326907078,-2.45204353333,0,4.89487968111,0.0077468986202,368,-1.38562357426,0.102300167084,
1.95665438572,-2.4533457756,0,4.95282803353,0.00676674825096,369,-1.32292187214,0.260468125343,
1.95035441319,-2.45544791222,0,5.00214544613,0.00575875072139,370,-1.25997877121,0.42042517662,
1.94436915318,-2.45835661888,0,5.04260886139,0.00472476118978,371,-1.19703817368,0.581743955612,
1.93869765202,-2.46207642555,0,5.07401217277,0.00366675749672,372,-1.13438403606,0.743972301483,
1.93333657185,-2.46660971642,0,5.09618067942,0.00258838781014,373,-1.0721732378,0.90665268898,
1.92828305165,-2.47195649147,0,5.10894529734,0.00149035419473,374,-1.01070296764,1.06936895847,
1.9235318462,-2.47811436653,0,5.11217126281,0.000376643560779,375,-0.950228989124,1.23163557053,
1.91907675663,-2.48507928848,0,5.10573996622,-0.000750859950026,376,-0.89099997282,1.39299654961,
1.91491063038,-2.49284434319,0,5.08955809545,-0.00188920341753,377,-0.833229005337,1.55302000046,
1.91102488438,-2.50140047073,0,5.06355827263,-0.00303535671009,378,-0.777189850807,1.71124112606,
1.90740950505,-2.51073646545,0,5.0276998985,-0.00418619639319,379,-0.723084211349,1.86725091934,
1.90405352513,-2.52083921432,0,4.98196397865,-0.00533916588007,380,-0.671194851398,2.02058959007,
1.90094454686,-2.53169298172,0,4.92636395799,-0.00648990129954,381,-0.621732950211,2.1708316803,
1.89807017247,-2.54328083992,0,4.86092341298,-0.0076383259745,382,-0.574882984161,2.31759309769,
1.89541609684,-2.55558300018,0,4.78570713842,-0.00877912956884,383,-0.530877649784,2.460490942,
1.89296658436,-2.56857824326,0,4.70080681513,-0.00990919865466,384,-0.489916265011,2.59910464287,
1.89070494572,-2.58224344254,0,4.60634172244,-0.0110252792742,385,-0.452245444059,2.73311781883,
1.88861544529,-2.59655404091,0,4.5024406585,-0.012126263759,386,-0.417937487364,2.8621931076,
1.88667948643,-2.61148357391,0,4.38927891189,-0.0132067669221,387,-0.387232780457,2.98599147797,
1.88487799565,-2.62700438499,0,4.26705341953,-0.0142641144919,388,-0.360274851322,3.10425972939,
1.88319237629,-2.6430876255,0,4.13597680856,-0.0152966941206,389,-0.337141364813,3.21673941612,
1.88160212437,-2.65970277786,0,3.99630164933,-0.0162997284644,390,-0.318006932735,3.3231253624,
1.88008721272,-2.67681837082,0,3.84829695689,-0.0172713220501,391,-0.302967607975,3.42323994637,
1.8786266605,-2.69440221786,0,3.69225800522,-0.0182084173096,392,-0.292164087296,3.51686048508,
1.87719853322,-2.7124209404,0,3.5285114798,-0.0191073278107,393,-0.285617828369,3.60384249687,
1.87578185002,-2.73084044456,0,3.35739870559,-0.0199663498935,394,-0.283370882273,3.68402838707,
1.87435372273,-2.74962615967,0,3.17929422401,-0.0207815718544,395,-0.285543173552,3.75729203224,
1.87289364735,-2.76874279976,0,2.99457994168,-0.0215521363812,396,-0.292099833488,3.82351064682,
1.87137778203,-2.78815531731,0,2.80367432748,-0.0222739776746,397,-0.303114235401,3.8826186657,
1.86978514592,-2.80782699585,0,2.60701213812,-0.0229450681989,398,-0.318560421467,3.93453335762,
1.86809285084,-2.82772231102,0,2.40504629237,-0.0235486102686,399,-0.338430285454,3.97923231125,
1.86627943913,-2.84780502319,0,2.19824710049,-0.0239939592525,400,-0.362713247538,4.01670312881,
1.86432249943,-2.86803865433,0,1.98711249927,-0.0244960543239,401,-0.391323536634,4.04692602158,
1.86220105092,-2.88838720322,0,1.77214650725,-0.0249398523379,402,-0.424315541983,4.06989908218,
1.85989363591,-2.90881466866,0,1.55387572896,-0.025322324895,403,-0.461499661207,4.08568763733,
1.85737927357,-2.92928528786,0,1.33284128586,-0.0256419558815,404,-0.502857089043,4.09432315826,
1.85463745991,-2.94976329803,0,1.10960169478,-0.0257714783878,405,-0.548382103443,4.09582519531,
1.8516486446,-2.97021412849,0,0.884716557386,-0.0259060402414,406,-0.597805023193,4.09035348892,
1.84839280049,-2.9906027317,0,0.658772987972,-0.0260185893312,407,-0.651153683662,4.0779466629,
1.84485133091,-3.01089525223,0,0.432356044554,-0.026072437018,408,-0.708260178566,4.05872249603,
1.84100611607,-3.03105783463,0,0.206067291161,-0.0260570571414,409,-0.769015312195,4.03277492523,
1.83683998982,-3.05105805397,0,-0.0194953251606,-0.0259727827868,410,-0.833262324333,4.00025653839,
1.83233530919,-3.07086324692,0,-0.243711392716,-0.0258171117889,411,-0.900909841061,3.96127748489,
1.82747681538,-3.09044218063,0,-0.465972405137,-0.025591390462,412,-0.97172999382,3.91601490974,