lower angle,upper angle,holding angle,system x,acceleration,ticks (200 tps),lower acceleration (shoulder),upper acceleration (elbow),
1.57079632679,0.0,0,1.87524041119e-15,3.06660890459e-16,1,0.0,0.0,
1.57065046534,0.000282572640572,0,0.000758241209219,0.000123991298257,2,-0.0291722919792,-0.056514531374,
1.57035336638,0.000860122148879,0,0.00227655944025,0.000248273942757,3,-0.0594197958708,-0.115509904921,
1.56990729389,0.00172783585731,0,0.00454878631542,0.0003715353703,4,-0.0892144963145,-0.173542737961,
1.56931340514,0.00288338656537,0,0.00757002343432,0.000493989693504,5,-0.118777774274,-0.231110155582,
1.56857240392,0.00432543922216,0,0.0113362363567,0.000615774627389,6,-0.148200243711,-0.288410574198,
1.56768518157,0.00605231802911,0,0.0158421162477,0.000736684085971,7,-0.177444532514,-0.345375865698,
1.56665261794,0.00806240644306,0,0.0210819231208,0.000856647295882,8,-0.206512778997,-0.402017772198,
1.56547577685,0.0103537077084,0,0.0270492679365,0.000975557908511,9,-0.235368326306,-0.458260536194,
1.56415580173,0.0129240285605,0,0.0337378940059,0.00109343794731,10,-0.263995021582,-0.514063894749,
1.56269392936,0.0157709158957,0,0.0411420853538,0.0012103643549,11,-0.292374551296,-0.56937789917,
1.56109153299,0.0188917405903,0,0.0492542452145,0.00132605084317,12,-0.320479303598,-0.624164938927,
1.55935019447,0.0222835373133,0,0.0580647857256,0.00144015899457,13,-0.348267674446,-0.678358972073,
1.55747138249,0.0259432904422,0,0.0675682266599,0.00155336667588,14,-0.375762611628,-0.731951355934,
1.55545686657,0.0298676397651,0,0.0777543780161,0.00166490158496,15,-0.402903407812,-0.784869670868,
1.55330841156,0.034053042531,0,0.0886155650794,0.00177512037134,16,-0.429691404104,-0.837080359459,
1.55102789687,0.0384958013892,0,0.100142608483,0.00188386117066,17,-0.45610332489,-0.888552606106,
1.54861734162,0.0431919917464,0,0.112325005004,0.00199089673054,18,-0.482111603022,-0.939238965511,
1.54607878911,0.0481374636292,0,0.125154436383,0.00209636279152,19,-0.507710516453,-0.98909497261,
1.54341442051,0.0533279813826,0,0.138619454634,0.00220014048454,20,-0.532873988152,-1.03810477257,
1.54062652128,0.0587590076029,0,0.152709341449,0.00230205715947,21,-0.557580173016,-1.08620548248,
1.53771740297,0.0644259229302,0,0.167413616713,0.00240233831391,22,-0.581824481487,-1.13338446617,
1.53468939389,0.070324011147,0,0.182722516453,0.0025010280466,23,-0.605602681637,-1.1796182394,
1.53154505143,0.076448187232,0,0.19862405873,0.0025973638638,24,-0.628868758678,-1.22483730316,
1.52828689019,0.0827934741974,0,0.215106110607,0.00269207563795,25,-0.65163308382,-1.26905870438,
1.5249175551,0.0893545076251,0,0.232157583396,0.00278498539686,26,-0.673866927624,-1.31220638752,
1.52143967623,0.0961259827018,0,0.249767013649,0.00287601671876,27,-0.695577323437,-1.35429644585,
1.5178560252,0.103102423251,0,0.26792080417,0.00296482237468,28,-0.716730594635,-1.39528858662,
1.51416940341,0.110278137028,0,0.286607228015,0.00305123356151,29,-0.737323999405,-1.43514513969,
1.51038262347,0.117647409439,0,0.30581445696,0.0031360942285,30,-0.757357239723,-1.4738574028,
1.5064985166,0.12520454824,0,0.325529747336,0.00321877465604,31,-0.776821494102,-1.51142883301,
1.50252007047,0.132943555713,0,0.345739522373,0.00329935682161,32,-0.79569029808,-1.5478014946,
1.49845025043,0.140858307481,0,0.366432494459,0.00337811922483,33,-0.813965916634,-1.58295536041,
1.49429202924,0.148942917585,0,0.387593972893,0.00345447535548,34,-0.831646323204,-1.61692512035,
1.49004843185,0.157191172242,0,0.409211914431,0.00352886684536,35,-0.848721325397,-1.64965081215,
1.4857225279,0.165596783161,0,0.43127383353,0.00360100319081,36,-0.865181565285,-1.68112373352,
1.48131740192,0.174153551459,0,0.453765569514,0.00367102524722,37,-0.881028175354,-1.71136116982,
1.47683616082,0.182855084538,0,0.476674764867,0.0037390284541,38,-0.896248996258,-1.74030518532,
1.47228195617,0.191695034504,0,0.499987066519,0.00380463467002,39,-0.910843968391,-1.76799535751,
1.46765790979,0.200666904449,0,0.523690932389,0.00386839895038,40,-0.924809813499,-1.79438078403,
1.46296712855,0.209764420986,0,0.547772309558,0.00392945340131,41,-0.938158810139,-1.81950378418,
1.45821278641,0.218981012702,0,0.572218953739,0.00398844009346,42,-0.950868546963,-1.84332287312,
1.45339802007,0.228310242295,0,0.597017964595,0.00404578065343,43,-0.962955832481,-1.86584711075,
1.44852602581,0.237745568156,0,0.622155953163,0.00410093794516,44,-0.974400579929,-1.88707089424,
1.44359995524,0.24728050828,0,0.647620080617,0.00415399722584,45,-0.985215365887,-1.90698814392,
1.43862286309,0.256908655167,0,0.673399449817,0.00420527517272,46,-0.995418488979,-1.9256298542,
1.43359804253,0.266623347998,0,0.699479193245,0.00425412670029,47,-1.0049675703,-1.94294285774,
1.42852854828,0.276418119669,0,0.725849138454,0.00430131047514,48,-1.0139029026,-1.9589650631,
1.42341750959,0.286286562681,0,0.752496054493,0.0043462676139,49,-1.02220833302,-1.97369074821,
1.41826802591,0.296222150326,0,0.779409148348,0.00438953243432,50,-1.0298999548,-1.98712921143,
1.41308328609,0.306218475103,0,0.806573358254,0.00443018422653,51,-1.03695249557,-1.9992711544,
1.40786625544,0.316269159317,0,0.83397999672,0.00446955893709,52,-1.04340517521,-2.01013469696,
1.40262009303,0.326367676258,0,0.861616441014,0.00450410397103,53,-1.04923701286,-2.01970791817,
1.39734773437,0.336507767439,0,0.889473346645,0.00453985373387,54,-1.05447089672,-2.02802181244,
1.39205223421,0.346683144569,0,0.917538156359,0.00457356096928,55,-1.05909740925,-2.03507471085,
1.38673669199,0.356887340546,0,0.94579929132,0.00460473438897,56,-1.06311118603,-2.04085016251,
1.38140396873,0.367114305496,0,0.974246976721,0.00463496886768,57,-1.06654453278,-2.04538822174,
1.37605701486,0.377357691526,0,1.00287260837,0.00466379031691,58,-1.06939542294,-2.04867911339,
1.37069872121,0.387611478567,0,1.03166516054,0.00469082676415,59,-1.07165801525,-2.05075836182,
1.3653320233,0.397869437933,0,1.06061498174,0.00471621378843,60,-1.07334113121,-2.05159473419,
1.35995987157,0.408125460148,0,1.08971046894,0.00473978077089,61,-1.07443487644,-2.05120706558,
1.35458496312,0.418373644352,0,1.11894496685,0.00476222085096,62,-1.07498180866,-2.04963445663,
1.34921012918,0.428607970476,0,1.14830936543,0.00478321471338,63,-1.07496976852,-2.04687261581,
1.34383820097,0.438822478056,0,1.17779383301,0.00478113669612,64,-1.07438766956,-2.04290413857,
1.33847187559,0.449011325836,0,1.20739106489,0.00479802616846,65,-1.07326924801,-2.03777575493,
1.33311387996,0.459168732166,0,1.23709215024,0.00481457119801,66,-1.07160151005,-2.03148651123,
1.32776692609,0.469288915396,0,1.26688868057,0.0048086050038,67,-1.06938993931,-2.02403402328,
1.32243360678,0.479366153479,0,1.29677509337,0.00482293061748,68,-1.06666505337,-2.01545524597,
1.31711663405,0.489394843578,0,1.32674081774,0.00483553165853,69,-1.06339597702,-2.00573086739,
1.31181846658,0.499369353056,0,1.35678326125,0.00484774178348,70,-1.05963265896,-1.99490690231,
1.30654178659,0.50928401947,0,1.38689363875,0.00485851975588,71,-1.0553355217,-1.98295044899,
1.30128912727,0.51913356781,0,1.41706273411,0.00486777763645,72,-1.05053675175,-1.96989786625,
1.29606293241,0.528912425041,0,1.4472878522,0.00487615776081,73,-1.0452464819,-1.95577204227,
1.29086570541,0.538615107536,0,1.47756347194,0.00488410897577,74,-1.03944206238,-1.9405477047,
1.28569991986,0.548236429691,0,1.50788126105,0.00489075389176,75,-1.03316557407,-1.92426848412,
1.28056793014,0.557771086693,0,1.53823801052,0.00489688445003,76,-1.02639901638,-1.90694093704,
1.27547223965,0.567213833332,0,1.56862546462,0.0049016649969,77,-1.01914668083,-1.88855171204,
1.27041508357,0.5765594244,0,1.59904335745,0.0049064273647,78,-1.01143312454,-1.86912345886,
1.26539893548,0.585802793503,0,1.62948226218,0.00490959375447,79,-1.00323700905,-1.8486790657,
1.26042597095,0.594938874245,0,1.65994160893,0.00491269945846,80,-0.994598686695,-1.82721841335,
1.25549860398,0.603962421417,0,1.69041620376,0.00491492791188,81,-0.98548078537,-1.80471765995,
1.25061903993,0.612868607044,0,1.72090182322,0.00491649910793,82,-0.97591739893,-1.78124570847,
1.24578951398,0.62165248394,0,1.75139499466,0.00491749319406,83,-0.965905785561,-1.75677287579,
1.24101229111,0.63030898571,0,1.78189299879,0.00491803647464,84,-0.955444633961,-1.731310606,
1.23628960649,0.638833403587,0,1.8123896332,0.00491755616259,85,-0.944539427757,-1.70488154888,
1.23162357608,0.647220790386,0,1.84288528645,0.00491706464094,86,-0.933211922646,-1.67748475075,
1.22701643507,0.655466377735,0,1.87337478196,0.00491584975434,87,-0.921434223652,-1.64911389351,
1.2224702994,0.663565337658,0,1.90385729283,0.00491390604366,88,-0.909228920937,-1.61980009079,
1.21798725525,0.671513140202,0,1.93432927786,0.00491202637245,89,-0.896605908871,-1.58954370022,
1.21356947819,0.679304838181,0,1.96478996784,0.00491003639069,90,-0.883555591106,-1.55833673477,
1.20921902458,0.686935901642,0,1.99523699107,0.00490765512389,91,-0.870085656643,-1.5262169838,
1.20493809978,0.694401621819,0,2.02566607203,0.00490459977339,92,-0.856191396713,-1.49315047264,
1.20072864095,0.701697587967,0,2.05607712122,0.00490147209273,93,-0.841891467571,-1.45918416977,
1.19659282366,0.708818912506,0,2.08646927846,0.00489813584093,94,-0.827164173126,-1.42427444458,
1.19253261487,0.715761303902,0,2.11684045274,0.00488954578947,95,-0.812043845654,-1.38847970963,
1.18855013052,0.722519993782,0,2.14719036594,0.00488415303282,96,-0.796504855156,-1.35175526142,
1.18464733759,0.729090750217,0,2.17751654656,0.00488001809409,97,-0.780567169189,-1.31415748596,
1.18082638184,0.735468864441,0,2.20781749568,0.00487573074527,98,-0.764195680618,-1.27563309669,
1.17708911101,0.741650104523,0,2.23809451876,0.00486220320081,99,-0.747453033924,-1.23623847961,
1.17343770067,0.747629761696,0,2.26834564396,0.00483988082304,100,-0.73028165102,-1.19593238831,
1.16987414757,0.753403544426,0.0753403544426,2.29856904858,0.00483525855297,101,-0.712714195251,-1.15474927425,
1.16640041868,0.75896692276,0.0,2.32876689019,0.00483092958541,102,-0.694750070572,-1.11268544197,
1.16300098697,0.764349281788,0,2.35902058413,0.00483969476094,103,-0.679877460003,-1.07646739483,
1.15969623724,0.769511163235,0,2.38923935298,0.00483392986609,104,-0.66095328331,-1.03237771988,
1.15648724238,0.774449706078,0,2.41943079359,0.00482939742353,105,-0.641798853874,-0.987714409828,
1.15337608854,0.779160439968,0,2.44959374914,0.00482318533551,106,-0.622228860855,-0.942133724689,
1.15036495129,0.783638715744,0,2.47972694376,0.00481821358664,107,-0.602224051952,-0.89565038681,
1.147455887,0.787880003452,0,2.50983122116,0.00481332386114,108,-0.58181476593,-0.84827029705,
1.14465095202,0.791880130768,0,2.5399032491,0.00480800053767,109,-0.560992240906,-0.800020754337,
1.14195211331,0.795634567738,0,2.56994680959,0.00473831130019,110,-0.539771914482,-0.750893950462,
1.13936142723,0.799139082432,0,2.59995971506,0.00470340326649,111,-0.518137693405,-0.700899600983,
1.13688095013,0.802389204502,0,2.62994290594,0.00469843834241,112,-0.496090531349,-0.650018632412,
1.13451285759,0.805380523205,0,2.65989344522,0.00469260193092,113,-0.473618388176,-0.598249554634,
1.13225905696,0.808108568192,0,2.6898168667,0.00468750576356,114,-0.450754463673,-0.545618236065,
1.13012181322,0.810568988323,0,2.71970739257,0.00468218359743,115,-0.427447110415,-0.492086440325,
1.12810324232,0.812757313251,0,2.74956508891,0.00467683237762,116,-0.403709352016,-0.437652379274,
1.12620546023,0.814669072628,0,2.77939020976,0.00467154176459,117,-0.379559755325,-0.382348865271,
1.12443040411,0.816299915314,0,2.80918674262,0.00466688799918,118,-0.355004161596,-0.326172113419,
1.12278051774,0.817645251751,0,2.83894756674,0.00466105252888,119,-0.32998034358,-0.269059658051,
1.12125788728,0.818700551987,0,2.8686750267,0.00465567527169,120,-0.304530858994,-0.211066678166,
1.11986471812,0.819461345673,0,2.8983675554,0.00464866562664,121,-0.278636574745,-0.152165099978,
1.11860321561,0.81992316246,0,2.92802373405,0.00464277602524,122,-0.252297312021,-0.0923501998186,
1.11747570435,0.820081174374,0,2.95764332543,0.00463678398224,123,-0.225507929921,-0.0316150039434,
1.1164843897,0.819931089878,0,2.98722298388,0.00458611491337,124,-0.198263913393,0.0300330519676,
1.11563165585,0.819467842579,0,3.01676396679,0.00457990719334,125,-0.17054527998,0.0926384925842,
1.11491979758,0.818687140942,0,3.04626063302,0.00457286461836,126,-0.142372772098,0.156148776412,
1.11435122887,0.817583978176,0,3.07571285676,0.00456577854818,127,-0.11371370405,0.220625936985,
1.11392827431,0.816153824329,0,3.1051172264,0.00455820805109,128,-0.0845883786678,0.286044806242,
1.11365340749,0.814391672611,0,3.13447205785,0.00454794004281,129,-0.0549690276384,0.352424681187,
1.11352919141,0.812292695045,0,3.16377099037,0.00452500086488,130,-0.024845007807,0.41979932785,
1.11355804006,0.809852004051,0,3.19301256635,0.00451285760052,131,0.00577140785754,0.488136291504,
1.11374254624,0.807064712048,0,3.22219029263,0.00446929120325,132,0.0368951410055,0.55745524168,
1.11408524314,0.803925693035,0,3.25130223138,0.00445898580236,133,0.0685467422009,0.627805829048,
1.11458881299,0.800429880619,0,3.28034145392,0.00441691814117,134,0.100711166859,0.699166893959,
1.11525596777,0.796572029591,0,3.30930229032,0.00439605409753,135,0.133428052068,0.771557629108,
1.11608941952,0.792347073555,0,3.33817671447,0.00436459752475,136,0.166683495045,0.84498500824,
1.11709185044,0.787749707699,0,3.36696030722,0.00435071520403,137,0.200486734509,0.919476687908,
1.11826624075,0.78277438879,0,3.39564301202,0.00433532953146,138,0.234875321388,0.995055735111,
1.11961545149,0.777415752411,0,3.42421564832,0.00431851258547,139,0.269842028618,1.07173061371,
1.12114237348,0.771668314934,0,3.45266937664,0.00430040611488,140,0.305376619101,1.14948439598,
1.12285001675,0.765526354313,0,3.48099462217,0.00427468653342,141,0.341531574726,1.22839617729,
1.12474142114,0.758984148502,0,3.50918058257,0.00425351542221,142,0.378284007311,1.30845010281,
1.12681983511,0.752035737038,0,3.53721309391,0.00423016747361,143,0.415682286024,1.38966834545,
1.12908835808,0.744675397873,0,3.56507872926,0.00420485418442,144,0.453702926636,1.47206950188,
1.13155020873,0.736896932125,0,3.59276610848,0.00417780345991,145,0.492381244898,1.5556961298,
1.13420890371,0.728694140911,0,3.62025479148,0.00414769037589,146,0.531736552715,1.6405518055,
1.13706766168,0.720060825348,0,3.64753212592,0.00411546438545,147,0.571752250195,1.72666788101,
1.14013014833,0.710990488529,0,3.67457576163,0.00407973129892,148,0.612494766712,1.81407475471,
1.14339982072,0.701476573944,0,3.70136923169,0.00404185924451,149,0.653932213783,1.90279364586,
1.14688040415,0.691512227058,0,3.727891314,0.00400079121622,150,0.696111798286,1.99286317825,
1.15057559411,0.681090712547,0,3.75411917939,0.00395628425439,151,0.739037632942,2.08430671692,
1.15448926488,0.670204997063,0,3.78002762113,0.00390795024409,152,0.78274077177,2.17715334892,
1.15862535039,0.658847868443,0,3.80559087678,0.00385576429111,153,0.82722479105,2.27144241333,
1.16298790375,0.647011876106,0,3.8307815938,0.00379944085106,154,0.872507512569,2.36720490456,
1.16758100788,0.634689569473,0,3.85557027571,0.00373868565007,155,0.918620109558,2.46446752548,
1.1724089841,0.621873021126,0,3.87992525332,0.00367315965672,156,0.965603351593,2.56331443787,
1.17747618357,0.60855448246,0,3.90381022145,0.00360214779147,157,1.01343822479,2.66372013092,
1.18278704683,0.59472566843,0,3.92719156994,0.00352237030239,158,1.06217646599,2.76577186584,
1.18834619323,0.580378353596,0,3.95002804877,0.00344015007983,159,1.11183094978,2.86948633194,
1.19415830175,0.565503776073,0,3.97228176607,0.00335225718332,160,1.16242754459,2.97493314743,
1.20022820035,0.550093054771,0,3.99391012408,0.00325795079113,161,1.21398818493,3.08215618134,
1.20656089584,0.534137308598,0,4.01486326223,0.0031561419996,162,1.26654469967,3.1911740303,
1.2131614844,0.517627120018,0,4.03509346439,0.00304714960226,163,1.32012307644,3.30207133293,
1.22003530065,0.500552654266,0,4.05454914243,0.00293039592357,164,1.37476658821,3.41490650177,
1.22718764941,0.482904225588,0,4.07317523021,0.00280534696212,165,1.43047320843,3.52970600128,
1.23462395469,0.4646717906,0,4.09091524868,0.00267180935132,166,1.48726797104,3.64650988579,
1.24235002796,0.445844709873,0,4.10770634684,0.0025288154008,167,1.5452157259,3.76544237137,
1.25037168066,0.426412284374,0,4.12348359628,0.00237604485106,168,1.60433864594,3.88651442528,
1.25869493286,0.406363457441,0,4.13817755846,0.00221280264322,169,1.66465556622,4.00980424881,
1.26732580463,0.385686933994,0,4.15171876955,0.00203913904149,170,1.72618913651,4.1353468895,
1.27627079288,0.364370763302,0,4.16402885601,0.0018536900651,171,1.78900587559,4.26327610016,
1.2855362455,0.342403143644,0,4.17502846458,0.00165629215648,172,1.853099823,4.39357042313,
1.29512871901,0.31977173686,0,4.18463543531,0.001446544622,173,1.91850888729,4.5263338089,
1.30505515734,0.296463698149,0,4.19275887288,0.00122312625531,174,1.98530447483,4.66166114807,
1.31532232563,0.272466182709,0,4.19930929125,0.000986227803228,175,2.05345773697,4.7995595932,
1.32593751053,0.247765824199,0,4.20418428295,0.000733952987615,176,2.12305164337,4.94013977051,
1.33690781991,0.222348988056,0,4.2072860544,0.000466945218944,177,2.19408011436,5.08343982697,
1.34824057023,0.1962018013,0,4.20850924433,0.000184134592338,178,2.26657605171,5.22951459885,
1.35994336108,0.169309988618,0,4.20774064175,-0.000115698312731,179,2.34058308601,5.37844657898,
1.37202364306,0.141659274697,0,4.20486679946,-0.000432588203637,180,2.4160835743,5.53023147583,
1.38448922435,0.113234907389,0,4.19976483791,-0.000767954969725,181,2.49314546585,5.68497180939,
1.39734773437,0.0840221270919,0,4.19231237665,-0.0011216540801,182,2.57173848152,5.8426618576,
1.41060701112,0.0540059916675,0,4.18237798888,-0.00149515726665,183,2.6518945694,6.00334644318,
1.4242747883,0.0231715645641,0,4.1698281187,-0.00188873912061,184,2.73359870911,6.16701316833,
1.43835879962,-0.00849628448486,0,4.15452644017,-0.00230281169914,185,2.81684923172,6.33365631104,
1.45286654035,-0.0410118103027,0,4.13632714397,-0.002738800277,186,2.9015994072,6.50324773788,
1.46780552814,-0.0743894577026,0,4.11508091144,-0.003197232568,187,2.98785305023,6.67573642731,
1.48318290065,-0.108644008636,0,4.09064896503,-0.00367652203458,188,3.07553386688,6.85103034973,
1.49900543044,-0.14378786087,0,4.06286760573,-0.00418041293183,189,3.16457176208,7.0290184021,
1.51527947659,-0.179834842682,0,4.03159897763,-0.0047050159888,190,3.25488257408,7.20952796936,
1.53201087291,-0.216795444489,0,3.99667345775,-0.0052551101764,191,3.34635710716,7.39235591888,
1.54920471186,-0.254680633545,0,3.95794538912,-0.00582707999877,192,3.43885231018,7.57725477219,
1.56686519139,-0.293498516083,0,3.91525556375,-0.00642295289282,193,3.53218793869,7.7638964653,
1.58499558369,-0.333256721497,0,3.86846285028,-0.00704001271548,194,3.62615466118,7.95187759399,
1.60359747807,-0.373959064484,0,3.81742554542,-0.00767837682079,195,3.72050595284,8.14073181152,
1.62267191807,-0.415606975555,0,3.76198628859,-0.00834038173362,196,3.81494069099,8.32991123199,
1.64221651951,-0.4581990242,0,3.70205288168,-0.00901621771616,197,3.90912294388,8.51875686646,
1.66222937504,-0.50172996521,0,3.63747141823,-0.00971516736019,198,4.00265598297,8.70654392242,
1.68270428578,-0.546190261841,0,3.56816335397,-0.0104202172366,199,4.09509134293,8.89239120483,
1.70363314549,-0.591565132141,0,3.49404456176,-0.0111140045894,200,4.18593025208,9.07534599304,
1.72500498692,-0.63783454895,0,3.41505518115,-0.0117765898464,201,4.27460193634,9.25433158875,
1.74680693547,-0.684973239899,0,3.33113371781,-0.0125114904191,202,4.36050987244,9.42820358276,
1.76902087132,-0.732949256897,0,3.24229841409,-0.0132322053404,203,4.44299125671,9.59569263458,
1.79162676732,-0.781724452972,0,3.14855815917,-0.0137882117407,204,4.52136135101,9.75546264648,
1.81460030476,-0.831252574921,0,3.04996153642,-0.014447431638,205,4.59492015839,9.90616798401,
1.8379138271,-0.881481647491,0,2.94659803167,-0.0149438795495,206,4.66290092468,10.046377182,
1.86153586308,-0.932352542877,0,2.83859684994,-0.015613822096,207,4.72461891174,10.1747140884,
1.88543160359,-0.983798980713,0,2.72611542177,-0.0160789522752,208,4.77935838699,10.2898483276,
1.90956290165,-1.03574895859,0,2.60935581521,-0.0166898128728,209,4.8265004158,10.3905792236,
1.93388874928,-1.08812475204,0,2.48855246671,-0.0172365414633,210,4.86547279358,10.4757785797,
1.95836670796,-1.14084434509,0,2.36394988226,-0.0177777001046,211,4.89581108093,10.5445861816,
1.98295147816,-1.19382286072,0,2.23585413469,-0.0182752504712,212,4.91714525223,10.5963172913,
2.00759632985,-1.24697256088,0,2.10459409673,-0.0187260066404,213,4.92924499512,10.6305351257,
2.03225500981,-1.30020475388,0,1.97049119774,-0.0191309603232,214,4.93202400208,10.6470489502,
2.05688174168,-1.35343122482,0,1.83387298396,-0.0194891263003,215,4.92552232742,10.6460151672,
2.08142979542,-1.40656709671,0,1.69512966125,-0.019791476117,216,4.90993070602,10.627743721,
2.10585625569,-1.45952796936,0,1.55457365814,-0.0200489569485,217,4.88551092148,10.5928382874,
2.13011868397,-1.51223516464,0,1.41256232693,-0.0202557040004,218,4.85269784927,10.5421142578,
2.15417750279,-1.5646147728,0,1.26943046113,-0.0204144935109,219,4.81195735931,10.4765205383,
2.17799551884,-1.61659765244,0,1.12549985834,-0.0205274222172,220,4.76385879517,10.3971805573,
2.20153935353,-1.66812133789,0,0.981060560481,-0.0205976545837,221,4.70902872086,10.3052778244,
2.22477896611,-1.7191286087,0,0.836370828536,-0.0206327107147,222,4.64805698395,10.2020349503,
2.24768574635,-1.76956939697,0,0.691706768561,-0.0206284297103,223,4.58157253265,10.0886802673,
2.2702358524,-1.81939888,0,0.547279915548,-0.020241767994,224,4.51025390625,9.96646690369,
2.29240830342,-1.86857938766,0,0.403287847581,-0.0201794699446,225,4.43464660645,9.83653831482,
2.31418402592,-1.91707658768,0,0.259908599309,-0.0195679003348,226,4.35533094406,9.70000267029,
2.33554728428,-1.964864254,0,0.117298618064,-0.0194337950203,227,4.27284288406,9.55791854858,
2.3564852039,-2.01191759109,0,-0.0244320917808,-0.0193133702426,228,4.18768501282,9.41119289398,
2.37698586384,-2.05821895599,0,-0.165159310795,-0.0191760509737,229,4.10023546219,9.26065254211,
2.39703972737,-2.10375213623,0,-0.304797128557,-0.019027073717,230,4.01095533371,9.10708141327,
2.41663964192,-2.14850616455,0,-0.443279771275,-0.018868967857,231,3.92012929916,8.95112991333,
2.43577940861,-2.19247055054,0,-0.580557052394,-0.0187042036692,232,3.82806372643,8.79333591461,
2.45445425908,-2.23564052582,0,-0.716583737683,-0.0185332954458,233,3.73508882523,8.63426971436,
2.47266085545,-2.27801036835,0,-0.851340994055,-0.018359829723,234,3.64137840271,8.47428131104,
2.49039585988,-2.31957745552,0,-0.984803091093,-0.0181701419892,235,3.5470764637,8.31372928619,
2.507657365,-2.36034059525,0,-1.11696255483,-0.0179922057431,236,3.45239281654,8.15292549133,
2.52444441716,-2.4002995491,0,-1.24782317664,-0.0178148284169,237,3.35752367973,7.99210739136,
2.5407565395,-2.43945550919,0,-1.37739250726,-0.0176384930747,238,3.26244735718,7.83143377304,
2.55659277836,-2.47780966759,0,-1.50567362946,-0.0174625445499,239,3.16732740402,7.67108249664,
2.57195361058,-2.51536369324,0,-1.63268508989,-0.0172891655954,240,3.07224845886,7.51112270355,
2.58683951298,-2.552120924,0,-1.75844318179,-0.0171179914371,241,2.97724509239,7.35167217255,
2.60125096242,-2.58808350563,0,-1.88296452481,-0.0169491370562,242,2.88233590126,7.19274806976,
2.61518843571,-2.62325429916,0,-2.00626427983,-0.0167823085215,243,2.78759336472,7.03436183929,
2.62865336339,-2.65763616562,0,-2.12836442208,-0.0166184509723,244,2.69296574593,6.87653446198,
2.64164622227,-2.69123148918,0,-2.24927615393,-0.0164561649162,245,2.59859061241,6.71927928925,
2.65416748921,-2.72404336929,0,-2.36900932337,-0.0162952553361,246,2.50433588028,6.56255722046,
2.66621859471,-2.75607395172,0,-2.48757767533,-0.0161362366684,247,2.4102807045,6.406291008,
2.67780096928,-2.78732585907,0,-2.60499124126,-0.0159785612254,248,2.31640315056,6.25049114227,
2.68891413609,-2.81780028343,0,-2.72124224582,-0.0158198857814,249,2.22273945808,6.09505844116,
2.69956047932,-2.84749960899,0,-2.83633874066,-0.0156622196296,250,2.12922716141,5.93997621536,
2.70973952214,-2.87642455101,0,-2.95026434677,-0.0155023999597,251,2.03581571579,5.78512096405,
2.71945221821,-2.90457630157,0,-3.06300751172,-0.0153410228362,252,1.94260275364,5.63049411774,
2.72869999806,-2.93195605278,0,-3.17455370477,-0.0151776927279,253,1.84950447083,5.47600126266,
2.73748238484,-2.95856332779,0,-3.28487013808,-0.0150099243753,254,1.75652754307,5.32156229019,
2.74580033223,-2.9843981266,0,-3.39392614904,-0.0148379119168,255,1.66363203526,5.16708374023,
2.7536547939,-3.00946044922,0,-3.50168482123,-0.0146609732889,256,1.57083058357,5.0125579834,
2.76104529301,-3.03374934196,0,-3.60809540099,-0.0144771281174,257,1.47809624672,4.85785579681,
2.76797230641,-3.05726361275,0,-3.71310361721,-0.0142858956105,258,1.38540589809,4.70291852951,
2.77443583409,-3.08000206947,0,-3.81664747747,-0.014086216803,259,1.29275965691,4.54771900177,
2.78043682972,-3.10196256638,0,-3.91865697808,-0.0138770699465,260,1.20015311241,4.39217233658,
2.78597481648,-3.12314319611,0,-4.01905280813,-0.0136571068473,261,1.10755598545,4.23621177673,
2.79104931752,3.13964390755,0,-4.11774676253,-0.0134251659248,262,1.0149282217,4.07975721359,
2.79566080967,3.12002968788,0,-4.21465006651,-0.0131811398456,263,0.922335505486,3.92285203934,
2.79980929295,3.10120368004,0,-4.30965373281,-0.0129222962027,264,0.829700171947,3.76532101631,
2.80349476735,3.08316802979,0,-4.40265130738,-0.0126490324476,265,0.737061023712,3.60718178749,
2.80671627919,3.0659263134,0,-4.49352188604,-0.0123593775804,266,0.644337594509,3.44840669632,
2.80947430531,3.04948163033,0,-4.5821410078,-0.0120516039005,267,0.551596283913,3.28891563416,
2.81176836888,3.03383827209,0,-4.66837007915,-0.0117262171458,268,0.458808898926,3.12869048119,
2.81359846989,3.01899957657,0,-4.75206863396,-0.0113817548155,269,0.365964889526,2.96776175499,
2.81496365468,3.00496935844,0,-4.83308668721,-0.0110169249682,270,0.273078948259,2.80603885651,
2.81586440007,2.99175190926,0,-4.91126427015,-0.0106303538192,271,0.180117070675,2.64352989197,
2.81630022923,2.97935056686,0,-4.98644016918,-0.0102218865094,272,0.0871473476291,2.48027849197,
2.81627066533,2.96776986122,0,-5.05843926743,-0.00978963730756,273,-0.00587219744921,2.31617736816,
2.81577570836,2.95701360703,0,-5.12708365127,-0.00933323079608,274,-0.0989848226309,2.15128040314,
2.81481535832,2.94708561897,0,-5.19218865252,-0.008851723429,275,-0.192112982273,1.9856069088,
2.81338913838,2.93798995018,0,-5.25356186402,-0.00834409380581,276,-0.285251557827,1.81914997101,
2.81149704854,2.92973017693,0,-5.3110071168,-0.00780982436664,277,-0.378378093243,1.6519818306,
2.80913956563,2.92230987549,0,-5.36432136632,-0.00724799312153,278,-0.471520066261,1.48405051231,
2.80631621281,2.91573286057,0,-5.41329475674,-0.00665765849172,279,-0.564667224884,1.31543385983,
2.80302746693,2.9100022316,0,-5.45771522638,-0.00603853042153,280,-0.657782912254,1.14613366127,
2.79927332799,2.90512108803,0,-5.49736549644,-0.00538990528624,281,-0.750802278519,0.976234555244,
2.79505474965,2.90109229088,0,-5.53202312229,-0.00471108447661,282,-0.843727052212,0.805788218975,
2.79037173192,2.89791798592,0,-5.56146672184,-0.00400221195216,283,-0.936554372311,0.634854853153,
2.7852257053,2.89560079575,0,-5.58546443759,-0.00326186444528,284,-1.02926969528,0.46344101429,
2.77961666981,2.8941423893,0,-5.60378846659,-0.00249059864015,285,-1.12177836895,0.291700363159,
2.77354653279,2.89354419708,0,-5.61620577623,-0.00168719864364,286,-1.21406698227,0.119646668434,
2.76701577107,2.89380717278,0,-5.62248464506,-0.000853110631776,287,-1.30611932278,-0.0526125431061,
2.760026292,2.89493203163,0,-5.62238950364,1.29264890128e-05,288,-1.39785897732,-0.224968075752,
2.75258000294,2.89691877365,0,-5.6156869303,0.000910625336603,289,-1.4892976284,-0.397362589836,
2.74467833439,2.89976716042,0,-5.6021429375,0.00184005536234,290,-1.58028888702,-0.569635629654,
2.73632414738,2.90347552299,0,-5.58153066024,0.00280025535242,291,-1.67088699341,-0.741727948189,
2.72751934926,2.90804314613,0,-5.55361484104,0.00379236102063,292,-1.76096904278,-0.913507342339,
2.71826680104,2.91346716881,0,-5.51817470044,0.00481437340719,293,-1.8505051136,-1.08483171463,
2.70856984059,2.91974496841,0,-5.4749864717,0.0058667085636,294,-1.93941736221,-1.25560522079,
2.69843180577,2.92687320709,0,-5.42383193977,0.00694863278428,295,-2.02768039703,-1.42566132545,
2.68785603444,2.93484735489,0,-5.36450282495,0.00805879338368,296,-2.11515831947,-1.59485816956,
2.67684681813,2.94366240501,0,-5.29679535934,0.00919647306935,297,-2.20185351372,-1.76303672791,
2.66540892521,2.95331263542,0,-5.22051346537,0.0103570263948,298,-2.28764891624,-1.93006873131,
2.65354664723,2.96379137039,0,-5.13547155412,0.0115460099248,299,-2.37244844437,-2.09573936462,
2.64126570622,2.97509074211,0,-5.04149714775,0.0127583840399,300,-2.45624637604,-2.25991773605,
2.62857087056,2.98720264435,0,-4.93842387454,0.0139932813208,301,-2.53891968727,-2.42244935036,
2.61546976964,3.00011777878,0,-4.82610137531,0.015248473267,302,-2.62034630775,-2.58306241035,
2.60196717183,3.01382565498,0,-4.70439375193,0.0165220784098,303,-2.70046305656,-2.74158573151,
2.5880716602,3.02831459045,0,-4.57318438586,0.0178114490948,304,-2.7792134285,-2.89784526825,
2.57378943364,3.04357242584,0,-4.43236664208,0.0191148401736,305,-2.85647177696,-3.05161380768,
2.55912907521,3.05958557129,0,-4.28185680347,0.0204297903654,306,-2.93212008476,-3.20265078545,
2.54409916798,3.07633876801,0,-4.12159493967,0.0217528669548,307,-3.00605511665,-3.35072994232,
2.52870829503,3.09381651878,0,-3.95153378793,0.0230822114023,308,-3.07820105553,-3.49561095238,
2.51296646992,3.11200141907,0,-3.77165586312,0.02441388005,309,-3.14844608307,-3.63702392578,
2.49688370625,3.13087463379,0,-3.58196807267,0.0257445621647,310,-3.21662592888,-3.77471089363,
2.48047097127,-3.13276934624,0,-3.3825040982,0.0270704532453,311,-3.28261399269,-3.90836858749,
2.46373970906,-3.11258101463,0,-3.17332069932,0.0283886960119,312,-3.34638786316,-4.03775501251,
2.44670136372,-3.09176874161,0,-2.95450523204,0.029695073197,313,-3.40768122673,-4.16253519058,
2.42936976353,-3.07035732269,0,-2.72618233976,0.0309843835169,314,-3.46645140648,-4.28238630295,
2.41175778309,-3.04837298393,0,-2.48850179562,0.0322532588386,315,-3.52250289917,-4.39697790146,
2.39387972752,-3.02584338188,0,-2.24164685904,0.0334972231143,316,-3.57569003105,-4.50597810745,
2.3757508556,-3.00279903412,0,-1.98584485588,0.0347100310929,317,-3.62584924698,-4.60900878906,
2.35738690297,-2.97927093506,0,-1.72134722334,0.0358888501826,318,-3.67287492752,-4.70570468903,
2.33880503575,-2.95529317856,0,-1.44845453737,0.0370268871365,319,-3.71651244164,-4.79565906525,
2.32002194325,-2.93090128899,0,-1.16749471193,0.0381203014317,320,-3.75666618347,-4.87850284576,
2.30105765263,-2.9061331749,0,-0.878849820446,0.0391618274444,321,-3.79306840897,-4.95374584198,
2.2819302837,-2.88102865219,0,-0.582925303319,0.040148074947,322,-3.82558631897,-5.02102708817,
2.2626608173,-2.85562992096,0,-0.280178707023,0.0410723538011,323,-3.85398197174,-5.07983541489,
2.24327118794,-2.82998204231,0,0.0288866727166,0.0419279034277,324,-3.87809348106,-5.12972211838,
2.22378333012,-2.80413150787,0,0.343739108017,0.0427117505591,325,-3.89765548706,-5.17023181915,
2.20422156254,-2.77812790871,0,0.663791525792,0.043415723316,326,-3.91251373291,-5.20086097717,
2.1846102039,-2.75202298164,0,0.988424587095,0.0440358292943,327,-3.92238664627,-5.22111368179,
2.16497548024,-2.72587108612,0,1.31697117037,0.0445652249326,328,-3.92707681656,-5.23049449921,
2.1453436176,-2.69972920418,0,1.64873110069,0.0449639552508,329,-3.92640399933,-5.22851991653,
2.12574417988,-2.6736562252,0,1.98295173729,0.0452952061766,330,-3.92007374763,-5.21467161179,
2.10620530049,-2.64771461487,0,2.31885429795,0.0455217240019,331,-3.90791249275,-5.18845939636,
2.08675749699,-2.62196826935,0,2.65562047636,0.0456369211456,332,-3.88968205452,-5.14942455292,
2.06743176381,-2.59648346901,0,2.9924021592,0.0456369354622,333,-3.86522531509,-5.09709692001,
2.0482610027,-2.57132863998,0,3.32831211749,0.0455171128957,334,-3.83429837227,-5.031042099,
2.02927763859,-2.54657506943,0,3.66244156516,0.0452744431182,335,-3.79674696922,-4.95084905624,
2.0105164806,-2.52229475975,0,3.99385004345,0.044904105454,336,-3.75237727165,-4.8561372757,
1.99201186101,-2.49856233597,0,4.32157995849,0.0444043389491,337,-3.70106244087,-4.7465968132,
1.97379858891,-2.47545266151,0,4.64466481779,0.0437733870277,338,-3.64275360107,-4.62200927734,
1.95591242711,-2.45304274559,0,4.96211315333,0.0430074932441,339,-3.57733654976,-4.48210287094,
1.93838913838,-2.43140912056,0,5.27293493495,0.0421077088818,340,-3.5047044754,-4.32677459717,
1.92126496235,-2.41062951088,0,5.57612671051,0.0410724371271,341,-3.4249587059,-4.15597629547,
1.90457518498,-2.39078140259,0,5.87069527772,0.039903122335,342,-3.33803534508,-3.96969509125,
1.88835509221,-2.37194132805,0,6.15565231488,0.0385970467977,343,-3.24407315254,-3.7681016922,
1.87263901631,-2.35418462753,0,6.43002512086,0.0371623226417,344,-3.14322686195,-3.5513856411,
1.85746128956,-2.33758568764,0,6.69284423196,0.0355959934476,345,-3.03558301926,-3.31985616684,
1.8428543369,-2.32221627235,0,6.94317259418,0.0339019126226,346,-2.92144060135,-3.0739376545,
1.82884915272,-2.30814552307,0,7.18009919044,0.0320856936267,347,-2.80111718178,-2.81417942047,
1.81547530095,-2.29543995857,0,7.40273727919,0.0301497996641,348,-2.67486548424,-2.54119539261,
1.80275948445,-2.28416132927,0,7.61025103811,0.0281006714287,349,-2.54319143295,-2.25573253632,
1.7907269756,-2.27436828613,0,7.80182778631,0.0259417708907,350,-2.40644621849,-1.95864224434,
1.77940113942,-2.26611423492,0,7.97669395132,0.0236782556983,351,-2.2652027607,-1.65086150169,
1.76880152623,-2.25944709778,0,8.13413544323,0.0213180387958,352,-2.11996555328,-1.33344578743,
1.75894482533,-2.2544093132,0,8.27348526081,0.0188677001335,353,-1.97133386135,-1.00751984119,
1.749844865,-2.25103759766,0,8.39412316099,0.0163336077628,354,-1.82001972198,-0.674339652061,
1.74151213566,-2.24936246872,0,8.49548237364,0.0137227320844,355,-1.66659152508,-0.335100769997,
1.73395283619,-2.24940633774,0,8.57707113675,0.011045732065,356,-1.5118547678,0.0087718963623,
1.72717078129,-2.25118589401,0,8.63843645341,0.00830740551732,357,-1.35644721985,0.355952858925,
1.72116454045,-2.25471067429,0,8.67920408252,0.00551877610754,358,-1.20123577118,0.704922556877,
1.71592982213,-2.25998163223,0,8.69906320464,0.00268826501599,359,-1.04696893692,1.05426073074,
1.71145804326,-2.26699447632,0,8.69776092278,-0.000176280114138,360,-0.894329428673,1.402536273,
1.70773680607,-2.27573537827,0,8.67512821374,-0.00306350456154,361,-0.744256734848,1.74821424484,
1.70474942128,-2.28618431091,0,8.63106508327,-0.00596409315024,362,-0.597420990467,2.08986139297,
1.70247681538,-2.29831433296,0,8.56552921262,-0.00887018253622,363,-0.454602718353,2.42607402802,
1.70089371602,-2.31209135056,0,8.47858022905,-0.0117680612892,364,-0.316582143307,2.75546169281,
1.6999734203,-2.32747459412,0,8.37033276997,-0.0146502022053,365,-0.184013590217,3.07668948174,
1.69968541066,-2.34441637993,0,8.24098779723,-0.0175049827543,366,-0.0576622933149,3.3884909153,
1.69999487797,-2.36286449432,0,8.09082335885,-0.0203218630503,367,0.0618872120976,3.68971204758,
1.70086510579,-2.38276028633,0,7.92019189716,-0.0230910240884,368,0.174043938518,3.97926783562,
1.70225603978,-2.40404057503,0,7.72952435314,-0.0258016189337,369,0.2782368958,4.25616121292,
1.70412619511,-2.4266371727,0,7.51932225012,-0.0284442425351,370,0.373983323574,4.51949214935,
1.70643027226,-2.45047879219,0,7.29016790826,-0.0310079418696,371,0.460840880871,4.76849555969,
1.70912249486,-2.47549057007,0,7.04270376575,-0.0334845264798,372,0.5384324193,5.00249433517,
1.71215470234,-2.50159406662,0,6.77765410249,-0.035862845075,373,0.606405794621,5.22093915939,
1.7154777805,-2.52871012688,0,6.49579082407,-0.0381365746918,374,0.664640247822,5.42342567444,
1.71904166142,-2.55675673485,0,6.19795682953,-0.0402960264281,375,0.712771475315,5.60955953598,
1.72279532353,-2.58565115929,0,5.88504909556,-0.0423342128326,376,0.750762283802,5.7791519165,
1.72668822209,-2.61531019211,0,5.55800790968,-0.0442450919251,377,0.778555333614,5.93209886551,
1.73066838185,-2.64565014839,0,5.21783281769,-0.046020461259,378,0.796045005322,6.0682849884,
1.73468478123,-2.67658758163,0,4.86555950088,-0.0476557948271,379,0.803296864033,6.18780708313,
1.7386868755,-2.70803976059,0,4.50225956811,-0.0491404274134,380,0.800390005112,6.29078769684,
1.74262411992,-2.73992490768,0,4.12904138864,-0.0504801604269,381,0.787471830845,6.37740945816,
1.74644740025,-2.77216243744,0,3.74703824875,-0.0516656513708,382,0.764646232128,6.44789648056,
1.75010807911,-2.8046734333,0,3.35740883862,-0.0526849341739,383,0.732124567032,6.50259399414,
1.75355894963,-2.83738040924,0,2.96133333468,-0.0535542274631,384,0.690192699432,6.54183197021,
1.75675423543,-2.87020802498,0,2.56000456091,-0.0542627543938,385,0.639034509659,6.56595516205,
1.75964911381,-2.9030828476,0,2.15463200942,-0.0548076853553,386,0.579011142254,6.57539701462,
1.76220066945,-2.93593335152,0,1.74643525139,-0.0551878934712,387,0.510320007801,6.57054328918,
1.76436789433,-2.96869063377,0,1.33663402468,-0.0554028015446,388,0.43343693018,6.55192184448,
1.76611121098,-3.00128769875,0,0.926457438194,-0.0554519354229,389,0.348651379347,6.51992082596,
1.76739247242,-3.03366041183,0,0.517130062064,-0.0553352971989,390,0.256306767464,6.47503423691,
1.76817639271,-3.06574630737,0,0.109877805921,-0.0550531692602,391,0.156783878803,6.41768598557,
1.76842911641,-3.09748578072,0,-0.294082301638,-0.0546064127413,392,0.0505472198129,6.3484416008,
1.76811917225,-3.12882184982,0,-0.693546248778,-0.0539970618241,393,-0.062064319849,6.26771354675,