lower angle,upper angle,holding angle,system x,acceleration,ticks (200 tps),lower acceleration (shoulder),upper acceleration (elbow),
1.57079632679,0.0,0,2.10026926054e-15,8.61493544296e-17,1,0.0,0.0,
1.57078655279,1.90398932318e-05,0,5.53618116111e-05,2.27054594942e-06,2,-0.00195480021648,-0.00380797870457,
1.57076642896,5.83428845857e-05,0,0.000167855236367,4.61363580983e-06,3,-0.00402476638556,-0.00786059908569,
1.57073619669,0.000117408009828,0,0.00033656493081,6.91914232174e-06,4,-0.0060464553535,-0.0118130240589,
1.57069593547,0.000196077045985,0,0.000561089958799,9.2081562595e-06,5,-0.00805224478245,-0.0157338101417,
1.57064571831,0.000294246536214,0,0.000840446808902,1.14568005927e-05,6,-0.0100434301421,-0.0196338985115,
1.57058564661,0.000411725923186,0,0.00117395922817,1.36776650674e-05,7,-0.0120143406093,-0.023495875299,
1.57051574035,0.00054844818078,0,0.00156192694088,1.59107571283e-05,8,-0.0139812519774,-0.0273444503546,
1.57043609474,0.00070424634032,0,0.00200353806956,1.81105356389e-05,9,-0.0159291215241,-0.0311596319079,
1.57034678472,0.000878986727912,0,0.0024981880872,2.02854766676e-05,10,-0.0178620070219,-0.0349480807781,
1.57024786464,0.00107252155431,0,0.00304618473159,2.24730109748e-05,11,-0.0197840128094,-0.0387069731951,
1.57013946324,0.00128466216847,0,0.00364588584688,2.4593176047e-05,12,-0.0216802787036,-0.042428098619,
1.57002172247,0.00151510641444,0,0.00429686358592,2.66957352012e-05,13,-0.0235481671989,-0.0460888817906,
1.56989471097,0.00176371959969,0,0.00499874400185,2.87741890654e-05,14,-0.0254023000598,-0.0497226715088,
1.56975861284,0.0020302105695,0,0.00574949203509,3.07708753352e-05,15,-0.0272196084261,-0.0532981604338,
1.56961348985,0.00231437059119,0,0.00655005770416,3.28124436719e-05,16,-0.0290246084332,-0.0568320080638,
1.56945947669,0.00261597405188,0,0.00739913751643,3.48005012991e-05,17,-0.0308026317507,-0.0603206716478,
1.56929678534,0.0029346072115,0,0.00829554205761,3.67387527166e-05,18,-0.0325382649899,-0.0637266635895,
1.56912553596,0.00327004841529,0,0.00923840876267,3.86426484834e-05,19,-0.0342498868704,-0.0670882537961,
1.56894588139,0.00362199428491,0,0.0102269543464,4.05127369028e-05,20,-0.0359309278429,-0.0703891664743,
1.56875793246,0.00399018265307,0,0.011261231198,4.23865027961e-05,21,-0.037589777261,-0.0736377388239,
1.56856191583,0.0043742232956,0,0.0123392010537,4.4175606893e-05,22,-0.0392033569515,-0.0768080949783,
1.56835799344,0.00477378163487,0,0.0134602277642,4.59396194642e-05,23,-0.0407844632864,-0.0799116492271,
1.56814635272,0.00518847536296,0,0.0146235023255,4.76704656316e-05,24,-0.0423281490803,-0.0829387158155,
1.56792721158,0.00561790773645,0,0.0158273817469,4.93340185755e-05,25,-0.0438282676041,-0.0858864560723,
1.56770072721,0.00606174115092,0,0.0170714380461,5.09799936406e-05,26,-0.0452968552709,-0.0887666344643,
1.56746708724,0.00651959143579,0,0.0183548815715,5.2593529856e-05,27,-0.0467280112207,-0.0915700048208,
1.5672265052,0.00699106650427,0,0.0196761525736,5.41431725941e-05,28,-0.048116452992,-0.0942951142788,
1.56697925279,0.00747563317418,0,0.0210337688692,5.56319408408e-05,29,-0.0494504533708,-0.0969133526087,
1.56672548276,0.00797296129167,0,0.0224273446289,5.71049121787e-05,30,-0.0507539622486,-0.0994654819369,
1.5664654412,0.00848257634789,0,0.0238554136128,5.85178084457e-05,31,-0.0520083457232,-0.101923264563,
1.56619937025,0.0090040108189,0,0.0253165426535,5.9871979663e-05,32,-0.0532142482698,-0.104286909103,
1.565927452,0.00953686237335,0,0.0268104006391,6.12125657999e-05,33,-0.0543836466968,-0.106570348144,
1.56564995606,0.0100806131959,0,0.0283353513028,6.24860747093e-05,34,-0.0554992742836,-0.108750268817,
1.56536714273,0.0106347557157,0,0.0298899272142,6.36994571695e-05,35,-0.0565626658499,-0.110828183591,
1.56507922249,0.0111988754943,0,0.0314730009066,6.48662983241e-05,36,-0.0575839839876,-0.112824067473,
1.56478646636,0.0117724323645,0,0.0330832167333,6.59736632995e-05,37,-0.0585512556136,-0.114711478353,
1.56448907178,0.0123549923301,0,0.0347201819143,6.7068960467e-05,38,-0.059478957206,-0.116511799395,
1.56418732234,0.012946004048,0,0.0363822738245,6.80978144671e-05,39,-0.0603499263525,-0.118202283978,
1.56388149417,0.0135449273512,0,0.0380679611021,6.90634716237e-05,40,-0.0611657127738,-0.119784802198,
1.56357186806,0.0141512500122,0,0.0397751419609,6.99424239451e-05,41,-0.0619252547622,-0.121264591813,
1.5632586829,0.0147644272074,0,0.0415036312282,7.08141505011e-05,42,-0.0626370385289,-0.122635543346,
1.56294220785,0.0153839355335,0,0.0432518906873,7.16226234903e-05,43,-0.0632950887084,-0.123901575804,
1.56262270088,0.0160092674196,0,0.0450185327129,7.23692026437e-05,44,-0.0639012604952,-0.125065997243,
1.56230048469,0.0166398156434,0,0.0468014144544,7.30337777756e-05,45,-0.0644432976842,-0.126109972596,
1.56197578187,0.0172750763595,0,0.0486003073793,7.36887868283e-05,46,-0.0649404376745,-0.1270519346,
1.56164889323,0.0179144535214,0,0.050413655032,7.428024332e-05,47,-0.0653778687119,-0.127875998616,
1.56132005347,0.0185574945062,0,0.0522400606774,7.48144477886e-05,48,-0.0657679066062,-0.128607928753,
1.5609895392,0.0192035976797,0,0.0540788805339,7.53223270464e-05,49,-0.0661028847098,-0.129220306873,
1.56065770338,0.0198521185666,0,0.0559274812458,7.57223262469e-05,50,-0.0663671270013,-0.129704207182,
1.56032479933,0.0205025468022,0,0.0577846760299,7.60737033887e-05,51,-0.0665807947516,-0.130085676908,
1.5599910692,0.0211543440819,0,0.059650072119,7.64090090017e-05,52,-0.0667459592223,-0.13035941124,
1.55965682684,0.0218069050461,0,0.0615218028368,7.66675407084e-05,53,-0.0668485462666,-0.130512297153,
1.55932236655,0.0224596485496,0,0.0633983163942,7.68627830515e-05,54,-0.0668920427561,-0.130548715591,
1.5589879519,0.0231120083481,0,0.0652788960875,7.7028596965e-05,55,-0.0668828263879,-0.130471676588,
1.55865387252,0.0237634312361,0,0.0671617391958,7.71206418641e-05,56,-0.0668158456683,-0.130284637213,
1.55832044041,0.0244133025408,0,0.069045179929,7.71444568916e-05,57,-0.0666864290833,-0.129974275827,
1.55798789213,0.0250611137599,0,0.0709285792267,7.71420949084e-05,58,-0.0665098726749,-0.129562705755,
1.55765651918,0.0257062613964,0,0.0728108098009,7.70935621553e-05,59,-0.0662745535374,-0.129029095173,
1.55732662237,0.0263481773436,0,0.0746899047831,7.69642469259e-05,60,-0.0659793093801,-0.128383398056,
1.55699846434,0.0269863083959,0,0.0765649879199,7.67992713699e-05,61,-0.0656315535307,-0.127626165748,
1.55667236919,0.027620036155,0,0.0784340331036,7.65512889702e-05,62,-0.0652188360691,-0.126745477319,
1.5563485651,0.0282488372177,0,0.0802969079237,7.6179653589e-05,63,-0.0647609755397,-0.125760376453,
1.55602736591,0.0288721304387,0,0.0821513901362,7.57990505778e-05,64,-0.0642397776246,-0.124658495188,
1.55570898211,0.0294894408435,0,0.0839972424414,7.54452497782e-05,65,-0.063676789403,-0.123462215066,
1.55539376388,0.0301001109183,0,0.0858321194881,7.49958901635e-05,66,-0.0630436241627,-0.122134119272,
1.55508195522,0.0307036042213,0,0.0876555376559,7.42952564552e-05,67,-0.0623617470264,-0.120698235929,
1.55477381783,0.0312994085252,0,0.0894660505742,7.37088314748e-05,68,-0.0616273619235,-0.119160667062,
1.55446958455,0.0318870209157,0,0.0912630651786,7.31583946195e-05,69,-0.0608466006815,-0.117522671819,
1.55416956457,0.032465852797,0,0.0930446287081,7.25286879314e-05,70,-0.0600040256977,-0.115766227245,
1.55387404101,0.033035337925,0,0.0948093542511,7.18425564073e-05,71,-0.0591046065092,-0.113898068666,
1.5535832076,0.0335950255394,0,0.0965572237799,7.11557144557e-05,72,-0.0581665299833,-0.111937098205,
1.55329735304,0.0341443791986,0,0.0982862207866,7.03867259785e-05,73,-0.0571708492935,-0.109870657325,
1.55301673251,0.0346828624606,0,0.0999954786457,6.93907197243e-05,74,-0.0561239905655,-0.107696734369,
1.5527415956,0.0352099724114,0,0.101683829623,6.85015786335e-05,75,-0.0550271421671,-0.105421230197,
1.5524721882,0.035725209862,0,0.103350179029,6.76078317133e-05,76,-0.0538814067841,-0.103047654033,
1.55220875616,0.0362280793488,0,0.104993377465,6.66673782327e-05,77,-0.0526865758002,-0.100574158132,
1.55195151927,0.0367181003094,0,0.10661295085,6.570790604e-05,78,-0.0514474771917,-0.098003834486,
1.55170072714,0.0371947921813,0,0.108207403091,6.4597551076e-05,79,-0.0501582957804,-0.0953380540013,
1.55145659397,0.0376576893032,0,0.109776232799,6.3403441163e-05,80,-0.0488261505961,-0.092579305172,
1.55121935258,0.0381063260138,0,0.111318299844,6.22398045679e-05,81,-0.0474485717714,-0.0897274166346,
1.5509892414,0.0385402478278,0,0.112832108245,6.10985839958e-05,82,-0.0460220910609,-0.086784362793,
1.55076647835,0.0389589928091,0,0.11431697421,5.99297570325e-05,83,-0.0445520356297,-0.0837487876415,
1.55055121804,0.0393622070551,0,0.115772797964,5.8757068884e-05,84,-0.043052200228,-0.0806425437331,
1.55034370447,0.0397494100034,0,0.117198275254,5.74862034714e-05,85,-0.0415026955307,-0.0774408429861,
1.550144109,0.040120229125,0,0.118593005225,5.62223890943e-05,86,-0.0399187803268,-0.0741636902094,
1.54995267937,0.0404741875827,0,0.119955501175,5.47563172042e-05,87,-0.0382861159742,-0.0707922130823,
1.54976958694,0.0408109202981,0,0.121285252796,5.34374513262e-05,88,-0.0366183258593,-0.0673458874226,
1.54959503474,0.0411300472915,0,0.122580882919,5.17787046932e-05,89,-0.034910608083,-0.0638249665499,
1.54942914384,0.041431248188,0,0.123842948883,5.04368102491e-05,90,-0.0331781096756,-0.0602404251695,
1.54927213962,0.0417140908539,0,0.12507007356,4.903998757e-05,91,-0.0314008742571,-0.0565683990717,
1.54912417109,0.041978277266,0,0.126261527684,4.76140486876e-05,92,-0.0295937489718,-0.0528369769454,
1.54898540775,0.0422234125435,0,0.127417302885,4.61877542674e-05,93,-0.0277524646372,-0.0490280389786,
1.54885603587,0.0424491688609,0,0.128535830425,4.46493145135e-05,94,-0.0258743036538,-0.0451512262225,
1.54873618769,0.0426552444696,0,0.129617010675,4.31580256982e-05,95,-0.0239696186036,-0.0412151366472,
1.5486259638,0.0428414344788,0,0.130660406356,4.16494184187e-05,96,-0.0220450274646,-0.0372370146215,
1.54852553742,0.0430073626339,0,0.131665607604,4.01244028242e-05,97,-0.0200853943825,-0.033186212182,
1.54843508738,0.0431526713073,0,0.132631739184,3.84768445482e-05,98,-0.0180898457766,-0.0290617700666,
1.54835469934,0.0432771481574,0,0.133558984291,3.69182988778e-05,99,-0.01607744582,-0.024894926697,
1.54828450369,0.043380562216,0,0.134446266889,3.48291447644e-05,100,-0.0140389595181,-0.0206833891571,
1.54822461593,0.0434626489878,0.00434626489878,0.135293514668,3.32561642025e-05,101,-0.0119774350896,-0.0164170861244,
1.54817513662,0.0435231886804,0.0,0.136100509292,3.16757594609e-05,102,-0.00989560224116,-0.0121078044176,
1.54813418078,0.0435658581555,0,0.136877853126,3.05116465862e-05,103,-0.00819140300155,-0.00853348523378,
1.54810388485,0.043586473912,0,0.137613767925,2.86172099685e-05,104,-0.00605902820826,-0.00412242952734,
1.54808429542,0.0435848869383,0,0.13830884738,2.70289088927e-05,105,-0.0039177024737,0.000316235702485,
1.54807551491,0.0435609295964,0,0.138962042705,2.53999770298e-05,106,-0.00175577239133,0.00479221064597,
1.54807760107,0.0435144491494,0,0.139573619045,2.37813262923e-05,107,0.00041696219705,0.00929544121027,
1.54809066566,0.0434452444315,0,0.140142700939,2.21287140574e-05,108,0.00261301547289,0.0138413961977,
1.54811476829,0.0433531627059,0,0.140669489596,2.04839667199e-05,109,0.00482058664784,0.0184160973877,
1.54814994434,0.0432380884886,0,0.141154469049,1.88580785403e-05,110,0.00703524705023,0.0230162851512,
1.54819623853,0.0430999323726,0,0.141597420678,1.72237028921e-05,111,0.00925898272544,0.0276306718588,
1.54825372162,0.0429385751486,0,0.141997669592,1.55631264815e-05,112,0.0114965625107,0.0322714298964,
1.54832243832,0.0427538789809,0,0.142355708848,1.39217000975e-05,113,0.0137432841584,0.0369387120008,
1.54840241286,0.0425457842648,0,0.142671584313,1.22817306933e-05,114,0.0159948654473,0.0416187830269,
1.54849366757,0.042314235121,0,0.142945350938,1.05738926998e-05,115,0.0182510521263,0.0463103204966,
1.54859621736,0.0420592017472,0,0.143176935869,8.94450305264e-06,116,0.0205099061131,0.0510067529976,
1.54871011625,0.0417805686593,0,0.14336618412,7.28074406371e-06,117,0.0227798521519,0.0557267293334,
1.54883533443,0.0414783582091,0,0.143513789218,5.67859891356e-06,118,0.0250436738133,0.0604424104095,
1.54897190916,0.041152510792,0,0.143619349685,4.06104197729e-06,119,0.0273150727153,0.0651694908738,
1.54911980691,0.0408030636609,0,0.143683467702,2.46667285906e-06,120,0.0295792836696,0.0698885396123,
1.54927905748,0.0404299944639,0,0.143705449674,8.45657718481e-07,121,0.0318500474095,0.0746147185564,
1.54944959755,0.0400333479047,0,0.143686810185,-7.1706350798e-07,122,0.0341078825295,0.0793292969465,
1.54963144573,0.0396130941808,0,0.143627348301,-2.2874879405e-06,123,0.0363697558641,0.0840504467487,
1.54982456478,0.0391693264246,0,0.143526972477,-3.85121938507e-06,124,0.0386237800121,0.0887541621923,
1.55002889323,0.0387021116912,0,0.143386804775,-5.37762201399e-06,125,0.0408656783402,0.0934425666928,
1.550244405,0.0382115356624,0,0.143206479799,-6.91820585534e-06,126,0.0431022904813,0.0981150195003,
1.55047105538,0.0376976467669,0,0.142986818393,-8.42728688177e-06,127,0.0453302823007,0.102777153254,
1.550708809,0.0371605157852,0,0.142727993452,-9.91617285468e-06,128,0.0475505180657,0.107426568866,
1.55095758016,0.0366002991796,0,0.142430643173,-1.13919518497e-05,129,0.0497542545199,0.11204380542,
1.55121735396,0.0360170230269,0,0.142094894743,-1.28627600299e-05,130,0.0519547015429,0.116655416787,
1.55148799072,0.0354109220207,0,0.141722088886,-1.42807048139e-05,131,0.0541278794408,0.121220089495,
1.55176945316,0.0347821004689,0,0.141311969387,-1.57099030489e-05,132,0.0562919862568,0.125763356686,
1.55206169473,0.0341306589544,0,0.140864654121,-1.71345774649e-05,133,0.0584485083818,0.130289494991,
1.55236461485,0.0334567576647,0,0.140381237319,-1.85172257254e-05,134,0.0605840235949,0.134780302644,
1.55267809244,0.0327606275678,0,0.139862475495,-1.98709220673e-05,135,0.0626955032349,0.139225542545,
1.553002053,0.0320424027741,0,0.139308951776,-2.12020564711e-05,136,0.0647922754288,0.143644809723,
1.55333640898,0.031302254647,0,0.138721148844,-2.25147453666e-05,137,0.0668713226914,0.148029729724,
1.55368102814,0.0305404644459,0,0.13809946715,-2.38121618676e-05,138,0.0689237192273,0.152358517051,
1.55403578753,0.0297572184354,0,0.137445383993,-2.50530137656e-05,139,0.0709518566728,0.156649172306,
1.55440060335,0.0289527066052,0,0.13675898038,-2.62907162299e-05,140,0.0729632377625,0.160902619362,
1.55477534334,0.0281271655113,0,0.136041313721,-2.74879317222e-05,141,0.0749479681253,0.165107667446,
1.55515991064,0.0272808168083,0,0.13529244666,-2.86827300941e-05,142,0.0769135206938,0.169270217419,
1.55555409851,0.0264140050858,0,0.134514403842,-2.979992459e-05,143,0.078837312758,0.173361957073,
1.55595788738,0.0255268607289,0,0.133705938272,-3.09624854798e-05,144,0.0807576850057,0.177428871393,
1.55637105188,0.0246197525412,0,0.132869357424,-3.20330129363e-05,145,0.0826330110431,0.181421518326,
1.55679349142,0.0236928854138,0,0.132005097957,-3.30917528875e-05,146,0.0844878256321,0.185373291373,
1.5572250039,0.0227466244251,0,0.131114723514,-3.40814769599e-05,147,0.0863025337458,0.189251929522,
1.55766550364,0.021781206131,0,0.13019769415,-3.51014578047e-05,148,0.0880999267101,0.193084105849,
1.55811484537,0.0207968633622,0,0.129255568927,-3.60617574471e-05,149,0.0898683220148,0.196868687868,
1.55857281207,0.0197940114886,0,0.128289683218,-3.69709460548e-05,150,0.0915934219956,0.20057015121,
1.55903929571,0.0187728982419,0,0.127300099289,-3.78776469933e-05,151,0.0932966843247,0.204222679138,
1.55951408955,0.0177339054644,0,0.126288293924,-3.8727894721e-05,152,0.0949587225914,0.207798331976,
1.55999703059,0.0166773535311,0,0.125255146116,-3.95212528308e-05,153,0.0965881943703,0.211310759187,
1.56048800337,0.0156034976244,0,0.124200864039,-4.03223158391e-05,154,0.0981944873929,0.214770972729,
1.56098679645,0.0145127484575,0,0.123126659706,-4.10839344327e-05,155,0.099758669734,0.218150019646,
1.56149324129,0.0134054217488,0,0.122033672122,-4.18018898618e-05,156,0.101289130747,0.221465170383,
1.56200715626,0.0122818844393,0,0.120922734503,-4.24880621175e-05,157,0.102782912552,0.224707603455,
1.56252839236,0.0111424233764,0,0.11979473938,-4.31400449939e-05,158,0.104247197509,0.227892115712,
1.56305672002,0.00998746138066,0,0.118651343585,-4.37286943302e-05,159,0.105665512383,0.230992436409,
1.56359198742,0.00881736632437,0,0.117492344358,-4.43248930282e-05,160,0.107053585351,0.23401927948,
1.56413399015,0.00763249211013,0,0.116319549086,-4.48293099992e-05,161,0.108400546014,0.236974775791,
1.5646825168,0.00643323687837,0,0.115134354419,-4.53028826714e-05,162,0.109705358744,0.239850983024,
1.56523741881,0.00521992426366,0,0.113937095996,-4.57635439025e-05,163,0.110980480909,0.242662653327,
1.56579852157,0.0039929212071,0,0.112728367246,-4.62015288615e-05,164,0.112220548093,0.245400637388,
1.56636557175,0.00275270361453,0,0.111509859071,-4.65748642568e-05,165,0.11341008544,0.248043552041,
1.56693843688,0.00149955763482,0,0.11028190702,-4.69344851458e-05,166,0.11457298696,0.25062918663,
1.56751689135,0.000233904880588,0,0.109046049713,-4.72338414733e-05,167,0.115690894425,0.253130555153,
1.56810071209,-0.00104379653931,0,0.107803201412,-4.71158190389e-05,168,0.116764120758,0.255544692278,
1.56868973869,-0.00233364105225,0,0.106560250317,-4.7117920011e-05,169,0.117805324495,0.257888138294,
1.56928377314,-0.00363445281982,0,0.105306701596,-4.75172347876e-05,170,0.118806883693,0.260157525539,
1.5698826263,-0.00494575500488,0,0.104042030228,-4.79384352431e-05,171,0.119770653546,0.262345075607,
1.57048607772,-0.00626802444458,0,0.102780805034,-4.78073858443e-05,172,0.12069028616,0.2644495368,
1.57109387318,-0.00760078430176,0,0.1015247339,-4.76116280415e-05,173,0.121564202011,0.266473978758,
1.57170613209,-0.00894260406494,0,0.100248690611,-4.83683025604e-05,174,0.122408717871,0.268427819014,
1.5723222057,-0.0102939605713,0,0.0989819340206,-4.80158412148e-05,175,0.123204894364,0.270287036896,
1.57294209401,-0.0116543769836,0,0.0977174522893,-4.79292275807e-05,176,0.123963780701,0.272073745728,
1.57356532017,-0.0130233764648,0,0.0964645887782,-4.7488342717e-05,177,0.124696150422,0.273800611496,
1.57419236104,-0.0144004821777,0,0.0951999766126,-4.79332772727e-05,178,0.125371858478,0.27542501688,
1.57482226292,-0.0157856941223,0,0.0939563232547,-4.71384699995e-05,179,0.12601916492,0.276983559132,
1.57545550267,-0.0171780586243,0,0.0927032528962,-4.74950312838e-05,180,0.126618117094,0.278456479311,
1.57609160344,-0.0185770988464,0,0.0914501089505,-4.69584455804e-05,181,0.127186000347,0.279856145382,
1.57673008839,-0.0199828147888,0,0.0902132434696,-4.63480362385e-05,182,0.127714127302,0.281179904938,
1.57737095753,-0.0213952064514,0,0.088992653435,-4.54827880218e-05,183,0.128203228116,0.282425761223,
1.57801421086,-0.0228133201599,0,0.0877743184018,-4.53326959557e-05,184,0.128648072481,0.283593893051,
1.57865937153,-0.0242366790771,0,0.0865675813552,-4.48223152096e-05,185,0.129065766931,0.284694492817,
1.57930691639,-0.0256652832031,0,0.0853560852015,-4.48273035618e-05,186,0.129438206553,0.285705268383,
1.57995589177,-0.0270986557007,0,0.0841655269608,-4.40521677218e-05,187,0.129786387086,0.286662936211,
1.58060629765,-0.0285358428955,0,0.0829818867985,-4.37958601541e-05,188,0.13008095324,0.287524610758,
1.58125765721,-0.0299777984619,0,0.0818355319625,-4.24158237949e-05,189,0.130347594619,0.288329780102,
1.58191092412,-0.0314230918884,0,0.0806727272679,-4.30241429039e-05,190,0.130573123693,0.289050608873,
1.58256466786,-0.032871723175,0,0.0795425305918,-4.18173076699e-05,191,0.130777865648,0.289722800255,
1.58321936528,-0.0343232154846,0,0.0784215772238,-4.14749237238e-05,192,0.130933970213,0.290299296379,
1.58387453953,-0.03577709198,0,0.0773192094414,-4.07868472582e-05,193,0.131061941385,0.290823698044,
1.58453019063,-0.0372333526611,0,0.0762354240044,-4.00989865409e-05,194,0.131149113178,0.291265577078,
1.58518631856,-0.0386915206909,0,0.0751632101495,-3.96702776491e-05,195,0.131204083562,0.291645020247,
1.58584244648,-0.0401515960693,0,0.0741189171277,-3.86369009383e-05,196,0.131237283349,0.291973143816,
1.58649857441,-0.0416126251221,0,0.0730885268615,-3.81193927082e-05,197,0.131233096123,0.292220711708,
1.58715470234,-0.0430746078491,0,0.0720720363602,-3.75859812654e-05,198,0.131195798516,0.292409479618,
1.58781035344,-0.0445375442505,0,0.0710857940845,-3.63896235102e-05,199,0.13113720715,0.292551398277,
1.58846552769,-0.0460004806519,0,0.0701157827526,-3.57901246072e-05,200,0.131036311388,0.292622506618,
1.58912022511,-0.0474638938904,0,0.069169005869,-3.48552062019e-05,201,0.130910620093,0.29263240099,
1.58977396885,-0.0489268302917,0,0.068247797816,-3.3872907525e-05,202,0.130750834942,0.292579174042,
1.59042675892,-0.050389289856,0,0.0673521550971,-3.29325793162e-05,203,0.130565911531,0.292478203773,
1.59107859532,-0.0518507957458,0,0.0664750681274,-3.22236337382e-05,204,0.130355879664,0.292316854,
1.5917290012,-0.0533113479614,0,0.0656328835991,-3.08808148442e-05,205,0.130123406649,0.292109787464,
1.59237845341,-0.0547704696655,0,0.0648022422955,-3.04572903092e-05,206,0.129863083363,0.291852682829,
1.59302647511,-0.0562281608582,0,0.0639994907246,-2.94344132928e-05,207,0.129573583603,0.29153162241,
1.59367258946,-0.0576839447021,0,0.0632339687895,-2.80691088105e-05,208,0.129274144769,0.291179895401,
1.5943172733,-0.0591378211975,0,0.0624893238596,-2.73034164674e-05,209,0.128941178322,0.290772914886,
1.59496004979,-0.0605893135071,0,0.0617748960224,-2.61952554718e-05,210,0.128583759069,0.290323495865,
1.59560139576,-0.0620384216309,0,0.061074333824,-2.56866689974e-05,211,0.128208771348,0.289826691151,
1.59624035756,-0.0634851455688,0,0.0604203294578,-2.39793744354e-05,212,0.127810806036,0.289286017418,
1.596877412,-0.0649285316467,0,0.0597825225601,-2.33853136368e-05,213,0.127398088574,0.288713425398,
1.59751208226,-0.0663690567017,0,0.0591842612763,-2.19351809913e-05,214,0.126965805888,0.288108468056,
1.59814484517,-0.0678062438965,0,0.0586021911911,-2.13413695963e-05,215,0.126514524221,0.287456572056,
1.59877474705,-0.0692405700684,0,0.0580760050581,-1.92922598662e-05,216,0.12604098022,0.286775439978,
1.59940274159,-0.0706706047058,0,0.0575519963008,-1.9212250722e-05,217,0.125559926033,0.28606903553,
1.6000278751,-0.0720973014832,0,0.0570768600154,-1.74202555298e-05,218,0.125063493848,0.285316824913,
1.60065062443,-0.0735201835632,0,0.0566272436062,-1.64844121438e-05,219,0.124549917877,0.284541338682,
1.60127098958,-0.0749387741089,0,0.056196141308,-1.58055049151e-05,220,0.124023362994,0.283747136593,
1.6018884937,-0.0763535499573,0,0.0558068968103,-1.42707395563e-05,221,0.123488374054,0.282924950123,
1.60250313679,-0.0777635574341,0,0.0554455014445,-1.32496165271e-05,222,0.122940450907,0.282074332237,
1.60311491887,-0.0791697502136,0,0.0551259558078,-1.17152064014e-05,223,0.12238817662,0.281213194132,
1.60372431675,-0.0805711746216,0,0.054817909683,-1.12914178492e-05,224,0.121821023524,0.280327618122,
1.60433037678,-0.0819683074951,0,0.0545610467209,-9.41520994502e-06,225,0.121243536472,0.279423713684,
1.60493357579,-0.0833611488342,0,0.0543390200801,-8.1382297776e-06,226,0.120659582317,0.278510600328,
1.60553391377,-0.0847492218018,0,0.0541448250874,-7.1180218984e-06,227,0.120077610016,0.277583062649,
1.60613139073,-0.0861320495605,0,0.0539714581488,-6.3545402468e-06,228,0.119483426213,0.276645123959,
1.60672600667,-0.0875105857849,0,0.0538329173378,-5.07798898317e-06,229,0.11888705194,0.275693356991,
1.60731728474,-0.0888843536377,0,0.0537385384431,-3.45927815802e-06,230,0.118285499513,0.274741113186,
1.60790570179,-0.0902533531189,0,0.0536719776578,-2.43963935647e-06,231,0.117685548961,0.273782759905,
1.60849125783,-0.0916175842285,0,0.0536332318094,-1.42013280226e-06,232,0.117080941796,0.272813081741,
1.609073476,-0.0929765701294,0,0.0536316368832,-5.84576054754e-08,233,0.116479486227,0.271844446659,
1.60965283314,-0.0943312644958,0,0.0536648488424,1.21728298809e-06,234,0.115875810385,0.270887702703,
1.61022932927,-0.0956807136536,0,0.0537188667483,1.97984634734e-06,235,0.11527851969,0.269933193922,
1.61080248753,-0.0970253944397,0,0.0538170230775,3.59756605342e-06,236,0.114679448307,0.268975406885,
1.61137326161,-0.0983657836914,0,0.0539336386294,4.27409009971e-06,237,0.114086680114,0.268023908138,
1.61194069783,-0.0997014045715,0,0.054094384536,5.89147205202e-06,238,0.113498829305,0.267094910145,
1.61250527302,-0.10103225708,0,0.0542829209354,6.90996499967e-06,239,0.112917616963,0.266171693802,
1.6130669872,-0.102358341217,0,0.0544992446123,7.9283117682e-06,240,0.112341508269,0.265254616737,
1.61362584034,-0.10368013382,0,0.0547503488871,9.20295672487e-06,241,0.111776329577,0.26435059309,
1.61418183247,-0.104997158051,0,0.0550292333646,1.02210158809e-05,242,0.111212290823,0.263467371464,
1.61473496357,-0.106310367584,0,0.0553498865831,1.17517344173e-05,243,0.110661379993,0.262612730265,
1.61528571049,-0.107619285583,0,0.0556889754862,1.24272941963e-05,244,0.110120341182,0.26176315546,
1.61583359639,-0.108923912048,0,0.0560628292756,1.37012892082e-05,245,0.109593391418,0.260945379734,
1.6163790981,-0.110224723816,0,0.0564621074191,1.46329479666e-05,246,0.109077371657,0.260139673948,
1.61692173878,-0.111521720886,0,0.0569031369609,1.61629495068e-05,247,0.108570531011,0.259374856949,
1.61746247212,-0.112814903259,0,0.0573532525899,1.64958125639e-05,248,0.108087465167,0.258630752563,
1.61800034443,-0.114104270935,0,0.0578451113477,1.80254793647e-05,249,0.107608303428,0.257917493582,
1.6185363094,-0.115390300751,0,0.0583530437186,1.86143998632e-05,250,0.107150740921,0.257232278585,
1.61906989018,-0.116673469543,0,0.0589003682081,2.00578783222e-05,251,0.106710359454,0.256578624249,
1.61960108677,-0.117953300476,0,0.0594800863406,2.12448655895e-05,252,0.106282643974,0.255960732698,
1.62013037602,-0.119230270386,0,0.0600828588104,2.20895739849e-05,253,0.105871200562,0.255378544331,
1.62065775792,-0.120504379272,0,0.0607086816637,2.29341258687e-05,254,0.105483002961,0.254835963249,
1.6211837093,-0.121776103973,0,0.0613482167923,2.34364555644e-05,255,0.105116017163,0.254334241152,
1.6217072765,-0.123045444489,0,0.062034111324,2.51351494055e-05,256,0.104767873883,0.253864228725,
1.62222941319,-0.124312400818,0,0.0627337091738,2.56371170761e-05,257,0.104442171752,0.253449469805,
1.62275011937,-0.125577926636,0,0.0634609881277,2.66512858654e-05,258,0.104130551219,0.253066748381,
1.62326939503,-0.126841545105,0,0.0642089524972,2.74090936627e-05,259,0.103847168386,0.252735882998,
1.62378724019,-0.128103733063,0,0.0649845875969,2.8422847916e-05,260,0.103590607643,0.252450048923,
1.62430413167,-0.129364967346,0,0.0657785551712,2.9094409115e-05,261,0.103351384401,0.252214789391,
1.62482006947,-0.130624771118,0,0.0665838613842,2.95096820955e-05,262,0.103136949241,0.2520147264,
1.62533457676,-0.131884098053,0,0.0674308002902,3.10342537533e-05,263,0.102952323854,0.251872509718,
1.62584860722,-0.133142948151,0,0.0682867237546,3.13632214373e-05,264,0.102787286043,0.251787424088,
1.626361684,-0.134401798248,0,0.0691749346448,3.25460514913e-05,265,0.102654390037,0.25175011158,
1.62687476079,-0.135660648346,0,0.070062788201,3.25327081693e-05,266,0.102542892098,0.251765459776,
1.62738688389,-0.136919975281,0,0.0709899037916,3.39710820998e-05,267,0.102464810014,0.251840531826,
1.627899007,-0.138179779053,0,0.0719236380393,3.42119046637e-05,268,0.102407455444,0.251971304417,
1.62841065327,-0.139440536499,0,0.0728872887884,3.53077388648e-05,269,0.102385565639,0.252155661583,
1.62892277638,-0.140702724457,0,0.0738552017633,3.54636276528e-05,270,0.102385595441,0.252391159534,
1.62943489949,-0.141965866089,0,0.0748367015949,3.59611590314e-05,271,0.102417424321,0.252702534199,
1.6299470226,-0.143231391907,0,0.0758527363213,3.72261897608e-05,272,0.102481678128,0.25306135416,
1.63046009938,-0.144498825073,0,0.0768636840339,3.70395226623e-05,273,0.102573536336,0.253495275974,
1.630973653,-0.145768642426,0,0.0778928369041,3.77062418908e-05,274,0.102694123983,0.253979593515,
1.63148768345,-0.147041320801,0,0.0789471700847,3.8628509173e-05,275,0.102850042284,0.254520386457,
1.63200314442,-0.148316860199,0,0.0799940509879,3.83551876326e-05,276,0.103037334979,0.255131810904,
1.63251908223,-0.149596214294,0,0.0810800606173,3.9788472281e-05,277,0.103248089552,0.255805015564,
1.63303692738,-0.15087890625,0,0.0821492745271,3.91728289049e-05,278,0.103497251868,0.256537735462,
1.63355572621,-0.152165412903,0,0.0832412879745,4.00078367598e-05,279,0.103776089847,0.257351338863,
1.63407595555,-0.153456687927,0,0.0843537439942,4.07564805449e-05,280,0.104086957872,0.258219569921,
1.63459809224,-0.154752254486,0,0.0854633431455,4.06514474198e-05,281,0.104436591268,0.259146779776,
1.63512213627,-0.156053066254,0,0.0865840378804,4.10576381772e-05,282,0.104813717306,0.2601557374,
1.6356485645,-0.15735912323,0,0.0876995115893,4.08660494834e-05,283,0.10522313416,0.261221289635,
1.63617690007,-0.158670902252,0,0.088833039997,4.1527174116e-05,284,0.105672448874,0.262362062931,
1.63670761982,-0.159988880157,0,0.0899752848642,4.18461654319e-05,285,0.106148630381,0.263562500477,
1.63724072377,-0.161313056946,0,0.0911262344646,4.21647173699e-05,286,0.106656901538,0.264835894108,
1.63777668873,-0.162643909454,0,0.0922765518534,4.21412124936e-05,287,0.107199147344,0.266173243523,
1.63831551472,-0.16398191452,0,0.0934332029022,4.2372893943e-05,288,0.107779540122,0.267581135035,
1.63885767857,-0.165327072144,0,0.0945798740405,4.20069543817e-05,289,0.108389355242,0.269059091806,
1.63940270344,-0.166680335999,0,0.0957468064441,4.27488525075e-05,290,0.109039843082,0.27060765028,
1.63995154301,-0.168041229248,0,0.0968944104574,4.20404481396e-05,291,0.10971108079,0.272219777107,
1.64050372044,-0.169410705566,0,0.0980529239187,4.24397634118e-05,292,0.110427848995,0.273897737265,
1.64105923573,-0.170788764954,0,0.0992223309111,4.28385067916e-05,293,0.111166715622,0.27564561367,
1.64161904255,-0.172176361084,0,0.100383970095,4.25536218725e-05,294,0.111949436367,0.277473419905,
1.64218314091,-0.17357301712,0,0.101530854326,4.20127907827e-05,295,0.112762145698,0.279349654913,
1.64275105397,-0.174979686737,0,0.102693209843,4.25791871193e-05,296,0.113607831299,0.281307846308,
1.64332325856,-0.176396369934,0,0.103854724067,4.25477191978e-05,297,0.11448289454,0.283328056335,
1.64390023152,-0.177823543549,0,0.105006059227,4.21744951835e-05,298,0.115396626294,0.2854180336,
1.64448197285,-0.179261207581,0,0.106147199527,4.18007419876e-05,299,0.116339847445,0.287578463554,
1.64506848256,-0.180710315704,0,0.107292068615,4.19370311515e-05,300,0.117313206196,0.289801299572,
1.64566023747,-0.18217086792,0,0.10842435732,4.14747452681e-05,301,0.118325740099,0.292088001966,
1.64625723759,-0.183642864227,0,0.109544048369,4.10129694128e-05,302,0.11936250329,0.294441878796,
1.64685900609,-0.185127258301,0,0.110681346794,4.16575656891e-05,303,0.120432943106,0.296857655048,
1.64746697346,-0.18662405014,0,0.111787370195,4.05116954168e-05,304,0.121540270746,0.299338102341,
1.64808018605,-0.188133239746,0,0.112894672248,4.0558194746e-05,305,0.122679799795,0.301891744137,
1.64869959752,-0.189655780792,0,0.11398459503,3.99213320439e-05,306,0.123842515051,0.304513961077,
1.64932473103,-0.191191673279,0,0.115073400557,3.98800653733e-05,307,0.125038295984,0.307180404663,
1.64995606343,-0.192741394043,0,0.116151747946,3.94966594666e-05,308,0.126264512539,0.309915870428,
1.65059359471,-0.194304943085,0,0.117219614046,3.91124454565e-05,309,0.127520024776,0.312724232674,
1.65123780171,-0.195882797241,0,0.118267659528,3.83861755848e-05,310,0.12881039083,0.315581262112,
1.65188820759,-0.19747543335,0,0.119319101404,3.85102717782e-05,311,0.130125239491,0.318501383066,
1.65254576603,-0.19908285141,0,0.120341358498,3.74410053281e-05,312,0.131465479732,0.321480572224,
1.6532100002,-0.200705528259,0,0.121357644413,3.72219987627e-05,313,0.132842406631,0.324517190456,
1.65388091008,-0.202343463898,0,0.122367930757,3.70018898462e-05,314,0.134238690138,0.32761785388,
1.65455944935,-0.203997135162,0,0.123346603238,3.58437382408e-05,315,0.135663971305,0.330767095089,
1.65524514119,-0.20566701889,0,0.124316866992,3.55354842884e-05,316,0.137112766504,0.33396962285,
1.65593798558,-0.207353115082,0,0.125278691272,3.52261174673e-05,317,0.13859000802,0.337228059769,
1.65663845936,-0.209055900574,0,0.126222733175,3.45745648749e-05,318,0.140099808574,0.340541005135,
1.65734656254,-0.210775375366,0,0.127148962534,3.39219288801e-05,319,0.141625449061,0.343903660774,
1.65806229512,-0.212512016296,0,0.128064303274,3.35228860812e-05,320,0.143177315593,0.347319990396,
1.65878613392,-0.214265823364,0,0.128952457938,3.25269079942e-05,321,0.144757241011,0.35078316927,
1.65951807896,-0.216037750244,0,0.129827302119,3.20390309599e-05,322,0.146361589432,0.354305326939,
1.66025813023,-0.217826843262,0,0.130674896111,3.10408089641e-05,323,0.147979095578,0.357862204313,
1.66100628773,-0.219634056091,0,0.131509110705,3.05505308988e-05,324,0.149627760053,0.361471652985,
1.66176255147,-0.22145986557,0,0.132336858548,3.03134654204e-05,325,0.151293933392,0.365131258965,
1.66252739827,-0.223304271698,0,0.133141843099,2.94796046057e-05,326,0.152978494763,0.368833661079,
1.66330082814,-0.225166797638,0,0.133917079761,2.83899248209e-05,327,0.154684886336,0.372573077679,
1.66408284108,-0.227048873901,0,0.134683374983,2.80622612152e-05,328,0.156411528587,0.376351237297,
1.66487391392,-0.228949546814,0,0.135410542417,2.66275947226e-05,329,0.15815512836,0.380175471306,
1.665673093,-0.23086977005,0,0.136144935859,2.68919272547e-05,330,0.159925982356,0.384036302567,
1.66648180882,-0.23280954361,0,0.136837763394,2.53696706736e-05,331,0.161702051759,0.387936979532,
1.66729910771,-0.234768867493,0,0.137521479688,2.50358421904e-05,332,0.163497641683,0.391863554716,
1.66812594334,-0.236747741699,0,0.138163550925,2.35106738511e-05,333,0.16531778872,0.395832359791,
1.66896183888,-0.238747119904,0,0.13879406241,2.30872184985e-05,334,0.16714797914,0.399836778641,
1.66980679432,-0.240766525269,0,0.139406024932,2.24078326888e-05,335,0.168995559216,0.403873980045,
1.67066080967,-0.242805957794,0,0.139999391063,2.17267401829e-05,336,0.170843601227,0.407936692238,
1.67152436177,-0.244866371155,0,0.140571750721,2.09573692691e-05,337,0.172716513276,0.412033736706,
1.6723974506,-0.246946811676,0,0.141109182405,1.96776153075e-05,338,0.174600884318,0.416147202253,
1.67328007618,-0.249048709869,0,0.141632445439,1.91586784306e-05,339,0.176499888301,0.420300036669,
1.67417176167,-0.251170635223,0,0.142136913996,1.8470384227e-05,340,0.178402334452,0.424463272095,
1.67507346074,-0.25331401825,0,0.142610877691,1.73533549294e-05,341,0.180322140455,0.428663313389,
1.67598469655,-0.255478382111,0,0.143063579693,1.65747468885e-05,342,0.182248532772,0.432874888182,
1.6769054691,-0.257664203644,0,0.143501894425,1.60478666942e-05,343,0.184178814292,0.437114715576,
1.67783625523,-0.259871006012,0,0.143902614013,1.46712719024e-05,344,0.186122640967,0.44136506319,
1.67877657811,-0.262099266052,0,0.14428883314,1.41402626409e-05,345,0.18806938827,0.445636928082,
1.67972691456,-0.264348983765,0,0.144644274409,1.30133065276e-05,346,0.190025374293,0.44992595911,
1.68068678776,-0.266620159149,0,0.144985095382,1.24779368384e-05,347,0.191988408566,0.454234719276,
1.68165667454,-0.268912792206,0,0.14529502139,1.13467056261e-05,348,0.193958178163,0.45853894949,
1.68263609807,-0.271226882935,0,0.145590203151,1.08068194909e-05,349,0.195922195911,0.462863385677,
1.68362553517,-0.273562908173,0,0.145861288001,9.92453386383e-06,350,0.19789929688,0.467194795609,
1.68462498585,-0.275920391083,0,0.146101294226,8.78666367934e-06,351,0.199874415994,0.471537768841,
1.68563445012,-0.278300285339,0,0.146323993465,8.15298137514e-06,352,0.201855018735,0.475891590118,
1.68665345112,-0.280701160431,0,0.146524769178,7.35029877617e-06,353,0.203837782145,0.480248421431,
1.68768246571,-0.283124446869,0,0.146708099008,6.71154944671e-06,354,0.205817207694,0.484598636627,
1.68872149388,-0.285569190979,0,0.146860087121,5.56411105667e-06,355,0.207800120115,0.488963454962,
1.68977053563,-0.288035869598,0,0.146987578435,4.66727476662e-06,356,0.209775164723,0.493327081203,
1.69082911412,-0.29052400589,0,0.147099781005,4.10753943737e-06,357,0.211755365133,0.497685164213,
1.69189770619,-0.293034553528,0,0.147194247971,3.45824277388e-06,358,0.21373064816,0.502047717571,
1.69297631184,-0.295566558838,0,0.147257092187,2.30057813802e-06,359,0.215706169605,0.506398558617,
1.69406493107,-0.29812002182,0,0.147288244648,1.14040897389e-06,360,0.217676058412,0.510752737522,
1.69516308705,-0.300695419312,0,0.147310710797,8.22418340162e-07,361,0.219638839364,0.515101671219,
1.69627077977,-0.303292751312,0,0.147324404692,5.01288350404e-07,362,0.221600368619,0.519433736801,
1.69738848607,-0.305911540985,0,0.147306173418,-6.67379878469e-07,363,0.223553940654,0.523765921593,
1.69851620595,-0.308552265167,0,0.147262838568,-1.58631631797e-06,364,0.225504085422,0.528081178665,
1.69965346257,-0.311213970184,0,0.14719669492,-2.42123260081e-06,365,0.227449059486,0.532395839691,
1.70080025593,-0.313897609711,0,0.147121445127,-2.75454580807e-06,366,0.229374870658,0.536689937115,
1.70195706288,-0.316602230072,0,0.147007062308,-4.18698294973e-06,367,0.231304302812,0.540976762772,
1.70312292973,-0.319328784943,0,0.146899552009,-3.93538272173e-06,368,0.233224287629,0.545238018036,
1.70429881016,-0.322075843811,0,0.146745855715,-5.6259558465e-06,369,0.235125869513,0.549488723278,
1.7054837505,-0.324844837189,0,0.146598843573,-5.3812451517e-06,370,0.237021610141,0.553721189499,
1.70667822758,-0.327634334564,0,0.146421621619,-6.48699215882e-06,371,0.23891633749,0.557939171791,
1.70788224141,-0.330444812775,0,0.146220987187,-7.34391960572e-06,372,0.240788951516,0.562132179737,
1.70909531514,-0.333276748657,0,0.146019861212,-7.36184378773e-06,373,0.242655649781,0.566306650639,
1.71031792561,-0.3361287117,0,0.145781382018,-8.72901609613e-06,374,0.244505465031,0.570459008217,
1.71154959599,-0.339001655579,0,0.145535341212,-9.00572166331e-06,375,0.2463427037,0.574588000774,
1.71279080311,-0.341895103455,0,0.145258641942,-1.01278022235e-05,376,0.24816763401,0.57869809866,
1.7140405933,-0.344809055328,0,0.14498343212,-1.00729151046e-05,377,0.249980285764,0.582773387432,
1.7152994434,-0.3477435112,0,0.144693484608,-1.06122286828e-05,378,0.251773774624,0.586825728416,
1.71656735341,-0.350697517395,0,0.144374970834,-1.16576631249e-05,379,0.253550618887,0.590845286846,
1.71784384648,-0.353671550751,0,0.144050766889,-1.18657671494e-05,380,0.25532284379,0.594846189022,
1.71912892262,-0.356666088104,0,0.143727619583,-1.18269978243e-05,381,0.257069736719,0.598821520805,
1.72042305867,-0.359679698944,0,0.143368745189,-1.3134461017e-05,382,0.258812457323,0.602765262127,
1.72172577778,-0.362712860107,0,0.142997002811,-1.36053111423e-05,383,0.260534703732,0.606680035591,
1.72303707997,-0.365766048431,0,0.14261913434,-1.38294027777e-05,384,0.262232929468,0.610556006432,
1.72435648839,-0.368837833405,0,0.142230562533,-1.42210192562e-05,385,0.263914972544,0.614400625229,
1.72568447987,-0.371929168701,0,0.141828788819,-1.47040740894e-05,386,0.265581220388,0.618210434914,
1.72702057759,-0.375039100647,0,0.141416089687,-1.51038048479e-05,387,0.267230451107,0.621996760368,
1.72836478154,-0.378167629242,0,0.140992352459,-1.55076585935e-05,388,0.268865823746,0.625739872456,
1.72971756856,-0.381314754486,0,0.14054139774,-1.65035819747e-05,389,0.270481795073,0.629459023476,
1.73107798497,-0.384480476379,0,0.140095244692,-1.6327726311e-05,390,0.272074013948,0.633136630058,
1.73244603077,-0.387664318085,0,0.13964693009,-1.64066948855e-05,391,0.27364641428,0.636778831482,
1.73382218281,-0.390866279602,0,0.139180278095,-1.70764374813e-05,392,0.27520570159,0.640380501747,
1.73520596425,-0.394086360931,0,0.138711221969,-1.71642607739e-05,393,0.276743739843,0.643956184387,
1.73659689824,-0.397323608398,0,0.138242028197,-1.71691251981e-05,394,0.278252601624,0.647475302219,
1.73799593846,-0.40057849884,0,0.137747317693,-1.81027103076e-05,395,0.279748260975,0.650975167751,
1.7394016544,-0.40385055542,0,0.137268255994,-1.75299264329e-05,396,0.281222730875,0.654430747032,
1.74081547658,-0.407139778137,0,0.136756621707,-1.87090158774e-05,397,0.282684445381,0.657857894897,
1.74223597447,-0.410445690155,0,0.13625356088,-1.83706935755e-05,398,0.284118175507,0.66122674942,
1.74366362492,-0.413768768311,0,0.135749724807,-1.8398837194e-05,399,0.285531789064,0.664574801922,
1.74509795109,-0.417108058929,0,0.135247376875,-1.8344348456e-05,400,0.286929756403,0.667877793312,
1.74653942982,-0.420464038849,0,0.134737178696,-1.86308692901e-05,401,0.288299232721,0.671138107777,
1.74798806111,-0.423835754395,0,0.134205404443,-1.94185816171e-05,402,0.289649248123,0.674362778664,
1.74944289128,-0.427223682404,0,0.133690717995,-1.87944518529e-05,403,0.290985733271,0.677553772926,
1.75090439717,-0.430626869202,0,0.133163393507,-1.92557172949e-05,404,0.292294055223,0.680685758591,
1.75237210194,-0.434045791626,0,0.132646074709,-1.88901935531e-05,405,0.293579638004,0.683799922466,
1.75384648243,-0.437480449677,0,0.132122635079,-1.91135437191e-05,406,0.294853627682,0.686861395836,
1.75532706181,-0.440929889679,0,0.131595344716,-1.92539991553e-05,407,0.296103477478,0.68988776207,
1.75681384007,-0.444394111633,0,0.131064067954,-1.93993655468e-05,408,0.297325968742,0.692879319191,
1.75830634038,-0.44787311554,0,0.130544622931,-1.89671789726e-05,409,0.298533678055,0.695822715759,
1.75980503956,-0.451366901398,0,0.130020902763,-1.91230903642e-05,410,0.299727082253,0.698728382587,
1.7613094608,-0.454874992371,0,0.129501943503,-1.8949101646e-05,411,0.300879567862,0.701587915421,
1.76281960408,-0.458396911621,0,0.128980832267,-1.9027494599e-05,412,0.30202755332,0.70442545414,
1.7643354694,-0.461933135986,0,0.128464186351,-1.88642951555e-05,413,0.303157389164,0.707217931747,
1.76585657994,-0.465482711792,0,0.127954265509,-1.86185776606e-05,414,0.304256230593,0.709957957268,
1.76738341252,-0.469046115875,0,0.127441750737,-1.87131358751e-05,415,0.305331736803,0.712676763535,
1.76891501347,-0.472622871399,0,0.126951569035,-1.78975200328e-05,416,0.306403338909,0.715355157852,
1.77045233647,-0.476212978363,0,0.126451736499,-1.82497455027e-05,417,0.307444065809,0.717989981174,
1.77199490468,-0.47981595993,0,0.125951272345,-1.8272550194e-05,418,0.308469951153,0.720598220825,
1.77354224125,-0.483431816101,0,0.125465917931,-1.77207096247e-05,419,0.309466481209,0.723156690598,
1.7750943462,-0.487060070038,0,0.124988771114,-1.74209120206e-05,420,0.310448020697,0.725676834583,
1.77665121953,-0.490700721741,0,0.12451967106,-1.71269993545e-05,421,0.311410903931,0.728173315525,
1.77821333806,-0.49435377121,0,0.124042586462,-1.74178315675e-05,422,0.312361449003,0.730628967285,
1.77977974812,-0.498019218445,0,0.12358909718,-1.65562512517e-05,423,0.313292056322,0.733042001724,
1.78135092656,-0.501696586609,0,0.123136446498,-1.65255077228e-05,424,0.314204514027,0.735437512398,
1.78292591969,-0.505385398865,0,0.12270946215,-1.55883037903e-05,425,0.315088808537,0.737787485123,
1.78450615803,-0.509085655212,0,0.122260437273,-1.63928344647e-05,426,0.315968692303,0.740104079247,
1.78609021107,-0.512797832489,0,0.121843445369,-1.52232726564e-05,427,0.316822618246,0.742387652397,
1.78767855565,-0.51652097702,0,0.121429061842,-1.51279357742e-05,428,0.317660361528,0.744637668133,
1.78927071492,-0.520255565643,0,0.121039637101,-1.42166524255e-05,429,0.318482846022,0.746870219707,
1.79086716572,-0.524000644684,0,0.1206457886,-1.43780424661e-05,430,0.319291144609,0.749059915543,
1.79246743123,-0.527756690979,0,0.120269852185,-1.37240323352e-05,431,0.320075422525,0.751208782196,
1.79407198826,-0.531523704529,0,0.119895847044,-1.36533987519e-05,432,0.320853948593,0.753365755081,
1.79567988316,-0.535300731659,0,0.119541828657,-1.29236609383e-05,433,0.321614027023,0.755461990833,
1.79729159276,-0.539088726044,0,0.119205171791,-1.22897690435e-05,434,0.322357088327,0.757534503937,
1.79890711705,-0.542886257172,0,0.118865687402,-1.23928198103e-05,435,0.323083072901,0.759580433369,
1.8005259792,-0.546694278717,0,0.118552303975,-1.14399223512e-05,436,0.323798090219,0.761606752872,
1.80214865605,-0.550512313843,0,0.11824240545,-1.13125237087e-05,437,0.32449889183,0.763613760471,
1.80377467076,-0.554340362549,0,0.117951565277,-1.06167308772e-05,438,0.325187027454,0.765581011772,
1.80540402333,-0.558177947998,0,0.11767294006,-1.01707497681e-05,439,0.325864434242,0.76752448082,
1.80703671376,-0.562025547028,0,0.117412985726,-9.48912218881e-06,440,0.326515108347,0.769447267056,
1.80867226521,-0.565882205963,0,0.1171739476,-8.72554098267e-06,441,0.327177107334,0.771359682083,
1.81031163136,-0.569748401642,0,0.116930836958,-8.87412710491e-06,442,0.327814131975,0.773239135742,
1.81195385853,-0.573623657227,0,0.116708266195,-8.1242941834e-06,443,0.328441053629,0.775110960007,
1.81359894673,-0.577508449554,0,0.116512652542,-7.14024883041e-06,444,0.329054772854,0.776946485043,
1.81524737278,-0.581402301788,0,0.116321476251,-6.9354131152e-06,445,0.329659938812,0.778779149055,
1.81689865986,-0.585305213928,0,0.116150231223,-6.21229835429e-06,446,0.330247342587,0.780576229095,
1.81855280797,-0.589217185974,0,0.115998708063,-5.49679264421e-06,447,0.330833226442,0.782367408276,
1.82020981709,-0.593137741089,0,0.115860095794,-5.02620588437e-06,448,0.331409394741,0.784138143063,
1.82186968724,-0.59706735611,0,0.115740791089,-4.30453316606e-06,449,0.331981807947,0.78589618206,
1.82353241841,-0.601005554199,0,0.115633989722,-3.85337195355e-06,450,0.332548439503,0.787647664547,
1.82519753377,-0.604952335358,0,0.115555118875,-2.84562033265e-06,451,0.333097845316,0.789383888245,
1.82686598698,-0.608908176422,0,0.115479286888,-2.73300103469e-06,452,0.333640664816,0.791102945805,
1.82853682438,-0.612872123718,0,0.115424375107,-1.97726794925e-06,453,0.334174960852,0.792805790901,
1.83021052281,-0.616844654083,0,0.115381131329,-1.55711211804e-06,454,0.334710776806,0.794514894485,
1.83188660542,-0.620825767517,0,0.115364936784,-5.83124227988e-07,455,0.335235208273,0.796211957932,
1.83356554905,-0.624814987183,0,0.115353415973,-4.1483200753e-07,456,0.335749864578,0.797888755798,
1.83524687687,-0.628812789917,0,0.115368493134,5.42868715903e-07,457,0.336277782917,0.799560070038,
1.83693058888,-0.63281917572,0,0.115409923838,1.49173598969e-06,458,0.336791574955,0.801231324673,
1.83861716191,-0.636833667755,0,0.115455373141,1.63641465662e-06,459,0.3373016119,0.802895069122,
1.84030611912,-0.640856266022,0,0.115520180278,2.33136509449e-06,460,0.337797731161,0.804554998875,
1.84199793736,-0.644887447357,0,0.115595107525,2.68986181279e-06,461,0.338302671909,0.80621612072,
1.84369166295,-0.648926734924,0,0.11570445227,3.92540376272e-06,462,0.338802069426,0.807860195637,
1.84538824955,-0.65297460556,0,0.115823440574,4.27146336591e-06,463,0.339300453663,0.809526979923,
1.84708722035,-0.657030105591,0,0.115954329546,4.69862160615e-06,464,0.339797079563,0.811172366142,
1.84878857533,-0.661094665527,0,0.116116399973,5.81791799534e-06,465,0.340292721987,0.812828421593,
1.85049279133,-0.665166854858,0,0.116274407176,5.67201414022e-06,466,0.340778052807,0.814471960068,
1.85219891469,-0.669247627258,0,0.116472068045,7.09539799896e-06,467,0.341272473335,0.816139578819,
1.85390789906,-0.67333650589,0,0.11667168759,7.16564277914e-06,468,0.341765373945,0.817789614201,
1.85561926762,-0.67743396759,0,0.116894969523,8.01497063218e-06,469,0.342267513275,0.819462716579,
1.85733302037,-0.681539535522,0,0.117135172178,8.62176581526e-06,470,0.342765927315,0.821128487587,
1.8590491573,-0.685653686523,0,0.117398503835,9.45186778935e-06,471,0.343253523111,0.822801828384,
1.86076815526,-0.689775943756,0,0.117662818433,9.48703703413e-06,472,0.34375551343,0.824481904507,
1.8624895374,-0.693906784058,0,0.117949741504,1.02984433242e-05,473,0.344253391027,0.826174855232,
1.86421330372,-0.698046207428,0,0.118258991597,1.10997256683e-05,474,0.344753831625,0.827872633934,
1.86593945424,-0.702194213867,0,0.118590284707,1.1890817807e-05,475,0.345257401466,0.829583287239,
1.86766798893,-0.706350326538,0,0.118936904248,1.24404173713e-05,476,0.345772653818,0.831297039986,
1.86939986149,-0.710515499115,0,0.119280716644,1.23387511049e-05,477,0.346288621426,0.833020091057,
1.8711336414,-0.714689254761,0,0.119661095253,1.36509134685e-05,478,0.346799582243,0.834761500359,
1.87287028233,-0.718872070313,0,0.120053455983,1.40807660255e-05,479,0.347326129675,0.836503088474,
1.87460930745,-0.723062992096,0,0.120460032258,1.4590803039e-05,480,0.347843617201,0.838277220726,
1.87635119359,-0.727263450623,0,0.120884423716,1.52299822952e-05,481,0.348373770714,0.840041518211,
1.87809594075,-0.731472492218,0,0.121313545565,1.53996119598e-05,482,0.348922163248,0.841855764389,
1.8798430721,-0.735691070557,0,0.121775176507,1.65660948276e-05,483,0.349466055632,0.843651950359,
1.88159306447,-0.739918231964,0,0.122240946454,1.67144887019e-05,484,0.350001364946,0.845465421677,
1.88334591786,-0.744154930115,0,0.12272331595,1.73099934409e-05,485,0.350565314293,0.847305059433,
1.88510163228,-0.748400688171,0,0.123215606713,1.76658431236e-05,486,0.351122736931,0.849160134792,
1.88686020772,-0.752655982971,0,0.123723871168,1.82388977138e-05,487,0.351697266102,0.851043343544,
1.88862164418,-0.756920337677,0,0.124241440379,1.85726467244e-05,488,0.352268695831,0.852933943272,
1.89038594166,-0.761194705963,0,0.124780683757,1.9350253205e-05,489,0.352859675884,0.854844093323,
1.89215310017,-0.765478610992,0,0.125334919234,1.96279138924e-05,490,0.353448033333,0.85678166151,
1.8939231197,-0.769772529602,0,0.125910135761,2.0370767358e-05,491,0.354046940804,0.858739554882,
1.89569647709,-0.774075984955,0,0.126484489036,2.03400405319e-05,492,0.354660004377,0.86069715023,
1.89747269551,-0.778389453888,0,0.127079143999,2.10588100258e-05,493,0.355273991823,0.862691998482,
1.89925225178,-0.782712936401,0,0.127678590715,2.12283381149e-05,494,0.355903595686,0.864718079567,
1.90103514592,-0.787046432495,0,0.128282500767,2.13861968064e-05,495,0.356544554234,0.866756498814,
1.90282090107,-0.791390895844,0,0.128918227187,2.25067353782e-05,496,0.357186943293,0.868811011314,
1.90461047093,-0.795745372772,0,0.129542588164,2.20300151935e-05,497,0.357830494642,0.870894432068,
1.90640290181,-0.800110340118,0,0.130191736788,2.29041401057e-05,498,0.358498036861,0.873002707958,
1.90819867054,-0.804485797882,0,0.130850190329,2.28464024298e-05,499,0.359175741673,0.875135481358,
1.90999777714,-0.8088722229,0,0.131523831862,2.33724977772e-05,500,0.359851032495,0.87727189064,
1.91180069844,-0.813269615173,0,0.132197215968,2.33633373522e-05,501,0.360552161932,0.87947332859,
1.91360695759,-0.817677974701,-0.0817677974701,0.132885021852,2.38635181509e-05,502,0.361240386963,0.881662368774,
1.91541655461,-0.822097301483,0.0,0.133586847422,2.43496389478e-05,503,0.361960381269,0.883885622025,
1.91726000706,-0.826586723328,0,0.134112704138,1.82440610355e-05,504,0.368678510189,0.897819399834,
1.91910632054,-0.831086158752,0,0.134654059937,1.87816025425e-05,505,0.369285404682,0.899873793125,
1.92095644871,-0.835597038269,0,0.135199147665,1.89106396063e-05,506,0.370024085045,0.902195036411,
1.92281039158,-0.840119361877,0,0.135747564215,1.90259534103e-05,507,0.370761990547,0.904474318027,
1.92466767231,-0.844653129578,0,0.136313852112,1.96455244182e-05,508,0.371482402086,0.906763672829,
1.92652876774,-0.84919834137,0,0.136882622485,1.97314761014e-05,509,0.372219353914,0.909074187279,
1.92839367787,-0.853755474091,0,0.137459625883,2.00164426031e-05,510,0.372961610556,0.911401629448,
1.93026240269,-0.858324050903,0,0.13803826276,1.99434166433e-05,511,0.37370210886,0.913733363152,
1.93213446538,-0.862904548645,0,0.138639147022,2.07100173215e-05,512,0.374456822872,0.91608953476,
1.93401081959,-0.867496967316,0,0.139232034118,2.0434207985e-05,513,0.375225991011,0.918485879898,
1.93589051167,-0.872101306915,0,0.139846229874,2.11684554945e-05,514,0.375978380442,0.920878052711,
1.93777449528,-0.876718044281,0,0.140457661824,2.10730335625e-05,515,0.376757055521,0.923295497894,
1.93966229359,-0.881346702576,0,0.141074602291,2.12627159505e-05,516,0.377545773983,0.925729870796,
1.9415539066,-0.885987281799,0,0.141696583346,2.14362399685e-05,517,0.378326445818,0.928186535835,
1.9434493343,-0.890640735626,0,0.142335313031,2.20132978454e-05,518,0.379115492105,0.930657029152,
1.94534905354,-0.895306587219,0,0.142969398899,2.18530579587e-05,519,0.379927128553,0.933150410652,
1.94725258748,-0.899984836578,0,0.143613142313,2.21849511116e-05,520,0.380727052689,0.935669839382,
1.94916041295,-0.904675960541,0,0.144257344665,2.22005486665e-05,521,0.381526559591,0.938191413879,
1.95107205311,-0.909379482269,0,0.144910185998,2.24980884662e-05,522,0.382363140583,0.940748631954,
1.95298798481,-0.914096355438,0,0.145568513161,2.26869615187e-05,523,0.383191078901,0.943329453468,
1.95490820805,-0.918825626373,0,0.146219726979,2.24416524668e-05,524,0.384023815393,0.945909023285,
1.95683224598,-0.923568248749,0,0.146890067412,2.3100555082e-05,525,0.384865313768,0.948535442352,
1.95876105229,-0.928324222565,0,0.147549612968,2.2728379116e-05,526,0.38570907712,0.951154947281,
1.96069367329,-0.933093070984,0,0.148221153392,2.31410181567e-05,527,0.386569678783,0.953808128834,
1.96263106267,-0.937875747681,0,0.148886836931,2.29390143742e-05,528,0.38743185997,0.95648175478,
1.96457274357,-0.942671298981,0,0.149548774633,2.28097094531e-05,529,0.388304710388,0.959175169468,
1.96651823918,-0.947480678558,0,0.150232964282,2.35733891e-05,530,0.389166563749,0.961873292923,
1.96846850316,-0.952303409576,0,0.150903641614,2.31068178969e-05,531,0.390056610107,0.96458786726,
1.9704235355,-0.957140445709,0,0.151572180469,2.30329615367e-05,532,0.390934616327,0.967351317406,
1.97238238255,-0.961990833282,0,0.152255194845,2.35315094762e-05,533,0.391833990812,0.970103979111,
1.97434599797,-0.96685552597,0,0.152934854993,2.30758819737e-05,534,0.392725676298,0.972887635231,
1.97631438176,-0.971733570099,0,0.153598728221,2.25396140445e-05,535,0.39362937212,0.975685179234,
1.97828705708,-0.976626396179,0,0.154278472889,2.30779517639e-05,536,0.394549518824,0.978516340256,
1.98026450078,-0.981533050537,0,0.154947135171,2.27013422874e-05,537,0.395471930504,0.981354176998,
1.98224623601,-0.98645401001,0,0.155624461933,2.28983265744e-05,538,0.396387457848,0.98420214653,
1.98423273961,-0.991389751434,0,0.156301216207,2.28787939383e-05,539,0.397311985493,0.987078845501,
1.98622401158,-0.996339321136,0,0.156965016607,2.24401404596e-05,540,0.39825117588,0.98996078968,
1.98822005192,-1.00130367279,0,0.157626960449,2.23771342562e-05,541,0.399191528559,0.992880702019,
1.99022086064,-1.0062828064,0,0.158286374604,2.22914565836e-05,542,0.400128871202,0.995807528496,
1.99222596089,-1.01127624512,0,0.158951108366,2.24711227969e-05,543,0.401077657938,0.998728275299,
1.99423630635,-1.01628494263,0,0.159603412608,2.20507834712e-05,544,0.402029454708,1.00170576572,
1.99625142018,-1.02130842209,0,0.160251132497,2.1895649554e-05,545,0.402988702059,1.00467526913,
1.99827082554,-1.0263466835,0,0.160907866016,2.22001856722e-05,546,0.403932929039,1.00765371323,
2.00029547612,-1.03139972687,0,0.161544301344,2.15138662087e-05,547,0.404902219772,1.01064610481,
2.00232489506,-1.03646802902,0,0.162179809844,2.14823313354e-05,548,0.40587207675,1.01369094849,
2.00435908238,-1.04155158997,0,0.162813640398,2.14003423345e-05,549,0.40683183074,1.016695261,
2.00639803807,-1.0466504097,0,0.163445035315,2.13179143175e-05,550,0.407808601856,1.01974391937,
2.00844176213,-1.05176448822,0,0.164073230309,2.12096945735e-05,551,0.408787608147,1.02280330658,
2.0104907314,-1.05689382553,0,0.164683281168,2.05969502857e-05,552,0.409756600857,1.02586770058,
2.01254446904,-1.06203842163,0,0.165288625153,2.04365579116e-05,553,0.41073808074,1.02895450592,
2.01460297505,-1.06719875336,0,0.16589416954,2.04431062855e-05,554,0.411717742682,1.03203463554,
2.01666672627,-1.07237482071,0,0.166484975011,1.99453422612e-05,555,0.412706673145,1.03517270088,
2.01873476903,-1.07756614685,0,0.16708278248,2.01815697095e-05,556,0.413691699505,1.03826463223,
2.02080853383,-1.08277273178,0,0.167644519843,1.89637160347e-05,557,0.414677143097,1.04140257835,
2.02288659016,-1.08799552917,0,0.168222923181,1.95261849716e-05,558,0.41564810276,1.04454338551,
2.02496989171,-1.09323406219,0,0.168783355603,1.89193699097e-05,559,0.416642457247,1.04768633842,
2.02705796162,-1.09848833084,0,0.169339020818,1.87582546195e-05,560,0.417623013258,1.05083942413,
2.02915127675,-1.10375833511,0,0.169875066195,1.8095777246e-05,561,0.418619006872,1.05400800705,
2.03124936024,-1.10904407501,0,0.170404637823,1.78770939369e-05,562,0.419601023197,1.05717182159,
2.03335221211,-1.11434602737,0,0.170932422094,1.78166141898e-05,563,0.420596897602,1.06036019325,
2.03545983235,-1.11966371536,0,0.171451925439,1.75369328762e-05,564,0.421569347382,1.06353187561,
2.0375726978,-1.12499761581,0,0.171953900156,1.69450826835e-05,565,0.42256000638,1.06674289703,
2.03969033162,-1.13034725189,0,0.172445801253,1.6604875407e-05,566,0.423526614904,1.06992352009,
2.04181321064,-1.1357126236,0,0.172912866775,1.57663905289e-05,567,0.42451518774,1.07313334942,
2.04394038121,-1.1410946846,0,0.173392893072,1.62026240981e-05,568,0.425493329763,1.07632887363,
2.04607279698,-1.14649200439,0,0.173840728985,1.51159152899e-05,569,0.426454871893,1.07953560352,
2.04820998112,-1.15190601349,0,0.17428574731,1.50207030859e-05,570,0.427438259125,1.08276891708,
2.05035193364,-1.15733575821,0,0.174715994409,1.45220122544e-05,571,0.428399562836,1.08597278595,
2.05249865452,-1.16278171539,0,0.175135960827,1.41749085675e-05,572,0.429353773594,1.08918166161,
2.05465014378,-1.16824388504,0,0.175544639853,1.37938265623e-05,573,0.430316478014,1.09241390228,
2.05680687825,-1.17372179031,0,0.175921920127,1.27339456982e-05,574,0.431279599667,1.09562802315,
2.05896790425,-1.17921638489,0,0.176305009884,1.29299339329e-05,575,0.432218253613,1.09885072708,
2.06113369862,-1.18472623825,0,0.176662969208,1.20816318356e-05,576,0.433164864779,1.10204732418,
2.06330426137,-1.19025278091,0,0.177010962251,1.17432243012e-05,577,0.434107244015,1.10527920723,
2.06547959248,-1.19579553604,0,0.177342539135,1.11891479889e-05,578,0.435041606426,1.1084831953,
2.06765921513,-1.20135402679,0,0.177664858798,1.08766750852e-05,579,0.435959666967,1.11169672012,
2.06984360615,-1.20692825317,0,0.177963294934,1.00706490244e-05,580,0.436881840229,1.1149058342,
2.07203276555,-1.21251869202,0,0.178242129832,9.40914386688e-06,581,0.437785983086,1.11811363697,
2.07422621647,-1.21812534332,0,0.178513761802,9.16602412205e-06,582,0.438691288233,1.12130558491,
2.07642395894,-1.22374773026,0,0.178771744334,8.70537037097e-06,583,0.439592033625,1.12449252605,
2.07862646977,-1.22938632965,0,0.179006780822,7.93101898567e-06,584,0.440466850996,1.12767660618,
2.08083327214,-1.23504066467,0,0.179225918912,7.39449092669e-06,585,0.441347450018,1.13086473942,
2.08304436604,-1.24071073532,0,0.179428010784,6.81924044188e-06,586,0.442220032215,1.13402318954,
2.08525975148,-1.2463965416,0,0.179611899617,6.20496445986e-06,587,0.44307282567,1.13719511032,
2.08747942845,-1.25209856033,0,0.179781617483,5.72675111406e-06,588,0.443923532963,1.14035582542,
2.08970339695,-1.25781583786,0,0.179925577212,4.85756437441e-06,589,0.444768726826,1.14348101616,
2.09193118016,-1.26354885101,0,0.180061079371,4.57215130885e-06,590,0.445592463017,1.14661622047,
2.0941632549,-1.26929759979,0,0.180173606502,3.7968935025e-06,591,0.446404606104,1.14973402023,
2.09639914433,-1.2750620842,0,0.180275171836,3.4269949884e-06,592,0.447210073471,1.1528506279,
2.0986393253,-1.28084135056,0,0.180341064007,2.22330278105e-06,593,0.447998911142,1.15592813492,
2.10088332097,-1.28663682938,0,0.180398616833,1.94190665787e-06,594,0.448785126209,1.15903520584,
2.10313113133,-1.29244709015,0,0.180431224939,1.10022363679e-06,595,0.449548095465,1.16208529472,
2.10538275639,-1.29827260971,0,0.180442731155,3.88226102529e-07,596,0.45031914115,1.16514325142,
2.10763771931,-1.30411338806,0,0.180444931151,7.42285687864e-08,597,0.451039463282,1.16817259789,
2.10989697377,-1.3099694252,0,0.18041035237,-1.16668864946e-06,598,0.451782286167,1.17121291161,
2.11215908925,-1.31584072113,0,0.180376839377,-1.13072082147e-06,599,0.452505081892,1.17420363426,
2.11442549626,-1.32172679901,0,0.18029894409,-2.6281450938e-06,600,0.453193694353,1.17718815804,
2.11669476429,-1.32762765884,0,0.18021437338,-2.85334911126e-06,601,0.453878492117,1.18016004562,
2.11896737019,-1.33354282379,0,0.18010378801,-3.73103216291e-06,602,0.454548597336,1.18309760094,
2.12124379078,-1.33947324753,0,0.179962842682,-4.75531297641e-06,603,0.455200940371,1.18602824211,
2.12352259556,-1.34541797638,0,0.179818971883,-4.85398277631e-06,604,0.455824822187,1.18893587589,
2.12580521504,-1.35137701035,0,0.179632126302,-6.3036569585e-06,605,0.456450015306,1.19181013107,
2.1280902187,-1.35735034943,0,0.17943949358,-6.49884894712e-06,606,0.457060575485,1.19467496872,
2.13037856022,-1.36333799362,0,0.179213967711,-7.60849317559e-06,607,0.4576562047,1.19752526283,
2.13266976277,-1.36933946609,0,0.178962091677,-8.49739873855e-06,608,0.458215475082,1.20033669472,
2.1349633495,-1.37535524368,0,0.178700007468,-8.84170310037e-06,609,0.458755880594,1.2031390667,
2.13725979725,-1.38138484955,0,0.178408645046,-9.82929572903e-06,610,0.459289968014,1.2058866024,
2.13955910603,-1.38742780685,0,0.178081785754,-1.10266081427e-05,611,0.459812104702,1.20863032341,
2.14186032216,-1.39348459244,0,0.177748082918,-1.1257380166e-05,612,0.460287690163,1.21134448051,
2.1441643993,-1.39955472946,0,0.177375948249,-1.25537563351e-05,613,0.460769712925,1.21402382851,
2.1464703838,-1.40563821793,0,0.176989121825,-1.30492783031e-05,614,0.461228758097,1.21669149399,
2.14877875248,-1.41173505783,0,0.176573466709,-1.40216694848e-05,615,0.46165728569,1.21932184696,
2.15108902852,-1.4178442955,0,0.176130593453,-1.49397347516e-05,616,0.462055444717,1.22192537785,
2.1534012119,-1.42396688461,0,0.175668344935,-1.55932236165e-05,617,0.462463259697,1.22448730469,
2.15571530262,-1.43010187149,0,0.175175788676,-1.66154928548e-05,618,0.462828278542,1.22703170776,
2.1580313007,-1.43624925613,0,0.17465140494,-1.76890146453e-05,619,0.46316576004,1.22951865196,
2.16034872929,-1.44240951538,0,0.174110655033,-1.82409311374e-05,620,0.463496059179,1.23201882839,
2.16266758839,-1.44858169556,0,0.173542660421,-1.91598256248e-05,621,0.463796257973,1.23444271088,
2.164987878,-1.45476579666,0,0.172945835778,-2.01321611908e-05,622,0.464068681002,1.23685026169,
2.16730959813,-1.46096229553,0,0.172323135641,-2.10048437977e-05,623,0.464324176311,1.2392244339,
2.16963227192,-1.46716976166,0,0.171671555052,-2.19788685308e-05,624,0.464547365904,1.24156630039,
2.1719558994,-1.47338914871,0,0.170998520926,-2.27023548727e-05,625,0.464750051498,1.24384987354,
2.17428095738,-1.47961997986,0,0.170285639955,-2.40462314966e-05,626,0.46493986249,1.2461206913,
2.1766064922,-1.48586130142,0,0.16954670662,-2.49248162085e-05,627,0.465099453926,1.24834191799,
2.17893250386,-1.49211406708,0,0.168788955652,-2.55593657844e-05,628,0.465230494738,1.25052821636,
2.18125899235,-1.49837779999,0,0.168006171699,-2.64035447824e-05,629,0.465339839458,1.25268411636,
2.18358643452,-1.50465154648,0,0.16717576557,-2.8009645772e-05,630,0.465406924486,1.25479352474,
2.18591339985,-1.51093578339,0,0.166336639942,-2.8303543526e-05,631,0.465456515551,1.25685238838,
2.18824084202,-1.51723003387,0,0.165458580739,-2.96165449273e-05,632,0.465496093035,1.25888943672,
2.19056828419,-1.52353477478,0,0.164556231557,-3.04355606794e-05,633,0.465495765209,1.26089549065,
2.19289572636,-1.52984857559,0,0.163614833253,-3.17524192039e-05,634,0.465468406677,1.26281189919,
2.19522269169,-1.53617238998,0,0.162653218449,-3.23525977101e-05,635,0.465406894684,1.264721632,
2.19754965703,-1.54250526428,0,0.161649133697,-3.3729129088e-05,636,0.465329140425,1.26657092571,
2.19987566868,-1.54884719849,0,0.160624544103,-3.44175921895e-05,637,0.465209573507,1.2683904171,
2.20220072667,-1.5551981926,0,0.159577585641,-3.51687277394e-05,638,0.465075969696,1.27016067505,
2.20452530781,-1.56155729294,0,0.158486244994,-3.660662493e-05,639,0.4649079144,1.2718821764,
2.20684893528,-1.56792497635,0,0.157364759853,-3.76174260365e-05,640,0.464708417654,1.27355802059,
2.20917113225,-1.57430124283,0,0.156222968929,-3.82982445656e-05,641,0.4644754529,1.27519357204,
2.21149237553,-1.58068466187,0,0.15503490228,-3.94382376039e-05,642,0.46422252059,1.27678382397,
2.21381218831,-1.58707618713,0,0.153818738041,-4.00280442991e-05,643,0.463918924332,1.27830195427,
2.21613009373,-1.5934753418,0,0.152580053336,-4.07687920607e-05,644,0.463606148958,1.27979779243,
2.21844609181,-1.59988117218,0,0.151308781348,-4.1840963534e-05,645,0.463271617889,1.28122496605,
2.22076065938,-1.60629415512,0,0.149995675376,-4.32172735096e-05,646,0.462864995003,1.28259849548,
2.22307284276,-1.61271381378,0,0.148657832815,-4.40311010887e-05,647,0.462483018637,1.28394472599,
2.22538311879,-1.61914014816,0,0.147281913392,-4.52837304806e-05,648,0.462000340223,1.28521192074,
2.2276905338,-1.62557220459,0,0.145880889238,-4.61072051309e-05,649,0.461541414261,1.28645205498,
2.22999556462,-1.6320104599,0,0.144445455824,-4.72389341175e-05,650,0.461013019085,1.28761363029,
2.23229821126,-1.63845396042,0,0.142965883797,-4.86192832754e-05,651,0.460494458675,1.28875946999,
2.23459752003,-1.64490318298,0,0.141466842253,-4.92584440643e-05,652,0.459908694029,1.2898029089,
2.23689396779,-1.65135717392,0,0.139927309705,-5.05885424799e-05,653,0.459300637245,1.29082286358,
2.23918707768,-1.65781593323,0,0.138356669089,-5.1610362777e-05,654,0.458661109209,1.29177474976,
2.24147732655,-1.66427946091,0,0.136741852784,-5.30614745029e-05,655,0.457964062691,1.29265618324,
2.24376328389,-1.67074680328,0,0.135106771744,-5.37268375503e-05,656,0.457271069288,1.29351437092,
2.24604590336,-1.67721796036,0,0.133427269988,-5.51859490331e-05,657,0.456507354975,1.29427576065,
2.24832470814,-1.68369340897,0,0.131716337946,-5.62182262725e-05,658,0.455739676952,1.29504132271,
2.25059922139,-1.6901717186,0,0.129971804116,-5.73215931205e-05,659,0.454911112785,1.29567503929,
2.2528694431,-1.69665288925,0,0.12819178364,-5.84868043124e-05,660,0.454064965248,1.29628252983,
2.25513537327,-1.70313739777,0,0.126378061752,-5.95936854249e-05,661,0.45318031311,1.2968416214,
2.25739653508,-1.70962381363,0,0.124528593998,-6.07677622778e-05,662,0.452246516943,1.29730546474,
2.25965292851,-1.71611261368,0,0.122645139549,-6.18839533715e-05,663,0.451296418905,1.29775440693,
2.26190455357,-1.72260332108,0,0.120722151607,-6.31824545528e-05,664,0.450292229652,1.29810285568,
2.26415093342,-1.72909498215,0,0.118761368324,-6.44238161369e-05,665,0.449266433716,1.29840087891,
2.26639159123,-1.73558807373,0,0.116775217413,-6.5256706711e-05,666,0.448189258575,1.29861688614,
2.26862700383,-1.74208211899,0,0.114747449698,-6.66235788705e-05,667,0.44709187746,1.29880607128,
2.27085669438,-1.74857664108,0,0.112683360644,-6.78163951206e-05,668,0.445930212736,1.29890286922,
2.27308066288,-1.75507116318,0,0.110577582964,-6.91855796721e-05,669,0.444763660431,1.29897022247,
2.27529795567,-1.76156616211,0,0.108452870699,-6.98070736015e-05,670,0.443534314632,1.29892575741,
2.27750952641,-1.76806020737,0,0.106275774707,-7.15271333673e-05,671,0.44228091836,1.29881680012,
2.27971442143,-1.77455329895,0,0.104065596352,-7.26134900449e-05,672,0.44098174572,1.2986536026,
2.28191264073,-1.78104543686,0,0.101820423593,-7.3762648398e-05,673,0.439637124538,1.29841637611,
2.28410370747,-1.78753614426,0,0.0995454089761,-7.4742515955e-05,674,0.438259929419,1.29811942577,
2.28628809849,-1.79402494431,0,0.0972249148794,-7.62360355473e-05,675,0.436860024929,1.29776728153,
2.28846533696,-1.80051183701,0,0.0948675077446,-7.74459620043e-05,676,0.435413122177,1.29734921455,
2.29063494603,-1.80699586868,0,0.0924750732171,-7.85961029506e-05,677,0.433907866478,1.29682302475,
2.29279644887,-1.8134765625,0,0.0900527816243,-7.95718083216e-05,678,0.432372868061,1.29625117779,
2.29495032231,-1.81995487213,0,0.087594953053,-8.07384017311e-05,679,0.430806159973,1.29559135437,
2.29709656636,-1.82642889023,0,0.0850869457618,-8.23842943844e-05,680,0.429191797972,1.29487597942,
2.29923422734,-1.83289909363,0,0.0825505593591,-8.33158527357e-05,681,0.427533596754,1.29407942295,
2.30136330525,-1.83936548233,0,0.0799838668082,-8.43107656438e-05,682,0.425849318504,1.29319858551,
2.30348380009,-1.84582662582,0,0.0773756490585,-8.56711083496e-05,683,0.424108862877,1.29227828979,
2.30559571187,-1.85228300095,0,0.074727293887,-8.69886201979e-05,684,0.422341585159,1.29122960567,
2.3076980869,-1.85873365402,0,0.0720508805161,-8.77125606063e-05,685,0.420513004065,1.29014313221,
2.30979140202,-1.86517858505,0,0.069334644497,-8.90169168268e-05,686,0.418670445681,1.28898251057,
2.3118751804,-1.8716173172,0,0.0665837624711,-9.01517044458e-05,687,0.416765093803,1.28772091866,
2.31394942204,-1.87804937363,0,0.0637935187252,-9.14410051361e-05,688,0.414817601442,1.28639495373,
2.3160136501,-1.8844742775,0,0.0609691108712,-9.25599500576e-05,689,0.4128498137,1.28500938416,
2.31806786458,-1.89089155197,0,0.0581059268956,-9.38300187351e-05,690,0.410830140114,1.28354120255,
2.32011158864,-1.89730167389,0,0.0552149401491,-9.47404549125e-05,691,0.408764749765,1.28198933601,
2.32214482228,-1.90370321274,0,0.0522857807571,-9.59906832809e-05,692,0.40665024519,1.28034877777,
2.3241675655,-1.91009664536,0,0.0493196984885,-9.71999562702e-05,693,0.404502719641,1.27862501144,
2.32617886464,-1.91648054123,0,0.0463258584197,-9.81087775253e-05,694,0.402310907841,1.27680778503,
2.32817919652,-1.9228553772,0,0.043295829708,-9.92939592971e-05,695,0.400091677904,1.27494943142,
2.33016856114,-1.92922019958,0,0.0402225441427,-0.00010071075695,696,0.397804290056,1.27299356461,
2.33214600483,-1.93557500839,0,0.0371235253222,-0.000101553291727,697,0.395480751991,1.27096796036,
2.3341115276,-1.94191932678,0,0.033994430618,-0.000102538114682,698,0.393109858036,1.26881408691,
2.33606512944,-1.94825267792,0,0.0308310362036,-0.000103661342629,699,0.390740633011,1.26664698124,
2.33800633351,-1.95457410812,0,0.0276359654642,-0.000104698592145,700,0.388261467218,1.2643352747,
2.33993513981,-1.96088409424,0,0.0244103841983,-0.000105697648919,701,0.385795384645,1.26197564602,
2.34185154835,-1.96718168259,0,0.0211476551334,-0.000106914208094,702,0.383258581161,1.25952219963,
2.34375508229,-1.97346639633,0,0.0178531400689,-0.000107954997305,703,0.380667060614,1.25699710846,
2.34564526478,-1.97973823547,0,0.0145346667164,-0.000108739251153,704,0.378063082695,1.25437474251,
2.34752209584,-1.98599672318,0,0.0111882823725,-0.00010965305847,705,0.375409066677,1.25166392326,
2.34938557545,-1.99224090576,0,0.00780770676374,-0.000110772647234,706,0.372695624828,1.24884879589,
2.35123522679,-1.99847078323,0,0.00440080480495,-0.00011163446084,707,0.369958400726,1.24599289894,
2.35307104985,-2.00468587875,0,0.000963871641267,-0.000112617748173,708,0.367164134979,1.24303531647,
2.35489304463,-2.01088571548,0,-0.00250667292569,-0.000113718265224,709,0.364332675934,1.23996138573,
2.35670025746,-2.01706981659,0,-0.00599640313577,-0.000114346099708,710,0.361461251974,1.23684060574,
2.35849316517,-2.02323770523,0,-0.0095177929647,-0.000115382674581,711,0.358545929193,1.23360323906,
2.3602708141,-2.02938938141,0,-0.0130541730974,-0.000115873038503,712,0.355570346117,1.23028814793,
2.36203368107,-2.03552389145,0,-0.0166201402252,-0.000116841693618,713,0.352578520775,1.22689592838,
2.36378128926,-2.04164075851,0,-0.0202101107342,-0.000117627419981,714,0.349527567625,1.22341024876,
2.36551363865,-2.0477399826,0,-0.0238250825803,-0.000118445869385,715,0.346432626247,1.21980977058,
2.36723025242,-2.05382061005,0,-0.0274616675626,-0.000119150655796,716,0.343313097954,1.21615159512,
2.36893065373,-2.05988264084,0,-0.03111213066,-0.000119604494632,717,0.340144336224,1.21241855621,
2.37061531941,-2.06592559814,0,-0.034788219544,-0.000120443294595,718,0.336918920279,1.20858871937,
2.37228377263,-2.07194900513,0,-0.0384842405036,-0.000121095615686,719,0.333663165569,1.2046558857,
2.37393553654,-2.07795190811,0,-0.0421965758156,-0.000121629368631,720,0.330346882343,1.20062661171,
2.37557061116,-2.08393478394,0,-0.0459239701445,-0.00012212195674,721,0.327016443014,1.19652354717,
2.37718851964,-2.08989620209,0,-0.0496647607349,-0.000122560008074,722,0.323620080948,1.19230055809,
2.37878973881,-2.0958366394,0,-0.0534260815345,-0.000123231763131,723,0.320208460093,1.18804216385,
2.38037331502,-2.10175466537,0,-0.0571975956597,-0.000123564882859,724,0.316724121571,1.18365383148,
2.38193972508,-2.10765075684,0,-0.0609863301223,-0.000124128207986,725,0.313233673573,1.17921435833,
2.38348801533,-2.11352396011,0,-0.0647799766888,-0.000124288306394,726,0.309686154127,1.17463922501,
2.38501866261,-2.11937379837,0,-0.068589221751,-0.000124798484058,727,0.306092739105,1.17001342773,
2.38653071324,-2.12520074844,0,-0.0723961899365,-0.00012472302053,728,0.302464067936,1.16528964043,
2.38802464406,-2.13100290298,0,-0.0762168611476,-0.000125171087819,729,0.298797518015,1.16046690941,
2.38950045506,-2.13678073883,0,-0.0800496731998,-0.000125567962639,730,0.295095533133,1.15555799007,
2.39095671574,-2.14253330231,0,-0.083874039205,-0.000125082371835,731,0.291326999664,1.15055441856,
2.39239485661,-2.14826107025,0,-0.0877128639098,-0.000125554281154,732,0.287573128939,1.14550149441,
2.39381344716,-2.15396261215,0,-0.0915472207418,-0.000125407288188,733,0.283708482981,1.14032363892,
2.39521248738,-2.15963792801,0,-0.0953773191032,-0.000125267084638,734,0.279861718416,1.1350581646,
2.39659245411,-2.16528654099,0,-0.0992128998049,-0.000125444828323,735,0.275949060917,1.12971663475,
2.39795239369,-2.17090797424,0,-0.103039700285,-0.000125156817233,736,0.27201089263,1.1242916584,
2.39929278294,-2.17650175095,0,-0.106867229779,-0.000125179663632,737,0.268034845591,1.11877894402,
2.4006126682,-2.18206739426,0,-0.110681224146,-0.000124735736618,738,0.26402425766,1.11316025257,
2.40191252629,-2.18760490417,0,-0.114489469104,-0.000124546583521,739,0.259956657887,1.10749828815,
2.40319188038,-2.19311332703,0,-0.118286997202,-0.000124194982787,740,0.255864351988,1.10169255733,
2.40445073048,-2.19859266281,0,-0.122073590141,-0.000123836349507,741,0.251747071743,1.09585952759,
2.40568859974,-2.20404243469,0,-0.125842736191,-0.000123264823511,742,0.247595652938,1.08992421627,
2.40690548817,-2.209461689,0,-0.129596952669,-0.000122775605281,743,0.243407920003,1.08390462399,
2.40810139576,-2.21485090256,0,-0.133334467005,-0.0001222285493,744,0.239168286324,1.07780480385,
2.40927632252,-2.22020864487,0,-0.13705887112,-0.000121798943337,745,0.234910219908,1.07159733772,
2.41042931477,-2.22553539276,0,-0.140753178336,-0.000120813735122,746,0.230615317822,1.0653399229,
2.41156037251,-2.2308306694,0,-0.144418295077,-0.000119858298721,747,0.226285472512,1.05898332596,
2.41266997258,-2.23609352112,0,-0.14806367862,-0.000119212002821,748,0.221914246678,1.05256962776,
2.41375763814,-2.24132394791,0,-0.151681145053,-0.000118298218513,749,0.217535585165,1.04607629776,
2.41482336918,-2.24652147293,0,-0.155271192614,-0.000117400738701,750,0.213114514947,1.03949713707,
2.41586668889,-2.25168514252,0,-0.158827981551,-0.00011631229318,751,0.208663702011,1.03282928467,
2.41688759724,-2.25681591034,0,-0.162348409908,-0.000115122420572,752,0.20419485867,1.02612090111,
2.41788609425,-2.26191234589,0,-0.165835025569,-0.000114013319588,753,0.199664697051,1.01929605007,
2.41886170308,-2.26697492599,0,-0.169278529971,-0.000112602803893,754,0.195133551955,1.01243925095,
2.41981442372,-2.27200222015,0,-0.172681192895,-0.000111266532014,755,0.190584301949,1.00548267365,
2.42074473301,-2.2769947052,0,-0.17604807945,-0.000110095908356,756,0.185986667871,0.99849653244,
2.42165167729,-2.28195142746,0,-0.179365721176,-0.000108484758002,757,0.181379273534,0.991390347481,
2.42253477971,-2.28687262535,0,-0.182625412792,-0.000106588969499,758,0.17670981586,0.984235167503,
2.42339547078,-2.29175758362,0,-0.185848738716,-0.000105399079285,759,0.172064766288,0.977010905743,
2.42423231999,-2.29660630226,0,-0.189013131252,-0.000103471282496,760,0.167394295335,0.969736039639,
2.42504580418,-2.30141830444,0,-0.192125281256,-0.000101762249421,761,0.162671402097,0.962415277958,
2.42583496968,-2.30619287491,0,-0.195171122439,-9.95933359274e-05,762,0.15792067349,0.954958260059,
2.42660124699,-2.31093049049,0,-0.198169324982,-9.80349199775e-05,763,0.153196424246,0.947542786598,
2.42734320561,-2.31563067436,0,-0.201098393931,-9.57737111333e-05,764,0.148412451148,0.940019071102,
2.42806132237,-2.32029271126,0,-0.203964956536,-9.37292037579e-05,765,0.143642649055,0.932437121868,
2.42875559727,-2.3249168396,0,-0.206767031368,-9.16199921632e-05,766,0.138810232282,0.924803256989,
2.42942555348,-2.32950258255,0,-0.209496912851,-8.92588492027e-05,767,0.134004727006,0.917110681534,
2.43007119099,-2.33404922485,0,-0.212154003367,-8.68780520401e-05,768,0.129139050841,0.909339368343,
2.43069250981,-2.33855724335,0,-0.214735908144,-8.44191185486e-05,769,0.124292083085,0.901580452919,
2.43128998677,-2.34302592278,0,-0.217248576055,-8.21547180358e-05,770,0.119425073266,0.893758177757,
2.4318626682,-2.34745526314,0,-0.219676718987,-7.93904876713e-05,771,0.114570267498,0.885875284672,
2.43241103093,-2.35184526443,0,-0.222025226476,-7.6786156312e-05,772,0.109658628702,0.877979516983,
2.43293459813,-2.35619497299,0,-0.224286678834,-7.39392900626e-05,773,0.104755841196,0.869998812675,
2.43343384663,-2.36050534248,0,-0.226464679803,-7.1210278447e-05,774,0.0998585224152,0.862052261829,
2.43390877644,-2.36477541924,0,-0.228558281764,-6.84503276615e-05,775,0.0949198007584,0.853979468346,
2.43435843388,-2.36900472641,0,-0.230552786955,-6.52097710581e-05,776,0.0899949744344,0.845908403397,
2.43478377263,-2.37319397926,0,-0.232458532643,-6.23073499918e-05,777,0.085065215826,0.837853908539,
2.43518431584,-2.37734270096,0,-0.234267356777,-5.91381077175e-05,778,0.0801311209798,0.829728126526,
2.43556054036,-2.38145041466,0,-0.235983974595,-5.61230963606e-05,779,0.0752097293735,0.821565508842,
2.43591196934,-2.3855175972,0,-0.237599327839,-5.28119651049e-05,780,0.070250608027,0.81341946125,
2.4362386028,-2.38954353333,0,-0.239111761088,-4.94467664913e-05,781,0.0653190687299,0.805219948292,
2.43654044072,-2.39352869987,0,-0.240518690539,-4.59971402506e-05,782,0.0603612363338,0.797028899193,
2.43681748311,-2.39747262001,0,-0.241818167481,-4.24838521121e-05,783,0.0554270967841,0.788784444332,
2.43706972996,-2.40137553215,0,-0.243007746066,-3.88906340356e-05,784,0.0504974126816,0.780558049679,
2.43729765812,-2.40523695946,0,-0.244091625721,-3.54347698965e-05,785,0.0455637164414,0.772315442562,
2.43750079075,-2.40905737877,0,-0.245060880703,-3.16871687904e-05,786,0.0406400449574,0.764079630375,
2.43767960469,-2.41283655167,0,-0.245919482578,-2.80694368678e-05,787,0.0357209928334,0.755843520164,
2.43783362309,-2.41657447815,0,-0.246658761009,-2.41683442149e-05,788,0.0307987537235,0.747592389584,
2.43796284596,-2.42027115822,0,-0.247276303376,-2.01884243981e-05,789,0.0259070377797,0.739323616028,
2.43806822697,-2.42392659187,0,-0.247781968951,-1.6530877198e-05,790,0.0210071615875,0.731077075005,
2.43814881245,-2.42754101753,0,-0.248160879607,-1.23869930363e-05,791,0.0161441378295,0.722843706608,
2.43820507924,-2.43111419678,0,-0.248416726176,-8.36383449069e-06,792,0.0112906033173,0.714645862579,
2.43823750416,-2.43464636803,0,-0.248553007772,-4.45512478395e-06,793,0.00642693974078,0.706450998783,
2.43824561039,-2.43813753128,0,-0.248561067563,-2.63477386447e-07,794,0.00161811895669,0.698246896267,
2.43822939793,-2.44158816338,0,-0.248438375572,4.01081656321e-06,795,-0.00320091983303,0.690079748631,
2.43818934361,-2.44499754906,0,-0.248188360292,8.17297438533e-06,796,-0.00799478776753,0.681926310062,
2.43812544743,-2.44836688042,0,-0.247808507746,1.24169825589e-05,797,-0.0127617558464,0.673841178417,
2.43803818623,-2.4516954422,0,-0.247302096908,1.65539209587e-05,798,-0.0175139214844,0.665734410286,
2.43792708317,-2.45498394966,0,-0.246660659631,2.09676085352e-05,799,-0.0222257114947,0.65770727396,
2.43779213826,-2.45823264122,0,-0.24588170961,2.54607386237e-05,800,-0.0269358195364,0.649695396423,
2.43763430516,-2.46144127846,0,-0.244974389844,2.96563967636e-05,801,-0.0316093415022,0.641718566418,
2.43745310704,-2.46461033821,0,-0.243930308436,3.4126314848e-05,802,-0.0362335257232,0.633810460567,
2.4372485439,-2.4677400589,0,-0.242746973932,3.86776081295e-05,803,-0.0408699214458,0.625923275948,
2.43702156941,-2.47083044052,0,-0.241433441759,4.29328606184e-05,804,-0.0454170107841,0.618131577969,
2.43677170674,-2.47388243675,0,-0.239981716692,4.74493848498e-05,805,-0.0499576665461,0.610365927219,
2.43649943272,-2.47689557076,0,-0.238394759871,5.18690526266e-05,806,-0.0544937774539,0.602643549442,
2.43620474736,-2.47987055779,0,-0.236670355336,5.63610976007e-05,807,-0.0589528232813,0.59500348568,
2.43588765065,-2.48280763626,0,-0.234806083558,6.093216408e-05,808,-0.0634052753448,0.587406933308,
2.43554861943,-2.4857070446,0,-0.232805270446,6.53944692624e-05,809,-0.0677989646792,0.579906344414,
2.4351876537,-2.48856949806,0,-0.230665875864,6.99233953913e-05,810,-0.072153493762,0.572472214699,
2.43480570714,-2.49139523506,0,-0.228396932216,7.41570497475e-05,811,-0.0764623880386,0.565122723579,
2.43440182606,-2.4941842556,0,-0.225984525971,7.88453615235e-05,812,-0.0807364955544,0.557841479778,
2.43397696415,-2.49693751335,0,-0.22343830648,8.32182434367e-05,813,-0.0849755480886,0.550628006458,
2.43353112141,-2.49965524673,0,-0.220756011128,8.76650087044e-05,814,-0.0891569331288,0.543529987335,
2.43306477467,-2.50233769417,0,-0.217941007362,9.20016294342e-05,815,-0.0932631120086,0.536521077156,
2.43257792393,-2.50498557091,0,-0.214991551127,9.63950901473e-05,816,-0.0973534584045,0.529577672482,
2.43207104603,-2.50759935379,0,-0.211911315187,0.000100668604,817,-0.101410709321,0.522729277611,
2.43154414097,-2.51017928123,0,-0.208698159979,0.000105011965198,818,-0.105368696153,0.516023218632,
2.43099768559,-2.5127260685,0,-0.205356076176,0.000109224808403,819,-0.109313540161,0.509378433228,
2.43043167988,-2.51524043083,0,-0.201883597532,0.000113485487717,820,-0.113180331886,0.502858519554,
2.42984660069,-2.51772260666,0,-0.198284251521,0.000117630868077,821,-0.116991102695,0.496426463127,
2.42924292485,-2.52017354965,0,-0.194562485181,0.000121630766884,822,-0.120753780007,0.490146756172,
2.42862065236,-2.52259325981,0,-0.190716068806,0.000125703454492,823,-0.124471701682,0.483951061964,
2.42798026005,-2.52498245239,0,-0.186749221571,0.0001296383475,824,-0.128110080957,0.477857857943,
2.42732174794,-2.52734208107,0,-0.182661142905,0.000133599317079,825,-0.131681963801,0.471958756447,
2.42664559285,-2.5296728611,0,-0.178456238123,0.000137416312042,826,-0.135214298964,0.466122537851,
2.42595227162,-2.5319750309,0,-0.174138223612,0.000141111803853,827,-0.138660296798,0.460441350937,
2.42524178425,-2.53424930573,0,-0.169706174481,0.000144837485871,828,-0.142066344619,0.454841375351,
2.42451508442,-2.53649640083,0,-0.165170000773,0.000148239271628,829,-0.145404011011,0.449439555407,
2.42377169529,-2.5387172699,0,-0.16052397748,0.000151827870345,830,-0.148641437292,0.444141119719,
2.42301257054,-2.54091191292,0,-0.155776934473,0.000155123846727,831,-0.151852637529,0.438964039087,
2.42223771016,-2.54308176041,0,-0.15092948224,0.000158403892122,832,-0.154970467091,0.433953881264,
2.42144759099,-2.54522752762,0,-0.145986470789,0.000161525354947,833,-0.158030718565,0.429121464491,
2.42064221303,-2.54734897614,0,-0.140945751538,0.000164717057194,834,-0.161044642329,0.424337625504,
2.41982252995,-2.54944801331,0,-0.135819744209,0.00016750274621,835,-0.163940012455,0.419804692268,
2.41898854176,-2.55152511597,0,-0.130607782948,0.000170310228667,836,-0.166789740324,0.415363401175,
2.41814072529,-2.55358028412,0,-0.125313570813,0.000172996681642,837,-0.169569253922,0.411066174507,
2.41727955739,-2.55561494827,0,-0.119943648315,0.000175469395677,838,-0.17227268219,0.406960308552,
2.41640503804,-2.55762982368,0,-0.114498043557,0.000177938806755,839,-0.174896597862,0.402978599072,
2.41551764409,-2.55962562561,0,-0.108982098077,0.000180235920013,840,-0.17745514214,0.399182677269,
2.41461785237,-2.56160306931,0,-0.103401212923,0.000182356519419,841,-0.179948121309,0.39549395442,
2.41370613972,-2.56356334686,0,-0.0977618957746,0.000184264220514,842,-0.182348206639,0.392036557198,
2.41278250615,-2.5655066967,0,-0.0920635038644,0.000186193245017,843,-0.18469119072,0.388705968857,
2.41184790532,-2.56743454933,0,-0.0863184340939,0.000187717129049,844,-0.186931729317,0.385531246662,
2.41090233723,-2.56934690475,0,-0.0805256297295,0.000189275562254,845,-0.189142420888,0.382498085499,
2.40994627873,-2.5712454319,0,-0.0746930883118,0.000190572686597,846,-0.191217914224,0.37967890501,
2.40897972981,-2.57313036919,0,-0.0688204857457,0.000191880343071,847,-0.193260669708,0.3770160079,
2.40800364415,-2.57500290871,0,-0.0629200482434,0.000192788496707,848,-0.195229738951,0.374500721693,
2.40701802174,-2.57686376572,0,-0.0569927479877,0.000193664253725,849,-0.197094008327,0.37214165926,
2.40602381627,-2.57871341705,0,-0.0510492028828,0.000194193552597,850,-0.198881328106,0.369970560074,
2.40502055089,-2.58055353165,0,-0.0450879021017,0.000194772209058,851,-0.200631216168,0.367982745171,
2.40400917927,-2.5823841095,0,-0.0391184284173,0.000195037815171,852,-0.202272236347,0.366117954254,
2.40299017827,-2.5842063427,0,-0.0331483898274,0.000195054811244,853,-0.20385338366,0.364474177361,
2.40196307103,-2.58602118492,0,-0.0271748629494,0.000195167339027,854,-0.205341741443,0.362959325314,
2.40092928807,-2.58782935143,0,-0.0212144928871,0.000194735786542,855,-0.206774577498,0.361627161503,
2.39988882939,-2.58963155746,0,-0.0152689154456,0.000194251074231,856,-0.20812048018,0.360442519188,
2.39884169499,-2.59142875671,0,-0.00934055233617,0.000193686818253,857,-0.209423497319,0.359445333481,
2.39778883854,-2.59322166443,0,-0.0034412327398,0.00019273648803,858,-0.210594281554,0.358595371246,
2.39672978322,-2.59501123428,0,0.00243137093428,0.000191862213437,859,-0.211741864681,0.357929706573,
2.39566595952,-2.59679841995,0,0.00825961309231,0.000190411461965,860,-0.21279938519,0.357428789139,
2.39459689061,-2.59858369827,0,0.014046980814,0.000185862423622,861,-0.213795349002,0.357063174248,
2.39352353016,-2.60036802292,0,0.019780642311,0.000183351229934,862,-0.214708134532,0.356863498688,
2.39244587819,-2.60215234756,0,0.0254575195392,0.000178753958791,863,-0.215554088354,0.356845885515,
2.39136393467,-2.60393714905,0,0.031075857512,0.000176909026331,864,-0.216358929873,0.356952995062,
2.3902786533,-2.60572314262,0,0.0366233123563,0.000174675793943,865,-0.217047810555,0.357234597206,
2.38919003407,-2.60751152039,0,0.0420957406275,0.000172312070277,866,-0.217699915171,0.35767480731,
2.38809855382,-2.60930299759,0,0.047485484048,0.000169707383192,867,-0.218278422952,0.358276963234,
2.38700468937,-2.61109781265,0,0.052786373307,0.000166906578083,868,-0.218809008598,0.358961641788,
2.38590844075,-2.61289691925,0,0.0579947150329,0.00016398728943,869,-0.219252705574,0.359866440296,
2.38481028477,-2.61470127106,0,0.0631018383287,0.000160798333932,870,-0.219654217362,0.360900998116,
2.38371022145,-2.61651158333,0,0.0681045789496,0.00015751071847,871,-0.219998329878,0.362053900957,
2.38260872761,-2.61832809448,0,0.0729964955337,0.000154020407675,872,-0.220278650522,0.363331109285,
2.3815062801,-2.62015199661,0,0.0777678424584,0.000150223338128,873,-0.220496997237,0.364779353142,
2.38040287892,-2.62198376656,0,0.0824160093478,0.00014634408863,874,-0.220673292875,0.366327315569,
2.3792990009,-2.62382388115,0,0.0869335479843,0.000142230391665,875,-0.220791727304,0.368003934622,
2.37819464604,-2.62567281723,0,0.0913177241666,0.000138030446123,876,-0.220858722925,0.369818419218,
2.37709029118,-2.62753152847,0,0.0955592534204,0.000133538467979,877,-0.220872908831,0.371749311686,
2.37598593632,-2.62940049171,0,0.0996552164067,0.000128954513964,878,-0.220861002803,0.373802542686,
2.3748820583,-2.63128018379,0,0.103597905344,0.000124128063939,879,-0.220774710178,0.375936090946,
2.37377865712,-2.63317108154,0,0.107384274886,0.000119205797616,880,-0.220665499568,0.378190696239,
2.37267620961,-2.63507390022,0,0.111005607335,0.000114009140417,881,-0.220513224602,0.380560576916,
2.37157423893,-2.63698911667,0,0.114463367478,0.000108858561176,882,-0.220313355327,0.383013188839,
2.37047417561,-2.6389169693,0,0.117741196015,0.000103193180804,883,-0.220089167356,0.385573416948,
2.36937506596,-2.64085769653,0,0.120846054728,9.77470060018e-05,884,-0.219823211432,0.388190120459,
2.36827738682,-2.64281249046,0,0.123767072522,9.19587126734e-05,885,-0.219519391656,0.390957534313,
2.3671811382,-2.64478111267,0,0.126503600394,8.61500557105e-05,886,-0.219194754958,0.393745303154,
2.36608679692,-2.64676427841,0,0.1290465437,8.00402504784e-05,887,-0.218841686845,0.396633505821,
2.36499483983,-2.64876198769,0,0.131389678533,7.37506525272e-05,888,-0.218472495675,0.399554789066,
2.36390431325,-2.65077495575,0,0.133537580525,6.76050616209e-05,889,-0.218055561185,0.402589261532,
2.36281617085,-2.65280294418,0,0.135480355363,6.11482974393e-05,890,-0.217653244734,0.405633360147,
2.3617299358,-2.65484666824,0,0.13721784714,5.46866911391e-05,891,-0.217225521803,0.408750206232,
2.36064608494,-2.65690612793,0,0.138743720178,4.80257757346e-05,892,-0.216781169176,0.411888092756,
2.35956461827,-2.65898156166,0,0.140055176783,4.12768927683e-05,893,-0.216313228011,0.415097653866,
2.35848505894,-2.66107320786,0,0.141153879237,3.45804277454e-05,894,-0.215858504176,0.418336093426,
2.35740836064,-2.66318106651,0,0.142028971619,2.75423612875e-05,895,-0.215386092663,0.421579837799,
2.35633356968,-2.66530561447,0,0.142685482656,2.05929160541e-05,896,-0.214902326465,0.424892246723,
2.35526163975,-2.66744637489,0,0.14311469677,1.34631400316e-05,897,-0.214433804154,0.428148448467,
2.35419161717,-2.66960382462,0,0.143321537757,6.48791713409e-06,898,-0.213955163956,0.431500434875,
2.35312445561,-2.67177772522,0,0.143296287463,-7.92012440955e-07,899,-0.213482305408,0.434815764427,
2.3520592014,-2.67396831512,0,0.143044840467,-7.88694734076e-06,900,-0.213018119335,0.43812841177,
2.35099633137,-2.67617535591,0,0.142561957214,-1.51461268776e-05,901,-0.212561875582,0.441439121962,
2.34993584553,-2.67839884758,-0.267839884758,0.141845756319,-2.24641762153e-05,902,-0.212131783366,0.444709122181,
2.34887726704,-2.68063879013,0.0,0.140898728175,-2.97040253953e-05,903,-0.211703911424,0.447992384434,
2.34786541859,-2.682980299,0,0.138897781347,-6.27602738388e-05,904,-0.202312320471,0.468285769224,
2.34685357014,-2.68533420563,0,0.136694284487,-6.91128412032e-05,905,-0.202369213104,0.470764636993,
2.34584410588,-2.68770456314,0,0.134245063603,-7.6819419344e-05,906,-0.201903358102,0.474126636982,
2.34483607213,-2.6900908947,0,0.131559212339,-8.42407146327e-05,907,-0.20162139833,0.477226257324,
2.34382899205,-2.69249200821,0,0.128645082834,-9.13998034559e-05,908,-0.201376065612,0.480221450329,
2.34282334248,-2.69490742683,0,0.125499002782,-9.86741073106e-05,909,-0.201168239117,0.483125567436,
2.34181816975,-2.69733691216,0,0.122129022662,-0.000105695856506,910,-0.201031297445,0.485908061266,
2.34081347386,-2.69978022575,0,0.118534615234,-0.000112733816567,911,-0.200917303562,0.488649308681,
2.3398092548,-2.70223665237,0,0.114717783124,-0.000119709026837,912,-0.200863495469,0.491258919239,
2.33880503575,-2.70470547676,0,0.110684879651,-0.000126484881491,913,-0.200873404741,0.493778437376,
2.33780033986,-2.70718646049,0,0.106439799247,-0.000133138503307,914,-0.200924128294,0.496175199747,
2.33679516713,-2.70967912674,0,0.101983511906,-0.000139761368488,915,-0.201028093696,0.498496651649,
2.33578904072,-2.71218252182,0,0.0973238216362,-0.000146139594369,916,-0.201199740171,0.500661492348,
2.33478196064,-2.7146961689,0,0.0924619023939,-0.000152480925278,917,-0.201425805688,0.502706289291,
2.33377345006,-2.71721959114,0,0.0874031538929,-0.000158652826724,918,-0.201708391309,0.504658818245,
2.33276350895,-2.71975207329,0,0.0821502098399,-0.000164742023613,919,-0.202057167888,0.506476163864,
2.33175118367,-2.72229242325,0,0.0767167117007,-0.000170403328665,920,-0.202476501465,0.508121907711,
2.33073599736,-2.72484064102,0,0.0711055893731,-0.000175972377693,921,-0.202968299389,0.509628415108,
2.32971842686,-2.72739553452,0,0.0653183620772,-0.00018149415503,922,-0.203516021371,0.511011838913,
2.32869799534,-2.72995686531,0,0.0593594735132,-0.000186876523488,923,-0.204148337245,0.51222807169,
2.32767374913,-2.73252296448,0,0.0532456664066,-0.000191733615473,924,-0.204860299826,0.513248443604,
2.32664521138,-2.73509383202,0,0.046980116971,-0.000196491025712,925,-0.20563775301,0.514177143574,
2.32561285893,-2.73766827583,0,0.040564955953,-0.000201181431244,926,-0.206497043371,0.514883875847,
2.32457573811,-2.74024558067,0,0.0340117366939,-0.000205509577446,927,-0.207416653633,0.515479207039,
2.32353384892,-2.74282503128,0,0.0273240886012,-0.000209723430501,928,-0.20844142139,0.51585662365,
2.32248576085,-2.74540519714,0,0.0205219518043,-0.000213312267862,929,-0.209547013044,0.516048431396,
2.32143242756,-2.74798583984,0,0.0135984297751,-0.000217095311775,930,-0.210713028908,0.51612007618,
2.32037241856,-2.75056552887,0,0.00657370586389,-0.000220266706755,931,-0.211969003081,0.515949308872,
2.31930621068,-2.75314378738,0,-0.000553449265014,-0.00022347709078,932,-0.213323161006,0.515627384186,
2.3182323734,-2.75571942329,0,-0.00776410721245,-0.000226093487034,933,-0.214741930366,0.515132248402,
2.31715090672,-2.75829148293,0,-0.0150524013972,-0.000228526256289,934,-0.216258987784,0.514429211617,
2.31606181065,-2.7608590126,0,-0.0224122745008,-0.00023076913628,935,-0.217868983746,0.513514101505,
2.31496413151,-2.76342153549,0,-0.0298328454372,-0.000232670812509,936,-0.219537779689,0.51246970892,
2.31385739247,-2.76597738266,0,-0.037299429006,-0.000228225278703,937,-0.221321612597,0.511175632477,
2.31274159352,-2.76852583885,0,-0.0448070499849,-0.000229446333546,938,-0.223177880049,0.509720683098,
2.31161625783,-2.77106618881,0,-0.0523468009959,-0.000225722040302,939,-0.225124314427,0.508056282997,
2.31048043171,-2.77359747887,0,-0.0599043566046,-0.000226094812036,940,-0.227151811123,0.506214499474,
2.30933411519,-2.77611804008,0,-0.067468109572,-0.000226278460304,941,-0.229251742363,0.504154622555,
2.3081768314,-2.77862787247,0,-0.0750335050764,-0.000226325971402,942,-0.231470003724,0.501912534237,
2.30700810353,-2.78112530708,0,-0.0825848443911,-0.000225903944071,943,-0.233761638403,0.499482184649,
2.30582745472,-2.78360962868,0,-0.0901126109449,-0.000225196940921,944,-0.236116409302,0.496885716915,
2.30463440815,-2.78608012199,0,-0.0976072071453,-0.000224203081262,945,-0.238584890962,0.494035065174,
2.30342896382,-2.7885351181,0,-0.105056096338,-0.000222834143196,946,-0.241133868694,0.491019248962,
2.30221016804,-2.79097414017,0,-0.112447317895,-0.000221107624969,947,-0.24375872314,0.487823069096,
2.30097802083,-2.79339647293,0,-0.119774577473,-0.000219192655506,948,-0.246452391148,0.484450101852,
2.29973156849,-2.79580068588,0,-0.127019165814,-0.00021670558787,949,-0.249255523086,0.480852901936,
2.29847128788,-2.79818606377,0,-0.13417811439,-0.000214142220293,950,-0.252105921507,0.477110296488,
2.29719574849,-2.80055189133,0,-0.141233834374,-0.000211052877967,951,-0.255042731762,0.47316801548,
2.29590542714,-2.80289697647,0,-0.148179732668,-0.000207766486196,952,-0.258088499308,0.469032496214,
2.29459937016,-2.80522084236,0,-0.155003338284,-0.000200705385493,953,-0.2611784935,0.464743196964,
2.29327805439,-2.80752229691,0,-0.161697717646,-0.000196902718864,954,-0.264334857464,0.460299670696,
2.29194004933,-2.80980038643,0,-0.168243193413,-0.000192521809905,955,-0.267592281103,0.455608695745,
2.29058535496,-2.81205439568,0,-0.174632426602,-0.000187924868182,956,-0.270904123783,0.450828373432,
2.2892139713,-2.81428384781,0,-0.180859699102,-0.0001831600336,957,-0.274273991585,0.445880711079,
2.28782542149,-2.81648755074,0,-0.186910389482,-0.000177965159553,958,-0.277715146542,0.440768301487,
2.28641922871,-2.81866502762,0,-0.192775044271,-0.000172488998442,959,-0.281224608421,0.435503065586,
2.28499539296,-2.82081532478,0,-0.198444077016,-0.000166734292115,960,-0.284812152386,0.430043876171,
2.28355296055,-2.82293796539,0,-0.203904385111,-0.000160594374047,961,-0.28840816021,0.424528181553,
2.28209288518,-2.82503223419,0,-0.20915490048,-0.000154423119499,962,-0.292099237442,0.418825268745,
2.28061373631,-2.82709717751,0,-0.214175274677,-0.00014765349963,963,-0.295838028193,0.412993401289,
2.27911551396,-2.8291323185,0,-0.218959100372,-0.000140695510401,964,-0.299620479345,0.407063215971,
2.27759821812,-2.83113741875,0,-0.223501726338,-0.000133600821679,965,-0.303446918726,0.400998204947,
2.2760618488,-2.83311152458,0,-0.227792899359,-0.000126204762834,966,-0.307309567928,0.394849359989,
2.27450545231,-2.83505439758,0,-0.231820990344,-0.000118466704927,967,-0.311233520508,0.388559401035,
2.27292950551,-2.83696532249,0,-0.235580835596,-0.000110576867347,968,-0.315189838409,0.382193505764,
2.27133353154,-2.8388440609,0,-0.239064116326,-0.000102442459729,969,-0.319169044495,0.375732064247,
2.26971753041,-2.84068989754,0,-0.242262094826,-9.40511843598e-05,970,-0.323205113411,0.369155466557,
2.26808150212,-2.84250259399,0,-0.245169720234,-8.55114687909e-05,971,-0.327246785164,0.362555503845,
2.26642496983,-2.84428191185,0,-0.24777855703,-7.67237715301e-05,972,-0.331308841705,0.355858743191,
2.26474793355,-2.84602761269,0,-0.250083507254,-6.77862752037e-05,973,-0.33541816473,0.349113941193,