lower angle,upper angle,holding angle,system x,acceleration,ticks (200 tps),lower acceleration (shoulder),upper acceleration (elbow),
1.862180479,-0.471352484,0,-1.07120645486,-0.266711567112,1,0.0,0.0,
1.862180479,-0.471352484,0,-1.07120645486,0.0,2,0.0,0.0,
1.862180479,-0.471352484,0,-1.07120645486,0.0,3,0.0,0.0,
1.84895332822,-0.445538824347,0,-1.04743067729,0.00591850585392,4,-2.64546871185,-5.1628036499,
1.83143403953,-0.411262754274,0,-1.01608278863,0.00780307488114,5,-3.50394773483,-6.85538196564,
1.80942289544,-0.368187863303,0,-0.976282941434,0.00990647337556,6,-4.40240621567,-8.61531257629,
1.78285032524,-0.316167261374,0,-0.92767063852,0.0120993199568,7,-5.31482696533,-10.4047088623,
1.75163479907,-0.255035977733,0,-0.869801468033,0.014402668618,8,-6.2436132431,-12.2272090912,
1.71570088727,-0.184643831027,0,-0.802209674913,0.0168216326899,9,-7.18755912781,-14.0798835754,
1.67499985559,-0.104894276631,0,-0.724478930982,0.0193440930761,10,-8.14132785797,-15.9520263672,
1.6295314507,-0.0157871506336,0,-0.636317061567,0.0219390413268,11,-9.09524726868,-17.8243865967,
1.57936737699,0.0825349428532,0,-0.53764167352,0.0245542651306,12,-10.0349178314,-19.6683731079,
1.5246735589,0.189742121923,0,-0.428667292089,0.0271158994326,13,-10.9414968491,-21.4465866089,
1.4657243566,0.305289123285,0.0,-0.309980093975,0.0295314644731,14,-11.7932596207,-23.1158485413,
1.40290249152,0.428415451276,0.0,-0.182575956757,0.0316986686923,15,-12.5685033798,-24.6330490112,
1.33667910857,0.558183524835,0,-0.0478344770888,0.0335228069217,16,-13.2495164871,-25.9627571106,
1.26757640405,0.693553302514,0,0.092555568799,0.0349267434021,17,-13.8260583878,-27.0842971802,
1.19612015052,0.833473775613,0,0.236728872163,0.0358664610095,18,-14.2973356247,-27.9955406189,
1.12279582782,0.976971123445,0,0.382763710949,0.0363246294412,19,-14.6714496613,-28.7118167877,
1.04801578088,1.1232124307,0,0.528794504363,0.0363219868854,20,-14.9629888535,-29.2613220215,
0.972102768848,1.27153751634,0,0.673079868828,0.0358862489163,21,-15.1899023056,-29.6786575317,
0.895287282894,1.42146537088,0,0.814021504236,0.0350526981105,22,-15.3706483841,-29.9996414185,
0.817713745068,1.57268104337,0,0.950159938076,0.0338563147022,23,-15.5225067139,-30.25756073,
0.739450819919,1.72501454138,0,1.08014807631,0.0323250216932,24,-15.6605768204,-30.4815216064,
0.660503871868,1.87841973089,0,1.20269790058,0.0304737788309,25,-15.7975950241,-30.696100235,
0.580825336407,2.03295168661,0,1.31654669217,0.0283087456933,26,-15.9441289902,-30.9218082428,
0.500324256847,2.18875274442,0,1.4204017421,0.0258225051235,27,-16.1089191437,-31.1760139465,
0.418873317669,2.34603962682,0,1.5129062795,0.0229992036197,28,-16.2991962433,-31.4736747742,
0.336315997074,2.50509772085,0,1.59259895661,0.0198127775644,29,-16.5208530426,-31.8284606934,
0.252470977734,2.66627726339,0,1.65790491473,0.0162352370366,30,-16.7788467407,-32.2534561157,
0.167135246227,-3.45318951823,0,1.7071440531,0.0122404027834,31,-17.077501297,-32.762096405,
0.0800850467185,-3.28644099451,0,1.73857049202,0.00781198213609,32,-17.4210414886,-33.3691520691,
0.00892793374262,-3.11608758189,0,1.752833,0.00354521848388,33,-17.8143806458,-34.0914382935,