lower angle,upper angle,holding angle,system x,acceleration,ticks (200 tps),lower acceleration (shoulder),upper acceleration (elbow),
1.57079632679,0.0,0,2.02525964409e-15,1.05799824202e-16,1,0.0,0.0,
1.57076722696,5.66817761865e-05,0,0.000159013017102,8.30675523498e-06,2,-0.0058199679479,-0.0113363554701,
1.57070737322,0.000173580425326,0,0.00048163690184,1.68529211257e-05,3,-0.0119707472622,-0.0233797300607,
1.57061739952,0.000349392590579,0,0.000965379781546,2.52690362433e-05,4,-0.0179947428405,-0.0351624377072,
1.57049758159,0.000583566550631,0,0.00160894169137,3.36170607203e-05,5,-0.0239635854959,-0.0468347892165,
1.57034815083,0.000875672849361,0,0.00241075739974,4.18831324317e-05,6,-0.0298861563206,-0.0584212616086,
1.57016927313,0.0012254024623,0,0.0033697199194,5.00911540931e-05,7,-0.0357755459845,-0.0699459239841,
1.56996109453,0.0016324770404,0,0.00448494438081,5.82528372684e-05,8,-0.0416357219219,-0.0814149230719,
1.56972386368,0.00209643319249,0,0.00575477563675,6.63278736404e-05,9,-0.0474461838603,-0.0927912294865,
1.5694578102,0.00261684693396,0,0.00717762846658,7.43200061117e-05,10,-0.0532106943429,-0.104082740843,
1.56916322588,0.00319317425601,0,0.00875156277344,8.22106180867e-05,11,-0.0589168444276,-0.115265451372,
1.56884035986,0.00382490595803,0,0.0104755561331,9.00476673335e-05,12,-0.0645732134581,-0.126346424222,
1.56848953135,0.00451142853126,0,0.0123477466009,9.77872847793e-05,13,-0.0701656714082,-0.137304395437,
1.56811109052,0.00525210425258,0,0.0143655911112,0.000105393860234,14,-0.0756881535053,-0.148135244846,
1.56770540407,0.00604622485116,0,0.0165269996819,0.000112891141834,15,-0.0811372920871,-0.158824115992,
1.56727278146,0.00689313979819,0,0.0188309580578,0.000120335286973,16,-0.0865244865417,-0.169382959604,
1.56681365572,0.00779200391844,0,0.0212751217258,0.000127656821337,17,-0.0918251872063,-0.179772868752,
1.56632843201,0.00874202884734,0,0.0238572647519,0.000134861908951,18,-0.0970447584987,-0.190004974604,
1.56581755175,0.00974237266928,0,0.0265747187023,0.000141927446884,19,-0.102176010609,-0.200068861246,
1.56528149458,0.0107920989394,0,0.029424891879,0.000148857493597,20,-0.107211492956,-0.209945142269,
1.56472075644,0.0118902716786,0,0.03240464664,0.000155623533345,21,-0.112147562206,-0.219634622335,
1.56413577317,0.0130359940231,0,0.0355122773718,0.000162300341212,22,-0.116996705532,-0.229144304991,
1.56352706027,0.014228223823,0,0.0387455038712,0.000168857925886,23,-0.121742479503,-0.238445997238,
1.56289517513,0.0154658854008,0,0.0421011347096,0.000175248738356,24,-0.126377046108,-0.247532218695,
1.56224064908,0.0167479291558,0,0.0455764709484,0.000181498443938,25,-0.13090506196,-0.256408661604,
1.56156403019,0.0180732794106,0,0.0491686284672,0.000187597386663,26,-0.13532397151,-0.265070319176,
1.56086590147,0.0194407571107,0,0.0528750329939,0.000193561790881,27,-0.139625802636,-0.273495316505,
1.56014691672,0.0208490975201,0,0.0566919834036,0.000199332771431,28,-0.143796801567,-0.281667768955,
1.55940762634,0.0222971830517,0,0.0606171114716,0.000204979904096,29,-0.147858157754,-0.28961712122,
1.55864872044,0.0237836968154,0,0.0646462533004,0.000210409481095,30,-0.151781260967,-0.297302603722,
1.55787081929,0.0253073498607,0,0.0687771587136,0.000215695763107,31,-0.155580237508,-0.304730772972,
1.5570745357,0.0268669389188,0,0.0730066091005,0.000220838431686,32,-0.159256666899,-0.311917990446,
1.55626057653,0.0284610539675,0,0.077331205095,0.00022580406279,33,-0.162791863084,-0.318823337555,
1.555429617,0.0300883445889,0,0.0817477493823,0.000230602370156,34,-0.166191771626,-0.325457602739,
1.55458239379,0.0317473746836,0,0.0862522259241,0.000235191056662,35,-0.169444486499,-0.33180564642,
1.55371959793,0.0334367379546,0,0.0908417051707,0.000239626776583,36,-0.172558814287,-0.337872862816,
1.55284188787,0.0351551175117,0,0.0955130680518,0.00024389944853,37,-0.175541952252,-0.343675553799,
1.55195006455,0.0369009412825,0,0.100262099697,0.000247943140122,38,-0.178364723921,-0.349164485931,
1.55104483391,0.038672760129,0,0.10508598413,0.000251848422629,39,-0.181045889854,-0.354363977909,
1.55012694845,0.0404690988362,0,0.10998073483,0.000255543472422,40,-0.183576717973,-0.359267652035,
1.5491971905,0.0422883704305,0,0.114942963485,0.000259063452181,41,-0.18595173955,-0.363853573799,
1.54825636285,0.0441290400922,0,0.119967865015,0.000262332467873,42,-0.188165470958,-0.368134349585,
1.5473051584,0.0459896177053,0,0.125053634681,0.00026550723348,43,-0.190240964293,-0.372115373611,
1.54634441535,0.0478684529662,0,0.130195933612,0.000268455410362,44,-0.192148953676,-0.375767529011,
1.545374916,0.0497640259564,0,0.135390422965,0.000271177013537,45,-0.193900078535,-0.379114568233,
1.54439745011,0.0516746938229,0,0.140634259696,0.000273750290267,46,-0.195493146777,-0.382134050131,
1.54341282981,0.053598869592,0,0.145923069941,0.000276095113129,47,-0.196924090385,-0.384834945202,
1.54242182622,0.0555349737406,0,0.1512537293,0.000278276521113,48,-0.198200598359,-0.387221634388,
1.54142525705,0.0574813596904,0,0.156622524098,0.000280263752374,49,-0.199313700199,-0.389276117086,
1.54042394372,0.0594363585114,0,0.162025934452,0.00028206787569,50,-0.200262948871,-0.391001462936,
1.53941870953,0.0613983236253,0,0.167460062485,0.000283667379647,51,-0.20104663074,-0.392392992973,
1.53841039265,0.0633656233549,0,0.172920306966,0.000285027454184,52,-0.201663330197,-0.393459945917,
1.53739983688,0.0653365403414,0,0.178403096379,0.000286201282353,53,-0.20211096108,-0.394182741642,
1.53638779099,0.0673095136881,0,0.183905783179,0.000287236616087,54,-0.202409267426,-0.394595623016,
1.5353751416,0.0692827925086,0,0.189423855586,0.000288036815384,55,-0.20252981782,-0.394654810429,
1.53436270828,0.0712547302246,0,0.194953541272,0.000288640005786,56,-0.202486157417,-0.394388198853,
1.53335129941,0.0732236877084,0,0.200491332399,0.000289059856465,57,-0.20228177309,-0.39378964901,
1.53234174947,0.0751879513264,0,0.206033915298,0.000289306895386,58,-0.201909571886,-0.392851829529,
1.53133488173,0.0771458745003,0,0.211577396516,0.000289350407018,59,-0.201373830438,-0.391585350037,
1.53033146361,0.0790958628058,0,0.217118991433,0.000289248888201,60,-0.200683474541,-0.389997780323,
1.52933239664,0.0810361802578,0,0.222653489129,0.000288875275882,61,-0.199813604355,-0.388062775135,
1.52833845566,0.0829652175307,0,0.228178071532,0.000288354660121,62,-0.19878757,-0.385805904865,
1.52735045651,0.0848813131452,0,0.233689305873,0.000287654878291,63,-0.197599604726,-0.383217513561,
1.5263691927,0.0867828428745,0,0.239183971313,0.000286786939806,64,-0.196251809597,-0.38030654192,
1.52539545024,0.0886682197452,0,0.244658566559,0.000285736621295,65,-0.19474889338,-0.37707477808,
1.52443003381,0.0905358195305,0,0.250109503438,0.00028449869126,66,-0.193082302809,-0.37352001667,
1.52347377042,0.0923839658499,0,0.25553319489,0.0002830736102,67,-0.191253110766,-0.369627356529,
1.52252742375,0.0942110940814,0,0.260926564748,0.000281487960158,68,-0.189269050956,-0.365426123142,
1.52159181336,0.0960155874491,0,0.26628543029,0.000279681654201,69,-0.18712310493,-0.360898137093,
1.52066765825,0.0977959185839,0,0.271607666922,0.000277766322978,70,-0.184831082821,-0.356067478657,
1.51975574071,0.0995505154133,0,0.276889691863,0.000275664669127,71,-0.182383164763,-0.350919395685,
1.51885686169,0.101277820766,0,0.282127097282,0.000273333095854,72,-0.179776117206,-0.34546226263,
1.51797171036,0.102976351976,0,0.287318113391,0.000270898049471,73,-0.177030041814,-0.339707225561,
1.51710106532,0.104644551873,0,0.292459072982,0.000268281947215,74,-0.174129381776,-0.333638131618,
1.51624565298,0.106280900538,0,0.297547505279,0.000265536284769,75,-0.171082466841,-0.327269613743,
1.51540615136,0.107884012163,0,0.302580641571,0.000262637413997,76,-0.16790035367,-0.320623427629,
1.51458331297,0.109452411532,0,0.307554519198,0.000259542244557,77,-0.164568141103,-0.313678443432,
1.5137778456,0.11098460108,0,0.312466969427,0.000256334128778,78,-0.1610930264,-0.306440204382,
1.51299046824,0.112479180098,0,0.317314084541,0.000252921139334,79,-0.157476335764,-0.298914730549,
1.51222180302,0.113934770226,0,0.322094840027,0.000249455801188,80,-0.15373301506,-0.291119545698,
1.51147251675,0.115350060165,0,0.326805787003,0.000245809094136,81,-0.14985729754,-0.283056616783,
1.51074325393,0.116723679006,0,0.331445059248,0.000242066469991,82,-0.145852684975,-0.274725556374,
1.51003472234,0.118054270744,0,0.336008489548,0.000238106545961,83,-0.141706526279,-0.266117244959,
1.50934750313,0.11934055388,0,0.340495039267,0.000234092481675,84,-0.137444064021,-0.257258355618,
1.50868220354,0.120581306517,0,0.344901966046,0.000229934833436,85,-0.133059933782,-0.248150199652,
1.50803947548,0.121775195003,0,0.349226634009,0.000225640463785,86,-0.128546103835,-0.238777548075,
1.50741990755,0.122921027243,0,0.353466495692,0.000221212662413,87,-0.123913899064,-0.22916777432,
1.50682406227,0.124017633498,0,0.357619548943,0.000216681140688,88,-0.119168542325,-0.219321608543,
1.50625248353,0.125063866377,0,0.361684090835,0.000212060675264,89,-0.114315539598,-0.209246188402,
1.50570579717,0.126058474183,0,0.365657189541,0.000207287536826,90,-0.109337940812,-0.198922008276,
1.50518450985,0.127000421286,0,0.369536791757,0.000202406865991,91,-0.104257121682,-0.188385307789,
1.50468906859,0.127888679504,0,0.373322706585,0.000197516767025,92,-0.0990874245763,-0.17765212059,
1.5042200918,0.128722056746,0,0.377011406335,0.000192441688347,93,-0.0937958955765,-0.166677117348,
1.50377798925,0.129499673843,0,0.380601822207,0.000187312094708,94,-0.0884207189083,-0.155525684357,
1.50336327503,0.130220487714,0,0.384091761858,0.000182068273331,95,-0.0829433053732,-0.144162267447,
1.50297644834,0.130883455276,0,0.387479525008,0.000176735879761,96,-0.0773666203022,-0.132592648268,
1.5026179115,0.131487712264,0,0.390764078501,0.000171349710363,97,-0.0717071667314,-0.120851606131,
1.5022881041,0.132032379508,0,0.393943370562,0.000165856179576,98,-0.0659605041146,-0.108931183815,
1.50198742847,0.132516548038,0,0.39701700045,0.000160341149597,99,-0.0601365827024,-0.0968338102102,
1.50171632419,0.132939338684,0,0.399982916326,0.000154720152098,100,-0.0542194806039,-0.0845603793859,
1.50147512654,0.133300051093,0.0133300051093,0.402839978999,0.000149040059909,101,-0.0482400655746,-0.0721412971616,
1.50126426021,0.133597820997,0.0,0.405586417268,0.000143267622269,102,-0.0421738214791,-0.0595530942082,
1.50107818941,0.13384334743,0,0.408253581838,0.000139130773629,103,-0.0372145958245,-0.0491086915135,
1.50092316518,0.134024441242,0,0.410807629646,0.000133228324703,104,-0.0310060530901,-0.0362192988396,
1.50079941104,0.13414055109,0,0.413249000514,0.000127349275248,105,-0.0247503966093,-0.0232208706439,
1.50070731441,0.134190917015,0,0.415575675739,0.00012136497201,106,-0.0184192676097,-0.0100732445717,
1.50064712862,0.134174957871,0,0.417787532185,0.000115374482244,107,-0.0120370313525,0.00319080427289,
1.50061916659,0.134092062712,0,0.419882900741,0.000109296951355,108,-0.00559338834137,0.0165825933218,
1.50062366674,0.133941650391,0,0.421862148681,0.000103238824658,109,0.000900375656784,0.0300795696676,
1.50066088984,0.133723214269,0,0.423723850965,9.70925532331e-05,110,0.00744540756568,0.0436885431409,
1.50073106686,0.133436262608,0,0.42546735439,9.09270274165e-05,111,0.0140344947577,0.0573900230229,
1.50083435426,0.133080393076,0,0.42709319878,8.47896306608e-05,112,0.0206568352878,0.071176469326,
1.50097096811,0.132655143738,0,0.428600799273,7.86222180304e-05,113,0.0273227803409,0.0850493907928,
1.50114109466,0.132160097361,0,0.429989921111,7.24426700407e-05,114,0.0340246595442,0.0990059226751,
1.50134488294,0.131594970822,0,0.431259660585,6.62161944755e-05,115,0.0407585911453,0.113026529551,
1.50158250431,0.130959406495,0,0.432409429261,5.9959112707e-05,116,0.0475226119161,0.127111196518,
1.50185403327,0.130253180861,0,0.433439936721,5.37294701931e-05,117,0.0543073862791,0.141248524189,
1.50215957413,0.129476025701,0,0.434351540304,4.75290690049e-05,118,0.0611069686711,0.155430674553,
1.50249925355,0.12862765789,0,0.435144069278,4.13203090619e-05,119,0.0679349303246,0.169671058655,
1.50287313859,0.127707958221,0,0.435816999632,3.50843714181e-05,120,0.074777700007,0.183941215277,
1.50328128884,0.126716718078,0,0.436371316998,2.88999627124e-05,121,0.0816302448511,0.198246642947,
1.50372370432,0.125653907657,0,0.43680744287,2.27375702596e-05,122,0.0884834229946,0.212561771274,
1.50420045207,0.1245194152,0,0.437124743701,1.65421888823e-05,123,0.0953495651484,0.226898938417,
1.50471147994,0.123313248158,0,0.437324832542,1.04313246609e-05,124,0.102205261588,0.241233468056,
1.50525684009,0.122035309672,0,0.43740735398,4.30207936192e-06,125,0.109072595835,0.255589723587,
1.50583647291,0.120685629547,0,0.43737384792,-1.74674464029e-06,126,0.115926988423,0.269933670759,
1.5064503784,0.119264297187,0,0.4372230415,-7.86178046675e-06,127,0.122779838741,0.284265071154,
1.50709842245,0.117771454155,0,0.436957349613,-1.38507048148e-05,128,0.129608362913,0.298567712307,
1.50778057525,0.116207122803,0,0.436577429338,-1.98053029666e-05,129,0.136431753635,0.3128670156,
1.50849675859,0.114571481943,0,0.43608332047,-2.57576263858e-05,130,0.143236041069,0.327127754688,
1.50924686814,0.11286470294,0,0.435476027662,-3.16574921318e-05,131,0.150022536516,0.341356396675,
1.51003076608,0.111087046564,0,0.434756395451,-3.75132042455e-05,132,0.156779646873,0.355531394482,
1.51084830339,0.109238736331,0,0.433926163278,-4.32781185635e-05,133,0.163508012891,0.369663119316,
1.51169933478,0.107320055366,0,0.432986102229,-4.89966316947e-05,134,0.170206591487,0.383735179901,
1.51258367027,0.105331361294,0,0.431937403245,-5.46582068609e-05,135,0.176866710186,0.397740066051,
1.51350107516,0.103273019195,0,0.430782626728,-6.01862303283e-05,136,0.183481499553,0.41166716814,
1.51445141534,0.101145379245,0,0.429521220492,-6.57429220978e-05,137,0.190067499876,0.425528228283,
1.51543449337,0.0989487543702,0,0.428155249917,-7.11918776227e-05,138,0.196616455913,0.439325273037,
1.51645004103,0.0966836735606,0,0.426686057171,-7.65706052489e-05,139,0.203109398484,0.453015089035,
1.51749783109,0.0943505987525,0,0.425114578822,-8.19005902099e-05,140,0.209558039904,0.466618329287,
1.5185775506,0.0919500663877,0,0.423443525257,-8.70891427676e-05,141,0.2159435004,0.480105042458,
1.51968894626,0.0894825831056,0,0.421674058422,-9.22170350086e-05,142,0.222279384732,0.493496000767,
1.52083177219,0.0869486555457,0,0.41980709248,-9.72969893923e-05,143,0.228564307094,0.506784856319,
1.52200566331,0.0843489095569,0,0.417845790307,-0.000102212174699,144,0.234778180718,0.519948542118,
1.52321037749,0.0816838890314,0,0.415790412269,-0.000107113635301,145,0.240942299366,0.533005595207,
1.52444551984,0.0789543166757,0,0.413643731105,-0.000111870502473,146,0.247028902173,0.545913934708,
1.52571078489,0.0761608406901,0,0.411406619143,-0.00011658179293,147,0.253052592278,0.558696389198,
1.5270057703,0.0733041614294,0,0.409082409313,-0.000121119331672,148,0.258997231722,0.571335613728,
1.52833014826,0.0703849717975,0,0.406672076407,-0.000125605310034,149,0.264875739813,0.583837389946,
1.52968350152,0.0674040541053,0,0.404178281968,-0.000129952996786,150,0.270670562983,0.596182405949,
1.53106546129,0.0643621608615,0,0.401602507777,-0.000134223507997,151,0.276391148567,0.608379423618,
1.53247561405,0.0612600743771,0,0.398947289581,-0.000138361781603,152,0.282030791044,0.620417714119,
1.53391350905,0.0580986849964,0,0.396214862371,-0.000142383531319,153,0.287579834461,0.632278203964,
1.53537874023,0.0548787750304,0,0.393407513041,-0.000146285994195,154,0.293046504259,0.643981814384,
1.53687086801,0.0516012385488,0,0.390527051713,-0.000150094085056,155,0.298425525427,0.655508041382,
1.53838943044,0.0482669733465,0,0.387575973396,-0.000153772057456,156,0.30371260643,0.666853070259,
1.53993394325,0.0448769256473,0,0.384556824518,-0.000157317216867,157,0.308902621269,0.678009927273,
1.54150397616,0.0414319708943,0,0.381471367456,-0.000160770576048,158,0.31400680542,0.688991069794,
1.54309900949,0.0379330813885,0,0.378322946773,-0.000164049266065,159,0.319006800652,0.699777901173,
1.54471851239,0.0343812853098,0,0.375114483474,-0.000167175917001,160,0.323900848627,0.710359096527,
1.54636205646,0.0307775214314,0,0.371846777019,-0.000170260872652,161,0.328708410263,0.720753073692,
1.54802908475,0.027122804895,0,0.368523793183,-0.000173139144511,162,0.333406150341,0.730944156647,
1.54971906083,0.0234182123095,0,0.365147947862,-0.000175890638906,163,0.337995380163,0.740918397903,
1.55143153022,0.0196646843106,0,0.361720872855,-0.000178557997562,164,0.342494249344,0.750706195831,
1.55316588754,0.0158633906394,0,0.358245940817,-0.000181043727042,165,0.346871435642,0.760258853436,
1.55492161686,0.0120153641328,0,0.354725507173,-0.000183412187651,166,0.351145923138,0.769605517387,
1.55669815006,0.00812175124884,0,0.351162040539,-0.000185651972362,167,0.355307102203,0.778723120689,
1.55849490321,0.00418364303187,0,0.347559317626,-0.000187694919348,168,0.359350562096,0.787621736526,
1.56031135103,0.000202129027457,0,0.34391919484,-0.000189640575133,169,0.363289654255,0.796303153038,
1.56214688818,-0.003821849823,0,0.340248282764,-0.000191242458109,170,0.367107629776,0.804744124413,
1.56400094793,-0.00788640975952,0,0.336538549346,-0.000193262782461,171,0.370812028646,0.812960982323,
1.56587296172,-0.0119915008545,0,0.332808015384,-0.000194344267256,172,0.374402910471,0.820951998234,
1.56776233,-0.0161347389221,0,0.329042640507,-0.00019615715233,173,0.377873778343,0.828710794449,
1.56966850063,-0.0203161239624,0,0.325260607377,-0.000197022685707,174,0.381234258413,0.836237192154,
1.57159121434,-0.0245337486267,0,0.321443379096,-0.000198853851688,175,0.384468108416,0.843520343304,
1.57352908055,-0.0287861824036,0,0.31761659106,-0.000199349568329,176,0.387573510408,0.850550353527,
1.57548172871,-0.033073425293,0,0.313792413614,-0.000199211355419,177,0.39057046175,0.857360243797,
1.57744915883,-0.037392616272,0,0.309930223276,-0.000201189470669,178,0.393437981606,0.863915026188,
1.57942994038,-0.0417442321777,0,0.306083995789,-0.000200355843895,179,0.396194696426,0.870245456696,
1.58142407338,-0.0461254119873,0,0.302213109854,-0.000201638345631,180,0.398822158575,0.876320898533,
1.58343060414,-0.0505361557007,0,0.298349012372,-0.000201276379383,181,0.401327162981,0.88215482235,
1.58544905583,-0.0549750328064,0,0.294487115076,-0.000201159363435,182,0.403718233109,0.887756466866,
1.58747895161,-0.059440612793,0,0.290622830875,-0.00020128126735,183,0.405976295471,0.893094539642,
1.58951981465,-0.0639314651489,0,0.286751574303,-0.00020164219111,184,0.408121287823,0.898203134537,
1.59157021443,-0.0684471130371,0,0.282913788476,-0.000199896502354,185,0.4101357162,0.903054475784,
1.59363062779,-0.0729851722717,0,0.279059857881,-0.000200735229952,186,0.412038713694,0.907680749893,
1.59569962422,-0.0775456428528,0,0.275236971793,-0.000199116077361,187,0.413811475039,0.912052512169,
1.59777672688,-0.0821266174316,0,0.271433789646,-0.000198087718343,188,0.415464222431,0.916185319424,
1.59986193577,-0.086727142334,0,0.267636716345,-0.000197767386672,189,0.417006790638,0.920084536076,
1.60195429722,-0.0913457870483,0,0.263856924572,-0.000196864964271,190,0.418412894011,0.923730373383,
1.60405285756,-0.0959811210632,0,0.260105583995,-0.000195380983966,191,0.419712215662,0.927146792412,
1.60615713994,-0.100633144379,0,0.256398343836,-0.000193081901005,192,0.420894563198,0.930330872536,
1.60826666752,-0.105299472809,0,0.252717124984,-0.000191724526965,193,0.421952903271,0.933275997639,
1.61038144032,-0.109979152679,0,0.249048340824,-0.000191074833216,194,0.422897279263,0.935991764069,
1.61250002781,-0.114671707153,0,0.245432390045,-0.000188321141462,195,0.423723101616,0.938468039036,
1.61462195317,-0.119375228882,0,0.241857942615,-0.000186157579279,196,0.424436986446,0.940717935562,
1.61674721638,-0.124088764191,0,0.238311413667,-0.000184701200066,197,0.425047278404,0.942749559879,
1.61887486378,-0.128811836243,0,0.234817441795,-0.00018196189351,198,0.425525873899,0.94454240799,
1.62100441853,-0.133542060852,0,0.231357970687,-0.000180158570477,199,0.425902754068,0.946121096611,
1.62313540379,-0.138279914856,0,0.227955366259,-0.000177194000046,200,0.426185637712,0.947486996651,
1.62526734273,-0.143023014069,0,0.224591579833,-0.000175170688293,201,0.426353693008,0.948641419411,
1.62739928166,-0.147770881653,0,0.221291234194,-0.00017186526618,202,0.426402926445,0.949574291706,
1.62953122059,-0.152522087097,0,0.21803402349,-0.000169610227846,203,0.426360070705,0.950307369232,
1.63166220585,-0.157276630402,0,0.214851289217,-0.000165730117892,204,0.426210939884,0.950829088688,
1.6337917606,-0.16203212738,0,0.21172499694,-0.000162789330133,205,0.425966769457,0.951144933701,
1.63591988484,-0.166788578033,0,0.208655036722,-0.000159854455064,206,0.425621390343,0.951267838478,
1.63804610173,-0.171544551849,0,0.205636843501,-0.000157156932389,207,0.425179362297,0.951206207275,
1.64016898076,-0.176299095154,0,0.202704002667,-0.00015271099532,208,0.424642264843,0.950943350792,
1.64228899876,-0.18105173111,0,0.199833961292,-0.000149439127483,209,0.424014925957,0.950508058071,
1.64440567891,-0.185801029205,0,0.197022160634,-0.000146405058038,210,0.423302292824,0.949892044067,
1.64651806752,-0.190546512604,0,0.194293180825,-0.000142090919433,211,0.422497540712,0.949093103409,
1.64862616459,-0.195287227631,0,0.191633472829,-0.000138482394643,212,0.421609044075,0.948119997978,
1.6507294933,-0.200022220612,0,0.189045196102,-0.000134761861202,213,0.420636683702,0.946995615959,
1.65282757679,-0.204751014709,0,0.186537219183,-0.000130579381315,214,0.419588953257,0.945705533028,
1.65491946141,-0.209472179413,0,0.184120676897,-0.000125817359804,215,0.418462336063,0.944252431393,
1.65700610081,-0.214185237885,0,0.181757375583,-0.000123042583249,216,0.417259275913,0.942647755146,
1.6590860645,-0.218889713287,0,0.179487553724,-0.00011817432186,217,0.415990114212,0.940910518169,
1.66115935246,-0.223585128784,0,0.1773043862,-0.000113661572265,218,0.414640218019,0.939025044441,
1.66322548787,-0.228270053864,0,0.175203332359,-0.000109385229623,219,0.413233399391,0.937002122402,
1.66528399388,-0.232944011688,0,0.173193251332,-0.000104647856544,220,0.411758333445,0.93485045433,
1.66733534733,-0.237607002258,0,0.171258361407,-0.000100732213092,221,0.410223335028,0.932591557503,
1.66937811772,-0.242258071899,0,0.169432149552,-9.50729576253e-05,222,0.408629775047,0.930201053619,
1.67141325871,-0.246896743774,0,0.1676764886,-9.13990662722e-05,223,0.406977385283,0.92769920826,
1.67343981663,-0.251522064209,0,0.166009207851,-8.6797068741e-05,224,0.405284076929,0.925086379051,
1.67545731465,-0.256134033203,0,0.164445839827,-8.13865693552e-05,225,0.403533369303,0.922382712364,
1.67746575276,-0.26073217392,0,0.162979578635,-7.63304529666e-05,226,0.401734679937,0.919584393501,
1.6794656078,-0.265315532684,0,0.161581316034,-7.27898221764e-05,227,0.399898171425,0.916700541973,
1.68145544926,-0.269884109497,0,0.160297853921,-6.68129054454e-05,228,0.398019134998,0.913723170757,
1.68343623082,-0.274437427521,0,0.159091135975,-6.28088910689e-05,229,0.396096915007,0.910680413246,
1.68540699879,-0.278975486755,0,0.157992307286,-5.71925329201e-05,230,0.394145280123,0.907561302185,
1.68736775319,-0.283497333527,0,0.156987910597,-5.22766489267e-05,231,0.3921636343,0.904380619526,
1.689318494,-0.288002967834,0,0.156077835496,-4.73669022872e-05,232,0.39014801383,0.90114068985,
1.6912587444,-0.292491912842,0,0.155270918027,-4.19958004314e-05,233,0.388110041618,0.897847056389,
1.69318898121,-0.296964645386,0,0.154558095779,-3.70932631863e-05,234,0.38605132699,0.894505977631,
1.69510920445,-0.301420211792,0,0.153925950143,-3.28946650422e-05,235,0.383979976177,0.891135275364,
1.69701846043,-0.305859088898,0,0.153412219495,-2.67323478043e-05,236,0.3818821311,0.887731730938,
1.698917226,-0.310280323029,0,0.152987889054,-2.20800196665e-05,237,0.37977129221,0.884294450283,
1.70080550114,-0.314684391022,0,0.152659502395,-1.70873955625e-05,238,0.377659231424,0.880834698677,
1.70268328587,-0.319071292877,0,0.152426949494,-1.21004943226e-05,239,0.375534743071,0.877361059189,
1.70455010335,-0.323441028595,0,0.15230568986,-6.30946072124e-06,240,0.373406559229,0.873886942863,
1.70640690724,-0.327792644501,0,0.152251199034,-2.8352636468e-06,241,0.371275812387,0.870407938957,
1.70825226704,-0.332127571106,0,0.152329973083,4.09872188467e-06,242,0.369152486324,0.86692738533,
1.71008761326,-0.336444854736,0,0.15248194285,7.90710191447e-06,243,0.367030799389,0.86345744133,
1.71191199223,-0.340744972229,0,0.15274474458,1.36735993545e-05,244,0.364920347929,0.85999917984,
1.71372635762,-0.345027446747,0,0.153080545673,1.74715564682e-05,245,0.362810879946,0.856572687626,
1.71552975575,-0.349293708801,0,0.153540190199,2.39135776468e-05,246,0.360723733902,0.853171944618,
1.7173231403,-0.353542327881,0,0.154072625118,2.770028513e-05,247,0.358660399914,0.849807143211,
1.71910603444,-0.357774734497,0,0.154713126933,3.33221103215e-05,248,0.356613129377,0.846474349499,
1.72087891499,-0.36199092865,0,0.155446046333,3.81297318609e-05,249,0.354581952095,0.843191504478,
1.72264178196,-0.366190433502,0,0.156264665867,4.25876414743e-05,250,0.352577239275,0.839954614639,
1.7243951122,-0.370374679565,0,0.157173179092,4.72637249841e-05,251,0.350604444742,0.836770057678,
1.72613842885,-0.374542713165,0,0.158173776347,5.20476241394e-05,252,0.348651885986,0.83365213871,
1.72787220875,-0.378695487976,0,0.159264037814,5.67107634684e-05,253,0.34674718976,0.830600619316,
1.72959645192,-0.382833957672,0,0.160457028346,6.205361047e-05,254,0.344873130322,0.827626228333,
1.73131163518,-0.386957645416,0,0.161730541038,6.62412744452e-05,255,0.343032985926,0.824730277061,
1.73301775853,-0.391067028046,0,0.163091050766,7.07656441973e-05,256,0.341247618198,0.821916460991,
1.73471529881,-0.395163059235,0,0.164536126495,7.51634750085e-05,257,0.339491069317,0.819179654121,
1.73640425602,-0.399245738983,0,0.1660656458,7.95505227166e-05,258,0.337791591883,0.816548466682,
1.73808463017,-0.403315544128,0,0.167686058076,8.42768091341e-05,259,0.336133569479,0.814005255699,
1.73975737492,-0.407373428345,0,0.169379461891,8.80716706995e-05,260,0.334528595209,0.811574935913,
1.74142249028,-0.411419868469,0,0.171152302875,9.21965380099e-05,261,0.332983642817,0.809248328209,
1.74307997624,-0.415454864502,0,0.173004451041,9.63198493895e-05,262,0.331490814686,0.80703240633,
1.74473030964,-0.419479846954,0,0.174940012939,0.000100640005714,263,0.330051988363,0.804937183857,
1.74637349049,-0.423494338989,0,0.176952290186,0.000104627598716,264,0.328678607941,0.802959620953,
1.74801047246,-0.427500247955,0,0.179036503383,0.000108356757216,265,0.327361345291,0.801115989685,
1.7496407787,-0.431497097015,0,0.181201378249,0.000112548558227,266,0.326109737158,0.799385428429,
1.7512653629,-0.435485839844,0,0.183429032124,0.000115808473716,267,0.324919849634,0.797800838947,
1.75288470189,-0.439467906952,0,0.185723539261,0.0001192823581,268,0.323806017637,0.796351313591,
1.75449831883,-0.443442821503,0,0.188093607918,0.000123209160697,269,0.322756618261,0.795045256615,
1.7561071674,-0.447412490845,0,0.190534418069,0.000126885328811,270,0.321779936552,0.793884396553,
1.75771172444,-0.451376914978,0,0.193030420009,0.000129753090889,271,0.320885688066,0.792860746384,
1.75931198994,-0.45533657074,0,0.195587983246,0.000132951912281,272,0.320050895214,0.791992425919,
1.76090844075,-0.459293365479,0,0.198217641563,0.000136697915326,273,0.319303780794,0.791301846504,
1.76250155369,-0.463246822357,0,0.200897330285,0.000139297182295,274,0.318626195192,0.790740966797,
1.76409180562,-0.467198848724,0,0.203637564825,0.000142442661969,275,0.318034052849,0.790348887444,
1.76567919652,-0.47114944458,0,0.206438151898,0.000145578281316,276,0.317524522543,0.790132462978,
1.76726468007,-0.475099563599,0,0.209281219227,0.00014778467499,277,0.317090541124,0.790081262589,
1.76884825627,-0.479050636292,0,0.212186069912,0.000150994556512,278,0.316746413708,0.790193200111,
1.7704308788,-0.483003139496,0,0.215128327582,0.000152937290749,279,0.316483229399,0.790472209454,
1.77201254765,-0.486957550049,0,0.218114285765,0.000155207113411,280,0.316307812929,0.790940880775,
1.77359326283,-0.490915775299,0,0.221169660167,0.000158813572553,281,0.316211432219,0.791568160057,
1.77517445485,-0.494877338409,0,0.224241809802,0.000159683400248,282,0.316208839417,0.792380392551,
1.7767561237,-0.498844146729,0,0.227356435945,0.000161889520264,283,0.316284894943,0.793373346329,
1.77833826939,-0.502817153931,0,0.230526230515,0.000164754031859,284,0.31645321846,0.794558882713,
1.77992184559,-0.506796836853,0,0.233726827854,0.000166353010523,285,0.316726088524,0.795918464661,
1.78150732914,-0.51078414917,0,0.236955629561,0.000167816752762,286,0.317071706057,0.797463834286,
1.78309472004,-0.514780044556,0,0.240225289862,0.00016993791648,287,0.317520946264,0.79920232296,
1.78468497197,-0.518785476685,0,0.243517912969,0.000171128609055,288,0.318054735661,0.801116228104,
1.78627856175,-0.522801876068,0,0.246837313306,0.000172518455118,289,0.318687140942,0.803236842155,
1.78787548939,-0.526829719543,0,0.250189638249,0.000174227783414,290,0.319404929876,0.805534005165,
1.78947670857,-0.530869483948,0,0.253550551716,0.000174672288552,291,0.320213019848,0.808016300201,
1.79108221928,-0.53492307663,0,0.256945485325,0.000176438360377,292,0.321124583483,0.810711979866,
1.7926929752,-0.538990974426,0,0.260350091827,0.000176939293567,293,0.322123408318,0.813578248024,
1.79430897633,-0.543074131012,0,0.263776893326,0.000178090317908,294,0.323213011026,0.816654622555,
1.79593117634,-0.547173976898,0,0.267214384883,0.000178643941012,295,0.324399113655,0.8199031353,
1.7975590984,-0.551290512085,0,0.270677406717,0.000179967927052,296,0.325673669577,0.823352456093,
1.79919464985,-0.555425643921,0,0.274130468024,0.000179440850283,297,0.327043861151,0.826987147331,
1.80083687703,-0.559579849243,0,0.277609962198,0.000180796943398,298,0.328506857157,0.83082652092,
1.80248721043,-0.563754081726,0,0.281082768148,0.000180444350313,299,0.330055952072,0.834846317768,
1.80414565007,-0.567949295044,0,0.284561279656,0.000180738666256,300,0.331701666117,0.839052677155,
1.80581314961,-0.572166442871,0,0.288027554204,0.00018010086566,301,0.333438903093,0.843465089798,
1.80748923222,-0.576406955719,0,0.291515446373,0.000181221767804,302,0.335271626711,0.848054528236,
1.80917532841,-0.580670833588,0,0.294979099313,0.000179960409344,303,0.337182104588,0.852825522423,
1.81087143818,-0.584959983826,0,0.298443552642,0.000179999743349,304,0.339189887047,0.857799589634,
1.81257756154,-0.58927488327,0,0.301914679796,0.000180344514234,305,0.341287255287,0.862948060036,
1.81429512898,-0.593616008759,0,0.305353036667,0.000178639977354,306,0.343476474285,0.868284106255,
1.81602366368,-0.597984790802,0,0.30879229423,0.000178684843342,307,0.345744013786,0.873798012733,
1.81776411931,-0.602382659912,0,0.312220776423,0.000178123083313,308,0.3480938375,0.879498124123,
1.8195169727,-0.606809616089,0,0.315622879026,0.000176750231438,309,0.350532442331,0.885371565819,
1.82128222386,-0.611266613007,0,0.31901073425,0.000176008090454,310,0.353059053421,0.891420781612,
1.82306034962,-0.61575460434,0,0.322381370752,0.000175111376717,311,0.355668574572,0.897648692131,
1.82485230366,-0.620275020599,0,0.32572307585,0.000173606349224,312,0.358363509178,0.904042720795,
1.82665808598,-0.624827861786,0,0.329035267847,0.000172071197737,313,0.361115276814,0.910614848137,
1.82847769658,-0.629415035248,0,0.332342546633,0.000171814100827,314,0.363967239857,0.917353451252,
1.83031208912,-0.634036064148,0,0.33560793832,0.000169635909391,315,0.366895973682,0.924248754978,
1.83216174046,-0.638692855835,0,0.338840984192,0.000167953619508,316,0.369892537594,0.931306362152,
1.83402665059,-0.643385410309,0,0.342041021619,0.000166237045578,317,0.372967511415,0.938537240028,
1.83590729634,-0.648114681244,0,0.34520495004,0.000164359284456,318,0.376118272543,0.945910215378,
1.83780367772,-0.652882099152,0,0.348350864867,0.000163421690768,319,0.379339993,0.953431844711,
1.83971722523,-0.657687664032,0,0.3514331689,0.000160114356184,320,0.382625877857,0.961118102074,
1.84164698521,-0.662532329559,0,0.35449354738,0.000158973313718,321,0.385984390974,0.968949794769,
1.84359391133,-0.667417049408,0,0.357513842335,0.00015688940671,322,0.389409184456,0.976910412312,
1.84555848042,-0.672342300415,0,0.360484595289,0.000154314251043,323,0.392891168594,0.985028028488,
1.84754069249,-0.677308559418,0,0.363411248463,0.000152021642865,324,0.396434128284,0.993254125118,
1.84954102437,-0.68231678009,0,0.366290536052,0.000149559653992,325,0.400053232908,1.00164484978,
1.85155947606,-0.68736743927,0,0.369127826724,0.000147376143474,326,0.403711557388,1.01014828682,
1.8535965244,-0.692461490631,0,0.371919789087,0.000145018634121,327,0.407448858023,1.01878929138,
1.85565264622,-0.697598934174,0,0.374650682198,0.000141845057055,328,0.411217868328,1.02752399445,
1.85772784153,-0.702781200409,0,0.377338181938,0.000139589777077,329,0.415041595697,1.03639352322,
1.85982258717,-0.7080078125,0,0.379960337044,0.000136189480391,330,0.418932020664,1.04539489746,
1.86193688313,-0.713280200958,0,0.382534734176,0.000133707289616,331,0.422851890326,1.05447125435,
1.86407120625,-0.718598365784,0,0.385045584934,0.000130405410097,332,0.426830768585,1.06366431713,
1.86622507969,-0.723963260651,0,0.387518978698,0.000128458483627,333,0.43084692955,1.07295715809,
1.86839993397,-0.729374885559,0,0.389909560156,0.000124156207102,334,0.434890776873,1.08233559132,
1.87059481541,-0.734834194183,0,0.392258095164,0.000121971233,335,0.438991636038,1.09183263779,
1.87281020085,-0.740341186523,0,0.394548723788,0.000118962476098,336,0.443111121655,1.1013917923,
1.87504656712,-0.745896339417,0,0.396771740181,0.000115449858525,337,0.447277516127,1.1110278368,
1.87730391423,-0.7515001297,0,0.398932138538,0.000112196410923,338,0.451484203339,1.12076497078,
1.87958271901,-0.75715303421,0,0.401020179517,0.00010843639894,339,0.455707937479,1.13056528568,
1.88188250462,-0.762855052948,0,0.403049371274,0.000105378530234,340,0.45995259285,1.14041996002,
1.88420374791,-0.76860666275,0,0.405009920589,0.000101811219567,341,0.464236736298,1.15036141872,
1.88654644887,-0.774408340454,0,0.406906668238,9.84957954292e-05,342,0.468538433313,1.1603500843,
1.8889106075,-0.780260562897,0,0.408744394153,9.54219960082e-05,343,0.47284719348,1.1703826189,
1.8912962238,-0.786162853241,0,0.410515736685,9.19738869691e-05,344,0.477183938026,1.1804869175,
1.89370425145,-0.792115688324,0,0.412196263251,8.72573831756e-05,345,0.481538563967,1.19062888622,
1.89613373677,-0.79812002182,0,0.413825866911,8.46122020173e-05,346,0.485893011093,1.20078468323,
1.8985851566,-0.804174900055,0,0.415376544412,8.05125589315e-05,347,0.490264058113,1.21100711823,
1.9010580341,-0.810281276703,0,0.416873455145,7.77200826758e-05,348,0.494641214609,1.22124576569,
1.90355332295,-0.816438674927,0,0.418280114794,7.30332445969e-05,349,0.499024748802,1.23150968552,
1.90607054631,-0.822647571564,0,0.419615606099,6.93374887279e-05,350,0.503413200378,1.24180674553,
1.90860922734,-0.828907966614,0,0.420892906727,6.63155132984e-05,351,0.507794976234,1.25210404396,
1.91117031971,-0.835220336914,0,0.422087510432,6.20213671342e-05,352,0.512167036533,1.26241648197,
1.91375286976,-0.84158372879,0,0.423214882866,5.85299935992e-05,353,0.516532957554,1.27273392677,
1.91635735432,-0.847999095917,0,0.424270889098,5.48242752463e-05,354,0.520908892155,1.28306388855,
1.91898377339,-0.854465961456,0,0.425248000824,5.0726792683e-05,355,0.52527230978,1.29338669777,
1.92163165013,-0.860984802246,0,0.426164874665,4.75989678546e-05,356,0.529615283012,1.30370020866,
1.92430146138,-0.867554664612,0,0.426993668797,4.30258120965e-05,357,0.533945262432,1.31400763988,
1.9269927303,-0.874176025391,0,0.427752960818,3.94152125591e-05,358,0.538250148296,1.32427871227,
1.92970545689,-0.880848884583,0,0.428441008149,3.57163496101e-05,359,0.542545735836,1.33454430103,
1.93243964116,-0.88757276535,0,0.429050196047,3.16222920991e-05,360,0.546809494495,1.34478223324,
1.93519480626,-0.894347667694,0,0.429593022377,2.81772307531e-05,361,0.551058709621,1.35499286652,
1.93797142903,-0.901173591614,0,0.430053408654,2.38976053057e-05,362,0.555262923241,1.36516165733,
1.9407685558,-0.908050060272,0,0.430452156596,2.06978710353e-05,363,0.559452474117,1.37527930737,
1.9435866634,-0.914977073669,0,0.430773151748,1.66617186459e-05,364,0.563611924648,1.38539159298,
1.94642527501,-0.921954154968,0,0.431022888905,1.29628278265e-05,365,0.567743778229,1.39542019367,
1.94928439061,-0.928981304169,0,0.431199423222,9.16304032133e-06,366,0.57182097435,1.40541279316,
1.95216353337,-0.936058044434,0,0.43130914627,5.69512996197e-06,367,0.575867116451,1.41535973549,
1.95506318013,-0.943183898926,0,0.431330210809,1.09333527638e-06,368,0.579881906509,1.42522192001,
1.95798237721,-0.950359344482,0,0.431294513924,-1.85277687891e-06,369,0.58385181427,1.43504333496,
1.96092112462,-0.957583427429,0,0.431188490653,-5.50286882423e-06,370,0.587776184082,1.4447851181,
1.96387942235,-0.964855670929,0,0.431004353824,-9.55704907954e-06,371,0.591656327248,1.45445799828,
1.9668572704,-0.972175598145,0,0.430734350241,-1.40135443168e-05,372,0.59548664093,1.46405434608,
1.96985323826,-0.979543685913,0,0.43042393488,-1.61107760819e-05,373,0.599258899689,1.4735918045,
1.97286827961,-0.98695898056,0,0.430031593562,-2.03625849561e-05,374,0.602995336056,1.48303592205,
1.97590191762,-0.994421005249,0,0.429563452304,-2.42963312582e-05,375,0.606659829617,1.4923774004,
1.97895319859,-1.0019288063,0,0.429033836682,-2.74865341242e-05,376,0.610278129578,1.50164520741,
1.98202212254,-1.0094833374,0,0.428451602934,-3.02170408849e-05,377,0.613849759102,1.51082992554,
1.9851091663,-1.01708269119,0,0.427778212012,-3.49475927114e-05,378,0.617355167866,1.51991844177,
1.98821289937,-1.02472734451,0,0.427058393092,-3.73567157506e-05,379,0.620785295963,1.52889311314,
1.99133379857,-1.03241586685,0,0.426259257114,-4.14725688924e-05,380,0.624190509319,1.53777074814,
1.99447138707,-1.04014873505,0,0.425397732911,-4.47098692001e-05,381,0.627501964569,1.54656100273,
1.99762518803,-1.04792499542,0,0.42447403757,-4.79357452865e-05,382,0.630756139755,1.5552341938,
2.00079520146,-1.05574417114,0,0.42348018922,-5.1575826538e-05,383,0.633946657181,1.56379687786,
2.00398047368,-1.06360530853,0,0.422430067028,-5.44955880433e-05,384,0.637072503567,1.57225692272,
2.00718100468,-1.07150840759,0,0.421321086089,-5.75494841036e-05,385,0.64012658596,1.58058714867,
2.01039679448,-1.07945251465,0,0.420139783861,-6.13018914412e-05,386,0.643113672733,1.58882498741,
2.01362688939,-1.08743715286,0,0.418905312583,-6.40602554973e-05,387,0.646027743816,1.59692502022,
2.01687128941,-1.0954618454,0,0.417609587514,-6.72342097184e-05,388,0.648868024349,1.60491704941,
2.02012904088,-1.10352563858,0,0.416266167433,-6.97078246881e-05,389,0.651635169983,1.61276364326,
2.02340109746,-1.11162805557,0,0.414840024914,-7.39990520832e-05,390,0.654335618019,1.62051606178,
2.0266855518,-1.11976861954,0,0.413376935773,-7.59151282e-05,391,0.656973421574,1.62814474106,
2.02998335759,-1.12794685364,0,0.411841900749,-7.96389773892e-05,392,0.659495949745,1.63562917709,
2.0332930843,-1.1361618042,0,0.410261694652,-8.19808374614e-05,393,0.661974787712,1.64298582077,
2.03661473195,-1.14441251755,0,0.40862287577,-8.50202502012e-05,394,0.664360165596,1.65021336079,
2.03994830052,-1.15269899368,0,0.40692261719,-8.8206706413e-05,395,0.666668057442,1.65731954575,
2.04329283635,-1.16102075577,0,0.405179328458,-9.04379666413e-05,396,0.668900370598,1.66427445412,
2.04664786259,-1.16937589645,0,0.403382387799,-9.32202139585e-05,397,0.671051800251,1.67109656334,
2.05001337925,-1.17776489258,0,0.401534050248,-9.58853399618e-05,398,0.673113226891,1.67778480053,
2.0533889095,-1.18618679047,0,0.399634125364,-9.85549306385e-05,399,0.675116658211,1.68434929848,
2.05677397648,-1.19464063644,0,0.397682420911,-0.000101239781667,400,0.677016556263,1.69076490402,
2.06016858021,-1.20312595367,0,0.395670789331,-0.000104347295815,401,0.678845286369,1.69703710079,
2.06357129017,-1.21164178848,0,0.393625134148,-0.000106110884319,402,0.680577218533,1.7031955719,
2.0669825832,-1.22018766403,0,0.39152416787,-0.000108978833134,403,0.682240605354,1.7091833353,
2.07040150563,-1.22876262665,0,0.389380624899,-0.000111036628437,404,0.68382370472,1.71504485607,
2.07382805745,-1.23736619949,0,0.387186280217,-0.000113666820945,405,0.685307502747,1.72075092793,
2.07726176182,-1.24599790573,0,0.384945844275,-0.000116019027491,406,0.686703622341,1.72634267807,
2.08070166508,-1.25465679169,0,0.382671800887,-0.000117758006362,407,0.688042223454,1.73177313805,
2.08414824406,-1.26334238052,0,0.380343036332,-0.000120590353332,408,0.689270853996,1.73706579208,
2.08760006825,-1.27205324173,0,0.377979841968,-0.000122371402026,409,0.690424859524,1.74220180511,
2.09105761448,-1.28078937531,0,0.375566116888,-0.000124834500628,410,0.691488981247,1.74722468853,
2.09452040593,-1.28954982758,0,0.373101496922,-0.000127462033482,411,0.692485272884,1.75207924843,
2.09798701207,-1.29833364487,0,0.370610895515,-0.000128804272306,412,0.69337105751,1.75678539276,
2.10145790974,-1.30714082718,0,0.36807817063,-0.000130881917364,413,0.694183707237,1.76138341427,
2.10493262211,-1.31596946716,0,0.365493232764,-0.000133578315264,414,0.694921076298,1.76580619812,
2.10841019551,-1.32482004166,0,0.362882570389,-0.000134906172977,415,0.695549845695,1.77010416985,
2.11189062993,-1.33369159698,0,0.360233030153,-0.000136913730958,416,0.696118295193,1.7742536068,
2.11537344853,-1.3425822258,0,0.35753462383,-0.000139437112488,417,0.696563005447,1.7782484293,
2.11885817448,-1.35149288177,0,0.354805738074,-0.000140871287198,418,0.696960866451,1.78211641312,
2.12234480778,-1.3604221344,0,0.352028676495,-0.000143356574303,419,0.697261989117,1.78585028648,
2.12583191792,-1.36936950684,0,0.34923220596,-0.000144357037605,420,0.697480499744,1.78942584991,
2.12931998173,-1.37833356857,0,0.346386406335,-0.00014690169478,421,0.697591602802,1.79285311699,
2.13280804554,-1.38731431961,0,0.343512215461,-0.000148365697299,422,0.69764816761,1.79616951942,
2.13629610936,-1.39631080627,0,0.34059674262,-0.000150493834758,423,0.697606384754,1.79930114746,
2.13978369633,-1.40532255173,0,0.337643940604,-0.000152413415456,424,0.697494924068,1.80235314369,
2.1432698528,-1.41434860229,0,0.334665242593,-0.000153747983059,425,0.69726395607,1.80520582199,
2.14675505559,-1.42338848114,0,0.331640295009,-0.00015582726214,426,0.696991384029,1.80795383453,
2.15023787419,-1.43244123459,0,0.32859251242,-0.000156069142386,427,0.696606814861,1.81056499481,
2.15371878544,-1.4415063858,0,0.325501616314,-0.000157968013706,428,0.696146965027,1.81303620338,
2.15719683568,-1.45058298111,0,0.322378896147,-0.000159592620649,429,0.695600271225,1.81536054611,
2.16067154805,-1.45967102051,0,0.319232348085,-0.000160808788391,430,0.694985508919,1.81754934788,
2.16414292256,-1.46876907349,0,0.31604496318,-0.000162893630548,431,0.694263935089,1.81959974766,
2.16761048237,-1.47787666321,0,0.312820415237,-0.000164791171197,432,0.693489849567,1.82153177261,
2.17107327382,-1.48699331284,0,0.30957399302,-0.000165906826774,433,0.69261521101,1.82331800461,
2.17453177372,-1.4961180687,0,0.306281477695,-0.000168260623841,434,0.691638827324,1.82495594025,
2.17798502842,-1.50525045395,0,0.302958107071,-0.000169835388525,435,0.69061678648,1.82649850845,
2.18143208424,-1.51438999176,0,0.299618835442,-0.000170635408502,436,0.689488828182,1.82788300514,
2.18487389485,-1.52353525162,0,0.296223959839,-0.000173469584105,437,0.688314497471,1.82915902138,
2.18830902974,-1.53268671036,0,0.29280833341,-0.000174527500132,438,0.687018990517,1.83026885986,
2.19173701207,-1.54184341431,0,0.28937097499,-0.000175635916038,439,0.685674309731,1.83129310608,
2.19515831868,-1.55100393295,0,0.28588413165,-0.000178162141099,440,0.684221506119,1.83212924004,
2.19857199589,-1.5601682663,0,0.282366648488,-0.000179725445055,441,0.682702839375,1.83288621902,
2.20197756688,-1.5693359375,0,0.278821690079,-0.000181126357355,442,0.68111294508,1.83349180222,
2.20537455479,-1.57850551605,0,0.275244399641,-0.000182776283494,443,0.679448723793,1.83399140835,
2.20876295964,-1.58767747879,0,0.271634643012,-0.000184432568021,444,0.677680969238,1.83434522152,
2.21214230458,-1.5968503952,0,0.26798765918,-0.000186331580935,445,0.675849378109,1.83459877968,
2.21551211278,-1.60602378845,0,0.26430659229,-0.000188070991304,446,0.67393386364,1.83467721939,
2.21887190739,-1.6151971817,0,0.26059449854,-0.000189654101364,447,0.671956658363,1.83466660976,
2.22222121159,-1.62436962128,0,0.256850541688,-0.000191279808246,448,0.669892072678,1.83453953266,
2.22556002537,-1.63354110718,0,0.253070551704,-0.000193118194175,449,0.66776573658,1.83426654339,
2.2288878719,-1.64271068573,0,0.249253736217,-0.000194996556838,450,0.665531396866,1.83387613297,
2.2322037975,-1.65187740326,0,0.245410166357,-0.000196361076344,451,0.663247942924,1.83338022232,
2.235508279,-1.66104125977,0,0.241524801557,-0.000198493520589,452,0.660867035389,1.83274888992,
2.23880036274,-1.67020130157,0,0.237607661331,-0.000200107902216,453,0.658425271511,1.83201789856,
2.24208004872,-1.67935705185,0,0.233650888759,-0.000202129936591,454,0.655906260014,1.83112716675,
2.24534686009,-1.68850755692,0,0.229653790288,-0.000204187714162,455,0.65331619978,1.83012199402,
2.24859984318,-1.69765281677,0,0.225633361208,-0.000205377179061,456,0.650635898113,1.82903456688,
2.25183947484,-1.70679187775,0,0.221567643645,-0.000207688400124,457,0.647909224033,1.82780814171,
2.25506480137,-1.71592378616,0,0.217466515458,-0.000209495009957,458,0.645092368126,1.82645499706,
2.2582758228,-1.72504901886,0,0.213329208121,-0.000211340884505,459,0.642179608345,1.82498896122,
2.26147206227,-1.73416566849,0,0.209148151826,-0.000213573432191,460,0.639220774174,1.8234038353,
2.26465304295,-1.74327421188,0,0.204932947189,-0.000215315442712,461,0.63619184494,1.82169747353,
2.26781828801,-1.75237369537,0,0.200682845639,-0.000217095619433,462,0.633070707321,1.81987667084,
2.27096779744,-1.76146364212,0,0.196390270126,-0.000219262842033,463,0.629881858826,1.81794142723,
2.27410061757,-1.77054262161,0,0.192061529581,-0.000221107720733,464,0.62663680315,1.81588220596,
2.27721722523,-1.77961158752,0,0.187688813931,-0.000223351446469,465,0.623298346996,1.81374025345,
2.28031666676,-1.78866863251,0,0.183275184408,-0.000225438849856,466,0.619864463806,1.81141149998,
2.28339894215,-1.79771375656,0,0.178816514352,-0.000227737022135,467,0.616430580616,1.80904769897,
2.28646309773,-1.80674648285,0,0.174325401807,-0.000229391723254,468,0.612861275673,1.80651712418,
2.2895091335,-1.8157658577,0,0.169791343101,-0.000231582519429,469,0.609249472618,1.8038725853,
2.29253704945,-1.82477140427,0,0.165207173751,-0.000234138866488,470,0.605543196201,1.80113244057,
2.29554589192,-1.83376264572,0,0.160585396712,-0.000236057043616,471,0.601792573929,1.79825806618,
2.2985356609,-1.84273910522,0,0.155918824483,-0.000238341983207,472,0.597949802876,1.79527783394,
2.30150587956,-1.8516998291,0,0.151207133668,-0.000240643677183,473,0.594049572945,1.79216718674,
2.30445654789,-1.86064434052,0,0.146443390576,-0.000243299466187,474,0.590068280697,1.78894758224,
2.30738623539,-1.86957263947,0,0.14165230829,-0.000244693109278,475,0.586016535759,1.7856348753,
2.31029589573,-1.87848377228,0,0.136804864496,-0.00024756884346,476,0.581901609898,1.78218626976,
2.31318457524,-1.88737678528,0,0.131910509053,-0.00024996205288,477,0.577708899975,1.77860689163,
2.31605179707,-1.89625120163,0,0.126971941634,-0.000252217259261,478,0.573425889015,1.77493572235,
2.31889708439,-1.90510702133,0,0.121994524298,-0.000254198668174,479,0.569108009338,1.77113294601,
2.32172043721,-1.91394329071,0,0.116968786037,-0.000256663740609,480,0.564697086811,1.76721668243,
2.32452185551,-1.92275905609,0,0.111885570325,-0.000259596254032,481,0.560240328312,1.76319646835,
2.32730038563,-1.93155431747,0,0.10675956841,-0.000261778370946,482,0.555686593056,1.75904774666,
2.33005555073,-1.94032812119,0,0.101590812194,-0.000263958579102,483,0.55106574297,1.75477600098,
2.33278735081,-1.94907999039,0,0.0963729157053,-0.000266465100036,484,0.54638504982,1.75038123131,
2.33549578587,-1.95780944824,0,0.091099665072,-0.000269288529798,485,0.54161131382,1.74587988853,
2.3381794254,-1.96651554108,0,0.0857893884502,-0.00027117632946,486,0.536793649197,1.74125790596,
2.34083922307,-1.97519826889,0,0.0804204864454,-0.000274167154709,487,0.531902194023,1.7365231514,
2.34347374836,-1.98385667801,0,0.0750112231604,-0.000276215289917,488,0.526922821999,1.73165440559,
2.34608300129,-1.99248981476,0,0.0695532061859,-0.000278701647421,489,0.521889448166,1.72666287422,
2.34866698185,-2.00109767914,0,0.0640429805397,-0.000281364441151,490,0.516782224178,1.72155857086,
2.35122521321,-2.00967931747,0,0.0584812599424,-0.000283990769132,491,0.511586487293,1.71634793282,
2.35375674168,-2.01823425293,0,0.052879715485,-0.00028602124416,492,0.506354272366,1.71099638939,
2.35626204411,-2.02676200867,0,0.0472240895613,-0.00028875623528,493,0.50101339817,1.70553123951,
2.35874016682,-2.03526163101,0,0.0415238943493,-0.000291027610466,494,0.495647192001,1.69996130466,
2.36119110981,-2.04373311996,0,0.0357758677643,-0.000293466023657,495,0.490179240704,1.69424057007,
2.36361439625,-2.05217504501,0,0.0299789650159,-0.000295958130925,496,0.484653413296,1.68841218948,
2.3660095493,-2.06058740616,0,0.0241385220835,-0.000298177825324,497,0.479050219059,1.68244171143,
2.36837656895,-2.06896924973,0,0.0182474202741,-0.000300760977522,498,0.473394691944,1.67637181282,
2.37071450154,-2.07731962204,0,0.0123153581154,-0.000302848785033,499,0.467651218176,1.67015516758,
2.3730238239,-2.08563899994,0,0.00633316019138,-0.000305404658955,500,0.461835831404,1.66382336617,
2.37530358235,-2.09392595291,0,0.000308623588777,-0.000307562954128,501,0.455952376127,1.65735781193,
2.3775537769,-2.10217952728,-0.210217952728,-0.0057646828391,-0.000310049508695,502,0.450013279915,1.65079641342,
2.37977345387,-2.11040019989,0.0,-0.0118713993187,-0.000311750836801,503,0.443985044956,1.64407444,
2.38200219075,-2.11866092682,0,-0.0184063388821,-0.000333605066694,504,0.445700109005,1.65220308304,
2.38419802586,-2.12688398361,0,-0.0249611603717,-0.000334615550012,505,0.439193665981,1.64461874962,
2.38636286656,-2.13507223129,0,-0.0315596660158,-0.000336841792418,506,0.433005124331,1.63763332367,
2.38849623601,-2.14322423935,0,-0.0382014441096,-0.00033904716076,507,0.426671206951,1.63040304184,
2.39059765736,-2.15133905411,0,-0.0448841721559,-0.000341133858325,508,0.420264869928,1.62296640873,
2.39266665379,-2.15941619873,0,-0.0516038116054,-0.000343001073267,509,0.413772135973,1.61538279057,
2.39470227162,-2.16745424271,0,-0.0583517260635,-0.000344441208343,510,0.407195836306,1.60764741898,
2.39670546452,-2.17545318604,0,-0.0651450942012,-0.000346757944173,511,0.400563150644,1.59980678558,
2.39867432515,-2.18341207504,0,-0.0719582653744,-0.000347765460083,512,0.393832564354,1.59178960323,
2.40060980717,-2.19133090973,0,-0.0788081739954,-0.000349636875837,513,0.38705137372,1.58367085457,
2.40251095692,-2.19920778275,0,-0.085686994887,-0.000351106876376,514,0.380188465118,1.5753827095,
2.40437729756,-2.20704221725,0,-0.0925900369754,-0.000352339361005,515,0.373265206814,1.5669567585,
2.40620835225,-2.21483469009,0,-0.0995100270032,-0.000353199978364,516,0.366267561913,1.55840969086,
2.40800459782,-2.22258281708,0,-0.106462031714,-0.00035483038463,517,0.359208226204,1.5496981144,
2.40976460377,-2.23028707504,0,-0.113423904309,-0.000355330272155,518,0.352049589157,1.54083693027,
2.41148884694,-2.23794651031,0,-0.120406419855,-0.000356364625677,519,0.344853252172,1.53187084198,
2.41317685048,-2.24556016922,0,-0.127405514367,-0.000357206574909,520,0.337572425604,1.52276062965,
2.41482766072,-2.25312757492,0,-0.13440878136,-0.000357411190875,521,0.3302051723,1.51347696781,
2.4164417545,-2.26064777374,0,-0.141426120296,-0.000358122949955,522,0.322803109884,1.5040743351,
2.41801817814,-2.26812028885,0,-0.148444908654,-0.000358192925044,523,0.315318733454,1.49454474449,
2.41955693165,-2.2755446434,0,-0.15546654999,-0.000358333274799,524,0.307768106461,1.4848524332,
2.42105801503,-2.28291988373,0,-0.162493150888,-0.00035858253991,525,0.300144433975,1.47503113747,
2.42251999775,-2.29024529457,0,-0.169505504601,-0.000357851367539,526,0.292451798916,1.46504116058,
2.42394383351,-2.29751992226,0,-0.176519005923,-0.000357906252847,527,0.284692138433,1.45492768288,
2.42532809178,-2.30474328995,0,-0.183513808439,-0.000356946650597,528,0.276881843805,1.44470202923,
2.4266732494,-2.31191492081,0,-0.190497145625,-0.00035635767548,529,0.269002944231,1.43433129787,
2.4279783527,-2.31903386116,0,-0.197456659673,-0.000355137887768,530,0.261061161757,1.42381858826,
2.42924387852,-2.32609963417,0,-0.204399051299,-0.000354260643543,531,0.25306814909,1.41315579414,
2.43046887318,-2.33311152458,0,-0.211311310388,-0.000352719619651,532,0.2449837327,1.40235686302,
2.43165333668,-2.34006857872,0,-0.218193788125,-0.000351195740888,533,0.236883595586,1.39143836498,
2.43279679219,-2.34697079659,0,-0.225038842996,-0.00034928170138,534,0.228693366051,1.38041484356,
2.43389876286,-2.35381674767,0,-0.231840563395,-0.000347064851838,535,0.220452874899,1.36920261383,
2.43495972554,-2.36060619354,0,-0.238604130452,-0.000345114588811,536,0.212148398161,1.35789680481,
2.43597872654,-2.36733841896,0,-0.24531592584,-0.000342469070754,537,0.203785672784,1.34646189213,
2.43695576588,-2.37401294708,0,-0.251974697572,-0.000339760160318,538,0.195385485888,1.33487999439,
2.43788988987,-2.38062882423,0,-0.258566909956,-0.000336360776717,539,0.186903893948,1.32318949699,
2.4387820522,-2.38718557358,0,-0.265103342588,-0.000333511500027,540,0.17839166522,1.31136894226,
2.43963129918,-2.39368247986,0,-0.271569823136,-0.000329939112276,541,0.169830486178,1.29941391945,
2.44043715397,-2.40011954308,0,-0.2779578991,-0.000325933684165,542,0.161202654243,1.28737831116,
2.44119961659,-2.40649533272,0,-0.284265955481,-0.000321847446912,543,0.15252353251,1.27517652512,
2.44191868702,-2.41280961037,0,-0.290491347726,-0.000317625593298,544,0.143795236945,1.26287567616,
2.44259388844,-2.4190621376,0,-0.296625316017,-0.000312957837666,545,0.135052487254,1.25048422813,
2.44322522084,-2.42525172234,0,-0.302665270735,-0.000308157416955,546,0.126233667135,1.23793792725,
2.44381220738,-2.43137836456,0,-0.308602079881,-0.000302890242819,547,0.117364391685,1.2253100872,
2.44435437123,-2.43744134903,0,-0.314426764554,-0.000297164885273,548,0.108495101333,1.21258795261,
2.44485218922,-2.44343996048,0,-0.320141787427,-0.000291566976724,549,0.0995491147041,1.19974923134,
2.44530518452,-2.44937396049,0,-0.32573766546,-0.00028548405345,550,0.0905646979809,1.18679964542,
2.44571288029,-2.45524287224,0,-0.331204887844,-0.000278914733863,551,0.0815565139055,1.17377543449,
2.44607527653,-2.46104621887,0,-0.336539544859,-0.000272148634619,552,0.0725169926882,1.16064095497,
2.44639285008,-2.46678304672,0,-0.341742993098,-0.000265450491844,553,0.0634388104081,1.14740788937,
2.44666417042,-2.47245383263,0,-0.346794197648,-0.000257681046827,554,0.0543346628547,1.13412940502,
2.44689019124,-2.47805738449,0,-0.351699701355,-0.000250244730762,555,0.0451867058873,1.1207253933,
2.44707043568,-2.48359394073,0,-0.356449475594,-0.000242288575496,556,0.0360147804022,1.10726845264,
2.44720442692,-2.48906230927,0,-0.361032784242,-0.000233794698169,557,0.0268212035298,1.09369766712,
2.4472926418,-2.4944627285,0,-0.365450448224,-0.000225342475216,558,0.0176072381437,1.08009183407,
2.44733460347,-2.49979496002,0,-0.369691956091,-0.000216354654736,559,0.0084001943469,1.06643342972,
2.4473298351,-2.50505828857,0,-0.37374639832,-0.000206810589475,560,-0.000894846394658,1.05268085003,
2.44727929036,-2.51025271416,0,-0.377619373708,-0.000197552240396,561,-0.0101541988552,1.03887426853,
2.44718201558,-2.51537775993,0,-0.38129443547,-0.00018745521838,562,-0.0194316916168,1.0250184536,
2.44703848759,-2.5204334259,0,-0.384771506631,-0.000177339528001,563,-0.0287381485105,1.01112031937,
2.44684822957,-2.52541923523,0,-0.388039287224,-0.000166663054074,564,-0.038034427911,0.997188091278,
2.4466112415,-2.53033542633,0,-0.391092447736,-0.0001557150058,565,-0.0473672747612,0.983220875263,
2.44632800023,-2.53518128395,0,-0.393929623285,-0.000144698053932,566,-0.0566551163793,0.969203174114,
2.44599802891,-2.53995704651,0,-0.396540021988,-0.000133130698872,567,-0.06600227952,0.955143213272,
2.44562132756,-2.54466247559,0,-0.398917414826,-0.000121246052858,568,-0.0753118991852,0.941092729568,
2.445198373,-2.54929733276,0,-0.40106050716,-0.000109295660648,569,-0.0846403688192,0.926996707916,
2.4447286884,-2.55386209488,0,-0.402958747492,-9.68074312601e-05,570,-0.0939365625381,0.912945985794,
2.44421227376,-2.5583562851,0,-0.404605246484,-8.39681039598e-05,571,-0.103244692087,0.898830533028,
2.44364960591,-2.56278014183,0,-0.405999099634,-7.10829165251e-05,572,-0.112539738417,0.884757399559,
2.44304068486,-2.56713342667,0,-0.407133483909,-5.78499575364e-05,573,-0.121808350086,0.870669484138,
2.4423855106,-2.57141637802,0,-0.408002309885,-4.43068611688e-05,574,-0.131063491106,0.856610059738,
2.44168360631,-2.5756289959,0,-0.408594131365,-3.01802860041e-05,575,-0.140316203237,0.842539608479,
2.44093640248,-2.57977199554,0,-0.408918446744,-1.65384783071e-05,576,-0.149509906769,0.828567445278,
2.44014246861,-2.58384490013,0,-0.40895304648,-1.76439630016e-06,577,-0.158722668886,0.814568400383,
2.43930323521,-2.58784818649,0,-0.40870677577,1.25583196886e-05,578,-0.167866408825,0.800655782223,
2.43841822545,-2.59178185463,0,-0.408168011788,2.74734245691e-05,579,-0.176995843649,0.786746501923,
2.43748791615,-2.59564638138,0,-0.407335775825,4.24381267209e-05,580,-0.186076298356,0.772915780544,
2.43651230732,-2.59944224358,0,-0.406204307316,5.76962561171e-05,581,-0.195132404566,0.75917673111,
2.43549139897,-2.60316967964,0,-0.404767346483,7.32732750008e-05,582,-0.204134866595,0.745500743389,
2.43442614476,-2.60682916641,0,-0.403028605124,8.86605768449e-05,583,-0.213089376688,0.731875419617,
2.43331606785,-2.61042094231,0,-0.400977057584,0.000104609868138,584,-0.222007632256,0.718377828598,
2.43216164509,-2.61394572258,0,-0.398612295739,0.000120579497349,585,-0.230878576636,0.704927325249,
2.43096335331,-2.61740374565,0,-0.395932693701,0.000136631765646,586,-0.239678889513,0.691598176956,
2.42972119252,-2.62079572678,0,-0.39293322044,0.000152940275504,587,-0.248422399163,0.678393125534,
2.42843563954,-2.62412214279,0,-0.389612898452,0.000169298151712,588,-0.257123202085,0.665278553963,
2.42710717122,-2.62738370895,0,-0.385971403222,0.000185672337826,589,-0.265729814768,0.652314782143,
2.42573578755,-2.63058114052,0,-0.38200391542,0.000202291738023,590,-0.274286746979,0.639471054077,
2.42432196538,-2.63371515274,0,-0.377710263888,0.000218919698854,591,-0.282757073641,0.626807451248,
2.42286618153,-2.63678646088,0,-0.373090324681,0.000235552201733,592,-0.291166514158,0.614242196083,
2.42136891285,-2.63979578018,0,-0.368144023663,0.000252189108917,593,-0.299486488104,0.601866364479,
2.41983015934,-2.64274382591,0,-0.362866878864,0.000269054053684,594,-0.307729363441,0.589636802673,
2.41825087468,-2.64563179016,0,-0.357264944776,0.000285600111899,595,-0.315870732069,0.577612638474,
2.41663105885,-2.6484606266,0,-0.35133475182,0.000302332211958,596,-0.323940187693,0.565768718719,
2.4149711887,-2.65123105049,0,-0.345076633391,0.000319047002309,597,-0.331927835941,0.554085314274,
2.41327221791,-2.65394425392,0,-0.338496979999,0.000335435593563,598,-0.339792132378,0.542646229267,
2.4115346233,-2.65660119057,0,-0.331597099326,0.000351757029181,599,-0.347559809685,0.53135818243,
2.40975792805,-2.65920257568,0,-0.324368879454,0.000368491203051,600,-0.355262607336,0.52030313015,
2.4079440395,-2.6617500782,0,-0.316829486936,0.000384350739738,601,-0.362827003002,0.509493291378,
2.40609248082,-2.66424417496,0,-0.308970267494,0.000400650866127,602,-0.370296597481,0.498876273632,
2.40420420567,-2.6666867733,0,-0.300800885607,0.000416458110403,603,-0.377649128437,0.48854726553,
2.4022796909,-2.66907906532,0,-0.292324332687,0.000432112727318,604,-0.384884506464,0.47845903039,
2.40031989018,-2.6714220047,0,-0.28354715482,0.00044743331216,605,-0.39201438427,0.468568325043,
2.39832480351,-2.67371702194,0,-0.27446928585,0.000462756759831,606,-0.399006605148,0.459010779858,
2.39629538456,-2.67596554756,0,-0.265099453726,0.000477633493016,607,-0.405892401934,0.449663966894,
2.39423211018,-2.67816829681,0,-0.255439500571,0.000492417251031,608,-0.412658065557,0.44060215354,
2.3921354572,-2.6803278923,0,-0.245499032314,0.000506710686953,609,-0.419268637896,0.431888729334,
2.39000685612,-2.68244481087,0,-0.235287817515,0.000520506327231,610,-0.425757884979,0.423382639885,
2.38784630696,-2.68452095985,0,-0.224808898107,0.000534146732583,611,-0.432131499052,0.415195971727,
2.38565428654,-2.68655753136,0,-0.214066901181,0.000547538142538,612,-0.438364177942,0.407344669104,
2.38343222538,-2.68855643272,0,-0.203078026164,0.000560079056048,613,-0.444425344467,0.399785995483,
2.38118012349,-2.69051933289,0,-0.191845241174,0.000572503940724,614,-0.450378984213,0.3925524652,
2.37889941136,-2.69244718552,0,-0.180381167241,0.000584285182338,615,-0.45617839694,0.38561502099,
2.376590089,-2.6943423748,0,-0.168692419793,0.000595728411696,616,-0.461850047112,0.379024028778,
2.37425358693,-2.69620609283,0,-0.156793138622,0.000606451502206,617,-0.467361867428,0.372768878937,
2.37188990513,-2.69804024696,0,-0.144688500904,0.000616911030516,618,-0.472724676132,0.366813361645,
2.3694999973,-2.69984650612,0,-0.13239118721,0.000626721157132,619,-0.477939367294,0.361261487007,
2.36708529393,-2.70162653923,0,-0.119918226805,0.000635665915066,620,-0.483013391495,0.355984330177,
2.36464531819,-2.70338225365,0,-0.107271705226,0.000644504390035,621,-0.487918525934,0.35110321641,
2.36218197743,-2.70511507988,0,-0.0944721980284,0.000652293074033,622,-0.49268579483,0.346584439278,
2.35969574849,-2.7068271637,0,-0.0815317078901,0.000659471084559,623,-0.497280836105,0.342421233654,
2.3571871082,-2.70852041245,0,-0.0684614974501,0.000666072984734,624,-0.501740276814,0.338604032993,
2.3546565334,-2.71019601822,0,-0.0552696703559,0.000672262710057,625,-0.506051182747,0.335143864155,
2.35210593144,-2.71185660362,0,-0.0419837371949,0.000677046690959,626,-0.510166585445,0.332104146481,
2.34953530232,-2.71350359917,0,-0.0286095659116,0.000681536131834,627,-0.514140307903,0.32939606905,
2.34694512288,-2.71513867378,0,-0.0151585484496,0.000685438343824,628,-0.517997205257,0.327040791512,
2.34433682362,-2.71676421165,0,-0.00165406429093,0.00068812661507,629,-0.521651864052,0.325087845325,
2.34171135823,-2.7183816433,0,0.0118890557774,0.000690086466634,630,-0.525170087814,0.323498308659,
2.3390687267,-2.71999311447,0,0.0254599164025,0.000691491707611,631,-0.528510570526,0.322292387486,
2.3364098827,-2.72160029411,0,0.0390417726318,0.000692044016984,632,-0.531732618809,0.321433901787,
2.33373625676,-2.72320532799,0,0.0526110782201,0.000691396607474,633,-0.534765422344,0.321008384228,
2.33104784886,-2.72480964661,0,0.0661596339246,0.000690329892313,634,-0.537671864033,0.320896685123,
2.32834561268,-2.72641563416,0,0.0796658278994,0.000688164447627,635,-0.540395915508,0.321183800697,
2.32563097874,-2.72802472115,0,0.0931089719551,0.000684944271522,636,-0.54301482439,0.321810901165,
2.3229034702,-2.72963881493,0,0.106481133773,0.000681320218759,637,-0.545437097549,0.322851955891,
2.3201649944,-2.73126006126,0,0.119753075019,0.000676207006149,638,-0.547742366791,0.324220299721,
2.31741555134,-2.73288989067,0,0.132914873784,0.000670587416293,639,-0.549880921841,0.325986862183,
2.31465609471,-2.73453044891,0,0.145944397032,0.000663840867045,640,-0.55189293623,0.328097462654,
2.31188710133,-2.7361831665,0,0.158827143907,0.000656354023259,641,-0.55378061533,0.330529272556,
2.30910952488,-2.73784995079,0,0.171541660722,0.000647776312168,642,-0.555499434471,0.333341240883,
2.30632431904,-2.7395324707,0,0.184067556296,0.000638150685039,643,-0.557093501091,0.336509585381,
2.30353148381,-2.74123263359,0,0.196390373125,0.000627793589014,644,-0.558556735516,0.340013742447,
2.30073197285,-2.74295186996,0,0.208490454577,0.000616439440767,645,-0.559899926186,0.343822836876,
2.29792626301,-2.74469208717,0,0.220348786256,0.000604112163716,646,-0.561101853848,0.348022997379,
2.29511530797,-2.74645423889,0,0.231948042785,0.00059090752811,647,-0.562195718288,0.352484166622,
2.29229958455,-2.7482407093,0,0.243265620991,0.000576550706989,648,-0.563170194626,0.357278704643,
2.28947956959,-2.75005269051,0,0.254285907354,0.000561399817937,649,-0.56401258707,0.362397611141,
2.28665573994,-2.75189161301,0,0.264991529617,0.000545363681907,650,-0.564784526825,0.367781937122,
2.28382857243,-2.7537586689,0,0.275366345953,0.000528506247968,651,-0.565447747707,0.373442947865,
2.2809985439,-2.75565600395,0,0.285387791855,0.000510498539049,652,-0.565971076488,0.379425883293,
2.27816613118,-2.757584095,0,0.29504374126,0.000491874782116,653,-0.566449165344,0.385648488998,
2.27533228795,-2.7595448494,0,0.304308833718,0.000471958896703,654,-0.56681317091,0.392128109932,
2.27249653737,-2.76153898239,0,0.313176399826,0.000451664139958,655,-0.567115485668,0.398836493492,
2.26965983311,-2.76356816292,0,0.321622044481,0.000430158120956,656,-0.567314088345,0.405814647675,
2.26682265202,-2.76563310623,0,0.329631207082,0.000407919749494,657,-0.567452609539,0.413002371788,
2.26398499409,-2.76773524284,0,0.337187970251,0.000384873042044,658,-0.567519783974,0.420415759087,
2.26114733616,-2.76987528801,0,0.344277338207,0.000361057800139,659,-0.567542314529,0.427993118763,
2.25831015507,-2.7720541954,0,0.350882521711,0.000336394773445,660,-0.567490875721,0.435812294483,
2.25547297398,-2.7742729187,0,0.356993799923,0.000311237293718,661,-0.567413628101,0.44377964735,
2.25263674656,-2.77653264999,0,0.36258861348,0.000284931487616,662,-0.567273080349,0.45192283392,
2.24980099598,-2.77883338928,0,0.367663540688,0.000258452173786,663,-0.56711435318,0.4601572752,
2.24696619908,-2.78117609024,0,0.372201038529,0.000231079989354,664,-0.566936314106,0.468560874462,
2.24413283268,-2.78356146812,0,0.376185109024,0.000202893452232,665,-0.56671255827,0.47708016634,
2.24130041997,-2.78598999977,0,0.379608493902,0.000174337944672,666,-0.566483855247,0.485701441765,
2.23846896092,-2.7884619236,0,0.382461972602,0.000145313520272,667,-0.566253900528,0.494402170181,
2.23563893239,-2.79097771645,0,0.384730948643,0.00011554644516,668,-0.566027343273,0.503164708614,
2.23280985753,-2.79353785515,0,0.386407788422,8.53912546838e-05,669,-0.565797448158,0.512007236481,
2.22998221318,-2.79614210129,0,0.387483114033,5.47592181248e-05,670,-0.565591514111,0.520874798298,
2.22715504567,-2.7987909317,0,0.387952635798,2.39093878914e-05,671,-0.565421700478,0.529753565788,
2.22432883183,-2.80148434639,0,0.387805102639,-7.51272626502e-06,672,-0.565248906612,0.538683474064,
2.22150309483,-2.80422210693,0,0.387038091708,-3.90575411984e-05,673,-0.56512606144,0.547578573227,
2.21867783467,-2.80700421333,0,0.385643873628,-7.0995252617e-05,674,-0.565061986446,0.556394994259,
2.21585257451,-2.80983042717,0,0.383620035824,-0.000103055147043,675,-0.56503880024,0.565239310265,
2.21302683751,-2.81270027161,0,0.380966079509,-0.000135139726039,676,-0.565086245537,0.573991775513,
2.21020110051,-2.81561374664,0,0.377670960184,-0.000167785937423,677,-0.565163314342,0.582717001438,
2.20737440983,-2.81857037544,0,0.37373769701,-0.000200277708776,678,-0.565363109112,0.591283500195,
2.20454628865,-2.82156896591,0,0.36917183211,-0.000232486560088,679,-0.565613746643,0.599763989449,
2.20171626011,-2.82460951805,0,0.363969320243,-0.000264900856956,680,-0.565963625908,0.608093619347,
2.19888432423,-2.8276913166,0,0.358128713011,-0.000297388028334,681,-0.566402077675,0.616346240044,
2.19604952733,-2.83081316948,0,0.351659384363,-0.000329396831347,682,-0.566930055618,0.624406337738,
2.1932118694,-2.83397459984,0,0.344558293106,-0.000361560127258,683,-0.56759095192,0.632273674011,
2.19036991993,-2.83717417717,0,0.336840492917,-0.000392956216373,684,-0.568378031254,0.63993793726,
2.18752367894,-2.84041142464,0,0.328503295199,-0.000424488667263,685,-0.569252967834,0.647443175316,
2.18467219273,-2.84368467331,0,0.319560976413,-0.00045529351703,686,-0.570283472538,0.654677569866,
2.18181498448,-2.84699296951,0,0.310018694792,-0.000485835161439,687,-0.571460962296,0.661688923836,
2.17895110051,-2.85033512115,0,0.299887129517,-0.000515832119094,688,-0.57273375988,0.668447613716,
2.17608006398,-2.85370993614,0,0.28917400884,-0.000545435315766,689,-0.574192643166,0.674949645996,
2.17320139805,-2.85711550713,0,0.277893764737,-0.000574302373249,690,-0.575779497623,0.681142866611,
2.17031319539,-2.86055064201,0,0.266064282853,-0.000602258841502,691,-0.577574312687,0.687018096447,
2.16741593281,-2.86401367188,0,0.253692275785,-0.000629873088314,692,-0.579494178295,0.692624390125,
2.16450817982,-2.8675031662,0,0.240795255891,-0.000656506497977,693,-0.581576287746,0.697889626026,
2.1615885059,-2.87101721764,0,0.227395364805,-0.000682096472423,694,-0.58386361599,0.702806949615,