lower angle,upper angle,holding angle,system x,acceleration,ticks (200 tps),lower acceleration (shoulder),upper acceleration (elbow),
1.57079632679,0.0,0,2.02525964409e-15,2.27412349696e-17,1,0.0,0.0,
1.57092745701,-0.000254154205322,0,-0.000734496113932,-8.24748264557e-06,2,0.0261791851372,0.0508195646107,
1.57119496266,-0.00077486038208,0,-0.0022012352206,-1.64696217131e-05,3,0.0534704849124,0.104126006365,
1.57159598271,-0.00155735015869,0,-0.00437318028319,-2.43881278152e-05,4,0.080292917788,0.156458705664,
1.57213051716,-0.00259876251221,0,-0.00729088512909,-3.27619587438e-05,5,0.106894433498,0.208348304033,
1.57279761235,-0.00389862060547,0,-0.0109295634699,-4.08574322291e-05,6,0.133343622088,0.25995400548,
1.57359536091,-0.00545501708984,0,-0.0152531614123,-4.85479848209e-05,7,0.159632176161,0.311267197132,
1.5745242397,-0.0072660446167,0,-0.0203044782632,-5.67190746006e-05,8,0.185735315084,0.36223500967,
1.57558234135,-0.00933027267456,0,-0.0260406926761,-6.44093133501e-05,9,0.211644589901,0.412825256586,
1.57676918904,-0.0116453170776,0,-0.0324798091305,-7.23016764101e-05,10,0.237329289317,0.46299546957,
1.57808287541,-0.0142087936401,0,-0.039592510568,-7.98648219932e-05,11,0.262763768435,0.512694716454,
1.57952244679,-0.0170183181763,0,-0.0473810127108,-8.74527810076e-05,12,0.287936747074,0.561890363693,
1.58108694951,-0.0200710296631,0,-0.0558542782644,-9.51413573525e-05,13,0.312819868326,0.610512137413,
1.58277352253,-0.0233635902405,0,-0.0649649328534,-0.000102297992306,14,0.337390869856,0.658548474312,
1.58458168904,-0.0268931388855,0,-0.074737681007,-0.000109731910535,15,0.361631542444,0.705934107304,
1.58650954167,-0.030656337738,0,-0.0851566567016,-0.000116987674335,16,0.385534226894,0.752653777599,
1.58855469624,-0.034649848938,0,-0.0961902060744,-0.0001238879765,17,0.409060806036,0.798642158508,
1.59071572224,-0.0388689041138,0,-0.107858467798,-0.000131014362766,18,0.432204186916,0.843888521194,
1.59299071232,-0.0433106422424,0,-0.120138754262,-0.000137885915146,19,0.454947263002,0.888347268105,
1.59537680546,-0.0479707717896,0,-0.132997092952,-0.000144376050588,20,0.477271199226,0.931964635849,
1.59787257115,-0.0528445243835,0,-0.146453544604,-0.00015109129163,21,0.499165892601,0.974741697311,
1.6004756252,-0.05792760849,0,-0.160489847911,-0.000157601538523,22,0.520600616932,1.01661598682,
1.60318358342,-0.0632152557373,0,-0.175094469104,-0.00016398218261,23,0.541580796242,1.05757379532,
1.60599406163,-0.0687031745911,0,-0.1902490874,-0.000170157076949,24,0.562068164349,1.09757137299,
1.6089041988,-0.0743861198425,0,-0.205933100614,-0.000176099335755,25,0.58206140995,1.13659405708,
1.6119120876,-0.0802593231201,0,-0.222150640186,-0.000182089236577,26,0.601553380489,1.17460536957,
1.61501486699,-0.0863170623779,0,-0.23888778846,-0.000187922856187,27,0.620516419411,1.21157431602,
1.61820967595,-0.0925545692444,0,-0.2561170885,-0.000193448048495,28,0.638963699341,1.24750518799,
1.62149365346,-0.0989661216736,0,-0.273824558727,-0.000198816346104,29,0.656860947609,1.28234434128,
1.62486489216,-0.105546951294,0,-0.292014181463,-0.000204229262246,30,0.674213349819,1.31608843803,
1.62832005421,-0.112290382385,0,-0.310669648113,-0.000209459093604,31,0.691005527973,1.34870231152,
1.63185580174,-0.119191169739,0,-0.329754373627,-0.000214278165656,32,0.707219779491,1.38019156456,
1.6354702274,-0.126243591309,0,-0.349285722917,-0.000219292228736,33,0.722861051559,1.41051721573,
1.63915999333,-0.133441925049,0,-0.369233791154,-0.000223970503501,34,0.737919569016,1.43966889381,
1.64292176167,-0.140780448914,0,-0.389568655113,-0.000228312861203,35,0.752393126488,1.4676425457,
1.64675314824,-0.148252487183,0,-0.41030531565,-0.000232823513734,36,0.766268134117,1.49440813065,
1.65065081517,-0.15585231781,0,-0.431413786381,-0.000236997432185,37,0.779551327229,1.51998102665,
1.65461190144,-0.163573741913,0,-0.452886526328,-0.000241086695235,38,0.79222202301,1.5443264246,
1.65863354603,-0.171411037445,0,-0.474709224022,-0.000245015130434,39,0.804282128811,1.56743741035,
1.66271193425,-0.179357528687,0,-0.496849594379,-0.000248581137411,40,0.815735399723,1.58932340145,
1.66684515873,-0.187407493591,0,-0.519324701906,-0.000252338081521,41,0.826582729816,1.60997855663,
1.67102892796,-0.195554256439,0,-0.542086522927,-0.000255556344529,42,0.836806237698,1.62937450409,
1.67526085774,-0.203792095184,0,-0.565136375479,-0.000258789527202,43,0.846413910389,1.64751958847,
1.67953808705,-0.212114334106,0,-0.58847330184,-0.000262011922954,44,0.855418562889,1.66443288326,
1.68385727803,-0.220514774323,0,-0.612073914611,-0.000264971750483,45,0.863791942596,1.68008339405,
1.68821509282,-0.228987216949,0,-0.635914834568,-0.000267669004255,46,0.871568262577,1.69449591637,
1.69260867039,-0.237525463104,0,-0.659988355492,-0.000270279769817,47,0.878715217113,1.70764148235,
1.69703467289,-0.246122837067,0,-0.684277816849,-0.000272703332381,48,0.885256707668,1.71955394745,
1.70149071614,-0.254774093628,0,-0.708777730672,-0.000275065443556,49,0.891191184521,1.73022341728,
1.70597346226,-0.263472080231,0,-0.733478141284,-0.000277315754174,50,0.896516740322,1.73964071274,
1.71047957341,-0.272211551666,0,-0.758342295048,-0.000279153444455,51,0.901238560677,1.74782681465,
1.71500618855,-0.280985355377,0,-0.783375903926,-0.000281055154758,52,0.905376195908,1.75480103493,
1.71955092351,-0.289788246155,0,-0.808573488333,-0.000282895409388,53,0.908897161484,1.76052713394,
1.72410996357,-0.298613071442,0,-0.83390953395,-0.000284449087896,54,0.911831736565,1.76503705978,
1.72868092457,-0.307455062866,0,-0.859371918222,-0.000285866821821,55,0.914184689522,1.7683647871,
1.73326094548,-0.316307544708,0,-0.88495968489,-0.000287273788286,56,0.915965795517,1.77047681808,
1.73784668843,-0.325164318085,0,-0.910649639997,-0.000288420325068,57,0.91715157032,1.77138924599,
1.7424352924,-0.334020137787,0,-0.936420864697,-0.000289331991666,58,0.917785704136,1.7711520195,
1.74702437321,-0.342868804932,0,-0.962281371588,-0.000290333417927,59,0.91783118248,1.76971769333,
1.75161106984,-0.351704120636,0,-0.988223627782,-0.000291250304738,60,0.917329132557,1.76712858677,
1.75619252125,-0.360521316528,0,-1.01422016392,-0.000291858876029,61,0.916278600693,1.76339507103,
1.76076586644,-0.369313716888,0,-1.04027020845,-0.000292458818268,62,0.914681255817,1.75852227211,
1.7653287212,-0.378076553345,0,-1.06636191444,-0.000292925774021,63,0.912526905537,1.75251936913,
1.76987774769,-0.386803627014,0,-1.09247245931,-0.000293134172195,64,0.909859478474,1.74540805817,
1.77441103856,-0.395489215851,0,-1.11861886927,-0.000293536009755,65,0.906660735607,1.73719286919,
1.77892573277,-0.404128551483,0,-1.14477397949,-0.00029363288353,66,0.902937114239,1.72787940502,
1.78341944615,-0.412716388702,0,-1.17093280126,-0.000293673780472,67,0.898692190647,1.7175000906,
1.78788884083,-0.421246528625,0,-1.19707279008,-0.000293461488753,68,0.893939495087,1.70604658127,
1.79233248631,-0.429714202881,0,-1.22321330076,-0.000293466617545,69,0.888698935509,1.69354319572,
1.79674752156,-0.43811416626,0,-1.24933408323,-0.000293244302475,70,0.882955610752,1.67999815941,
1.80113108555,-0.446441173553,0,-1.27541500005,-0.000292796044562,71,0.87673252821,1.66543269157,
1.80548127095,-0.45469045639,0,-1.30146015743,-0.000292343592265,72,0.870030283928,1.64984488487,
1.80979521672,-0.462856769562,0,-1.32744958435,-0.000291717122148,73,0.86284250021,1.63326096535,
1.81407149235,-0.470935344696,0,-1.35340284392,-0.000291310366355,74,0.855199635029,1.61569833755,
1.81830675999,-0.478920936584,0,-1.3792847824,-0.000290508859028,75,0.847087442875,1.59713721275,
1.82249958912,-0.486809253693,0,-1.40510849602,-0.000289854509575,76,0.838537812233,1.57761800289,
1.82664711873,-0.494595050812,0,-1.43085435525,-0.000288979805186,77,0.829535067081,1.55715787411,
1.83074744145,-0.50227355957,0,-1.45652684743,-0.000288155508875,78,0.820086359978,1.53574728966,
1.83479864995,-0.509840488434,0,-1.48212394459,-0.000287308407992,79,0.810195863247,1.51340317726,
1.83879788319,-0.517291545868,0,-1.50761320333,-0.000286096879729,80,0.799889266491,1.49015450478,
1.84274371068,-0.524621486664,0,-1.53302113562,-0.000285183289078,81,0.78915476799,1.46599888802,
1.84663374821,-0.531826019287,0,-1.5583307192,-0.000284078402833,82,0.778012871742,1.44094753265,
1.85046608845,-0.538901329041,0,-1.58353372705,-0.000282879634341,83,0.766450643539,1.41500854492,
1.85423834721,-0.545842170715,0,-1.608626432,-0.000281640790821,84,0.754494845867,1.38820624352,
1.85794909398,-0.552644729614,0,-1.63361596313,-0.000280482060082,85,0.742126703262,1.36053526402,
1.86159594456,-0.55930519104,0,-1.65847918901,-0.000279063645848,86,0.729356706142,1.33201885223,
1.86517699162,-0.565818309784,0,-1.68322780978,-0.000277776667731,87,0.7162104249,1.30266213417,
1.8686903278,-0.572180747986,0,-1.70784753932,-0.000276329187724,88,0.702673733234,1.27247416973,
1.87213404576,-0.578387737274,0,-1.73234372055,-0.000274941805928,89,0.688766002655,1.24146509171,
1.87550671498,-0.584436416626,0,-1.7567108688,-0.000273492893156,90,0.674483895302,1.20965361595,
1.87880547444,-0.590321063995,0,-1.78093729969,-0.000271912923687,91,0.659817814827,1.17701888084,
1.88202937047,-0.596039295197,0,-1.80502632468,-0.000270370021578,92,0.644785821438,1.14359617233,
1.88517649571,-0.601586341858,0,-1.82898361621,-0.000268890757385,93,0.629391431808,1.10938930511,
1.88824494282,-0.606958389282,0,-1.85280196269,-0.000267330556279,94,0.613648176193,1.07442188263,
1.89123232762,-0.612151622772,0,-1.87645923408,-0.00026552196866,95,0.597531616688,1.03864753246,
1.89413769642,-0.617162227631,0,-1.89997850215,-0.000263972409167,96,0.581075906754,1.0021468401,
1.89695914189,-0.62198638916,0,-1.92335284236,-0.000262345150058,97,0.564258277416,0.96484708786,
1.89969475667,-0.626620769501,0,-1.94656897682,-0.000260568915676,98,0.547109186649,0.926831364632,
1.90234263341,-0.631061077118,0,-1.96962666578,-0.00025878219537,99,0.529602825642,0.888062536716,
1.9049013416,-0.635303974152,0,-1.99252781975,-0.000257024593039,100,0.511767864227,0.848572254181,
1.90736945073,-0.639345645905,-0.0639345645905,-2.01528087583,-0.000255361732894,101,0.493576198816,0.808328270912,
1.90974457661,-0.643182277679,0.0,-2.03786443793,-0.000253458697185,102,0.47506570816,0.76735663414,
1.91204293171,-0.646843910217,0,-2.06038219085,-0.000252719391597,103,0.459641724825,0.732308983803,
1.91424448887,-0.650292396545,0,-2.08272402421,-0.000250744310681,104,0.440318048,0.68967038393,
1.91634877125,-0.653525352478,0,-2.10490925556,-0.000248986093402,105,0.420832127333,0.646600484848,
1.9183538715,-0.656538963318,0,-2.12693180348,-0.000247159583472,106,0.400993853807,0.602791368961,
1.92025740544,-0.659330368042,0,-2.14875790342,-0.00024495419049,107,0.380794763565,0.558240354061,
1.92205889622,-0.661895275116,0,-2.17043282196,-0.00024325683693,108,0.360273212194,0.512980699539,
1.92375595967,-0.66423034668,0,-2.19192939063,-0.000241254601028,109,0.339418619871,0.467027693987,
1.92534716527,-0.666332244873,0,-2.21325032853,-0.000239282953449,110,0.318247467279,0.420383006334,
1.9268310825,-0.668197154999,0,-2.23440484822,-0.000237414535657,111,0.29674321413,0.373027771711,
1.92820532719,-0.669822216034,0,-2.25535960589,-0.000235170221659,112,0.27490106225,0.324979633093,
1.9294694225,-0.671203613281,0,-2.27615369649,-0.000233366457468,113,0.252738058567,0.276256322861,
1.9306205074,-0.672337532043,0,-2.29675189903,-0.000231167506246,114,0.230257362127,0.226829782128,
1.93165762822,-0.673221588135,0,-2.31715924217,-0.000229024953239,115,0.20743265748,0.176714032888,
1.93257887761,-0.673851013184,0,-2.33738322144,-0.000226966514637,116,0.184278771281,0.125897705555,
1.93338330189,-0.674222946167,0,-2.35743537266,-0.000225037552374,117,0.160805419087,0.074416205287,
1.93406804005,-0.674334049225,0,-2.37727425717,-0.000222643546283,118,0.1369933635,0.0222282111645,
1.93463213841,-0.674180984497,0,-2.3969179075,-0.000220451918505,119,0.112835936248,-0.0306540802121,
1.93507416646,-0.673759937286,0,-2.41637595299,-0.000218368365196,120,0.0883782953024,-0.0842096805573,
1.93539174,-0.673067569733,0,-2.43562188663,-0.000215987373127,121,0.0635456889868,-0.138469651341,
1.93558390538,-0.672100067139,0,-2.45468022668,-0.000213881528365,122,0.0383875891566,-0.193434566259,
1.93564827839,-0.670855045319,0,-2.47351158133,-0.000211333484008,123,0.0128903873265,-0.24909041822,
1.93558342854,-0.669327735901,0,-2.49213848212,-0.000209038455812,124,-0.0129455868155,-0.305430054665,
1.93538792531,-0.667515277863,0,-2.51055767231,-0.000206706898584,125,-0.03913827613,-0.36249050498,
1.9350593845,-0.665413856506,0,-2.52874901528,-0.000204149347382,126,-0.0656789764762,-0.420241951942,
1.93459685246,-0.663020133972,0,-2.5467304985,-0.000201793710902,127,-0.0925695002079,-0.478716343641,
1.93399746815,-0.6603307724,0,-2.56446053584,-0.00019897136869,128,-0.11981549859,-0.537893891335,
1.93326027791,-0.657341957092,0,-2.58196345009,-0.00019642199426,129,-0.147421479225,-0.59780138731,
1.93238337437,-0.654049873352,0,-2.59923373395,-0.000193810828011,130,-0.175399124622,-0.658430218697,
1.9313648502,-0.650450706482,0,-2.61626578736,-0.000191136869546,131,-0.203725069761,-0.719773650169,
1.93020279805,-0.646541595459,0,-2.63304093745,-0.000188253367463,132,-0.232450962067,-0.781878769398,
1.92889483372,-0.642317771912,0,-2.64955136663,-0.000185282177158,133,-0.261534273624,-0.84470063448,
1.92744000355,-0.637776374817,0,-2.66580796046,-0.000182433202946,134,-0.290997743607,-0.908281445503,
1.92583592335,-0.632913589478,0,-2.68178963292,-0.000179347561417,135,-0.320853441954,-0.972610116005,
1.92408020894,-0.627725124359,0,-2.69748158308,-0.000176095788576,136,-0.351089924574,-1.03770184517,
1.92217142979,-0.622207164764,0,-2.71289222573,-0.000172938468863,137,-0.381740957499,-1.10356020927,
1.92010767857,-0.616356372833,0,-2.72800830306,-0.000169632385054,138,-0.412773907185,-1.17019724846,
1.91788657109,-0.610167980194,0,-2.74282087365,-0.00016622597604,139,-0.444228708744,-1.23763775826,
1.91550619999,-0.603638648987,0,-2.75731615451,-0.000162664935357,140,-0.476097851992,-1.30586242676,
1.9129641811,-0.596764564514,0,-2.77147156471,-0.000158850521121,141,-0.50838637352,-1.37489151955,
1.91025860707,-0.589540481567,0,-2.78529885228,-0.000155167868983,142,-0.541093766689,-1.44473409653,
1.90738757054,-0.581963539124,0,-2.79877674752,-0.00015124663123,143,-0.574230968952,-1.51539897919,
1.90434821049,-0.574028968811,0,-2.81187966744,-0.000147038308811,144,-0.60782366991,-1.58693480492,
1.90113909642,-0.565732479095,0,-2.82462030003,-0.000142972385711,145,-0.641847610474,-1.65928983688,
1.89775736729,-0.55707025528,0,-2.83695910659,-0.000138462806376,146,-0.67633253336,-1.73251271248,
1.89420111577,-0.548037052155,0,-2.84890601153,-0.000134063768776,147,-0.711272478104,-1.80659627914,
1.89046795765,-0.538629055023,0,-2.86043563649,-0.000129380801635,148,-0.746692478657,-1.88158869743,
1.88655503193,-0.528841972351,0,-2.87151347598,-0.000124310701882,149,-0.782575428486,-1.957467556,
1.88245995442,-0.518670558929,0,-2.88213280914,-0.000119165207429,150,-0.818950772285,-2.0342643261,
1.87818081776,-0.508111000061,0,-2.89228173454,-0.000113886139659,151,-0.855819284916,-2.11197638512,
1.87371523778,-0.4971575737,0,-2.90195906956,-0.000108593891321,152,-0.893176734447,-2.19061732292,
1.8690598766,-0.485806941986,0,-2.91109936714,-0.000102567258142,153,-0.931050479412,-2.2702331543,
1.86421282689,-0.474052906036,0,-2.91972197752,-9.67578261065e-05,154,-0.969434738159,-2.35081243515,
1.85917122761,-0.461891174316,0,-2.92778852265,-9.05177844235e-05,155,-1.00833940506,-2.43235254288,
1.85393221776,-0.449316501617,0,-2.93527311215,-8.39872514226e-05,156,-1.04777371883,-2.51489663124,
1.84849341313,-0.436324119568,0,-2.94215770862,-7.72543163344e-05,157,-1.08775568008,-2.59845876694,
1.84285195271,-0.422909259796,0,-2.94840811496,-7.01376644674e-05,158,-1.12827968597,-2.68303918839,
1.83700545231,-0.409066200256,0,-2.95401797978,-6.29497813182e-05,159,-1.1693559885,-2.7686419487,
1.83095057408,-0.39478969574,0,-2.95894263294,-5.52606755548e-05,160,-1.2109811306,-2.85529899597,
1.82468445698,-0.380074501038,0,-2.96315178093,-4.72317014577e-05,161,-1.25318551064,-2.94301891327,
1.81820471684,-0.364915370941,0,-2.96662957814,-3.9024881902e-05,162,-1.29596626759,-3.03181910515,
1.81150801579,-0.349307060242,0,-2.96932828097,-3.02824650499e-05,163,-1.33931910992,-3.12169528008,
1.80459196965,-0.333243846893,0,-2.9712366939,-2.14144370888e-05,164,-1.38324987888,-3.21265888214,
1.79745324055,-0.316720485687,0,-2.97230485542,-1.19858781327e-05,165,-1.42777848244,-3.30474090576,
1.79008849064,-0.29973077774,0,-2.97249504236,-2.13408738633e-06,166,-1.47289419174,-3.39792227745,
1.78249581257,-0.282269954681,0,-2.97179473793,7.85809291603e-06,167,-1.51860022545,-3.4922170639,
1.77467091481,-0.264331817627,0,-2.97013271258,1.86494735243e-05,168,-1.56491911411,-3.58763837814,
1.76661189,-0.245911121368,0,-2.96750073636,2.95331415634e-05,169,-1.61180448532,-3.68415689468,
1.75831587712,-0.22700214386,0,-2.96386496658,4.07964700039e-05,170,-1.65929830074,-3.78181648254,
1.74977858464,-0.207599639893,0,-2.95913660922,5.3056089679e-05,171,-1.70738303661,-3.88056945801,
1.74099858204,-0.187697410583,0,-2.95333267608,6.51247310768e-05,172,-1.75605165958,-3.98043394089,
1.73197205464,-0.167290687561,0,-2.94637043543,7.81216469872e-05,173,-1.80528771877,-4.08137845993,
1.72269661824,-0.146373748779,0,-2.93822614211,9.13849548039e-05,174,-1.85509288311,-4.18339443207,
1.71316941182,-0.124941825867,0,-2.92884546626,0.000105257786848,175,-1.90544903278,-4.28644704819,
1.70338805119,-0.102989673615,0,-2.91819506472,0.000119504633057,176,-1.95633995533,-4.39053106308,
1.6933491985,-0.080512046814,0,-2.90620875463,0.000134494046121,177,-2.00773644447,-4.49556255341,
1.68305142323,-0.0575046539307,0,-2.89286814364,0.000149689653316,178,-2.05962634087,-4.60154485703,
1.67249138752,-0.033962726593,0,-2.87809734347,0.000165736817492,179,-2.11197829247,-4.70839357376,
1.66166813771,-0.00988292694092,0,-2.86187730004,0.00018199765788,180,-2.16474342346,-4.81604480743,
1.65057881276,0.0147391417995,0,-2.84413967448,0.000199025207601,181,-2.21789097786,-4.92443847656,
1.63922198216,0.0399061776698,0,-2.82483785448,0.000216575588564,182,-2.27137708664,-5.03347587585,
1.62759621541,0.0656210109591,0,-2.80392575556,0.000234643112038,183,-2.32513785362,-5.14304065704,
1.61570103566,0.0918858721852,0,-2.78137893746,0.000252982967677,184,-2.37912511826,-5.25304698944,
1.60353453557,0.118702255189,0,-2.75711424414,0.000272257301914,185,-2.43325591087,-5.36335849762,
1.59109766881,0.146070763469,0,-2.73112903998,0.000291561182068,186,-2.48745417595,-5.47379112244,
1.5783894817,0.173991382122,0,-2.70334818555,0.000311707910265,187,-2.54163599014,-5.58421707153,
1.56541111419,0.202463120222,0,-2.67375076866,0.000332089296298,188,-2.59569764137,-5.6944437027,
1.55216360191,0.231483787298,0,-2.64229484886,0.000352941199128,189,-2.6495411396,-5.80424070358,
1.53864864732,0.261050224304,0,-2.60894619013,0.000374177276821,190,-2.70303297043,-5.91340351105,
1.52486858244,0.291158050299,0,-2.57367367534,0.000395762417304,191,-2.75605583191,-6.02167749405,
1.51082656632,0.321801304817,0,-2.53645102633,0.000417642014362,192,-2.80844855309,-6.12877416611,
1.49652644346,0.3529728055,0,-2.4972573092,0.000439756577174,193,-2.86007356644,-6.23443460464,
1.4819728742,0.384663641453,0,-2.45607446284,0.000462073392755,194,-2.91076350212,-6.33830070496,
1.46717149118,0.416863232851,0,-2.41289344773,0.000484491653019,195,-2.96033215523,-6.44006347656,
1.45212881366,0.449559211731,0,-2.36771008987,0.000505742630518,196,-3.00859451294,-6.53935003281,
1.43685226242,0.482737392187,0,-2.32052544768,0.000528141688841,197,-3.05536723137,-6.63578414917,
1.42135042051,0.516381382942,0,-2.27134930515,0.000550431326608,198,-3.10043001175,-6.72896337509,
1.4056328843,0.550472974777,0,-2.22020082498,0.000572395969173,199,-3.14357423782,-6.81848812103,
1.38971026341,0.584991931915,0,-2.16710603855,0.000592907456459,200,-3.18459272385,-6.90395832062,
1.37359431485,0.619915664196,0,-2.11209812915,0.000614269417742,201,-3.22326254845,-6.98494052887,
1.35729785363,0.655219852924,0,-2.05522302036,0.00063511731629,202,-3.25936555862,-7.06102228165,
1.34083478252,0.690877854824,0,-1.99653281359,0.00065538460733,203,-3.29268503189,-7.13178920746,
1.32422003249,0.726861178875,0,-1.93609031911,0.000673708752477,204,-3.32302737236,-7.19686365128,
1.30746944348,0.763139486313,0,-1.87396553161,0.000688626720888,205,-3.3501996994,-7.25586891174,
1.29059974948,0.799680709839,0,-1.81023688056,0.000703500722824,206,-3.37401843071,-7.30845165253,
1.27362860838,0.836451113224,0,-1.74499301742,0.000720224820073,207,-3.39431595802,-7.35430526733,
1.25657416979,0.873416006565,0,-1.6783285138,0.000735905426671,208,-3.41097021103,-7.39317512512,
1.23945535819,0.910539031029,0,-1.61034383675,0.000750043769961,209,-3.42384934425,-7.42483520508,
1.22229148547,0.947783410549,0,-1.54114879997,0.000763394740333,210,-3.4328558445,-7.44910335541,
1.20510210196,0.985111773014,0,-1.47085588012,0.000775505211305,211,-3.43796086311,-7.46587753296,
1.18790699641,1.02248620987,0,-1.39958095395,0.000785770282324,212,-3.43910908699,-7.47510147095,
1.17072601716,1.05986881256,0,-1.3274442025,0.000795268976364,213,-3.43628621101,-7.47675895691,
1.15357871453,1.0972224474,0,-1.25456834023,0.000803415106044,214,-3.4295425415,-7.47093009949,
1.13648437063,1.13451004028,0,-1.18107135602,0.000810260469119,215,-3.41894197464,-7.4577331543,
1.11946205894,1.17169547081,0,-1.10707795835,0.000815730958901,216,-3.40454316139,-7.43732452393,
1.1025301675,1.20874392986,0,-1.0327096433,0.000819862197978,217,-3.38646149635,-7.40989208221,
1.08570633928,1.24562144279,0,-0.958077987894,0.000822763650922,218,-3.36484050751,-7.37572097778,
1.06900765101,1.28229606152,0,-0.883301810238,0.000824355205041,219,-3.33980798721,-7.33511734009,
1.05245031516,1.31873691082,0,-0.80848884569,0.000824758666792,220,-3.31155014038,-7.28838157654,
1.0360495607,1.35491514206,0,-0.733742280223,0.000824024497297,221,-3.2802195549,-7.23584079742,
1.01981987158,1.39080369473,0,-0.659164273991,0.000822164158013,222,-3.24601459503,-7.17790222168,
1.00377453963,1.42637717724,0,-0.584843100681,0.000819330639922,223,-3.2091281414,-7.11490535736,
0.987926201024,1.46161258221,0,-0.510873406576,0.000815453767743,224,-3.16973781586,-7.04724645615,
0.972286121049,1.49648797512,0,-0.437325882585,0.00081079758286,225,-3.12807869911,-6.97529935837,
0.956865028539,1.5309844017,0,-0.364285276747,0.000805207170141,226,-3.0842757225,-6.89942121506,
0.941672519841,1.5650832653,0,-0.291812125455,0.000798949428579,227,-3.03856825829,-6.81998443604,
0.926717178026,1.59876930714,0,-0.219971785357,0.000791971232133,228,-2.99112510681,-6.73736000061,
0.912006870904,1.63202762604,0,-0.148815926589,0.000784423422128,229,-2.94211173058,-6.65182828903,
0.89754869143,1.66484570503,0,-0.0783979895266,0.000776286507295,230,-2.89168667793,-6.56376123428,
0.883348957696,1.69721198082,0,-0.00876140491424,0.000767670860383,231,-2.84000205994,-6.47341346741,
0.86941303412,1.72911679745,0,0.060056750005,0.000758646260939,232,-2.78722953796,-6.38110780716,
0.855745867887,1.76055157185,0,0.128020338292,0.000749223663489,233,-2.73347091675,-6.28706645966,
0.842351750531,1.79150855541,0,0.195101062496,0.000739489142471,234,-2.67886829376,-6.19153928757,
0.829234317937,1.82198154926,0,0.261273223625,0.000729471390965,235,-2.62352466583,-6.09471035004,
0.81639672915,1.85196530819,0,0.326514263359,0.000719205130813,236,-2.56756234169,-5.99685955048,
0.803841487565,1.88145530224,0,0.390809812257,0.000708780594465,237,-2.51107954979,-5.89810037613,
0.791571156183,1.9104475975,0,0.454139897359,0.000698135954902,238,-2.45410466194,-5.79857540131,
0.779587284723,1.93893957138,0,0.516495920417,0.000687392090136,239,-2.39679265022,-5.69850254059,
0.76789160172,1.96692883968,0,0.577863742087,0.000676497079757,240,-2.33916306496,-5.59796619415,
0.756485239663,1.99441349506,0,0.638237113086,0.000665532992782,241,-2.28129982948,-5.49706363678,
0.745369092622,2.02139282227,0,0.697606837144,0.000654467453527,242,-2.22327160835,-5.39595794678,
0.734543756643,2.0478656292,0,0.755970859937,0.000643379156577,243,-2.16507530212,-5.29465961456,
0.724009887376,2.07383179665,0,0.813319569852,0.000632185202309,244,-2.10679674149,-5.19329166412,
0.713767544427,2.09929084778,0,0.869654578167,0.000621009043004,245,-2.0484893322,-5.0919084549,
0.703816787401,2.12424349785,0,0.92497057051,0.000609774355225,246,-1.99015951157,-4.99061059952,
0.694157854715,2.14868998528,0,0.979260500507,0.000598461711181,247,-1.9318048954,-4.88935661316,
0.684790269532,2.1726307869,0,1.03252674356,0.000587175621895,248,-1.87353754044,-4.7882566452,
0.67571385304,2.1960670948,0,1.08476247495,0.000575814363153,249,-1.8152987957,-4.68734169006,
0.666928068795,2.21899986267,0,1.13596624516,0.00056443719312,250,-1.75715148449,-4.58661413193,
0.65843267838,2.24143028259,0,1.1861296954,0.000552967956432,251,-1.69907987118,-4.48609685898,
0.650227145353,2.26335906982,0,1.23524923519,0.00054145917683,252,-1.64111948013,-4.38579368591,
0.642310635248,2.28478765488,0,1.28332148919,0.000529913262632,253,-1.58329701424,-4.28579521179,
0.634682730832,2.30571770668,0,1.33033479581,0.000518238884294,254,-1.52558839321,-4.1860332489,
0.627342597642,2.32615017891,0,1.37628401632,0.000506507896236,255,-1.46804070473,-4.08656072617,
0.620289580026,2.34608674049,0,1.42115768822,0.000494650608886,256,-1.41060566902,-3.98734474182,
0.613522903123,2.36552858353,0,1.46494556967,0.000482680517586,257,-1.35334432125,-3.88841915131,
0.60704161326,2.38447713852,0,1.50763728384,0.000470596182214,258,-1.29626524448,-3.78977584839,
0.600845054784,2.4029340744,0,1.5492162541,0.000458329219096,259,-1.2393168211,-3.69140291214,
0.594932512441,2.42090034485,0,1.5896664171,0.000445885236046,260,-1.18251860142,-3.59330415726,
0.589302972951,2.43837738037,0,1.62897249596,0.000433272665367,261,-1.12590885162,-3.49547171593,
0.583955661454,2.45536708832,0,1.6671136579,0.000420430550853,262,-1.06947338581,-3.39793777466,
0.578889683881,2.47187018394,0,1.70407050237,0.000407374950497,263,-1.01319932938,-3.30064702034,
0.574104146161,2.48788833618,0,1.73982018378,0.00039406741696,264,-0.95711261034,-3.20367360115,
0.569597915807,2.50342273712,0,1.774341233,0.000380523281068,265,-0.901235342026,-3.10692214966,
0.565370515981,2.51847481728,0,1.80760256276,0.00036663654724,266,-0.845500767231,-3.01041293144,
0.56142075459,2.53304576874,0,1.83957940901,0.000352476922686,267,-0.789952635765,-2.91420173645,
0.55774779717,2.5471367836,0,1.87024098528,0.000337977991785,268,-0.734581410885,-2.8182413578,
0.554350570836,2.56074953079,0,1.89955685519,0.000323143649866,269,-0.679437816143,-2.72255659103,
0.551228241124,2.57388472557,0,1.92749256215,0.0003079295434,270,-0.624489367008,-2.6270980835,
0.548379615941,2.58654427528,0,1.95401493531,0.000292349921478,271,-0.569707274437,-2.53191876411,
0.545803980031,2.59872937202,0,1.97908438551,0.000276333969509,272,-0.51513761282,-2.43699717522,
0.543500022092,2.61044096947,0,2.00266524359,0.000259924795828,273,-0.460792630911,-2.34234571457,
0.54146678845,2.62168097496,0,2.02471649773,0.0002430637933,274,-0.406649321318,-2.24799180031,
0.539703325429,2.63245010376,0,2.04519513509,0.000225728794266,275,-0.352704077959,-2.15387058258,
0.538208321729,2.64275026321,0,2.06406000643,0.000207940308029,276,-0.299018353224,-2.0600669384,
0.536980466047,2.65258336067,0,2.0812683221,0.000189680254094,277,-0.245565354824,-1.96658277512,
0.536018923917,2.66195011139,0,2.09677051867,0.000170873985016,278,-0.192301377654,-1.87336671352,
0.535322264829,2.67085266113,0,2.11052167384,0.000151572669125,279,-0.139323338866,-1.78051447868,
0.53488917748,2.67929244041,0,2.12247363899,0.000131739786026,280,-0.0866252779961,-1.68797969818,
0.534718350568,2.687271595,0,2.13257739803,0.000111367757149,281,-0.0341665893793,-1.59581887722,
0.534808592,2.6947915554,0,2.14078072785,9.042021596e-05,282,0.018059566617,-1.50401806831,
0.535158113637,2.70185494423,0,2.14703642566,6.89524987153e-05,283,0.0698951631784,-1.41265881062,
0.535765604177,2.70846319199,0,2.15129043727,4.68890871449e-05,284,0.121494933963,-1.32166349888,
0.536629394689,2.71461892128,0,2.15349199721,2.42662396311e-05,285,0.172774076462,-1.23119115829,
0.537747935453,2.72032475471,0,2.15358832966,1.06180171329e-06,286,0.223707363009,-1.14112865925,
0.539119438329,2.72558259964,0,2.15152634706,-2.27276582105e-05,287,0.274299174547,-1.05161333084,
0.540742234388,2.73039579391,0,2.14725340129,-4.70972947685e-05,288,0.324559777975,-0.962623238564,
0.542614297071,2.73476696014,0,2.14071765017,-7.20382016107e-05,289,0.374408990145,-0.874193668365,
0.54473371903,2.73869895935,0,2.13186589631,-9.75653413565e-05,290,0.42387971282,-0.786404848099,
0.547098354497,2.74219512939,0,2.12064706021,-0.000123655347397,291,0.47292676568,-0.699253439903,
0.549706296125,2.74525880814,0,2.1070076845,-0.000150334427143,292,0.52158087492,-0.612777888775,
0.552554921308,2.74789428711,0,2.0909015021,-0.000177523330696,293,0.569744229317,-0.527075529099,
0.55564196507,2.75010490417,0,2.07227712917,-0.000205278456827,294,0.617415964603,-0.442129194736,
0.558965281644,2.75189495087,0,2.05108420905,-0.000233588454812,295,0.664662599564,-0.35801255703,
0.562521771589,2.75326895714,0,2.02728024935,-0.000262366594671,296,0.71131747961,-0.274767935276,
0.566309289136,2.75423121452,0,2.0008149902,-0.000291698623409,297,0.757477343082,-0.192477703094,
0.570324496427,2.75478720665,0,1.97165047414,-0.00032144744309,298,0.803048849106,-0.1111779809,
0.574564413228,2.75494170189,0,1.93974463256,-0.000351661112085,299,0.847993910313,-0.0309027433395,
0.579026357332,2.75470042229,0,1.90505611778,-0.000382330356485,300,0.892379820347,0.0482485890388,
0.583706692853,2.75406932831,0,1.86755223563,-0.000413359699413,301,0.936063945293,0.126226007938,
0.588602081933,2.75305461884,0,1.82719955921,-0.000444757415619,302,0.979089856148,0.20295894146,
0.593709007898,2.75166225433,0,1.78396634837,-0.000476504813228,303,1.02138125896,0.278426289558,
0.599023894468,2.7498998642,0,1.73782723588,-0.000508531673402,304,1.06297528744,0.352480649948,
0.604542688527,2.74777436256,0,1.68875989351,-0.000540804231442,305,1.10376882553,0.425119161606,
0.610261515775,2.74529314041,0,1.63674348697,-0.000573306503178,306,1.14375066757,0.496215045452,
0.616175846257,2.74246454239,0,1.58176684616,-0.000605931534099,307,1.18287503719,0.565733134747,
0.622281686464,2.73929691315,0,1.52381650714,-0.00063870489223,308,1.22117614746,0.633565604687,
0.628574148813,2.73579859734,0,1.46288805162,-0.000671526791374,309,1.25850009918,0.699658751488,
0.635048584142,2.7319791317,0,1.39898110445,-0.000704352684134,310,1.29490423203,0.76387488842,
0.641700164476,2.7278482914,0,1.33209987843,-0.000728663501199,311,1.33033216,0.826187670231,
0.648523763814,2.72341585159,0,1.26225353221,-0.000758773525838,312,1.36472117901,0.886519014835,
0.65551389853,2.7186923027,0,1.18945916238,-0.000787068164384,313,1.39802968502,0.944713592529,
0.662665144601,2.71368861198,0,1.11373784687,-0.000818712570976,314,1.43024659157,1.00070977211,
0.66997189919,2.70841622353,0,1.03511675112,-0.00085006301597,315,1.46134746075,1.05446958542,
0.677428023019,2.70288729668,0,0.953633148026,-0.000881010656394,316,1.49121928215,1.10582745075,
0.685027436414,2.69711375237,0,0.869326444399,-0.000910453707929,317,1.51988208294,1.15471220016,
0.692763880887,2.69110846519,0,0.78224428847,-0.000940424093773,318,1.54729771614,1.20104765892,
0.700630740323,2.68488502502,0,0.692443548025,-0.000969780222694,319,1.57337713242,1.24471449852,
0.708621219793,2.67845678329,0,0.599985712243,-0.000998472366115,320,1.59811830521,1.28562664986,
0.716728345552,2.67183852196,0,0.504942758072,-0.00102638674702,321,1.62143576145,1.32367622852,
0.724945203462,2.66504478455,0,0.407389426537,-0.00104280158506,322,1.6433647871,1.35876989365,
0.733264104524,2.65809059143,0,0.307413317263,-0.00106869678827,323,1.66378581524,1.3908367157,
0.741677478948,2.65099191666,0,0.205108736262,-0.00109358375279,324,1.68267953396,1.4197177887,
0.750177756944,2.64376497269,0,0.100575308256,-0.00111740624658,325,1.70005130768,1.44539523125,
0.758756653466,2.63642644882,0,-0.00607440322371,-0.00114002504386,326,1.71578085423,1.4676990509,
0.767406062284,2.6289935112,0,-0.11472303994,-0.00116138945528,327,1.72988760471,1.48657536507,
0.776117579141,2.62148404121,0,-0.225243055505,-0.00118138992295,328,1.74231886864,1.5019210577,
0.784882680574,2.61391592026,0,-0.337500845965,-0.00119996255717,329,1.75303161144,1.51365506649,
0.793692664304,2.60630726814,0,-0.451355259685,-0.00121702525692,330,1.76200282574,1.52170062065,
0.802538589635,2.59867763519,0,-0.566652580344,-0.00123244395781,331,1.76919102669,1.52593612671,
0.811411158242,2.59104609489,0,-0.683232088825,-0.00124614637712,332,1.77452790737,1.52629423141,
0.820301548639,2.58343243599,0,-0.800930044932,-0.00125809824734,333,1.77807343006,1.52272939682,
0.829199985662,2.57585692406,0,-0.919566107883,-0.00126812250099,334,1.77971148491,1.51513886452,
0.838097290197,2.56833958626,0,-1.03896153793,-0.00127623559967,335,1.77946662903,1.50346970558,
0.846983746686,2.56090140343,0,-1.15892326481,-0.00128228562484,336,1.77730154991,1.48764109612,
0.855849699178,2.55356311798,0,-1.2792543084,-0.00128620382812,337,1.77320039272,1.46764028072,
0.864685432115,2.54634642601,0,-1.39974808474,-0.00128793960257,338,1.76716196537,1.44336390495,
0.87348122994,2.53927206993,0,-1.52019616084,-0.00128744725317,339,1.75915324688,1.41484761238,
0.882227138677,2.53236222267,0,-1.64037668864,-0.00128458377364,340,1.7492030859,1.38197088242,
0.890913383165,2.52563858032,0,-1.76006599097,-0.00127933018195,341,1.73725903034,1.34479165077,
0.899530247846,2.51912212372,0,-1.87903829534,-0.001271663387,342,1.72337067127,1.30326628685,
0.908067778745,2.51283526421,0,-1.99705417256,-0.00126143752524,343,1.70752596855,1.2573826313,
0.916516558328,2.50679969788,0,-2.1138772189,-0.00124868373462,344,1.68976807594,1.20714652538,
0.924866990247,2.50103640556,0,-2.22926633199,-0.00123335309757,345,1.67009007931,1.15263819695,
0.933109597364,2.4955675602,0,-2.34297138777,-0.00121534952049,346,1.64852643013,1.09381711483,
0.941235140958,2.49041366577,0,-2.45474589809,-0.00119471080851,347,1.62511491776,1.0307803154,
0.949234501519,2.48559594154,0,-2.56433619278,-0.00117136156611,348,1.59988236427,0.963553190231,
0.957098917165,2.48113489151,0,-2.67148980136,-0.00114531384149,349,1.57289648056,0.892196595669,
0.964819804826,2.47705078125,0,-2.7759515211,-0.00111653825355,350,1.54418826103,0.816836714745,
0.972388939061,2.47336292267,0,-2.87746841982,-0.0010850588129,351,1.51383686066,0.737558364868,
0.979798571267,2.47009062767,0,-2.9757872265,-0.00105087359918,352,1.48194086552,0.654486000538,
0.987041131654,2.46725201607,0,-3.0706559931,-0.00101399524441,353,1.44852566719,0.567726254463,
0.994109586873,2.46486496925,0,-3.1618241265,-0.000974439270564,354,1.41370403767,0.477425932884,
1.00099708239,2.46294641495,0,-3.24904140606,-0.000932208537465,355,1.37750482559,0.38373786211,
1.00769765774,2.46151232719,0,-3.33206625164,-0.000887396186894,356,1.34012591839,0.28683412075,
1.01420559088,2.46057772636,0,-3.41065833585,-0.000840014838648,357,1.30160307884,0.186920046806,
1.02051593462,2.46015691757,0,-3.48458367947,-0.000790133351729,358,1.26207578182,0.0841528177261,
1.02662415902,2.46026301384,0,-3.55361284676,-0.000737799664916,359,1.2216501236,-0.0212137699127,
1.03252638976,2.4609079361,0,-3.61752384674,-0.000683093750904,360,1.18044340611,-0.12898516655,
1.0382195274,2.4621026516,0,-3.6761024785,-0.000626098516094,361,1.13863706589,-0.238918066025,
1.04370100895,2.46385645866,0,-3.72914332776,-0.000566908303877,362,1.09630060196,-0.350771784782,
1.04896898667,2.46617794037,0,-3.77644729558,-0.000505589890296,363,1.05360138416,-0.464277505875,
1.05402256648,2.46907377243,0,-3.8178305153,-0.00044230719479,364,1.01070868969,-0.579184055328,
1.05886133114,2.47254991531,0,-3.85311316462,-0.000377102797222,365,0.967749238014,-0.695233106613,
1.0634856383,2.47661018372,0,-3.88213067095,-0.000310139859295,366,0.924866557121,-0.812103033066,
1.06789685885,2.48125767708,0,-3.90472907607,-0.000241530184359,367,0.882242500782,-0.929530084133,
1.07209690014,2.48649382591,0,-3.92076522981,-0.000171392893898,368,0.840016126633,-1.04723930359,
1.07608880202,2.4923183918,0,-3.93011388807,-9.99173032427e-05,369,0.798379182816,-1.16490411758,
1.07987617055,2.49872946739,0,-3.93266213829,-2.7235206287e-05,370,0.757478773594,-1.28225421906,
1.08346329729,2.50572419167,0,-3.92830705086,4.65461824257e-05,371,0.717425704002,-1.3989700079,
1.08685560624,2.51329803467,0,-3.91696513054,0.000121219535629,372,0.678461313248,-1.51478362083,
1.09005914728,2.52144479752,0,-3.89856764301,0.000196627013899,373,0.640702605247,-1.62939679623,
1.09308065573,2.53015708923,0,-3.87305899094,0.000272628352609,374,0.60429918766,-1.74249136448,
1.09592793981,2.53942608833,0,-3.84040279342,0.000349018038075,375,0.569451749325,-1.8537800312,
1.09860919515,2.54924082756,0,-3.80058050931,0.000425605617204,376,0.536258637905,-1.96301436424,
1.10113369028,2.55959033966,0,-3.75358467065,0.000502272393606,377,0.504905104637,-2.06990337372,
1.10351137916,2.57046079636,0,-3.69943518648,0.00057872604703,378,0.475535422564,-2.17414045334,
1.10575254361,2.58183836937,0,-3.63815694444,0.000654913321103,379,0.44823718071,-2.27554368973,
1.1078685979,2.59370708466,0,-3.56980355397,0.000730527136575,380,0.423217177391,-2.37380313873,
1.10987128417,2.60605025291,0,-3.49444016034,0.000805444541605,381,0.400543212891,-2.4686870575,
1.11177300016,2.61884999275,0,-3.4121508607,0.000879462880887,382,0.380346685648,-2.5599822998,
1.1135868291,2.63208699226,0,-3.32304175924,0.000952346194724,383,0.362766265869,-2.64745163918,
1.11532612244,2.64574146271,0,-3.22723055289,0.00102397144105,384,0.34786388278,-2.73094677925,
1.11700509588,2.65979218483,0,-3.1248602602,0.00109406801493,385,0.335797905922,-2.81020116806,
1.11863796512,2.67421722412,0,-3.01608678125,0.00116249778266,386,0.326569825411,-2.88509058952,
1.12023972074,2.68899393082,0,-2.90108634622,0.00122904429579,387,0.320356965065,-2.95541858673,
1.12182547251,2.70409870148,0,-2.78005277888,0.00129351856845,388,0.317152500153,-3.02104473114,
1.12341062824,2.71950769424,0,-2.65319356411,0.00135577558355,389,0.317036896944,-3.08186340332,
1.12501104275,2.73519563675,0,-2.52074250615,0.00141553353671,390,0.320075362921,-3.13770389557,
1.12664254109,2.75113773346,0,-2.38293933094,0.00147272927531,391,0.326306164265,-3.18847894669,
1.12832130591,2.76730775833,0,-2.24005103782,0.0015270712669,392,0.335753202438,-3.23411846161,
1.13006363908,2.78367972374,0,-2.09235508648,0.00157844750223,393,0.348465979099,-3.27448606491,
1.13188581268,2.80022716522,0,-1.94014560153,0.00162668040778,394,0.36444067955,-3.30954957008,
1.13380430738,2.81692266464,0,-1.7837407155,0.00167151182064,395,0.383699685335,-3.33924198151,
1.13583533565,2.83373999596,0,-1.62345799043,0.00171283446301,396,0.406207889318,-3.36354660988,
1.13799540798,2.85065150261,0,-1.45964540281,0.00174270039836,397,0.432010442019,-3.38240456581,
1.1403004984,2.86762976646,0,-1.29265930813,0.00177645527544,398,0.461024910212,-3.39579844475,
1.1427668492,2.88464784622,0,-1.12286725648,0.00180630122398,399,0.493272006512,-3.40374517441,
1.14541028539,2.90167832375,0,-0.950654017527,0.00183205264966,400,0.528682947159,-3.40622591972,
1.14824654261,2.91869401932,0,-0.776416291944,0.00185358488998,401,0.567256569862,-3.4032664299,
1.15129096905,2.93566799164,0,-0.600560935806,0.00187078885173,402,0.608886599541,-3.3948931694,
1.1545587341,2.95257306099,0,-0.423511806086,0.00188348370229,403,0.653551995754,-3.38116550446,
1.15806470911,2.96938276291,0,-0.245698128545,0.00189161200154,404,0.701190590858,-3.36210107803,
1.16182322899,2.98607110977,0,-0.0675556158965,0.0018951054804,405,0.751711130142,-3.33778834343,
1.16584844986,3.00261163712,0,0.11046025214,0.00189375153129,406,0.805046617985,-3.30824708939,
1.17015402118,3.01897883415,0,0.287893203976,0.00188754562432,407,0.86111086607,-3.27360987663,
1.17475323478,3.03514790535,0,0.464283153219,0.00187644523227,408,0.919845342636,-3.23392128944,
1.17965869705,3.05109357834,0,0.639153469314,0.00186027304345,409,0.981096565723,-3.18930792809,
1.18488268653,3.06679201126,0,0.812033188642,0.00183907834567,410,1.04480016232,-3.13984537125,
1.19043691556,3.0822198391,0,0.982447184584,0.00181284359157,411,1.11084866524,-3.08571124077,
1.19633255998,3.09735369682,0,1.14991042141,0.00178144941899,412,1.17913758755,-3.02693128586,
1.20258005063,3.11217188835,0,1.31395109472,0.00174503514764,413,1.24950098991,-2.96374392509,
1.20918957988,3.12665200233,0,1.47407829145,0.00170340001851,414,1.32191431522,-2.89618778229,
1.2161707143,3.14077353477,0,1.62981880215,0.00165672983471,415,1.39623165131,-2.82446813583,
1.22353194753,-3.12866902351,0,1.78069919684,0.00160502489916,416,1.47225165367,-2.74874567986,
1.23128177325,-3.11532402039,0,1.9262545243,0.0015483745879,417,1.54997217655,-2.66913509369,