lower angle,upper angle,holding angle,system x,acceleration,ticks (200 tps),lower acceleration (shoulder),upper acceleration (elbow),
1.57079632679,0.0,0,2.02525964409e-15,None,1,0.0,0.0,
1.57063419483,0.000308414921165,0,0.000990733326555,2.5769403619,2,-0.0324263945222,-0.0616829842329,
1.57030763262,0.00093358149752,0,0.00293004195601,3.48559497463,3,-0.0653124451637,-0.125033318996,
1.56981773308,0.00187250855379,0,0.00582417709386,3.97151770538,4,-0.0979799032211,-0.18778540194,
-1.12362472614,-0.935831546783,0,1.51832496795,1598.88701369,5,-1755.13867188,-3356.51196289,