lower angle,upper angle,holding angle,system x,acceleration,ticks (200 tps),lower acceleration (shoulder),upper acceleration (elbow),
2.309700789,-1.58584836,0,-0.780734807812,-0.0338883744319,1,0.0,0.0,
2.309700789,-1.58584836,0,-0.780734807812,0.0,2,0.0,0.0,
2.309700789,-1.58584836,0,-0.780734807812,0.0,3,0.0,0.0,
2.31567126706,-1.59735348695,0,-0.792361178672,-0.000504637103059,4,1.19406414032,2.30097055435,
2.32353240445,-1.61251309389,0,-0.807557574994,-0.000659586312656,5,1.57224571705,3.03196668625,
2.33345443204,-1.63162520402,0,-0.826691837837,-0.000830498103438,6,1.9844481945,3.82244849205,
2.34538489773,-1.65458872789,0,-0.849574938682,-0.000993203208884,7,2.38604855537,4.59270763397,
2.35928136304,-1.68132069582,0,-0.876022651904,-0.00114790984862,8,2.77940249443,5.34650182724,
2.37510711148,-1.71174433702,0,-0.905857909029,-0.00129492659284,9,3.16520214081,6.08483314514,
2.39282256558,-1.74577763551,0,-0.938876083409,-0.00143306111458,10,3.54314160347,6.80685710907,
2.41238576367,-1.78333428377,0,-0.974845190658,-0.00156112375002,11,3.91275978088,7.51153612137,
2.4337537904,-1.82432320589,0,-1.0135176973,-0.00167844271772,12,4.27377033234,8.19811916351,
2.45688277676,-1.8686523723,0,-1.05461743762,-0.00178377323646,13,4.62601709366,8.86613082886,
2.48172885373,-1.91622689241,0.0,-1.09785150137,-0.00187638940289,14,4.96950292587,9.51539134979,
2.50824910596,-1.96695425981,0.0,-1.14290039636,-0.00195513358259,15,5.30439376831,10.1460609436,
2.53640252545,-2.02074435228,0,-1.18942372251,-0.00201909480634,16,5.63101577759,10.7586154938,
2.56614953473,-2.07750943178,0,-1.23705541821,-0.00206717921139,17,5.94984722137,11.3537960052,
2.597454371,-2.13716795915,0,-1.28540805083,-0.00209844890456,18,6.2614364624,11.9326076508,
2.63028413251,-2.19964459413,0,-1.33406525869,-0.00211163815836,19,6.56656169891,12.496389389,
2.66461068585,-2.26487210268,0,-1.38258731264,-0.00210575356893,20,6.86600494385,13.046661377,
2.70041066601,-2.33279183382,0,-1.43050774758,-0.00207962709868,21,7.16071176529,13.5852108002,
2.73766404584,-2.40335419649,0,-1.47732395652,-0.00203168944317,22,7.45161676407,14.1139860153,
2.77635842755,-2.47652199739,0,-1.52251062473,-0.00196095508658,23,7.73979330063,14.6352043152,
2.81648427441,-2.55226901048,0,-1.56549970088,-0.00186557140871,24,8.0262670517,15.1512365341,
2.85803920224,-2.63058236116,0,-1.60569559368,-0.00174434159152,25,8.31217384338,15.6646900177,
2.90102559521,-2.7114630031,0,-1.64246575687,-0.00159566503145,26,8.59857559204,16.1783256531,
2.94545108273,-2.79492667192,0,-1.67514480609,-0.00141811684498,27,8.8865737915,16.6951446533,
2.99132949307,-2.88100531572,0,-1.7030396174,-0.00121049363475,28,9.17730712891,17.2184333801,
3.03868037655,-2.9697490024,0,-1.72543226512,-0.000971719486161,29,9.47191429138,17.7516708374,
3.08752900555,-3.0612263965,0,-1.74158836021,-0.000701080647228,30,9.77164745331,18.2987174988,
3.13790732815,-3.15552714342,0,-1.75076739525,-0.000398313376486,31,10.0778617859,18.8637619019,