lower angle,upper angle,holding angle,system x,acceleration,ticks (200 tps),lower acceleration (shoulder),upper acceleration (elbow),
0.922387802,1.852436303,0,-0.673397001264,-1.22158697228,1,0.0,0.0,
0.922387802,1.852436303,0,-0.673397001264,0.0,2,0.0,0.0,
0.922387802,1.852436303,0,-0.673397001264,0.0,3,0.0,0.0,
0.927515708799,1.84259486089,0,-0.693134332063,-0.0357704946463,4,1.0255395174,1.96830236912,
0.934068405027,1.83000731359,0,-0.718335551462,-0.0456627546096,5,1.31059837341,2.51751089096,
0.942256652708,1.81429362188,0,-0.749859182465,-0.0571065676958,6,1.63759219646,3.14267253876,
0.952070915098,1.79546427618,0,-0.787652663128,-0.0684472962876,7,1.96286213398,3.7659444809,
0.963523589964,1.77349018941,0,-0.83174874162,-0.0798388934162,8,2.29060339928,4.3948302269,
0.976638996,1.7483227242,0,-0.882227118529,-0.0913619648539,9,2.62312269211,5.03362369537,
0.991447173948,1.71989893804,0,-0.939174586828,-0.103030836661,10,2.96169090271,5.68478965759,
1.00798388659,1.68814730535,0,-1.00269399161,-0.114877853691,11,3.3074131012,6.35053634644,
1.02629109561,1.65298151861,0,-1.07289101931,-0.126906777884,12,3.66149044037,7.03325748444,
1.04641648471,1.61430477987,0,-1.14987513722,-0.139126434321,13,4.02529430389,7.73563718796,
1.06841727435,1.57200312505,0.0,-1.23377077606,-0.151551192655,14,4.40029191971,8.46060562134,
1.09235688388,1.52594780813,0.0,-1.32468818383,-0.164179003223,15,4.78816604614,9.21148490906,
1.11830969989,1.47599053274,0,-1.42274437383,-0.177006177505,16,5.1908364296,9.99202632904,
1.14635964572,1.42196202169,0,-1.52803698664,-0.190010408165,17,5.61037158966,10.8063621521,
1.17660304248,1.36367010961,0,-1.64065243765,-0.203166833923,18,6.04916858673,11.6591453552,
1.20914956271,1.30089783559,0,-1.7606551724,-0.216422280089,19,6.50982189178,12.5554962158,
1.24412175357,1.23339915166,0,-1.88805173329,-0.229699735812,20,6.99521493912,13.5010528564,
1.28165980517,1.16089796911,0,-2.02281091853,-0.242920821322,21,7.50843143463,14.5018539429,
1.32191773593,1.08308720479,0,-2.16479607789,-0.255886143403,22,8.05266571045,15.5641117096,
1.36506673038,0.99962878118,0,-2.31376453886,-0.268412628253,23,8.63114547729,16.6940803528,
1.41129180133,0.910157441,0,-2.46930752736,-0.280198927846,24,9.24670124054,17.8972434998,
1.46078845202,0.814288853507,0,-2.63079885156,-0.290849718894,25,9.90135097504,19.1774368286,
1.51375409305,0.711634873251,0,-2.79731058374,-0.299819711376,26,10.5955781937,20.535369873,
1.57037469089,0.601830719809,0,-2.96752416653,-0.306401467067,27,11.3271093369,21.9663333893,
1.63080331027,0.484578369956,0,-3.13963006105,-0.309736289,28,12.0894527435,23.4572219849,
1.69513150393,0.359704254965,0,-3.31123685058,-0.308772303683,29,12.8700914383,24.9829711914,
1.76334973514,0.227235554556,0,-3.47929081948,-0.302319448177,30,13.6489181519,26.5034713745,
1.83530732333,0.0874793518586,0,-3.64008685445,-0.288967525763,31,14.3977441788,27.962600708,
1.91068431079,-0.0589168082671,0,-3.78943698203,-0.268315924621,32,15.0824699402,29.2923641205,
1.98898621737,-0.210962058206,0,-3.92292510798,-0.239769403914,33,15.6684455872,30.4237136841,
2.06958647906,-0.367395640512,0,-4.03638212143,-0.203749713935,34,16.1287593842,31.3027420044,
2.15179988086,-0.526839972635,0,-4.12626145921,-0.161374932018,35,16.4519386292,31.9057502747,
2.23497458636,-0.687977076669,0,-4.18995398611,-0.114330802716,36,16.6445674896,32.2449417114,
2.31856747806,-0.849698067804,0,-4.2258534806,-0.0644253103823,37,16.7282905579,32.3618469238,
2.40217992007,-1.01117467989,0,-4.2332247615,-0.013225872889,38,16.7321968079,32.3129844666,
2.4855615729,-1.17186808695,0,-4.21196752081,0.0381293286626,39,16.6859989166,32.1560096741,
2.56859131991,4.95169734846,0,-4.16238679745,0.0889152013788,40,16.6155509949,31.9410400391,
2.65125104129,4.79324245344,0,-4.08497010118,0.138794203133,41,16.5413398743,31.7076721191,
2.73359700381,4.635898589,0,-3.98021906945,0.187762353741,42,16.4784946442,31.4851646423,
2.81574078738,4.47950649152,0,-3.84855301437,0.235942070057,43,16.437997818,31.2944831848,
2.89783021152,4.32383394132,0,-3.69022456221,0.283658541947,44,16.4271430969,31.1503810883,
2.9800383681,4.16859531293,0,-3.50528057996,0.331141360975,45,16.4509296417,31.0634555817,
3.06255313098,4.01346564184,0,-3.29353992982,0.379004732817,46,16.5122814178,31.0416564941,
3.13761721114,3.85808801542,0,-3.02718095332,0.476655373766,47,16.6125335693,31.091381073,