lower angle,upper angle,holding angle,system x,acceleration,ticks (200 tps),lower acceleration (shoulder),upper acceleration (elbow),
1.81742844,-0.366151594,0,-1.08299119293,-0.0756758829249,1,0.0,0.0,
1.81742844,-0.366151594,0,-1.08299119293,0.0,2,0.0,0.0,
1.81742844,-0.366151594,0,-1.08299119293,0.0,3,0.0,0.0,
1.8266333045,-0.384072564917,0,-1.09999343897,-0.00118802987757,4,1.84097421169,3.58415555954,
1.83884939566,-0.407877229529,0,-1.12229454123,-0.00155827491551,5,2.44318819046,4.76104545593,
1.85411486044,-0.437603734808,0,-1.150016301,-0.00193702530432,6,3.05318832397,5.94535923004,
1.87237438574,-0.473146222906,0,-1.1828714882,-0.00229570035828,7,3.65204668045,7.10872793198,
1.89356550589,-0.51438262351,0,-1.22053162515,-0.00263141713023,8,4.23831415176,8.2475233078,
1.91761288061,-0.561164163427,0,-1.26261185969,-0.00294023599182,9,4.80969429016,9.35680675507,
1.9444278182,-0.613314889746,0,-1.30866724348,-0.00321795776665,10,5.36332845688,10.4307355881,
1.97390636816,-0.670626901465,0,-1.35819539136,-0.00346056682977,11,5.89618444443,11.4631843567,
2.00593075171,-0.732863210516,0,-1.41064034464,-0.00366433579638,12,6.40537071228,12.4482688904,
2.04036888495,-0.799761079626,0,-1.4653738503,-0.00382420160255,13,6.88834953308,13.3807983398,
2.07708057776,-0.871036790686,0.0,-1.52174673653,-0.00393871420113,14,7.34312438965,14.2566003799,
2.11591753378,-0.946391843634,0.0,-1.57906324088,-0.00400461137235,15,7.76839494705,15.0728874207,
2.15673002615,-1.02552392371,0,-1.63660745404,-0.00402036508945,16,8.1636724472,15.8284454346,
2.19937023535,-1.10813023932,0,-1.69366847873,-0.00398657603107,17,8.52931213379,16.5236549377,
2.24369558706,-1.19391991981,0,-1.74952159798,-0.00390215617893,18,8.8664855957,17.1605567932,
2.28957256689,-1.28261783011,0,-1.80345438637,-0.00376796496887,19,9.17708015442,17.7425079346,
2.33688196554,-1.37397220023,0,-1.85478524841,-0.00358615729359,20,9.46356010437,18.274066925,
2.38551649466,-1.46775796302,0,-1.90282526167,-0.00335622200421,21,9.72884082794,18.760602951,
2.43538650885,-1.56377961524,0,-1.94691864766,-0.00308047577097,22,9.97608947754,19.2080154419,
2.48641857519,-1.66187264808,0,-1.98641834443,-0.00275890696405,23,10.208647728,19.6225471497,
2.53855642691,-1.76190402396,0,-2.020686822,-0.00239350137783,24,10.4298934937,20.0104904175,
2.59175953283,-1.86377217658,0,-2.04907806913,-0.00198298714289,25,10.6431150436,20.3780727386,
2.64600309744,-1.96740558036,0,-2.07093691129,-0.00152671565902,26,10.8514518738,20.7313575745,
2.70127901449,-2.07276227363,0,-2.0855987064,-0.00102403370527,27,11.057964325,21.0761795044,
2.75759109869,-2.17982747443,0,-2.09235836168,-0.000472112820837,28,11.2654256821,21.4182090759,
2.81495746985,-2.28861453422,0,-2.09047847848,0.000131294835575,29,11.4763441086,21.7628097534,
2.87340578451,-2.39916303046,0,-2.07916689901,0.000790016771224,30,11.6930608749,22.115398407,
2.93297609701,-2.51153828986,0,-2.05759459023,0.00150662905058,31,11.9175224304,22.4810523987,
2.99371466055,-2.62583234199,0,-2.02487375789,0.0022852332571,32,12.1515140533,22.8651008606,
3.05567726507,-2.74216368087,0,-1.98008761533,0.00312785281243,33,12.3964910507,23.27293396,
3.11892542257,-2.86067941077,0,-1.92229487522,0.00403615752808,34,12.653799057,23.7101726532,
3.09965894009,-2.98155619987,0,-1.78041801106,0.00990837884659,35,12.9247112274,24.1828460693,