lower angle,upper angle,holding angle,system x,acceleration,ticks (200 tps),lower acceleration (shoulder),upper acceleration (elbow),
1.683172338,-0.052212642,0,-1.10064465174,-0.0812714442427,1,0.0,0.0,
1.683172338,-0.052212642,0,-1.10064465174,0.0,2,0.0,0.0,
1.683172338,-0.052212642,0,-1.10064465174,0.0,3,0.0,0.0,
1.69270145177,-0.0707740052202,0,-1.1195453208,-0.00139556298707,4,1.90575504303,3.71222639084,
1.70536481618,-0.0954651101091,0,-1.14437942556,-0.00183364531611,5,2.53270792961,4.93834733963,
1.72120343923,-0.126327918337,0,-1.17528818075,-0.00228214257963,6,3.16783237457,6.17268466949,
1.74019490956,-0.163323329256,0,-1.21202188065,-0.00271220097308,7,3.79844498634,7.39926338196,
1.76231157064,-0.206398413942,0,-1.25429281588,-0.0031210024116,8,4.4235162735,8.61532402039,
1.78751384496,-0.255474494264,0,-1.30175242403,-0.00350406705272,9,5.04065036774,9.81573486328,
1.81574403524,-0.310439036653,0,-1.35395542272,-0.00385423794627,10,5.6464509964,10.9936332703,
1.84692584752,-0.371138499544,0,-1.41038983743,-0.00416660764379,11,6.23683214188,12.1408090591,
1.88095866918,-0.437373088167,0,-1.47043605601,-0.00443321905771,12,6.80722808838,13.2480974197,
1.91771899938,-0.508895324037,0,-1.53339492581,-0.0046482026201,13,7.35288763046,14.3059558868,
1.95705997228,-0.585411952303,0.0,-1.59847851889,-0.00480501311601,14,7.86925268173,15.3051948547,
1.99881612538,-0.66658966379,0.0,-1.66484584943,-0.00489970938288,15,8.3524017334,16.2378292084,
2.04280578374,-0.75206558542,0,-1.73158821412,-0.00492733360811,16,8.79939842224,17.0977783203,
2.08884059667,-0.841457770632,0,-1.79779785811,-0.00488793429109,17,9.20855617523,17.8814544678,
2.1367298293,-0.934381888674,0,-1.86254403477,-0.00477961895922,18,9.57966041565,18.5881233215,
2.18628894567,-1.03046219187,0,-1.9249247207,-0.0046049377879,19,9.91393089294,19.2197799683,
2.23734676122,-1.12934629755,0,-1.98407822849,-0.00436665752039,20,10.2137775421,19.7808990479,
2.28974830388,-1.23071377115,0,-2.03917585868,-0.00406698195893,21,10.4826927185,20.2778911591,
2.34335958242,-1.33428375559,0,-2.08943562252,-0.0037098409391,22,10.7248439789,20.7185821533,
2.39806949376,-1.43981640177,0,-2.13413014133,-0.00329902060656,23,10.944694519,21.1114234924,
2.45379029988,-1.54711668329,0,-2.1725664034,-0.00283705589722,24,11.1469802856,21.4652633667,
2.51045619725,-1.65603391962,0,-2.20406689889,-0.00232507243588,25,11.3362846375,21.7887992859,
2.56802570104,-1.76645700769,0,-2.22799763114,-0.00176631659419,26,11.5170469284,22.0903434753,
2.62647592305,-1.87831632929,0,-2.24370042107,-0.00115899828356,27,11.693359375,22.3777370453,
2.6858030486,-1.99157707529,0,-2.2505132037,-0.000502833468572,28,11.8689613342,22.6582298279,
2.7460213828,-2.10623876886,0,-2.2477518939,0.00020380248088,29,12.0472955704,22.9386329651,
2.80715905904,-2.22233192758,0,-2.23468508397,0.000964400836174,30,12.2313652039,23.2252349854,
2.86925803899,-2.33991782503,0,-2.21053164811,0.00178262763045,31,12.4237642288,23.523979187,
2.93237125157,-2.45908539133,0,-2.17445485003,0.0026625947796,32,12.626783371,23.8406429291,
2.99656020879,-2.57995240526,0,-2.12555736043,0.0036087542355,33,12.8422250748,24.1808338165,
3.06189500569,-2.70266525583,0,-2.06289936398,0.00462425022283,34,13.0716199875,24.5503807068,
3.1284514594,-2.82740037279,0,-1.98551253356,0.00571112639196,35,13.3162002563,24.9551868439,
3.08687419812,-2.95436494188,0,-1.78554742407,0.0147567125441,36,13.5771274567,25.4015884399,