lower angle,upper angle,holding angle,system x,acceleration,ticks (200 tps),lower acceleration (shoulder),upper acceleration (elbow),
1.459412174,0.471352484,0,-1.07120624403,-0.304918164,1,0.0,0.0,
1.459412174,0.471352484,0,-1.07120624403,0.0,2,0.0,0.0,
1.459412174,0.471352484,0,-1.07120624403,0.0,3,0.0,0.0,
1.45787000999,0.474387018398,0,-1.06780964589,0.000966731477217,4,-0.308432847261,-0.606907010078,
1.45578581391,0.478514945523,0,-1.0633472938,0.00127001990566,5,-0.416839390993,-0.825585722923,
1.45314733514,0.483753595424,0,-1.05775535349,0.0015914588561,6,-0.527696073055,-1.04773068428,
1.44995795626,0.490097204146,0,-1.05104114943,0.0019107948772,7,-0.637876212597,-1.26872265339,
1.4462198938,0.497541787026,0,-1.04320600291,0.00222973447853,8,-0.747613430023,-1.48891830444,
1.44193487212,0.506084170115,0,-1.03424850559,0.00254905654717,9,-0.857005596161,-1.70847856998,
1.43710473522,0.515720773411,0,-1.02416585528,0.00286915654666,10,-0.96602922678,-1.92732524872,
1.4317315162,0.526447653693,0,-1.01295493966,0.0031901166212,11,-1.07464623451,-2.1453807354,
1.4258176104,0.53826023258,0,-1.0006131143,0.00351177669615,12,-1.18278431892,-2.36252260208,
1.41936553426,0.551153492105,0,-0.98713637569,0.00383454794822,13,-1.29041993618,-2.57866096497,
1.41237819351,0.565121721399,0.0,-0.972521367125,0.00415829515508,14,-1.39747345448,-2.79365706444,
1.40485885896,0.580158512962,0.0,-0.956765153398,0.00448278705612,15,-1.50387477875,-3.00737452507,
1.39681102492,0.59625687815,0,-0.939864203936,0.00480829026851,16,-1.60957670212,-3.21968841553,
1.3882386104,0.613409053457,0,-0.921815911776,0.0051344519382,17,-1.7144933939,-3.43045544624,
1.37914594419,0.631606381309,0,-0.902617947448,0.00546132637674,18,-1.81854689121,-3.6394906044,
1.36953773506,0.650839518678,0,-0.882269012038,0.00578840702629,19,-1.92165482044,-3.84665751457,
1.3594190941,0.671098243368,0,-0.860768283077,0.00611576290428,20,-2.02374649048,-4.05177927017,
1.34879549749,0.692371573222,0,-0.838115664075,0.00644206919263,21,-2.12473797798,-4.25470638275,
1.33767291315,0.714647602213,0,-0.814312591075,0.00676889146117,22,-2.22453951836,-4.45525169373,
1.32605771877,0.737913515342,0,-0.789361279115,0.00709519991336,23,-2.32306671143,-4.65324020386,
1.31395672418,0.762155737651,0,-0.763265792453,0.00742033592374,24,-2.42022776604,-4.84850502014,
1.3013772086,0.787359710706,0,-0.736031550461,0.00774390206854,25,-2.51593732834,-5.04085540771,
1.28832662262,0.813510294926,0,-0.707663924266,0.00806581274389,26,-2.61015319824,-5.23019647598,
1.27481308736,0.840591456664,0,-0.67817256433,0.00838494866318,27,-2.70275092125,-5.41631317139,
1.26084488787,0.868586357606,0,-0.647566210759,0.00870166884271,28,-2.79368638992,-5.59907722473,
1.24643065192,0.897477742207,0,-0.615856569341,0.00901491050956,29,-2.88289761543,-5.77837467194,
1.2315793053,0.927247550261,0,-0.583056180347,0.00932443387545,30,-2.97032690048,-5.95408010483,
1.21630001224,0.957877363932,0,-0.549179845396,0.0096297208848,31,-3.05591583252,-6.12608289719,
1.20060210086,0.989348377955,0,-0.514243759394,0.00993043422238,32,-3.13964414597,-6.29432487488,
1.18449522711,1.02164110161,0,-0.478266101779,0.0102259700925,33,-3.22144007683,-6.45868873596,
1.16798891283,1.0547362826,0,-0.441266078715,0.010516158475,34,-3.30133461952,-6.61917209625,
1.15109284378,1.08861419178,0,-0.403264174521,0.0108003315473,35,-3.37928915024,-6.77574586868,
1.13381676532,1.12325527884,0,-0.364283833761,0.0110778074961,36,-3.45530343056,-6.92838144302,
1.11617021419,1.15863987423,0,-0.324347473437,0.0113486649648,37,-3.52940249443,-7.07710981369,
1.09816272713,1.19474866606,0,-0.283480681193,0.0116124789208,38,-3.60159897804,-7.22196006775,
1.07980366208,1.23156252123,0,-0.241709654031,0.0118689824743,39,-3.67192268372,-7.36297225952,
1.06110198952,1.26906272389,0,-0.199060120565,0.0121178251643,40,-3.7404384613,-7.50025749207,
1.04206673957,1.3072309158,0,-0.15556163409,0.0123585818722,41,-3.80716395378,-7.63387489319,
1.02270640589,1.34604927517,0,-0.111242339989,0.0125912944736,42,-3.87219119072,-7.76392841339,
1.00302915431,1.3855009339,0,-0.0661326587026,0.0128152224957,43,-3.93557214737,-7.89056682587,
0.983042852654,1.42556914307,0,-0.0202625349089,0.0130303628992,44,-3.99740028381,-8.01392936707,
0.96275468327,1.46623852469,0,0.0263376235097,0.0132369351313,45,-4.05776262283,-8.13413238525,
0.942171709313,1.50749399878,0,0.0736354190069,0.0134344746977,46,-4.11672925949,-8.25138664246,
0.921300487293,1.54932167746,0,0.121596980199,0.0136223999786,47,-4.1744055748,-8.3658323288,
0.900146679653,1.5917083285,0,0.170192085291,0.0138018290988,48,-4.23091506958,-8.47765731812,
0.878715710415,1.63464203097,0,0.219386050995,0.0139711142964,49,-4.28636074066,-8.58708953857,
0.857012288346,1.67811193682,0,0.269144745236,0.0141306580328,50,-4.34084033966,-8.69429016113,
0.835040764584,1.72210755564,0,0.319433565563,0.0142804731546,51,-4.39448881149,-8.79947853088,
0.81280447699,1.76661994673,0,0.370219062433,0.0144208785967,52,-4.44743156433,-8.90284919739,
0.79030658461,1.81164136149,0,0.421463190947,0.0145503804964,53,-4.499771595,-9.00463867188,
0.767549233212,1.85716476656,0,0.473131145246,0.0146699669301,54,-4.55166244507,-9.10508346558,
0.744534151329,1.90318443991,0,0.525184792328,0.0147787145846,55,-4.60321998596,-9.20436286926,
0.721262292637,1.94969597079,0,0.577585346357,0.0148764907906,56,-4.65458011627,-9.30269432068,
0.697734074368,1.99669542528,0,0.630293412846,0.0149631420164,57,-4.70585203171,-9.40032958984,
0.673949138893,2.04418065764,0,0.683267276598,0.0150378767994,58,-4.75721931458,-9.49750232697,
0.64990641333,2.09215023733,0,0.736464712052,0.0151006687298,59,-4.80877685547,-9.594373703,
0.625604288353,2.14060428358,0,0.789839735643,0.0151503339037,60,-4.8606762886,-9.6912651062,
0.601040200962,2.18954339243,0,0.843347079758,0.0151867879358,61,-4.91307210922,-9.78833675385,
0.576210992111,2.23897030569,0,0.896936349913,0.0152092236846,62,-4.96609783173,-9.88588142395,
0.551113085522,2.28888788439,0,0.95055464076,0.0152169294953,63,-5.01984786987,-9.98403549194,
0.525741712822,2.3393010161,0.0,1.00414701902,0.0152090295522,64,-5.07454776764,-10.0831794739,
0.500091867222,2.39021542288,0.0,1.0576531116,0.0151837932561,65,-5.13026618958,-10.1834106445,
0.474157409443,2.44163789965,0,1.11101078557,0.0151410659015,66,-5.18718481064,-10.2850704193,
0.447931842579,2.49357667185,0,1.16415151512,0.0150789427121,67,-5.24541187286,-10.3883514404,
0.421407775654,2.54604163386,0,1.2170024386,0.0149961642015,68,-5.30512905121,-10.4935817719,
0.394577340855,2.59904303767,0,1.26948553418,0.0148911177715,69,-5.36642599106,-10.6009120941,
0.367431835903,2.65259328104,0,1.32151694925,0.0147622802178,70,-5.42945480347,-10.7107143402,
0.339961604847,2.70670619227,0,1.37300769015,0.0146082028143,71,-5.49436664581,-10.8232517242,
0.312157110943,2.76139655329,0,1.42386040187,0.0144265677922,72,-5.56124305725,-10.9387321472,
0.284007863774,2.81668057658,0,1.47397230617,0.0142158579633,73,-5.63024091721,-11.0575428009,
0.255502419247,2.87257685877,0,1.52323443172,0.013974339675,74,-5.7014875412,-11.1799879074,
0.226628975643,2.9291049502,0,1.57153058059,0.0136996893061,75,-5.77509880066,-11.3064002991,
0.197375373615,2.98628654696,0,1.61873754118,0.0133878378892,76,-5.85116529465,-11.4370956421,
0.167728380932,3.04414477564,0,1.66472624586,0.0130419020723,77,-5.9298248291,-11.5724382401,
0.137674765362,3.10270490862,0,1.70936074837,0.0126573393992,78,-6.01118612289,-11.7128658295,