lower angle,upper angle,holding angle,system x,acceleration,ticks (200 tps),lower acceleration (shoulder),upper acceleration (elbow),
1.996436564,-0.790309276,0,-1.01796723654,-0.0665033122871,1,0.0,0.0,
1.996436564,-0.790309276,0,-1.01796723654,0.0,2,0.0,0.0,
1.996436564,-0.790309276,0,-1.01796723654,0.0,3,0.0,0.0,
2.00190540937,-0.80092557849,0,-1.02756786232,-0.000627184992414,4,1.09377384186,2.12326812744,
2.00918242124,-0.815058078185,0,-1.04025508813,-0.000828817684148,5,1.45536327362,2.82643699646,
2.01833387998,-0.832811202422,0,-1.05621151467,-0.00104237690823,6,1.83027648926,3.55071687698,
2.0293240228,-0.854119147674,0,-1.07528989825,-0.00124631417721,7,2.19805216789,4.26157951355,
2.04211851743,-0.878914203063,0,-1.09735425252,-0.00144136152392,8,2.55898737907,4.95904684067,
2.05668255475,-0.907125796691,0,-1.12226252557,-0.00162712952798,9,2.91285896301,5.64243507385,
2.07297703412,-0.938675727263,0,-1.14984701181,-0.00180193960578,10,3.25890660286,6.3101682663,
2.09095808652,-0.973477687255,0,-1.17991155473,-0.00196383443887,11,3.59633731842,6.96053409576,
2.11057898191,-1.01143630923,0,-1.21225686836,-0.00211278549848,12,3.92436146736,7.59194660187,
2.13179012922,-1.05244955005,0,-1.24666890178,-0.00224776484476,13,4.24230289459,8.20297145844,
2.15453716901,-1.09641012134,0.0,-1.28289239432,-0.00236605283037,14,4.54962253571,8.79240512848,
2.17876526502,-1.14320453586,0.0,-1.32068122893,-0.00246826776696,15,4.84589672089,9.35933685303,
2.20441815046,-1.19271739902,0,-1.35976850684,-0.00255305432153,16,5.13083124161,9.90307807922,
2.23143812803,-1.2448304552,0,-1.39987165434,-0.00261938790316,17,5.40431404114,10.4232673645,
2.25976797727,-1.2994268793,0,-1.44069337452,-0.00266630030871,18,5.66640615463,10.9199028015,
2.28935238508,-1.35638889255,0,-1.48194617816,-0.00269443665163,19,5.91728973389,11.39320755,
2.32013651517,-1.41560348453,0,-1.52331391168,-0.00270192329401,20,6.15733337402,11.8437576294,
2.35206934598,-1.47696050586,0,-1.5644920868,-0.00268947266008,21,6.38705873489,12.2724189758,
2.38510176328,-1.54035648288,0,-1.60515394235,-0.00265572276003,22,6.60709476471,12.6802864075,
2.41918942121,-1.60569414081,0,-1.64497847761,-0.00260101706809,23,6.8181810379,13.0686397552,
2.45429178861,-1.67288288058,0,-1.6836387454,-0.0025249587475,24,7.02118635178,13.4390659332,
2.49037262586,-1.74184211673,0,-1.72079289712,-0.00242657525964,25,7.21700525284,13.7931461334,
2.52740189222,-1.81249793948,0,-1.75611044379,-0.00230660685399,26,7.40663051605,14.1326789856,
2.56535240796,-1.88478740634,0,-1.78922921983,-0.00216298902103,27,7.59106683731,14.4595127106,
2.60420462278,-1.95865711154,0,-1.81979558728,-0.00199627734537,28,7.77134895325,14.7755908966,
2.64394184736,-2.03406270923,0,-1.84742925857,-0.00180473159776,29,7.94854736328,15.0828876495,
2.68455454496,-2.11096986713,0,-1.87174833236,-0.00158824417979,30,8.12365055084,15.3833580017,
2.72603699353,-2.18935474338,0,-1.89234390456,-0.00134505805872,31,8.29769420624,15.6790733337,
2.76838871625,-2.26920446338,0,-1.90878764469,-0.00107390231048,32,8.47162818909,15.9720535278,
2.81161400464,-2.35051473559,0,-1.92063416026,-0.000773662990217,33,8.6463766098,16.2643184662,
2.85572096494,-2.43329271258,0,-1.92740889817,-0.000442436259118,34,8.82279872894,16.5579872131,
2.90072151807,-2.51755556048,0,-1.92861400491,-7.87010610182e-05,35,9.00165557861,16.8551025391,
2.9466318765,-2.60333188953,0,-1.92372946832,0.000318988792846,36,9.18371105194,17.1579151154,
2.99347111371,-2.69066032352,0,-1.91221445475,0.000751992228446,37,9.36957073212,17.4685745239,
3.04126116422,-2.77959236087,0,-1.89350913533,0.00122154902823,38,9.55980968475,17.7894096375,
3.09002634671,-2.87019094409,0,-1.86704514839,0.00172820695248,39,9.75496482849,18.1228179932,
3.13979384092,-2.96253141345,0,-1.83225558691,0.00227188183551,40,9.95560073853,18.4714698792,
3.09259114278,-3.05670389117,0,-1.74497802436,0.00569948852484,41,10.1622610092,18.838054657,