lower angle,upper angle,holding angle,system x,acceleration,ticks (200 tps),lower acceleration (shoulder),upper acceleration (elbow),
1.101395926,1.345454982,0,-0.866688714798,-0.537730471678,1,0.0,0.0,
1.101395926,1.345454982,0,-0.866688714798,0.0,2,0.0,0.0,
1.101395926,1.345454982,0,-0.866688714798,0.0,3,0.0,0.0,
1.10550530863,1.33752041169,0,-0.879483889427,-0.00793546975615,4,0.821841061115,1.58684194088,
1.11077722025,1.3273404152,0,-0.895887663057,-0.010172299414,5,1.05438172817,2.03603029251,
1.11734469843,1.3146746666,0,-0.916363127624,-0.0126957251794,6,1.31352341175,2.53312397003,
1.12520726633,1.29952078171,0,-0.940888187514,-0.0152048781437,7,1.57250678539,3.03087472916,
1.13437589121,1.28185301133,0,-0.969468436246,-0.0177170366795,8,1.83377039433,3.53352022171,
1.14487012339,1.26163320847,0,-1.00214609167,-0.0202541285117,9,2.0988740921,4.04400014877,
1.15671380472,1.23881321259,0,-1.03896518991,-0.022817862802,10,2.36870670319,4.56402206421,
1.1699336381,1.21333818741,0,-1.07996747731,-0.02540712674,11,2.6440281868,5.09508419037,
1.1845615716,1.18514519044,0,-1.12520939496,-0.0280306178156,12,2.9256196022,5.63870716095,
1.20063289118,1.15416317292,0,-1.17474096262,-0.0306844618373,13,3.2143304348,6.19658374786,
1.21818765116,1.12031154938,0.0,-1.22861233124,-0.0333682834745,14,3.51103496552,6.77042579651,
1.23727067423,1.08350210496,0.0,-1.28687806516,-0.036085560836,15,3.81669402122,7.36210250854,
1.25793107462,1.04363565751,0,-1.34957610345,-0.0388259263288,16,4.13225364685,7.97352313995,
1.28022416544,1.000603965,0,-1.41675078049,-0.0415928410081,17,4.45879220963,8.60671520233,
1.30420955134,0.954287341314,0,-1.4884186155,-0.0443692006509,18,4.79734277725,9.26374912262,
1.32995303583,0.904556563573,0,-1.56459025631,-0.0471512899452,19,5.14894485474,9.9466342926,
1.35752423716,0.851273349004,0,-1.64524022675,-0.0499174399689,20,5.5146112442,10.6573238373,
1.38699801874,0.79428940125,0,-1.73031055056,-0.0526469574697,21,5.89521455765,11.3975324631,
1.41845305872,0.733451178747,0,-1.81970648189,-0.0553168621921,22,6.29146671295,12.168586731,
1.45196851206,0.668601325231,0,-1.91325558266,-0.057879548625,23,6.70373678207,12.9711532593,
1.48762401056,0.599583438116,0,-2.01071765112,-0.0602924357166,24,7.13190555573,13.8049259186,
1.52549537134,0.526250651556,0,-2.11176381019,-0.0625023711306,25,7.57513618469,14.6681938171,
1.56564839792,0.448473742681,0,-2.21593188908,-0.0644259727992,26,8.03166675568,15.5573453903,
1.60813458872,0.366153529363,0,-2.32262570811,-0.0659805686273,27,8.49849414825,16.466342926,
1.65298207712,0.279237082677,0,-2.43108170792,-0.0670623827613,28,8.97109127045,17.3860931396,
1.70018990946,0.187732032018,0,-2.54037291131,-0.0675699540879,29,9.44323158264,18.3041954041,
1.74971469355,0.09172659226,0,-2.64936028896,-0.0673742785501,30,9.90699005127,19.204788208,
1.80146821451,-0.00859851531445,0,-2.7567475605,-0.0663770176372,31,10.3530454636,20.0692443848,
1.85531171274,-0.112961956782,0,-2.86109066677,-0.0644875112761,32,10.7713193893,20.8774223328,
1.9110573144,-0.220984169764,0,-2.96085141782,-0.0616467227965,33,11.1520080566,21.6097183228,
1.96847613764,-0.332203575892,0,-3.054466491,-0.0578402456072,34,11.4869327545,22.2496490479,
2.02731259775,-0.446103283686,0,-3.14043390174,-0.0531084077736,35,11.7706384659,22.7861366272,
2.08730109644,-0.562146374506,0,-3.21737192646,-0.0475242196574,36,12.0012950897,23.215139389,
2.14818557215,-0.679811188502,0,-3.28409234363,-0.0412080311545,37,12.1806926727,23.5398025513,
2.20973475886,-0.798623749537,0,-3.3396158195,-0.0342880415551,38,12.3137569427,23.769449234,
2.27175315333,-0.918176361842,0,-3.38318898796,-0.0269048122967,39,12.4076309204,23.9177284241,
2.33408578348,-1.03814239196,0,-3.4142358867,-0.0191679911762,40,12.4705438614,24.0003871918,
2.39661963892,-1.15827364616,0,-3.43235247346,-0.011183582207,41,12.5108165741,24.0335178375,
2.45928080988,-1.27839822463,0,-3.43724847599,-0.00302198493942,42,12.5363368988,24.0321846008,
2.52203067255,-1.39841050796,0,-3.42871947575,0.00526367807028,43,12.5540971756,24.009727478,
2.58486016703,-1.51826185874,0,-3.40660029314,0.0136492025235,44,12.5700349808,23.9774551392,
2.6477845521,-1.63794965438,0,-3.37073714719,0.022118303442,45,12.5890350342,23.9447803497,
2.71083959055,-1.75751037292,0,-3.32095880724,0.0306974658107,46,12.6151781082,23.919303894,
2.77407630396,4.40617471047,0,-3.25705272132,0.0394068971315,47,12.651558876,23.9072742462,
2.83755858851,4.28664260216,0,-3.17874944117,0.0482811630431,48,12.7006988525,23.9136161804,
2.90135892344,4.16696577378,0,-3.08570560633,0.0573658619223,49,12.7644348145,23.9425983429,
2.96555789423,4.04701333352,0,-2.97750615517,0.0667037492128,50,12.8441762924,23.9977760315,
3.03023847056,3.92663865395,0,-2.85364593284,0.0763480533261,51,12.9406518936,24.0823059082,
3.0954864831,3.80568056412,0,-2.71355133076,0.0863462331671,52,13.0542469025,24.1991767883,
3.12179802147,3.68396168061,0,-2.44930866545,0.162847700108,53,13.1849088669,24.3514442444,