lower angle,upper angle,holding angle,system x,acceleration,ticks (200 tps),lower acceleration (shoulder),upper acceleration (elbow),
2.354452829,-1.714349745,0,-0.730439672626,-0.0312017496113,1,0.0,0.0,
2.354452829,-1.714349745,0,-0.730439672626,0.0,2,0.0,0.0,
2.354452829,-1.714349745,0,-0.730439672626,0.0,3,0.0,0.0,
2.35831711733,-1.72177314588,0,-0.738429615509,-0.000341292706782,4,0.772866368294,1.48462986946,
2.36345169985,-1.73163747617,0,-0.74901213583,-0.000452031847615,5,1.02682971954,1.97292423248,
2.36997530901,-1.74415540525,0,-0.762450485651,-0.000574013975176,6,1.30481123924,2.50355029106,
2.3778607651,-1.75927209684,0,-0.778657123406,-0.000692253115077,7,1.57705926895,3.02336168289,
2.38708804094,-1.77694940397,0,-0.797541465919,-0.000806610711322,8,1.84543716908,3.53550291061,
2.39764092409,-1.79715442487,0,-0.819018073121,-0.000917327394851,9,2.11060523987,4.04099655151,
2.40950272524,-1.81985139676,0,-0.842996730405,-0.00102418732073,10,2.37241125107,4.53948402405,
2.42265580141,-1.84500312635,0,-0.869373936132,-0.00112662410112,11,2.63064861298,5.03042030334,
2.43708107912,-1.8725695593,0,-0.898033131987,-0.00122408130369,12,2.88511395454,5.51332998276,
2.45275900805,-1.90250778028,0,-0.928851224035,-0.00131627894979,13,3.13565063477,5.98780822754,
2.46966956103,-1.93477487394,0.0,-0.961689859716,-0.00140256460802,14,3.38215637207,6.45353889465,
2.48779175722,-1.96932601758,0.0,-0.996396987185,-0.0014823545303,15,3.62456893921,6.91034793854,
2.50710556948,-2.00611543485,0,-1.03281684631,-0.00155548982325,16,3.86291861534,7.35813331604,
2.52759097063,-2.04509877988,0,-1.07077622126,-0.00162122810569,17,4.09723329544,7.79691696167,
2.54922841036,-2.08623170682,0,-1.11009089628,-0.00167909654842,18,4.32765197754,8.2268447876,
2.57199929201,-2.12947034665,0,-1.15056651865,-0.00172866340431,19,4.55432271957,8.64813613892,
2.59588549578,-2.17477416822,0,-1.19198840429,-0.0017690621453,20,4.77747440338,9.06113052368,
2.62087080919,-2.22210359403,0,-1.23413507849,-0.00180000163987,21,4.99734592438,9.46627807617,
2.64694092714,-2.27142143079,0,-1.27677328163,-0.00182097892063,22,5.2142663002,9.86411190033,
2.67408202135,-2.32269477674,0,-1.31964581396,-0.00183096833218,23,5.42854690552,10.2552452087,
2.70228264773,-2.37589359113,0,-1.36248446458,-0.00182950411997,24,5.64057445526,10.640422821,
2.73153470003,-2.4309926016,0,-1.40500926761,-0.00181608772923,25,5.85074520111,11.0204524994,
2.7618295952,-2.48796987363,0,-1.44691286434,-0.00178954873749,26,6.05947446823,11.3962097168,
2.79316304171,-2.54680871793,0,-1.48787859704,-0.0017494832213,27,6.26720905304,11.768693924,
2.82553217852,-2.60749912092,0,-1.52756580855,-0.00169486952208,28,6.47439670563,12.1389770508,
2.8589365288,-2.6700348837,0,-1.56561794438,-0.00162502906899,29,6.68148565292,12.5081691742,
2.8933779999,-2.73441695997,0,-1.60165860543,-0.0015391150393,30,6.88893318176,12.8775310516,
2.92886040651,-2.80065250226,0,-1.63529266109,-0.00143632768037,31,7.09722185135,13.2484178543,
2.96538994753,-2.86875724622,0,-1.66610784496,-0.00131593794728,32,7.30680513382,13.6222286224,
3.00297663653,-2.93875217267,0,-1.69368104259,-0.00117748216541,33,7.51814889908,14.0004863739,
3.04163048708,-3.01066875287,0,-1.71757179136,-0.00102021746892,34,7.73176336288,14.3848743439,
3.08136628115,-3.08454656431,0,-1.73733513088,-0.00084395556422,35,7.94822406769,14.7772426605,
3.12220118487,-3.1604347212,0,-1.75252070578,-0.000648465468247,36,8.16807842255,15.1794652939,