lower angle,upper angle,holding angle,system x,acceleration,ticks (200 tps),lower acceleration (shoulder),upper acceleration (elbow),
2.175444687,-1.230559399,0,-0.90367150976,-0.211336558116,1,0.0,0.0,
2.175444687,-1.230559399,0,-0.90367150976,0.0,2,0.0,0.0,
2.175444687,-1.230559399,0,-0.90367150976,0.0,3,0.0,0.0,
2.16114885754,-1.20279781485,0,-0.878509850538,0.00588364026132,4,-2.85921478271,-5.55240678787,
2.14243082537,-1.16634174215,0,-0.845653898029,0.00768250483143,5,-3.74371623993,-7.29141712189,
2.11877415537,-1.12024746614,0,-0.803642771658,0.00982279919385,6,-4.73155450821,-9.21926307678,
2.09003284036,-1.06420971977,0,-0.751947288838,0.0120866370974,7,-5.7486577034,-11.2082843781,
2.05598347842,-0.997778510323,0,-0.689822140935,0.0145245504267,8,-6.81053161621,-13.2874660492,
2.01633665918,-0.92037670838,0,-0.616355800579,0.0171753775183,9,-7.93040657043,-15.4822998047,
1.97074753999,-0.831318905226,0,-0.530517457406,0.0200668469187,10,-9.11940288544,-17.8145198822,
1.91882359444,-0.729826202265,0,-0.43120807816,0.0232150978386,11,-10.38712883,-20.3029060364,
1.86014174878,-0.615061094633,0,-0.317343142981,0.026616603407,12,-11.739736557,-22.9593334198,
1.79428651392,-0.486202587953,0,-0.188011052067,0.030230924715,13,-13.1758136749,-25.780632019,
1.7209209448,-0.342586924902,0.0,-0.0427287919416,0.0339577715076,14,-14.6796960831,-28.7354850769,
1.63990148365,-0.183934619299,0.0,0.118179522529,0.0376082354571,15,-16.212770462,-31.7471408844,
1.55142798482,-0.0106477044733,0,0.293130499265,0.0408886984667,16,-17.7062473297,-34.6791267395,
1.45618345796,0.175914714464,0,0.478901583927,0.043415880177,17,-19.0633392334,-37.33959198,
1.35536357223,0.373374173769,0,0.670642082545,0.0448086119118,18,-20.1810646057,-39.5240707397,
1.25051274358,0.578657934794,0,0.86242683297,0.0448128585172,19,-20.9893989563,-41.0928649902,
1.14319857418,0.788636396059,0,1.04826023023,0.0434203653499,20,-21.4834594727,-42.0343856812,
1.03470238506,1.00073547138,0,1.22293531399,0.0408114690535,21,-21.7205371857,-42.4596633911,
0.925874794117,1.21322173847,0,1.38239902406,0.0372557109844,22,-21.7870330811,-42.5373306274,
0.817152703396,1.42516798747,0,1.52365609964,0.0330006799009,23,-21.7658843994,-42.429058075,
0.708652461162,1.63627142681,0,1.64444117702,0.0282166054485,24,-21.7213478088,-42.2600364685,
0.600266540638,1.84666485561,0,1.74287503417,0.0229941341724,25,-21.6984462738,-42.1176528931,
0.491736019245,-4.22641020047,0,1.81718454967,0.0173578568572,26,-21.7274246216,-42.0609130859,
0.382701957813,-4.01595120656,0,1.86546518666,0.0112771678546,27,-21.8284339905,-42.1308059692,
0.272738779178,-3.80435900914,0,1.88553982911,0.00468865716311,28,-22.0148143768,-42.3581390381,
0.161375368229,-3.5907133125,0,1.87489816297,-0.0024853612902,29,-22.2957439423,-42.7700576782,
0.0481079465062,-3.37395386921,0,1.83076624191,-0.0103065450989,30,-22.6777172089,-43.3946838379,
0.0676001662104,-3.15285639989,0,1.74234085259,-0.0206497711825,31,-23.1674842834,-44.2648620605,