lower angle,upper angle,holding angle,system x,acceleration,ticks (200 tps),lower acceleration (shoulder),upper acceleration (elbow),
1.683172338,-0.052212642,0,-1.10064465174,-0.500022465581,1,0.0,0.0,
1.683172338,-0.052212642,0,-1.10064465174,0.0,2,0.0,0.0,
1.683172338,-0.052212642,0,-1.10064465174,0.0,3,0.0,0.0,
1.66262299783,-0.0120946107963,0,-1.06003367721,0.0184450536513,4,-4.11001300812,-8.02387619019,
1.6353541094,0.0412580729863,0,-1.0060877476,0.0244994992017,5,-5.45411586761,-10.6711711884,
1.60128819226,0.10791216655,0,-0.937713553913,0.0310493847529,6,-6.81384325027,-13.3320579529,
1.56052758574,0.187677903607,0,-0.854640056584,0.0377212701619,7,-8.15325260162,-15.9552659988,
1.51325466513,0.28019909425,0,-0.756747321767,0.0444461082533,8,-9.45634937286,-18.5075416565,
1.45976718544,0.384886695578,0,-0.644239870342,0.0510774294635,9,-10.700044632,-20.9423065186,
1.40049584984,0.500886334612,0,-0.517785990689,0.0574058901183,10,-11.8577365875,-23.206451416,
1.33599700808,0.627092732622,0,-0.378585508944,0.0631892491493,11,-12.9042453766,-25.249671936,
1.26691829442,0.762216402724,0,-0.228347976555,0.0681955667622,12,-13.8212394714,-27.0350418091,
1.19394328474,0.904892458155,0,-0.0691908333638,0.0722397585716,13,-14.601480484,-28.5473251343,
1.11773037194,1.05380065603,0.0,0.0965138551618,0.0752061493478,14,-15.2499694824,-29.7954387665,
1.03886067151,1.20776779814,0.0,0.266296941161,0.0770500946866,15,-15.7821121216,-30.8086585999,
0.957805507174,1.36583120985,0,0.437714175939,0.0777861015211,16,-16.2199287415,-31.6292095184,
0.874913446894,1.52726419134,0,0.608412900999,0.0774539329181,17,-16.5879211426,-32.3041992188,
0.790413372508,1.69157023592,0,0.776143976458,0.0761003577744,18,-16.9100799561,-32.879776001,
0.704425029746,1.85846252604,0,0.938737356544,0.0737614924465,19,-17.2082653046,-33.3978767395,
0.616973392955,2.02783782644,0,1.09404738878,0.0704483365823,20,-17.5014877319,-33.8953857422,
0.528001897326,2.19975216551,0,1.23989233365,0.0661500183809,21,-17.8060779572,-34.4041824341,
0.43738567113,2.37440283461,0,1.37397941452,0.0608116792889,22,-18.1356582642,-34.9524497986,
0.344942681781,2.55211551352,0,1.49385061663,0.0543593426704,23,-18.5017814636,-35.5660629272,
0.250441663256,2.73334105177,0,1.59685878675,0.046707715159,24,-18.9142608643,-36.2700424194,
0.153608553401,2.91865999861,0,1.68018795648,0.0377807378933,25,-19.3817749023,-37.0904846191,
0.0541248249919,-3.17438928919,0,1.74094330979,0.0275435185445,26,-19.91314888,-38.0560913086,
0.0483827662557,-2.97854463892,0,1.85871729609,0.0533883580298,27,-20.5194988251,-39.2004699707,