lower angle,upper angle,holding angle,system x,acceleration,ticks (200 tps),lower acceleration (shoulder),upper acceleration (elbow),
1.548916254,0.261297867,0,-1.09182131553,-0.625533735716,1,0.0,0.0,
1.548916254,0.261297867,0,-1.09182131553,0.0,2,0.0,0.0,
1.548916254,0.261297867,0,-1.09182131553,0.0,3,0.0,0.0,
1.52873031217,0.300697826147,0,-1.04835480143,0.0248926929642,4,-4.03732538223,-7.88024711609,
1.50209461506,0.352796867788,0,-0.990983449456,0.0328523325353,5,-5.32745504379,-10.4203996658,
1.46902528758,0.417475953996,0,-0.918886625429,0.0412791705571,6,-6.6144695282,-12.9369478226,
1.42976754512,0.494261756837,0,-0.83221584192,0.0496183985791,7,-7.85255622864,-15.3590507507,
1.38464007135,0.582527205646,0,-0.73130379789,0.0577654280446,8,-9.02702713013,-17.6559581757,
1.33404073472,0.681483343542,0,-0.616763932159,0.0655597538423,9,-10.1220254898,-19.7952690125,
1.27843949552,0.790195748508,0,-0.489552497257,0.0728051208556,10,-11.1231174469,-21.7478523254,
1.21835539098,0.907629832923,0,-0.350967006247,0.0793057269577,11,-12.0204429626,-23.4935798645,
1.15432373043,1.03271476954,0,-0.20259678965,0.0848962646536,12,-12.8106985092,-25.0251502991,
1.0868610775,1.1644129011,0,-0.046249937233,0.0894512089384,13,-13.4976511002,-26.3491516113,
1.01643398757,1.30177979201,0.0,0.116137657707,0.0928416586394,14,-14.0912370682,-27.4841899872,
0.943437848048,1.44400684565,0.0,0.282568328188,0.0951395732828,15,-14.6057195663,-28.4574375153,
0.86818430181,1.59044472903,0,0.451037462044,0.0962923594558,16,-15.0578098297,-29.3007049561,
0.790899190859,1.74060873717,0,0.619546754635,0.0963052937425,17,-15.4647140503,-30.0469398499,
0.711724791483,1.89417366713,0,0.786104210397,0.0951802038417,18,-15.8431606293,-30.7281417847,
0.630726072745,2.05096332759,0,0.948695653578,0.0929018805689,19,-16.2085952759,-31.3740348816,
0.547898564295,2.210937545,0,1.10524431518,0.089434996801,20,-16.5749855042,-32.0120162964,
0.463175806956,2.37418310374,0,1.25356354906,0.0847267526998,21,-16.9547138214,-32.6673583984,
0.376436862902,2.54090540141,0,1.39131699742,0.0786845649844,22,-17.3586902618,-33.363861084,
0.287512693362,2.71142666072,0,1.51599325786,0.0712062391286,23,-17.7965507507,-34.1250457764,
0.196191463427,2.88618962497,0,1.6249133389,0.0622000384244,24,-18.2769508362,-34.9749755859,
0.10221770759,3.06576816767,0,1.71529069564,0.0516052159164,25,-18.8085823059,-35.9400177002,
0.00528625007087,3.25088541239,0,1.78432642569,0.0394138269149,26,-19.4014816284,-37.0501022339,