lower angle,upper angle,holding angle,system x,acceleration,ticks (200 tps),lower acceleration (shoulder),upper acceleration (elbow),
0.877635763,2.007839739,0,-0.605948703522,-2.17215791691,1,0.0,0.0,
0.877635763,2.007839739,0,-0.605948703522,0.0,2,0.0,0.0,
0.877635763,2.007839739,0,-0.605948703522,0.0,3,0.0,0.0,
0.886707113098,1.99045377937,0,-0.643744220884,-0.135180140259,4,1.8142285347,3.47716140747,
0.898378656219,1.96804290978,0,-0.692333957179,-0.173667506687,5,2.33434104919,4.48222160339,
0.913048074554,1.93988376824,0,-0.753431240227,-0.218237981732,6,2.93397116661,5.63192558289,
0.930718705963,1.90595489708,0,-0.827020212233,-0.262675306551,7,3.53421521187,6.78597831726,
0.951438710998,1.86615043846,0,-0.913248813951,-0.307600474961,8,4.14416980743,7.96113395691,
0.975286290954,1.8203101751,0,-1.0123574426,-0.35332516532,9,4.76965904236,9.16843605042,
1.00235919745,1.76823192803,0,-1.12460547249,-0.399918765625,10,5.41491699219,10.4162597656,
1.03277854712,1.7096686956,0,-1.25027190832,-0.447448861286,11,6.08438062668,11.7134504318,
1.06669120581,1.64432340828,0,-1.38963580766,-0.495757651162,12,6.78322410583,13.0702552795,
1.10427455695,1.57183748451,0,-1.54295390413,-0.545052621381,13,7.51755332947,14.498752594,
1.14574174673,1.49178272453,0.0,-1.71043726262,-0.595020616516,14,8.29459381104,16.0131607056,
1.19134788306,1.4036465284,0.0,-1.89220520145,-0.645198825184,15,9.12277507782,17.630065918,
1.24139718802,1.3068218824,0,-2.08823816752,-0.695350813575,16,10.0119247437,19.3687324524,
1.29624872,1.20059257713,0,-2.2982778364,-0.744440322745,17,10.9731178284,21.2508125305,
1.35632257254,1.08412748543,0,-2.52172155756,-0.791407055497,18,12.0183448792,23.299697876,
1.42209510596,0.956480562364,0,-2.75738312786,-0.834104028854,19,13.159318924,25.5380954742,
1.49408941061,0.816620886003,0,-3.00325598226,-0.869646711383,20,14.4050521851,27.983335495,
1.57283382208,0.663507997667,0,-3.25607602407,-0.893605291047,21,15.7570114136,30.6375541687,
1.65878371985,0.49625021187,0,-3.5108262705,-0.899745163984,22,17.2006053925,33.4711837769,
1.75218086035,0.314382135545,0,-3.76019828322,-0.880145642273,23,18.6930198669,36.3987236023,
1.85284929068,0.118270456468,0,-3.99430665038,-0.825705110117,24,20.1506881714,39.2538566589,
1.95999078543,-0.09048265251,0,-4.20112151716,-0.728939798699,25,21.4487686157,41.7886352539,
2.07212714941,-0.30892390045,0,-4.36806639837,-0.588016140184,26,22.4508323669,43.7317886353,
2.18734912665,-0.533232152785,0,-4.48451022145,-0.408992457861,27,23.0699062347,44.9088363647,
2.30380229742,-0.75968307289,0,-4.54370796253,-0.207776758157,28,23.3169517517,45.3387298584,
2.42011194022,-0.985483825529,0,-4.54312385971,0.00204858336941,29,23.2882595062,45.2083206177,
2.5355141619,5.07415300575,0,-4.48328866791,0.209712181113,30,23.1060390472,44.7564620972,
2.64975099356,4.85346752373,0,-4.36627597703,0.409808277262,31,22.8722133636,44.1821174622,
2.76290874274,4.63558775154,0,-4.19459923721,0.600870765883,32,22.6557502747,43.6192855835,
2.8752835253,4.42004948822,0,-3.97052767051,0.783758982738,33,22.49858284,43.149646759,
2.98729018957,4.2061486837,0,-3.69571875606,0.960496208384,34,22.4248218536,42.8212585449,
3.09940986426,3.99303525654,0,-3.37109272091,1.13383059597,35,22.4474182129,42.6634140015,
3.07103564152,3.77975720135,0,-2.55583772734,2.84544235673,36,22.5719242096,42.6965026855,