lower angle,upper angle,holding angle,system x,acceleration,ticks (200 tps),lower acceleration (shoulder),upper acceleration (elbow),
1.28040405,0.898280405,0,-0.994163060389,-0.442419159777,1,0.0,0.0,
1.28040405,0.898280405,0,-0.994163060389,0.0,2,0.0,0.0,
1.28040405,0.898280405,0,-0.994163060389,0.0,3,0.0,0.0,
1.29434009279,0.871200345948,0,-1.030921166,-0.0163549278751,4,2.78719305992,5.4160861969,
1.31272073472,0.835425638154,0,-1.07893605625,-0.0213623026358,5,3.67626667023,7.15510034561,
1.33593316758,0.790259622529,0,-1.13925179301,-0.0268328698875,6,4.64265727997,9.03362751007,
1.36411185945,0.73542096515,0,-1.21181212548,-0.0322785876102,7,5.63612318039,10.9684104919,
1.39744373048,0.670534395173,0,-1.2965901581,-0.0377110697744,8,6.66697597504,12.9784240723,
1.43615194047,0.595154546693,0,-1.39346172209,-0.0430867400077,9,7.74266290665,15.0777845383,
1.48047919954,0.508800291017,0,-1.50210791603,-0.0483202908601,10,8.86684799194,17.273481369,
1.53066249574,0.411000513032,0,-1.62186106381,-0.0532573095249,11,10.0388383865,19.5639324188,
1.58690400804,0.301357053712,0,-1.75158358454,-0.0576880269027,12,11.2512302399,21.9342041016,
1.64931722368,0.179646276429,0,-1.88945334467,-0.0613062095003,13,12.4866733551,24.3496685028,
1.71786447252,0.045946382478,0.0,-2.03281606864,-0.0637432508119,14,13.7148618698,26.7499694824,
1.79228921617,-0.0992276440112,0.0,-2.17809848425,-0.0645903433748,15,14.891784668,29.0476093292,
1.87206788743,-0.254832960173,0,-2.32085818329,-0.0634652560374,16,15.9642496109,31.1367225647,
1.9564227649,-0.419315076873,0,-2.45614561355,-0.0601403172445,17,16.8810138702,32.9151000977,
2.04440589631,-0.590779996917,0,-2.57897237514,-0.0545982272027,18,17.6079406738,34.3140335083,
2.13503881181,-0.767265535399,0,-2.68486726963,-0.0470694114692,19,18.1389694214,35.3201065063,
2.22745366777,-0.947019792601,0,-2.77023680089,-0.0379432305021,20,18.4961433411,35.9751586914,
2.32098241533,-1.12867663006,0,-2.8324534498,-0.0276509091371,21,18.7193851471,36.3563537598,
2.41518064225,-1.31130240063,0,-2.86972014206,-0.0165610235951,22,18.8536300659,36.5506591797,
2.50980945314,-1.49436137776,0,-2.88082357869,-0.00493399094328,23,18.9398670197,36.6374549866,
2.60479541505,-1.67763779263,0,-2.86487866947,0.00708474342608,24,19.01146698,36.6810913086,
2.70019193376,-1.86116216283,0,-2.82110790159,0.019446880871,25,19.0938587189,36.730758667,
2.79614730562,-2.04514787297,0,-2.74868513805,0.0321739485925,26,19.2058506012,36.8232879639,
2.89287753785,-2.22994968991,0,-2.64658944151,0.0453518502617,27,19.3611240387,36.9868240356,
2.99064584459,3.86715080638,0,-2.51353509782,0.0590992280974,28,19.5692024231,37.2440948486,
3.08974738801,3.67921402355,0,-2.34795185074,0.0735418219584,29,19.8365383148,37.615272522,
3.09268747285,3.48875906368,0,-1.97342400526,0.166328802409,30,20.167137146,38.1200790405,