lower angle,upper angle,holding angle,system x,acceleration,ticks (200 tps),lower acceleration (shoulder),upper acceleration (elbow),
2.488708913,-2.208834963,0,-0.514623139017,-0.0411945377617,1,0.0,0.0,
2.488708913,-2.208834963,0,-0.514623139017,0.0,2,0.0,0.0,
2.488708913,-2.208834963,0,-0.514623139017,0.0,3,0.0,0.0,
2.49762958256,-2.22586949364,0,-0.54073451431,-0.00208995534426,4,1.78409910202,3.40693235397,
2.50924199787,-2.24807341591,0,-0.574516086782,-0.00270383023144,5,2.322504282,4.44082260132,
2.52388089863,-2.27603467003,0,-0.6168652445,-0.00338950891623,6,2.92782258987,5.59230518341,
2.54146188465,-2.30958970085,0,-0.667333557601,-0.00403928265896,7,3.51633262634,6.71119403839,
2.5619305965,-2.34862645165,0,-0.725516444228,-0.00465667282938,8,4.09391212463,7.80755805969,
2.58524316517,-2.39304860131,0,-0.790986047944,-0.0052397845238,9,4.66270780563,8.88483810425,
2.61135715214,-2.44276316658,0,-0.86325220556,-0.00578365395422,10,5.22308063507,9.94336986542,
2.64023154941,-2.4976766874,0,-0.941759087357,-0.00628302185193,11,5.7753162384,10.9834804535,
2.6718291637,-2.55770285622,0,-1.02588067111,-0.0067322742425,12,6.31996297836,12.006114006,
2.70611518589,-2.62276204125,0,-1.11490838182,-0.00712480746748,13,6.85790348053,13.0129842758,
2.74306243625,-2.69278748528,0.0,-1.2080599905,-0.00745471918885,14,7.39031124115,14.0065631866,
2.7826504108,-2.76772912041,0.0,-1.30446687663,-0.00771510871897,15,7.91864871979,14.9901151657,
2.82486766544,-2.84755738274,0,-1.40317509707,-0.00789915573589,16,8.44469070435,15.9677610397,
2.86971229282,-2.93226702706,0,-1.50314201518,-0.00799979045381,17,8.97046279907,16.9444541931,
2.91719478336,-3.02188189522,0,-1.60324002364,-0.00801016381513,18,9.4982624054,17.9260215759,
2.96733802524,-3.1164606382,0,-1.70225776912,-0.00792359329567,19,10.0307445526,18.9193496704,