lower angle,upper angle,holding angle,system x,acceleration,ticks (200 tps),lower acceleration (shoulder),upper acceleration (elbow),
1.593668276,0.156684577,0,-1.09770423217,-0.313875116693,1,0.0,0.0,
1.593668276,0.156684577,0,-1.09770423217,0.0,2,0.0,0.0,
1.593668276,0.156684577,0,-1.09770423217,0.0,3,0.0,0.0,
1.61095266931,0.122995078099,0,-1.13376889651,-0.0103105300131,4,3.45697379112,6.73799467087,
1.63393335931,0.0781409139751,0,-1.18090998483,-0.0134764162107,5,4.59633302689,8.97125816345,
1.66272812479,0.0219604368328,0,-1.23925891132,-0.0166793875288,6,5.759349823,11.2368392944,
1.69732075326,-0.0455253724934,0,-1.30809003356,-0.0196746904973,7,6.91922092438,13.4983930588,
1.73765783899,-0.124213517177,0,-1.38645203192,-0.0223977770426,8,8.06847858429,15.7397384644,
1.78361635797,-0.213862717617,0,-1.47304591193,-0.0247493050421,9,9.19334411621,17.9328460693,
1.83498030298,-0.314042389858,0,-1.56620326117,-0.0266238778987,10,10.2749853134,20.0400733948,
1.89142351739,-0.424104512203,0,-1.6638459849,-0.0279042552235,11,11.2916641235,22.0180091858,
1.95251398675,-0.543187439907,0,-1.76356789603,-0.0284968457736,12,12.2219114304,23.8236656189,
2.01773338907,-0.670256436336,0,-1.86273252913,-0.0283360710467,13,13.0485277176,25.4223403931,
2.0865166723,-0.80417901324,0.0,-1.95863813098,-0.0274033730758,14,13.7620830536,26.7945556641,
2.1582997381,-0.94382077502,0.0,-2.04866067368,-0.0257209128216,15,14.36277771,27.9396858215,
2.23256426446,-1.08813124942,0,-2.13038510368,-0.0233487718905,16,14.8597249985,28.8746795654,
2.30887060754,-1.23621016787,0,-2.20166088738,-0.0203624531713,17,15.2686834335,29.6293716431,
2.38687496774,-1.38733941363,0,-2.260616273,-0.0168418220311,18,15.6087617874,30.2403392792,
2.46633225076,-1.54099160479,0,-2.30560621719,-0.0128516351355,19,15.8998126984,30.7455425262,
2.54709129922,-1.69681626605,0,-2.33516864487,-0.00844424129908,20,16.1606025696,31.180809021,
2.62908440225,-1.85462504672,0,-2.3479251033,-0.00364356329759,21,16.4078273773,31.5781860352,
2.71231537454,-2.01436644839,0,-2.34251749776,0.001544459787,22,16.6557731628,31.9653701782,
2.79684763544,-2.17610985087,0,-2.31752142097,0.00713873356177,23,16.9165267944,32.3664703369,
2.88279467218,-2.34003049182,0,-2.27139579908,0.0131726665782,24,17.2000141144,32.8025894165,
2.9703095495,-2.5063987379,0,-2.2024435154,0.0196905583379,25,17.5141677856,33.2930145264,
3.05957680337,-2.67557865428,0,-2.10880543101,0.0267386497977,26,17.8652954102,33.8563728333,
3.1323800187,-2.84802848147,0,-1.96052315003,0.0423402495859,27,18.2583961487,34.5115585327,