lower angle,upper angle,holding angle,system x,acceleration,ticks (200 tps),lower acceleration (shoulder),upper acceleration (elbow),
1.81742844,-0.366151594,0,-1.08299119293,-0.0982511849898,1,0.0,0.0,
1.81742844,-0.366151594,0,-1.08299119293,0.0,2,0.0,0.0,
1.81742844,-0.366151594,0,-1.08299119293,0.0,3,0.0,0.0,
1.83423265829,-0.398890756445,0,-1.11383596304,-0.00279816234185,4,3.36086964607,6.54794597626,
1.85641798391,-0.442168973761,0,-1.15375726908,-0.00362150315767,5,4.43726921082,8.65598678589,
1.88399681463,-0.495936178045,0,-1.20270294972,-0.00444007803553,6,5.51608371735,10.7540550232,
1.91677746191,-0.559822820501,0,-1.25970674865,-0.00517081350818,7,6.55671596527,12.7784404755,
1.9545257987,-0.633368276434,0,-1.3236357977,-0.00579888960275,8,7.55062961578,14.7107305527,
1.9969619216,-0.716014169531,0,-1.39318944666,-0.00630896848848,9,8.48850440979,16.5315933228,
2.04376015082,-0.807112001257,0,-1.46687315961,-0.00668347340006,10,9.361328125,18.2226676941,
2.0945604743,-0.905940793829,0,-1.5430624071,-0.00691062752373,11,10.1622238159,19.7697982788,
2.14898476019,-1.01174189933,0,-1.62003886578,-0.00698190240655,12,10.8875846863,21.1652107239,
2.2066572608,-1.12375571616,0,-1.69606430146,-0.00689553115618,13,11.5376396179,22.408618927,
2.26722034826,-1.24125697501,0.0,-1.76940460801,-0.00665187271789,14,12.1163787842,23.5070610046,
2.33035406485,-1.3635876406,0.0,-1.8383951893,-0.00625724886118,15,12.6309022903,24.4736938477,
2.39578327551,-1.4901750315,0,-1.90143506461,-0.00571743882227,16,13.0905456543,25.3260231018,
2.46328768149,-1.62054946311,0,-1.95699997457,-0.00503940452933,17,13.5059719086,26.0841217041,
2.53270086661,-1.75434377082,0,-2.00361962136,-0.00422804599554,18,13.888253212,26.7689285278,
2.60391268149,-1.89129617103,0,-2.03986207399,-0.00328684299644,19,14.2483110428,27.4012298584,
2.67686256781,-2.03124310859,0,-2.06428020356,-0.00221444175725,20,14.5964641571,28.0008869171,
2.75153908148,-2.17411544211,0,-2.07539399442,-0.00100787593077,21,14.9422588348,28.5867061615,
2.82797274008,-2.31993176826,0,-2.07164060502,0.000340378003256,22,15.2941551208,29.1763000488,
2.90623125448,-2.46879508384,0,-2.05134709609,0.00184029773495,23,15.6597442627,29.7865619659,
2.98641571417,-2.62089183219,0,-2.01272206884,0.00350261696079,24,16.0455112457,30.4340705872,
3.06865438833,-2.77648951896,0,-1.95386973466,0.00533678980536,25,16.4569358826,31.1354598999,
3.13008544231,-2.93594648726,0,-1.84816227478,0.0095855111912,26,16.8991127014,31.9084701538,