lower angle,upper angle,holding angle,system x,acceleration,ticks (200 tps),lower acceleration (shoulder),upper acceleration (elbow),
1.7726764,-0.261297867,0,-1.09182113009,-0.101293215636,1,0.0,0.0,
1.7726764,-0.261297867,0,-1.09182113009,0.0,2,0.0,0.0,
1.7726764,-0.261297867,0,-1.09182113009,0.0,3,0.0,0.0,
1.78980200654,-0.294671699703,0,-1.12394647443,-0.0029802677712,4,3.42519187927,6.67493057251,
1.81245320206,-0.338870689571,0,-1.16561277357,-0.00386530701052,5,4.53039169312,8.84007835388,
1.84063952332,-0.393840477168,0,-1.2167433564,-0.00474320883011,6,5.63769674301,10.9946603775,
1.8741926468,-0.459255859554,0,-1.27638816605,-0.00553292918351,7,6.71117019653,13.0842475891,
1.91289418107,-0.534689113796,0,-1.34338368033,-0.00621469734782,8,7.74127531052,15.0884857178,
1.95647089844,-0.619598076045,0,-1.4163609996,-0.00676939976459,9,8.71681022644,16.9843387604,
2.00459425812,-0.713325664699,0,-1.49375568712,-0.00717902219611,10,9.62647533417,18.7489261627,
2.05688660508,-0.815119430721,0,-1.5738052005,-0.00742515453104,11,10.4608888626,20.3631629944,
2.11294310456,-0.924166366756,0,-1.654657837,-0.00749952217144,12,11.2142019272,21.8148288727,
2.17235081559,-1.03963677615,0,-1.73440430611,-0.00739679134198,13,11.8850517273,23.1005020142,
2.23471396332,-1.16072814196,0.0,-1.81117297541,-0.00712046975376,14,12.476691246,24.2257423401,
2.29967253571,-1.28670565814,0.0,-1.88315638249,-0.00667649394811,15,12.996304512,25.2038421631,
2.36691754227,-1.41692893237,0,-1.94865342316,-0.00607477912898,16,13.4540510178,26.053855896,
2.4361986435,-1.55086962908,0,-2.00606022583,-0.00532433027542,17,13.8617868423,26.7981987,
2.50732796555,-1.68811719149,0,-2.05386386661,-0.00443358885771,18,14.231877327,27.4603233337,
2.58017914658,-1.82837693423,0,-2.09061308274,-0.00340828074807,19,14.5766048431,28.0635261536,
2.65468209153,-1.97146479815,0,-2.11486345199,-0.00224904375453,20,14.9074773788,28.6298446655,
2.73081963425,-2.11729829043,0,-2.12515210871,-0.000954180778687,21,15.2348794937,29.1797065735,
2.80862133866,-2.26589028567,0,-2.11994524729,0.000482881713332,22,15.5682554245,29.7321281433,
2.88815777665,-2.41734187335,0,-2.0976063177,0.00207166689887,23,15.9156856537,30.3049526215,
2.96953337556,-2.57184068888,0,-2.05636546642,0.00382452950898,24,16.2841510773,30.9152870178,
3.05288260346,-2.72965852946,0,-1.99433932473,0.00575198903812,25,16.6794967651,31.5801315308,
3.13836472397,-2.89115612239,0,-1.90956747444,0.00786116958044,26,17.106798172,32.3172950745,
3.05702151094,-3.05679123133,0,-1.72498208228,0.0171163201938,27,17.5710773468,33.1461372375,