lower angle,upper angle,holding angle,system x,acceleration,ticks (200 tps),lower acceleration (shoulder),upper acceleration (elbow),
1.906932502,-0.577018784,0,-1.05645462398,-0.0930378194247,1,0.0,0.0,
1.906932502,-0.577018784,0,-1.05645462398,0.0,2,0.0,0.0,
1.906932502,-0.577018784,0,-1.05645462398,0.0,3,0.0,0.0,
1.92284074327,-0.607988880588,0,-1.08463700897,-0.00248178753325,4,3.1816573143,6.1940612793,
1.94376817247,-0.648779915287,0,-1.12098803553,-0.00320109029429,5,4.18563556671,8.15852069855,
1.96976008913,-0.699407623722,0,-1.16553874093,-0.00392307662342,6,5.19867038727,10.1261310577,
2.00060430071,-0.759461925937,0,-1.21736667419,-0.00456380597953,7,6.16939640045,12.0117139816,
2.03606048128,-0.828465031101,0,-1.27545465202,-0.00511493080268,8,7.09191417694,13.8020172119,
2.0758573105,-0.905879066898,0,-1.3386241644,-0.00556227524206,9,7.96047592163,15.4847402573,
2.11969914934,-0.991109894229,0,-1.40560059827,-0.00589735708222,10,8.7697429657,17.0487728119,
2.16727128526,-1.08352713437,0,-1.47498725633,-0.00610916751883,11,9.51627254486,18.4867591858,
2.21825614473,-1.18248848767,0,-1.54534086324,-0.0061941809782,12,10.1991739273,19.7962875366,
2.27234426042,-1.28736548276,0,-1.61518168821,-0.00614892630904,13,10.8202505112,20.9802360535,
2.3292476227,-1.3975687489,0.0,-1.68302800133,-0.00597321785637,14,11.3837623596,22.0462188721,
2.38871017,-1.51256613584,0.0,-1.74742583533,-0.00566948107579,15,11.8959989548,23.0058441162,
2.45051351091,-1.6318974957,0,-1.8069402077,-0.00523944417197,16,12.3646221161,23.8734016418,
2.5144826462,-1.75518278928,0,-1.86016686184,-0.00468582037254,17,12.7981719971,24.6649093628,
2.58048644563,-1.88212542386,0,-1.90570958635,-0.00400929039775,18,13.205493927,25.3970985413,
2.64843717119,-2.01251273008,0,-1.94215819348,-0.00320863651596,19,13.5953817368,26.0867576599,
2.71829000017,-2.14621453138,0,-1.96807024141,-0.00228104186805,20,13.976272583,26.7503814697,
2.79003968736,-2.28318028302,0,-1.98193831721,-0.0012207881169,21,14.3561058044,27.4039573669,
2.86371675035,-2.42343716474,0,-1.9821610899,-1.96100399799e-05,22,14.7420520782,28.0629844666,
2.9393836548,-2.56708960385,0,-1.96702681036,0.00133220180193,23,15.1406011581,28.7429046631,
3.01713147661,-2.71431784482,0,-1.93472148121,0.00284363325641,24,15.5574474335,29.4591331482,
3.09707751772,-2.86538486333,0,-1.88335021019,0.00452175697377,25,15.9977846146,30.2279415131,
3.10382143158,-3.02063875051,0,-1.76316011047,0.0105790764341,26,16.4665088654,31.0665512085,