lower angle,upper angle,holding angle,system x,acceleration,ticks (200 tps),lower acceleration (shoulder),upper acceleration (elbow),
2.399204851,-1.852436303,0,-0.673396910298,-0.0287087478719,1,0.0,0.0,
2.399204851,-1.852436303,0,-0.673396910298,0.0,2,0.0,0.0,
2.399204851,-1.852436303,0,-0.673396910298,0.0,3,0.0,0.0,
2.40378010353,-1.86121201406,0,-0.683568419809,-0.000433629374175,4,0.915004312992,1.75508201122,
2.40982449135,-1.87281203161,0,-0.69694425064,-0.000570230446762,5,1.2088868618,2.3200750351,
2.41749012551,-1.88750576864,0,-0.713881223864,-0.000722040563111,6,1.53318965435,2.93872928619,
2.42674172005,-1.90522408376,0,-0.734250233156,-0.000868343069613,7,1.85026669502,3.54366374016,
2.43755400261,-1.92591881643,0,-0.757927632156,-0.00100937156058,8,2.16253209114,4.13901805878,
2.44990837654,-1.94954895864,0,-0.78480621304,-0.00114582843479,9,2.47083687782,4.72608947754,
2.46378338417,-1.97607111822,0,-0.814750693121,-0.0012765153983,10,2.77504730225,5.30451107025,
2.47915756783,-2.00543951879,0,-0.84761734068,-0.001401073204,11,3.07495832443,5.87372207642,
2.49600946984,-2.03760504613,0,-0.88325467752,-0.00151917101489,12,3.37039756775,6.43324279785,
2.5143147715,-2.07251763235,0,-0.921477805817,-0.0016293859784,13,3.66121792793,6.9826965332,
2.53405106148,-2.11012577901,0.0,-0.962100160687,-0.00173164629312,14,3.9474029541,7.52191543579,
2.55519545159,-2.1503789414,0.0,-1.00491109732,-0.00182492436873,15,4.22898387909,8.0508480072,
2.57772505364,-2.19322514425,0,-1.04968336123,-0.00190851476618,16,4.50609540939,8.56963348389,
2.60161840996,-2.23861575017,0,-1.0961705189,-0.00198159787837,17,4.77891159058,9.07851982117,
2.6268554934,-2.28650307546,0,-1.14411037918,-0.00204350419187,18,5.04769802094,9.57795143127,
2.65341770729,-2.33684325109,0,-1.1932182505,-0.00209327483044,19,5.31279230118,10.0685024261,
2.68128883919,-2.38959479223,0,-1.24319310603,-0.00213021099282,20,5.57458353043,10.5509338379,
2.71045458397,-2.44472145925,0,-1.29370892768,-0.00215325146579,21,5.83352470398,11.0260791779,
2.74090254387,-2.50219225774,0,-1.34441462288,-0.00216132243875,22,6.09010601044,11.4949874878,
2.77262413582,-2.56198191534,0,-1.39494055812,-0.00215364141088,23,6.34486198425,11.9588060379,
2.80561316094,-2.62407135854,0,-1.44489070731,-0.00212908143846,24,6.59836912155,12.4188375473,
2.83986580452,-2.6884481896,0,-1.49384246981,-0.00208650927282,25,6.85122060776,12.8765153885,
2.87538254341,-2.75510907064,0,-1.54135071817,-0.00202496641587,26,7.10405635834,13.3334350586,
2.9121657618,-2.82405877004,0,-1.5869425176,-0.00194325960994,27,7.35751152039,13.7913303375,
2.95022261223,-2.89531159292,0,-1.63012494762,-0.00184054872311,28,7.61223983765,14.2520532608,
2.98956215462,-2.96889138113,0,-1.67038081336,-0.00171579763465,29,7.86893844604,14.7176914215,
3.03019821724,-3.04483485113,0,-1.70717671609,-0.00156831446737,30,8.12837505341,15.1905078888,
3.07214891991,-3.12318968664,0,-1.73996532951,-0.00139750512027,31,8.39137554169,15.6730175018,