lower angle,upper angle,holding angle,system x,acceleration,ticks (200 tps),lower acceleration (shoulder),upper acceleration (elbow),
1.459412174,0.471352484,0,-1.07120624403,-0.0837649324174,1,0.0,0.0,
1.459412174,0.471352484,0,-1.07120624403,0.0,2,0.0,0.0,
1.459412174,0.471352484,0,-1.07120624403,0.0,3,0.0,0.0,
1.46675594307,0.457064535392,0,-1.08814993741,-0.00132490623741,4,1.46877038479,2.85755395889,
1.47645576455,0.438177969229,0,-1.11038260975,-0.00173846039945,5,1.93991780281,3.7773194313,
1.48860652901,0.414535429251,0,-1.13819024494,-0.00217436981104,6,2.43024015427,4.72860336304,
1.50323112465,0.386088278067,0,-1.1715157627,-0.00260579785693,7,2.92488574982,5.68952846527,
1.52035911538,0.352772619498,0,-1.21027931476,-0.00303098162548,8,3.42576622963,6.66323375702,
1.54002817131,0.314516451133,0,-1.25442599034,-0.00345186568145,9,3.93393230438,7.65152263641,
1.56227548577,0.2712444327,0,-1.30384098043,-0.00386376551578,10,4.44960594177,8.65473365784,
1.58713586785,0.222886945975,0,-1.35836556559,-0.00426324839457,11,4.97233533859,9.6719379425,
1.61463888146,0.169385816825,0,-1.41778491338,-0.00464592715467,12,5.50099897385,10.7008590698,
1.6448050306,0.110702898276,0,-1.48181913579,-0.00500671515136,13,6.03362512589,11.7375030518,
1.67763812996,0.046828176749,0.0,-1.55006645883,-0.00533608446193,14,6.56725120544,12.7759580612,
1.71312387444,-0.0222054459927,0.0,-1.62205807376,-0.00562877110271,15,7.09785175323,13.8081617355,
1.75122077919,-0.0963169076321,0,-1.69717424836,-0.00587299846355,16,7.62035942078,14.8239898682,
1.791859226,-0.175364110696,0,-1.77470260321,-0.00606152096764,17,8.12877941132,15.8114719391,
1.83493526436,-0.259139154184,0,-1.85379591724,-0.00618378643403,18,8.61657524109,16.7574996948,
1.88031347252,-0.347368810403,0,-1.93351754795,-0.00623281756863,19,9.07711696625,17.6488170624,
1.9278260038,-0.439718339669,0,-2.01282842894,-0.00620060632861,20,9.50431442261,18.4731750488,
1.97728260018,-0.53580388807,0,-2.09066373732,-0.00608514373178,21,9.89335250854,19.2207813263,
2.02847726799,-0.635209653604,0,-2.16594465669,-0.00588535769402,22,10.2411403656,19.885269165,
2.08119829155,-0.737508867013,0,-2.23760791783,-0.0056024452216,23,10.5466995239,20.4643745422,
2.13524110772,-0.842284772622,0,-2.30466224434,-0.00524204585331,24,10.811126709,20.9599342346,
2.19041402794,-0.949146363961,0,-2.36618310373,-0.00480941136767,25,11.0374221802,21.3774642944,
2.24654920556,-1.05774602674,0,-2.42134825905,-0.00431246623183,26,11.2299346924,21.7251930237,
2.30350311257,-1.16778335355,0,-2.46942037419,-0.00375791684291,27,11.3939237595,22.0131378174,
2.36116273858,-1.27901468061,0,-2.50975574941,-0.00315306395674,28,11.535071373,22.2519989014,
2.41944082238,-1.39124784254,0,-2.54176814518,-0.00250240353409,29,11.6589717865,22.4525375366,
2.47827918984,-1.50434217237,0,-2.56494476932,-0.00181168579361,30,11.771071434,22.6249580383,
2.53764303185,-1.61820468687,0,-2.57879211156,-0.00108241072617,31,11.8762569427,22.7786636353,
2.59752042748,-1.73278293394,0,-2.58284588191,-0.000316868160488,32,11.9790115356,22.9219856262,
2.65791757561,-1.84806284689,0,-2.5766239052,0.000486341850238,33,12.083147049,23.0623588562,
2.71885879494,-1.96406159185,0,-2.55964025158,0.0013275150925,34,12.1920375824,23.2063388824,
2.78038270928,-2.08082685255,0,-2.53136610249,0.00221000369335,35,12.3085813522,23.3597183228,
2.84253843285,-2.19843086981,0,-2.49122001398,0.00313790659945,36,12.4351320267,23.5276508331,
2.90538604714,-2.31697020315,0,-2.43856854186,0.00411531197799,37,12.5736589432,23.7148399353,
2.96899278618,-2.43656334661,0,-2.37271518886,0.00514712636545,38,12.725646019,23.9258747101,
3.03343208291,-2.55735168241,0,-2.29290442662,0.00623796576125,39,12.8923177719,24.1651000977,
3.09878023125,3.60368790842,0,-2.19833484293,0.00739138968194,40,13.0743274689,24.4368476868,
3.11806844415,3.47999944903,0,-2.00619129677,0.0150174176735,41,13.2721948624,24.7457275391,