lower angle,upper angle,holding angle,system x,acceleration,ticks (200 tps),lower acceleration (shoulder),upper acceleration (elbow),
2.085940626,-1.007432301,0,-0.967244958148,-0.0440937103782,1,0.0,0.0,
2.085940626,-1.007432301,0,-0.967244958148,0.0,2,0.0,0.0,
2.085940626,-1.007432301,0,-0.967244958148,0.0,3,0.0,0.0,
2.09220626626,-1.01958068128,0,-0.978170597927,-0.000498043633557,4,1.25305175781,2.42968821526,
2.10050275597,-1.0356782269,0,-0.992507223532,-0.00065352461441,5,1.65933454037,3.21951270103,
2.11093309197,-1.0558946919,0,-1.0105028312,-0.000820309022212,6,2.08608722687,4.04330968857,
2.12344625268,-1.08013327833,0,-1.03196972855,-0.000978534926247,7,2.50268030167,4.84778022766,
2.13799455438,-1.10830004926,0,-1.05672404462,-0.0011283750275,8,2.9097366333,5.63346576691,
2.15453031335,-1.14029916044,0,-1.0845714406,-0.00126935464735,9,3.30718064308,6.39989948273,
2.17300060067,-1.176024754,0,-1.11528857617,-0.00140015154532,10,3.69420671463,7.14534139633,
2.1933496264,-1.21536334272,0,-1.14863691643,-0.0015200735556,11,4.06997251511,7.868019104,
2.21551778588,-1.25819380994,0,-1.18435277451,-0.00162797473995,12,4.43375778198,8.56634521484,
2.23944165978,-1.30438740964,0,-1.22214762809,-0.00172272316646,13,4.78502416611,9.23915100098,
2.26505735192,-1.3538130116,0.0,-1.26171881435,-0.00180367470834,14,5.12341737747,9.88558769226,
2.29229953561,-1.40633614774,0.0,-1.30274428899,-0.00186994271662,15,5.44880437851,10.5052433014,
2.32110383782,-1.46182282682,0,-1.34488966661,-0.00192097007066,16,5.76125574112,11.0980653763,
2.35140683923,-1.52014096494,0,-1.38780243856,-0.00195593014385,17,6.06105422974,11.6644515991,
2.38314750466,-1.58116181608,0,-1.4311194533,-0.00197433608613,18,6.34864807129,12.2051200867,
2.41626813683,-1.6447618794,0,-1.47446748014,-0.00197573153075,19,6.62470817566,12.7211704254,
2.45071485314,-1.71082576032,0,-1.517456235,-0.00195927925019,20,6.89002132416,13.2139883041,
2.48643853936,-1.77924569364,0,-1.55968768135,-0.00192474332372,21,7.14553594589,13.6852464676,
2.52339628014,-1.84992249723,0,-1.60076192427,-0.00187198579949,22,7.39233636856,14.1368961334,
2.56154945168,-1.92276938672,0,-1.64024838661,-0.00179960580435,23,7.63155317307,14.5709877014,
2.60086658273,-1.99771006818,0,-1.67771277183,-0.00170742987518,24,7.86444568634,14.9898471832,
2.64132192407,-2.07467921491,0,-1.71270251939,-0.0015946308357,25,8.09223556519,15.3958129883,
2.68289735589,-2.15362580533,0,-1.74474742429,-0.00146040477907,26,8.31622505188,15.7913818359,
2.72557904992,-2.23451026197,0,-1.77334611349,-0.00130333337692,27,8.53769874573,16.179145813,
2.76936176095,-2.31730731244,0,-1.79798226807,-0.00112273452048,28,8.75792694092,16.5617179871,
2.81424501214,-2.40200360532,0,-1.81810781257,-0.000917165029798,29,8.97811889648,16.9418239594,
2.8602340487,-2.48860057111,0,-1.83314274385,-0.000685168160638,30,9.19943809509,17.322177887,
2.90734031472,-2.57711442228,0,-1.84247921732,-0.000425475655576,31,9.4229927063,17.70570755,
2.95558002267,-2.6675756764,0,-1.84548003716,-0.000136750172341,32,9.64980316162,18.0953178406,
3.00497415337,-2.76003010984,0,-1.84148318874,0.000182138447034,33,9.88085269928,18.4941825867,
3.05554845605,-2.85453923459,0,-1.82980908811,0.000531990075025,34,10.1170015335,18.9054374695,
3.10733297143,-2.95118315931,0,-1.80976717104,0.000913303137596,35,10.3592023849,19.3326435089,
3.12282279855,-3.05006011243,0,-1.76265865174,0.00214669872566,36,10.6083936691,19.7794723511,