lower angle,upper angle,holding angle,system x,acceleration,ticks (200 tps),lower acceleration (shoulder),upper acceleration (elbow),
2.309700789,-1.58584836,0,-0.780734807812,-0.0355666545533,1,0.0,0.0,
2.309700789,-1.58584836,0,-0.780734807812,0.0,2,0.0,0.0,
2.309700789,-1.58584836,0,-0.780734807812,0.0,3,0.0,0.0,
2.31760150387,-1.60108235353,0,-0.796077640962,-0.000698928533007,4,1.58009445667,3.04673171043,
2.32795030072,-1.62105658525,0,-0.815979564682,-0.000906605098181,5,2.06983327866,3.99494409561,
2.3409674783,-1.6461539554,0,-0.84089789477,-0.0011351098431,6,2.60348057747,5.01953697205,
2.35657245114,-1.67621853822,0,-0.870529732512,-0.00134981125582,7,3.12100124359,6.01306152344,
2.37469846203,-1.71111824983,0,-0.904576419563,-0.00155090470381,8,3.62528777122,6.9800453186,
2.39528352215,-1.75072482103,0,-0.942731793714,-0.00173805010563,9,4.1171579361,7.92155838013,
2.41826325848,-1.79490521425,0,-0.984649168778,-0.00190939137969,10,4.5962100029,8.83646965027,
2.44357186749,-1.84352066988,0,-1.02994992724,-0.00206349647267,11,5.06198120117,9.72362422943,
2.4711416383,-1.89642956728,0,-1.0782091035,-0.00219824011346,12,5.51431035995,10.5823993683,
2.50090629056,-1.95349028581,0,-1.12897018029,-0.00231218783605,13,5.95332813263,11.4128437042,
2.53280097439,-2.0145631122,0.0,-1.18173702236,-0.00240352757098,14,6.37949180603,12.2155246735,
2.56676560834,-2.0795154857,0.0,-1.23598009745,-0.0024707058233,15,6.79354190826,12.9916954041,
2.6027439256,-2.14822438234,0,-1.29112180994,-0.00251161345185,16,7.19647026062,13.7430830002,
2.64068681195,-2.22057583803,0,-1.34655608744,-0.00252491034983,17,7.58950614929,14.4719333649,
2.68055230572,-2.29647210115,0,-1.40162780533,-0.00250838023824,18,7.97411632538,15.1810321808,
2.72230559781,-2.37582924837,0,-1.45563649451,-0.00245994155541,19,8.35190582275,15.8735733032,
2.76592141583,-2.45858290666,0,-1.50783483405,-0.00237746951111,20,8.72457122803,16.5530643463,
2.81138354733,-2.54468729967,0,-1.55742598301,-0.00225870347663,21,9.0939874649,17.223575592,
2.85868483975,-2.63411906236,0,-1.60355731113,-0.00210109996184,22,9.46197128296,17.8893604279,
2.90782720044,-2.72687819475,0,-1.64532230416,-0.00190221260944,23,9.83049488068,18.5552139282,
2.95882398083,-2.82299092287,0,-1.68176819217,-0.00165993390891,24,10.2014837265,19.2262954712,
3.01169568494,-2.92251112932,0,-1.71189182645,-0.00137197257225,25,10.5768890381,19.9081230164,
3.06647664502,-3.02552273744,0,-1.73466292625,-0.00103709611355,26,10.9588794708,20.6069755554,
3.12321025326,-3.13214543336,0,-1.74902691095,-0.000654194284548,27,11.3497428894,21.3296508789,
3.10123157705,-3.24253561967,0,-1.79662499942,-0.00216779036403,28,11.7521343231,22.0836868286,