lower angle,upper angle,holding angle,system x,acceleration,ticks (200 tps),lower acceleration (shoulder),upper acceleration (elbow),
1.593668276,0.156684577,0,-1.09770423217,-0.0864545331168,1,0.0,0.0,
1.593668276,0.156684577,0,-1.09770423217,0.0,2,0.0,0.0,
1.593668276,0.156684577,0,-1.09770423217,0.0,3,0.0,0.0,
1.60623674982,0.132195174229,0,-1.12400171619,-0.00207111394819,4,2.51369667053,4.89790391922,
1.62293701761,0.0996152753948,0,-1.1584837668,-0.0027156649581,5,3.34013366699,6.51617193222,
1.64385729425,0.0588228101848,0,-1.2013563189,-0.00337641420609,6,4.18416166306,8.15870666504,
1.66899805658,0.00980871869312,0,-1.25226071838,-0.00400890499431,7,5.0284371376,9.80334472656,
1.69835262887,-0.0474165086628,0,-1.310758469,-0.00460685094996,8,5.8713092804,11.4458398819,
1.73189001672,-0.112793744075,0,-1.37626095535,-0.00515844304648,9,6.70817661285,13.0765533447,
1.76954489343,-0.186190426815,0,-1.44802731388,-0.0056516380745,10,7.53181314468,14.6809978485,
1.81120281808,-0.267381489742,0,-1.52508056274,-0.00606789198891,11,8.33286190033,16.2404670715,
1.85669689767,-0.356032670009,0,-1.6062592962,-0.006392704592,12,9.10039615631,17.733133316,
1.90580158823,-0.451694310177,0,-1.69019078704,-0.00660938446417,13,9.82291603088,19.1359786987,
1.95823841684,-0.553809464443,0.0,-1.77534423273,-0.00670552189497,14,10.4897079468,20.4274978638,
2.01368647211,-0.661737263668,0.0,-1.86006980772,-0.00667172144059,15,11.0924654007,21.5907993317,
2.07180195444,-0.774786770809,0,-1.94269291692,-0.00650605962664,16,11.6263923645,22.615945816,
2.13223868005,-0.892259419429,0,-2.02157033139,-0.00621102337559,17,12.0909757614,23.5013237,
2.19466715448,-1.01348906802,0,-2.09513298527,-0.00579242160463,18,12.4897680283,24.2533416748,
2.25879364603,-1.13787347125,0,-2.16195586627,-0.00526164309755,19,12.8297119141,24.8850288391,
2.32437019937,-1.26489955233,0,-2.2207431129,-0.00462886935234,20,13.1199846268,25.413772583,
2.39119892709,-1.39414960192,0,-2.27033302883,-0.00390463959144,21,13.3708019257,25.8590221405,
2.45913582437,-1.5253050928,0,-2.30969498982,-0.00309927083088,22,13.5925645828,26.2405815125,
2.5280845701,-1.65814286517,0,-2.33785989127,-0.00221762061468,23,13.7951822281,26.5773429871,
2.5979941427,-1.79252463626,0,-2.35391425524,-0.00126406198916,24,13.9877033234,26.886516571,
2.66885500543,-1.92838937091,0,-2.35696457639,-0.000240169081322,25,14.1780815125,27.1834430695,
2.74069100015,-2.06574422168,0,-2.34608040276,0.000856965500136,26,14.3733539581,27.4818992615,
2.81355600946,-2.20465832995,0,-2.32027235341,0.00203197978357,27,14.5794229507,27.7940177917,
2.88752871149,-2.34525400447,0,-2.27847390449,0.00329059305697,28,14.801279068,28.1308326721,
2.96270828836,-2.48770743655,0,-2.21951494138,0.00464148635428,29,15.0430030823,28.5028419495,
3.03920965784,-2.63224393176,0,-2.14213209713,0.00609179981826,30,15.3077869415,28.9200325012,
3.11716156595,-2.77914100932,0,-2.0449931117,0.00764694716641,31,15.5982208252,29.3927497864,
3.08648348855,-2.92872983264,0,-1.8045640718,0.018926720113,32,15.9164447784,29.9319000244,