lower angle,upper angle,holding angle,system x,acceleration,ticks (200 tps),lower acceleration (shoulder),upper acceleration (elbow),
1.190899988,1.118062055,0,-0.937124733427,-0.087706916226,1,0.0,0.0,
1.190899988,1.118062055,0,-0.937124733427,0.0,2,0.0,0.0,
1.190899988,1.118062055,0,-0.937124733427,0.0,3,0.0,0.0,
1.20010580618,1.10021356333,0,-0.963385291019,-0.00245746822779,4,1.84112334251,3.56970882416,
1.21213068563,1.0768680929,0,-0.997493366862,-0.0031917775317,5,2.40498590469,4.66910982132,
1.22725262243,1.04752353419,0,-1.04031587981,-0.00400717881098,6,3.02451467514,5.86901140213,
1.24552263815,1.01207069147,0,-1.09185707195,-0.00482295999644,7,3.65408849716,7.0907959938,
1.26702417928,0.970337903389,0,-1.15217274046,-0.00564393381307,8,4.30049133301,8.34683704376,
1.29186882574,0.922102963813,0,-1.22135880749,-0.00647385896007,9,4.96911621094,9.64742279053,
1.32018770773,0.867103135475,0,-1.29948214993,-0.00730999082528,10,5.66414451599,11.0006952286,
1.35213150579,0.805037534126,0,-1.38656735524,-0.00814839234624,11,6.3893699646,12.4141263962,
1.38786949712,0.735571896919,0,-1.48257859042,-0.00898343634201,12,7.14830684662,13.8945589066,
1.42758240301,0.658344781288,0,-1.58733175751,-0.00980122730366,13,7.94369316101,15.4472951889,
1.47145952779,0.572983777412,0.0,-1.70049313368,-0.0105877668279,14,8.77683067322,17.0747795105,
1.51968302328,0.479128873237,0.0,-1.82146021743,-0.0113178958441,15,9.64652729034,18.7744522095,
1.57240929205,0.376471555122,0,-1.94928074906,-0.0119589109501,16,10.5476570129,20.5359687805,
1.62974037725,0.264812028297,0,-2.08255058219,-0.0124685457071,17,11.4694128036,22.3377304077,
1.6916891535,0.144130742439,0,-2.21933303463,-0.0127950688199,18,12.3937187195,24.1436748505,
1.75813688833,0.014667069801,0,-2.35706839521,-0.0128839420542,19,13.2944393158,25.9017925262,
1.82880129415,-0.12301298391,0,-2.49262186286,-0.0126795979603,20,14.1388111115,27.5468559265,
1.90322699148,-0.267996275536,0,-2.6224375775,-0.0121426708515,21,14.8919620514,29.0094585419,
1.98080982763,-0.419076883904,0,-2.74276985925,-0.0112554147716,22,15.5244102478,30.230556488,
2.06086554128,-0.574881041161,0,-2.8500802173,-0.0100372072261,23,16.0196113586,31.1766166687,
2.14271082479,-0.734036409966,0,-2.9412836929,-0.00853051794785,24,16.3782348633,31.8479042053,
2.22574581701,-0.895326578728,0,-3.01397262907,-0.00679868921439,25,16.6165275574,32.2755470276,
2.30949892599,-1.05778499853,0,-3.06640388428,-0.00490386865971,26,16.7604866028,32.509677887,
2.39364494878,-1.22072740804,0,-3.09741933029,-0.00290081001386,27,16.8391265869,32.6065177917,
2.47799219686,-1.38372775327,0,-3.10628124214,-0.000828822805834,28,16.8794517517,32.6182289124,
2.56246294576,-1.54658075582,0,-3.09250572173,0.00128834889779,29,16.9041461945,32.5886917114,
2.64706768591,-1.70925232183,0,-3.05571796912,0.00344049707308,30,16.9311122894,32.5523223877,
2.73188652593,-1.87183901083,0,-2.99555780739,0.00562626107478,31,16.9739379883,32.5353660583,
2.81704821188,4.24864796389,0,-2.91155899518,0.00785552856065,32,17.0426368713,32.5577926636,
2.90271868307,4.08556369532,0,-2.8031047597,0.0101423970224,33,17.1446380615,32.6350822449,
2.98908962805,3.92175749529,0,-2.66939269242,0.0125042223452,34,17.2849216461,32.7797622681,
3.07636847097,3.75683716524,0,-2.50941764407,0.0149599923332,35,17.4667816162,33.0029525757,
3.11841456494,3.59035710085,0,-2.21643655621,0.0273975541489,36,17.6920204163,33.3154525757,