lower angle,upper angle,holding angle,system x,acceleration,ticks (200 tps),lower acceleration (shoulder),upper acceleration (elbow),
2.488708913,-2.208834963,0,-0.514623139017,-0.0229680059296,1,0.0,0.0,
2.488708913,-2.208834963,0,-0.514623139017,0.0,2,0.0,0.0,
2.488708913,-2.208834963,0,-0.514623139017,0.0,3,0.0,0.0,
2.4952458736,-2.22131045357,0,-0.533778411104,-0.000854890345868,4,1.30732047558,2.49511432648,
2.50379651752,-2.2376492788,0,-0.55871480965,-0.00111288862873,5,1.71017813683,3.26772999763,
2.51460927692,-2.25828726784,0,-0.590130256166,-0.00140203013992,6,2.16253805161,4.12762880325,
2.52762788502,-2.28311808602,0,-0.627747486783,-0.00167879416705,7,2.60380840302,4.96626758575,
2.54281944004,-2.31207306877,0,-0.671339994096,-0.00194544859834,8,3.03832745552,5.79112434387,
2.56015676227,-2.34509547249,0,-0.720666784638,-0.00220134569602,9,3.46758627892,6.6045999527,
2.57961457935,-2.38212807671,0,-0.775464208327,-0.0024454685977,10,3.89171123505,7.40668296814,
2.60116714206,-2.42311223046,0,-0.835431016616,-0.00267614176902,11,4.31069469452,8.19713306427,
2.62478917805,-2.4679897596,0,-0.900227511152,-0.00289165265845,12,4.72459793091,8.97593975067,
2.6504563686,-2.51670487419,0,-0.969472540839,-0.00309014551654,13,5.1336555481,9.74342632294,
2.67814582554,-2.5692032148,0.0,-1.04274274604,-0.00326974772553,14,5.53825330734,10.5002880096,
2.70783799854,-2.6254370977,0.0,-1.11957240877,-0.00342856326272,15,5.93891859055,11.2475719452,
2.73951715198,-2.68536599175,0,-1.19945093964,-0.00356458854669,16,6.33633565903,11.9866905212,
2.77317041126,-2.74895794884,0,-1.28181589881,-0.00367551593676,17,6.7313079834,12.7194328308,
2.80879062382,-2.81619151131,0,-1.36605834731,-0.00375926815245,18,7.12477302551,13.447977066,
2.84637492863,-2.88705857292,0,-1.45151592114,-0.00381346777777,19,7.51779603958,14.1749238968,
2.88592761722,-2.96156580941,0,-1.53747812909,-0.00383595474309,20,7.91155719757,14.9032497406,
2.92745870319,-3.03973801628,0,-1.62318327088,-0.00382444366947,21,8.30738735199,15.6364364624,
2.9709858295,-3.12161858574,0,-1.70782275973,-0.00377685407109,22,8.70676898956,16.3784332275,