lower angle,upper angle,holding angle,system x,acceleration,ticks (200 tps),lower acceleration (shoulder),upper acceleration (elbow),
1.056643887,1.463504497,0,-0.825872465514,-0.0902007918244,1,0.0,0.0,
1.056643887,1.463504497,0,-0.825872465514,0.0,2,0.0,0.0,
1.056643887,1.463504497,0,-0.825872465514,0.0,3,0.0,0.0,
1.06459991498,1.4481374659,0,-0.851703151135,-0.00282092849094,4,1.59122180939,3.07340145111,
1.07490245862,1.42821234841,0,-0.885043958093,-0.00364102319632,5,2.06045866013,3.98499488831,
1.0878400044,1.40320414681,0,-0.926900819142,-0.00457092432299,6,2.58760476112,5.00176525116,
1.10343591733,1.37305754799,0,-0.97727242908,-0.00550065330683,7,3.11920380592,6.02946376801,
1.12174455686,1.33765811104,0,-1.03623693563,-0.00643887304433,8,3.66184091568,7.08005046844,
1.14284555479,1.29684609551,0,-1.10393401421,-0.00739230664332,9,4.2203130722,8.1626701355,
1.16683523221,1.250426475,0,-1.18050455767,-0.00836108728728,10,4.798163414,9.28430366516,
1.1938285069,1.19816941399,0,-1.26609630603,-0.00934592865844,11,5.39902544022,10.452091217,
1.22396032377,1.13980454583,0,-1.36084009006,-0.0103450392622,12,6.02680778503,11.6737241745,
1.25738613172,1.07502240319,0,-1.46483646583,-0.0113550861089,13,6.68575906754,12.9575710297,
1.29428379102,1.00346821923,0.0,-1.57812320972,-0.0123680192558,14,7.38036632538,14.3124027252,
1.33485405012,0.92474240441,0.0,-1.70064465239,-0.0133758620836,15,8.11519813538,15.7471504211,
1.37931911512,0.838405791708,0,-1.83221163305,-0.0143626007797,16,8.89447212219,17.2700214386,
1.42791645093,0.743987266012,0,-1.97240988323,-0.0153044877973,17,9.72143268585,18.8872337341,
1.48089019819,0.641006175467,0,-2.12053442809,-0.0161693861432,18,10.5972127914,20.6008243561,
1.53847019239,0.529008571097,0,-2.27544168426,-0.0169094420748,19,11.5191993713,22.4053382874,
1.60084335371,0.407630149313,0,-2.43544042224,-0.0174555778982,20,12.4786520004,24.2831821442,
1.66810791059,0.276681128927,0,-2.59811555483,-0.0177471119236,21,13.4579677582,26.1992034912,
1.74021808668,0.13625878472,0,-2.76023367846,-0.0176859487523,22,14.4283323288,28.096031189,
1.81692878767,-0.0131409726655,0,-2.91775203692,-0.0171837658455,23,15.3496456146,29.8938446045,
1.89775888486,-0.170553978494,0,-3.06597702752,-0.0161696132952,24,16.1747741699,31.4989433289,
1.98200742765,-0.334579285196,0,-3.1999617127,-0.0146158679365,25,16.8597202301,32.8235397339,
2.06883470579,-0.503534134439,0,-3.31506935954,-0.0125563455208,26,17.3763923645,33.8110427856,
2.15738431974,-0.675696667246,0,-3.40745662549,-0.0100777140419,27,17.7215118408,34.4538803101,
2.24690525098,-0.849547918848,0,-3.47434223586,-0.00729580880581,28,17.9161205292,34.7922172546,
2.3368262486,-1.02391725402,0,-3.51400601663,-0.00432639282942,29,17.9962882996,34.8960456848,
2.42677490278,-1.1980209909,0,-3.52557657088,-0.00126205109624,30,18.0019321442,34.8428230286,
2.51655904813,-1.37142234664,0,-3.50876560605,0.00183359989912,31,17.9688587189,34.7020988464,
2.60612718626,-1.54396062713,0,-3.46356868947,0.00492959884146,32,17.9256248474,34.5291824341,
2.69553510709,4.56750554223,0,-3.39008545633,0.00801459465335,33,17.8935012817,34.3650817871,
2.78491394086,4.39641446252,0,-3.28834848786,0.0110959222623,34,17.8876571655,34.2392044067,
2.87444679304,4.22565645356,0,-3.15822296398,0.0141918177342,35,17.9185771942,34.1725463867,
2.96435253187,4.0548586287,0,-2.99934051027,0.0173276914608,36,17.9932441711,34.1804962158,
3.05487052961,3.8835880198,0,-2.81106633419,0.0205327411057,37,18.1159992218,34.2752685547,
3.13693322774,3.71135729928,0,-2.56612965249,0.0267116964171,38,18.289056778,34.4676856995,