lower angle,upper angle,holding angle,system x,acceleration,ticks (200 tps),lower acceleration (shoulder),upper acceleration (elbow),
2.175444687,-1.230559399,0,-0.90367150976,-0.0420979783843,1,0.0,0.0,
2.175444687,-1.230559399,0,-0.90367150976,0.0,2,0.0,0.0,
2.175444687,-1.230559399,0,-0.90367150976,0.0,3,0.0,0.0,
2.18451746761,-1.24812989461,0,-0.919712158439,-0.000747240685086,4,1.81454157829,3.51412844658,
2.1964221841,-1.27120833623,0,-0.940498013409,-0.000968285186678,5,2.38100647926,4.61572265625,
2.21133908092,-1.30009751546,0,-0.966398314488,-0.00120652326532,6,2.9834280014,5.7779340744,
2.2291684991,-1.33460574376,0,-0.997046014011,-0.0014276608902,7,3.56593799591,6.9017496109,
2.2498174554,-1.37454753148,0,-1.03207535798,-0.00163175603685,8,4.12991523743,7.98871088028,
2.27319344341,-1.4197378658,0,-1.07108346346,-0.00181708479393,9,4.6754360199,9.03838729858,
2.29919966518,-1.46997790562,0,-1.11364127946,-0.00198242021378,10,5.20154094696,10.0485725403,
2.3277345544,-1.52506118046,0,-1.15926363622,-0.00212515095081,11,5.70740127563,11.0173492432,
2.35869559108,-1.58477502095,0,-1.20743825295,-0.00224401938622,12,6.19262266159,11.9436216354,
2.39197882473,-1.64890580403,0,-1.25760118887,-0.00233661671295,13,6.65728664398,12.827293396,
2.4274850732,-1.71724467503,0.0,-1.30916912325,-0.00240203977507,14,7.10197305679,13.66913414,
2.46511896907,-1.78959088551,0.0,-1.36151798301,-0.00243838597836,15,7.5276799202,14.4708251953,
2.50479277431,-1.86575560795,0,-1.41399968984,-0.00244454574992,16,7.93581867218,15.2347993851,
2.54642733394,-1.94556622731,0,-1.46593304002,-0.00241897707505,17,8.3281621933,15.9642028809,
2.58995446025,-2.0288677715,0,-1.5166135821,-0.00236059986545,18,8.70672130585,16.6627731323,
2.63531550228,-2.11552815663,0,-1.56528573388,-0.00226703024108,19,9.07378864288,17.3347816467,
2.68246563732,-2.20543675648,0,-1.61117222324,-0.00213725593205,20,9.4317522049,17.9848251343,
2.73137148677,-2.29850964772,0,-1.65344117619,-0.00196874633761,21,9.78312110901,18.6179504395,
2.78201302349,-2.3946886562,0,-1.69121807468,-0.00175951032138,22,10.1304960251,19.2394561768,
2.8343830949,-2.49394231068,0,-1.72357798007,-0.00150719528425,23,10.4763669968,19.8549137115,
2.88848599254,-2.596271088,0,-1.74953114386,-0.00120878387742,24,10.8232393265,20.4702072144,
2.94433888256,-2.70170407521,0,-1.76804071785,-0.000862087162906,25,11.1735363007,21.0915603638,
3.00197085201,-2.81030421483,0,-1.77801831381,-0.00046470025224,26,11.529548645,21.7254447937,
3.06142147838,-2.9221697353,0,-1.77833538722,-1.47673370535e-05,27,11.8936462402,22.3790130615,
3.12274321376,-3.03743653523,0,-1.7678476274,0.000488451123511,28,12.2682132721,23.0598583221,
3.0971834455,-3.15628342854,0,-1.7522644648,0.00072575453252,29,12.6559391022,23.7764186859,