lower angle,upper angle,holding angle,system x,acceleration,ticks (200 tps),lower acceleration (shoulder),upper acceleration (elbow),
1.57079632679,0.0,0,2.25028849343e-15,1.46876472102e-16,1,0.0,0.0,
1.57076722696,5.66817761865e-05,0,0.000176681130113,1.15317026886e-05,2,-0.0058199679479,-0.0113363554701,
1.57070738153,0.00017356898752,0,0.000535026897563,2.33883532215e-05,3,-0.0119690848514,-0.0233774445951,
1.57061744014,0.000349334266502,0,0.00107206969211,3.50509180923e-05,4,-0.0179882775992,-0.0351530574262,
1.57049774882,0.000583316839766,0,0.00178550021173,4.65624201311e-05,5,-0.0239382646978,-0.046796515584,
1.5703484696,0.000875176046975,0,0.00267472901716,5.80350697793e-05,6,-0.0298558473587,-0.0583718493581,
1.57016977814,0.001224584179,0,0.00373846210168,6.94229979617e-05,7,-0.0357382930815,-0.0698816031218,
1.56996190577,0.00163114594761,0,0.00497442317275,8.06620259429e-05,8,-0.0415744706988,-0.0813123732805,
1.56972510071,0.00209438125603,0,0.00638105233597,9.1798756768e-05,9,-0.0473610274494,-0.0926470458508,
1.56945964362,0.00261378474534,0,0.00795599386494,0.000102781686275,10,-0.0530914254487,-0.103880733252,
1.56916587689,0.0031887406949,0,0.00969636265794,0.000113575768005,11,-0.0587533339858,-0.114991143346,
1.56884402148,0.00381876551546,0,0.0116016546551,0.000124336920927,12,-0.0643710792065,-0.126005023718,
1.56849444803,0.00450316164643,0,0.0136692338649,0.000134925773351,13,-0.0699146613479,-0.136879131198,
1.56811758346,0.0052411374636,0,0.0158958792415,0.000145304106402,14,-0.0753729045391,-0.14759516716,
1.56771376572,0.0060320138,0,0.0182798669469,0.000155566270345,15,-0.0807635039091,-0.158175200224,
1.56728338945,0.00687500601634,0,0.0208190506142,0.000165690929071,16,-0.0860752612352,-0.168598487973,
1.56682695268,0.00776918418705,0,0.0235097728221,0.000175577059856,17,-0.0912873372436,-0.178835660219,
1.56634485076,0.00871376041323,0,0.0263499124012,0.000185324329078,18,-0.0964204072952,-0.188915252686,
1.56583758263,0.00970777776092,0,0.0293362025713,0.000194858226799,19,-0.101453557611,-0.198803350329,
1.56530568149,0.0107502266765,0,0.0324649472259,0.000204150757914,20,-0.106380298734,-0.208489820361,
1.56474964094,0.0118401013315,0,0.0357338458735,0.000213290605749,21,-0.111208185554,-0.217974960804,
1.56417000672,0.0129763418809,0,0.0391395318159,0.000222212095477,22,-0.115926831961,-0.227248162031,
1.56356730178,0.0141578847542,0,0.0426795352114,0.000230973051144,23,-0.12054104358,-0.236308544874,
1.56294214452,0.0153835602105,0,0.0463495499262,0.000239452896234,24,-0.125031366944,-0.245134979486,
1.56229511096,0.0166522040963,0,0.0501467387121,0.000247746663024,25,-0.129406809807,-0.253728955984,
1.56162683392,0.0179625824094,0,0.0540672763176,0.00025579103684,26,-0.133655354381,-0.262075483799,
1.56093793927,0.0193134639412,0,0.0581075498098,0.0002635987151,27,-0.137779101729,-0.270176708698,
1.5602290929,0.0207035746425,0,0.0622631489515,0.000271119084804,28,-0.14176915586,-0.278021991253,
1.55950095883,0.0221315473318,0,0.0665311983553,0.000278451013766,29,-0.145626828074,-0.285594463348,
1.55875419366,0.0235961191356,0,0.0709074532942,0.000285506376289,30,-0.149353191257,-0.292914271355,
1.55798953219,0.0250958092511,0,0.0753882260675,0.000292320989286,31,-0.152932167053,-0.299937963486,
1.55720767012,0.0266292542219,0,0.0799694179478,0.000298868075648,32,-0.156372502446,-0.306689113379,
1.55640930688,0.0281950496137,0,0.0846474383456,0.000305180748763,33,-0.159672692418,-0.313159167767,
1.5555951717,0.0297917760909,0,0.0894178359058,0.00031118659635,34,-0.162826910615,-0.319345295429,
1.55476606364,0.031417850405,0,0.0942761736934,0.000316917750159,35,-0.165821701288,-0.325215041637,
1.55392269517,0.0330718159676,0,0.0992192025034,0.000322437731133,36,-0.168674021959,-0.330793678761,
1.55306584673,0.0347521342337,0,0.104242465359,0.000327665932129,37,-0.171369567513,-0.33606338501,
1.55219631369,0.0364572219551,0,0.109341661551,0.000332614308916,38,-0.173906326294,-0.341016858816,
1.5513148802,0.038185518235,0,0.114512548886,0.000337284697302,39,-0.176287040114,-0.345660179853,
1.55042235839,0.0399353951216,0,0.119750914398,0.000341677875025,40,-0.178504288197,-0.349974989891,
1.54951950634,0.0417053364217,0,0.125052769894,0.000345814242989,41,-0.180570006371,-0.353988170624,
1.54860719765,0.0434936396778,0,0.130412817101,0.000349604987825,42,-0.182461991906,-0.357660472393,
1.5476862556,0.0452986210585,0,0.135827312286,0.000353107876347,43,-0.18418854475,-0.360995471478,
1.54675750347,0.0471186637878,0,0.141291455903,0.000356340296989,44,-0.185750633478,-0.364008545876,
1.54582172545,0.0489521734416,0,0.146801533691,0.000359330891071,45,-0.187155753374,-0.366703391075,
1.54487982864,0.0507973693311,0,0.152352247876,0.000361976002178,46,-0.188379541039,-0.369039207697,
1.54393260094,0.0526526272297,0,0.15794021696,0.000364400132023,47,-0.189445659518,-0.37105178833,
1.54298087309,0.0545162856579,0,0.163561072339,0.000366537164705,48,-0.190345540643,-0.372731029987,
1.54202552984,0.0563865788281,0,0.169210103644,0.000368364835601,49,-0.191068783402,-0.374059557915,
1.54106740939,0.058261834085,0,0.174882845276,0.000369905689468,50,-0.191624075174,-0.375050902367,
1.5401073611,0.0601403191686,0,0.180575359928,0.00037118963677,51,-0.192009791732,-0.375697016716,
1.53914628277,0.0620202645659,0,0.186282518314,0.000372127818734,52,-0.192215174437,-0.375988841057,
1.53818497533,0.0639000684023,0,0.192000110477,0.000372801268146,53,-0.192261457443,-0.375960350037,
1.5372243161,0.0657779350877,0,0.197724171459,0.000373218045627,54,-0.192132309079,-0.375574618578,
1.53626513953,0.0676521882415,0,0.203450433904,0.000373337412476,55,-0.191834717989,-0.374849021435,
1.53530827264,0.0695211663842,0,0.20917467024,0.000373198988901,56,-0.191373944283,-0.373796164989,
1.5343546095,0.071383073926,0,0.214892301889,0.000372763243101,57,-0.190731823444,-0.372380971909,
1.53340494732,0.0732362866402,0,0.220599610998,0.000372085239976,58,-0.189932718873,-0.370643347502,
1.53246010939,0.0750791206956,0,0.226292860968,0.000371162949042,59,-0.188966766,-0.368564605713,
1.53152097116,0.0769098550081,0,0.231966987099,0.000369911403204,60,-0.187827602029,-0.366146743298,
1.53058834846,0.0787268280983,0,0.237618176426,0.000368388463776,61,-0.186523810029,-0.363393127918,
1.52966309438,0.0805283114314,0,0.243242304262,0.000366615759287,62,-0.18505077064,-0.360296607018,
1.52874593908,0.0823127925396,0,0.248836360614,0.000364649199581,63,-0.183430552483,-0.356896281242,
1.52783778037,0.0840785354376,0,0.25439469853,0.000362315849282,64,-0.18163202703,-0.353148818016,
1.52693939681,0.0858239308,0,0.259914056088,0.000359035611418,65,-0.179676607251,-0.349077641964,
1.52605157817,0.0875473618507,0,0.265390879226,0.000356254465315,66,-0.1775636971,-0.344686031342,
1.52517510677,0.0892472416162,0,0.270821419486,0.000353182261688,67,-0.175294578075,-0.339977324009,
1.52431073884,0.0909220054746,0,0.276202535101,0.000349961217509,68,-0.172873720527,-0.334952682257,
1.52345928276,0.0925700590014,0,0.281529639584,0.000346443753296,69,-0.170290723443,-0.329610824585,
1.5226214836,0.0941898748279,0,0.286799417431,0.000342710931431,70,-0.167560577393,-0.323963403702,
1.52179807524,0.0957799628377,0,0.292008378291,0.000338750178967,71,-0.164682149887,-0.318018019199,
1.52098975802,0.0973388627172,0,0.297153794664,0.000334613181229,72,-0.161663725972,-0.311781167984,
1.52019731427,0.0988650396466,0,0.302231103867,0.000330128169262,73,-0.158488810062,-0.305234462023,
1.51942142571,0.100357033312,0,0.307238264088,0.000325561032372,74,-0.155177474022,-0.298398256302,
1.51866279642,0.101813443005,0,0.312171476344,0.000320745377155,75,-0.151726588607,-0.291283994913,
1.51792213792,0.103232815862,0,0.317027489634,0.00031572155964,76,-0.148131653666,-0.283873140812,
1.51720013569,0.104613773525,0,0.321802838974,0.000309908597452,77,-0.144400656223,-0.276193261147,
1.51649738202,0.105955034494,0,0.32649595463,0.000304565998188,78,-0.140550866723,-0.268253147602,
1.51581457729,0.107255235314,0,0.331102592076,0.000298945947812,79,-0.136561468244,-0.260039448738,
1.51515230263,0.108513109386,0,0.335621358858,0.000293237129186,80,-0.132454946637,-0.251574218273,
1.51451122487,0.109727330506,0,0.340048656491,0.000287277009792,81,-0.128215000033,-0.242843955755,
1.51389197359,0.110896654427,0,0.344380965319,0.000281107627762,82,-0.123850360513,-0.233865275979,
1.51329512621,0.112019844353,0,0.348616562919,0.000274827220387,83,-0.119370408356,-0.224638223648,
1.51272123779,0.113095782697,0,0.352752672766,0.000268367418817,84,-0.114777877927,-0.215188026428,
1.51217082242,0.114123359323,0,0.356787905213,0.000261817227825,85,-0.110082991421,-0.205515474081,
1.51164449106,0.115101329982,0,0.360719426344,0.000255084203557,86,-0.105265818536,-0.195596039295,
1.51114274288,0.116028696299,0,0.36454463663,0.00024818128181,87,-0.100350432098,-0.185473442078,
1.51066605846,0.11690440774,0,0.368262440373,0.000241208857726,88,-0.0953371673822,-0.175141230226,
1.51021496678,0.117727391422,0,0.371870316889,0.000234072793109,89,-0.0902177765965,-0.164597272873,
1.50978991116,0.118496730924,0,0.375366428805,0.000226817822444,90,-0.0850112140179,-0.153866559267,
1.50939137588,0.119211420417,0,0.378748841451,0.000219437062432,91,-0.0797068029642,-0.14293923974,
1.5090197968,0.119870580733,0,0.382015405282,0.000211917374075,92,-0.0743159204721,-0.131831020117,
1.50867557997,0.120473310351,0,0.385165415475,0.000204352322704,93,-0.0688436925411,-0.120547257364,
1.50835912029,0.12101880461,0,0.388197054174,0.000196669352363,94,-0.0632924288511,-0.109097979963,
1.50807084987,0.121506154537,0,0.391108776957,0.000188629595177,95,-0.0576542131603,-0.0974709689617,
1.50781110773,0.121934629977,0,0.393899644019,0.000180796259443,96,-0.0519493818283,-0.0856951922178,
1.5075802813,0.122303463519,0,0.396567524606,0.000172824116564,97,-0.0461658462882,-0.0737687200308,
1.50737867604,0.12261197716,0,0.3991118882,0.000164819973648,98,-0.040321405977,-0.0617003589869,
1.50720662723,0.122859433293,0,0.401532047866,0.000156032538413,99,-0.0344086587429,-0.049491673708,
1.50706439564,0.123045302927,0,0.403826769179,0.000147903591846,100,-0.0284460633993,-0.0371746122837,
1.50695230166,0.12316891551,0.012316891551,0.405994856617,0.000139492779168,101,-0.0224185399711,-0.0247229672968,
1.50687060604,0.123229719698,0.0,0.408035426158,0.000131285911751,102,-0.0163401197642,-0.0121592786163,
1.50681407104,0.123237863183,0,0.409981061824,0.000125173552617,103,-0.0113073699176,-0.00162911601365,
1.50678843359,0.12318212539,0,0.411797759855,0.00011687458338,104,-0.00512679619715,0.0111468844116,
1.50679382036,0.123062178493,0,0.413486039359,0.000108610394438,105,0.00107806734741,0.023991568014,
1.50683051447,0.122877448797,0,0.415044545426,0.000100147646201,106,0.00733736809343,0.0369432419538,
1.50689860533,0.122627682984,0,0.416473990638,9.18512679781e-05,107,0.0136184832081,0.0499513335526,
1.50699827919,0.122312523425,0,0.417773174033,8.34789298185e-05,108,0.0199344865978,0.0630328804255,
1.50712969998,0.121931582689,0,0.418942182219,7.51127710467e-05,109,0.0262835156173,0.0761875137687,
1.5072929273,0.121484659612,0,0.419981998335,6.68093929451e-05,110,0.032644122839,0.0893853455782,
1.50748809526,0.120971485972,0,0.420891925993,5.84625014197e-05,111,0.0390339046717,0.102633863688,
1.50771530072,0.120391830802,0,0.421672048556,5.01215549861e-05,112,0.0454418919981,0.115932881832,
1.50797458837,0.119745574892,0,0.422322604219,4.17957216683e-05,113,0.0518584400415,0.129251480103,
1.50826597313,0.119032636285,0,0.422844337617,3.35188268236e-05,114,0.0582759156823,0.142586544156,
1.50858950714,0.118252873421,0,0.423237563062,2.5262394774e-05,115,0.0647070929408,0.155953317881,
1.50894516061,0.117406316102,0,0.42350290562,1.70464170604e-05,116,0.0711300596595,0.169310748577,
1.50933299313,0.116492845118,0,0.423640052632,8.81019004133e-06,117,0.0775664448738,0.182694017887,
1.50975290413,0.115512534976,0,0.423651520675,7.36589482926e-07,118,0.0839820057154,0.196061223745,
1.51020491595,0.114465408027,0,0.423536135365,-7.41105664167e-06,119,0.0904019325972,0.209427207708,
1.51068887586,0.113351620734,0,0.423297035708,-1.53567459207e-05,120,0.0967922285199,0.222754836082,
1.51120473171,0.112171322107,0,0.422933786594,-2.33298662873e-05,121,0.10317093879,0.236061483622,
1.51175244252,0.110924571753,0,0.422446947827,-3.12668964677e-05,122,0.109541989863,0.249348342419,
1.51233185182,0.10961163044,0,0.421838151359,-3.90990086376e-05,123,0.115881703794,0.262590676546,
1.51294280688,0.108232729137,0,0.421109360203,-4.680389891e-05,124,0.122190959752,0.275780469179,
1.51358513261,0.106788188219,0,0.420261950197,-5.44209817508e-05,125,0.128465414047,0.288907945156,
1.5142586949,0.105278283358,0,0.419296495551,-6.20009953164e-05,126,0.134711772203,0.301978260279,
1.51496333728,0.103703290224,0,0.418214389582,-6.94913207746e-05,127,0.140928566456,0.314998984337,
1.5156988288,0.102063648403,0,0.417017180188,-7.6877043237e-05,128,0.147098273039,0.327929079533,
1.51646490494,0.100359797478,0,0.415707644768,-8.40883653592e-05,129,0.153215169907,0.340769141912,
1.51726141299,0.0985921025276,0,0.414285630195,-9.13090722992e-05,130,0.159301504493,0.353540569544,
1.51808804373,0.096761032939,0,0.412755083791,-9.82758201456e-05,131,0.165325716138,0.366212159395,
1.51894455502,0.094867117703,0,0.411116552972,-0.000105207576069,132,0.171301782131,0.37878331542,
1.51983066375,0.0929109081626,0,0.40937173649,-0.000112029719114,133,0.17722183466,0.391242742538,
1.52074611286,0.0908928737044,0,0.407522664554,-0.000118721563637,134,0.183088883758,0.403605878353,
1.52169053728,0.0888137146831,0,0.405571697728,-0.000125200815544,135,0.188884988427,0.415830433369,
1.52266362036,0.0866740196943,0,0.403521176622,-0.000131587515625,136,0.194616556168,0.427940279245,
1.52366501937,0.0844744369388,0,0.401373460327,-0.000137822975885,137,0.200279533863,0.439916402102,
1.52469441766,0.0822156146169,0,0.399129949633,-0.000143967148723,138,0.205880239606,0.451765120029,
1.52575137193,0.0798983648419,0,0.396794115119,-0.000149889316877,139,0.211391508579,0.463450223207,
1.52683555807,0.0775233507156,0,0.394367394935,-0.000155636816394,140,0.21683819592,0.475004434586,
1.52794658119,0.075091317296,0,0.391852535356,-0.000161286786513,141,0.222204968333,0.486406624317,
1.52908407623,0.0726030319929,0,0.389250835611,-0.000166852252656,142,0.227499380708,0.49765765667,
1.53024759615,0.0700592920184,0,0.386566134706,-0.000172163531917,143,0.232704088092,0.50874710083,
1.53143668274,0.0674610286951,0,0.38380057021,-0.000177344755639,144,0.2378167063,0.519652962685,
1.53265091504,0.0648090317845,0,0.380957139462,-0.00018233404144,145,0.242847070098,0.530399620533,
1.53388980875,0.062104254961,0,0.378038584504,-0.000187146567816,146,0.247778594494,0.540956437588,
1.53515294293,0.0593475475907,0,0.375046962887,-0.00019182916111,147,0.252627074718,0.551340997219,
1.53643983329,0.0565398074687,0,0.371985895162,-0.000196279459419,148,0.257378280163,0.561548888683,
1.53774997319,0.0536820665002,0,0.368857710681,-0.000200579318018,149,0.262028932571,0.571548581123,
1.53908293793,0.0507751852274,0,0.365664425816,-0.000204750048209,150,0.266592532396,0.581376314163,
1.54043815757,0.0478202290833,0,0.362410167147,-0.000208639834881,151,0.271043688059,0.590991854668,
1.54181513476,0.0448181666434,0,0.359097917345,-0.00021235431899,152,0.275395601988,0.600412249565,
1.54321332375,0.0417701005936,0,0.355730325753,-0.000215898770196,153,0.279637783766,0.609613418579,
1.54463224398,0.0386769920588,0,0.352309875287,-0.000219284399064,154,0.283784329891,0.618621826172,
1.54607131618,0.035539932549,0,0.348840621993,-0.00022240957748,155,0.287814408541,0.627412676811,
1.54753001879,0.0323599800467,0,0.345325027901,-0.000225367114066,156,0.291740745306,0.635990262032,
1.54900781164,0.0291382223368,0,0.341765769475,-0.000228162531491,157,0.295558393002,0.644351541996,
1.55050408008,0.0258758123964,0,0.338167233592,-0.000230677057921,158,0.299253731966,0.652481913567,
1.55201834726,0.0225737486035,0,0.334531176751,-0.000233078942509,159,0.302853673697,0.660413146019,
1.55354997056,0.0192332584411,0,0.330861838054,-0.000235209194674,160,0.306324720383,0.668098330498,
1.55509842286,0.0158554166555,0,0.32716161812,-0.000237185404498,161,0.309690326452,0.675568580627,
1.55666311743,0.0124414013699,0,0.323433479127,-0.000238971789957,162,0.312938988209,0.682802975178,
1.55824348616,0.00899231061339,0,0.319680959753,-0.000240528882839,163,0.316073775291,0.689818382263,
1.55983891344,0.00550936022773,0,0.315907488086,-0.000241868381624,164,0.31908556819,0.696590304375,
1.56144883397,0.00199367827736,0,0.312116026091,-0.000243018057906,165,0.321984171867,0.703136622906,
1.5630726298,-0.00155353546143,0,0.308310339486,-0.000243926423826,166,0.324759274721,0.709435760975,
1.56470970583,-0.00513124465942,0,0.304495929148,-0.000244481861026,167,0.327415198088,0.715505719185,
1.56635951071,-0.00873804092407,0,0.300670827199,-0.000245163859498,168,0.329961061478,0.721352815628,
1.56802144792,-0.0123729705811,0,0.296841886535,-0.000245406599827,169,0.332387536764,0.726956725121,
1.56969488791,-0.0160341262817,0,0.293002155946,-0.000246094828332,170,0.334688097239,0.732315659523,
1.57137949864,-0.0197215080261,0,0.28916378614,-0.000246004255497,171,0.336868226528,0.737437605858,
1.5730741779,-0.0234332084656,0,0.285337193493,-0.000245246046515,172,0.338937193155,0.742330670357,
1.5747783939,-0.0271682739258,0,0.2815268496,-0.000244201291681,173,0.340886682272,0.746989607811,
1.57649214665,-0.0309252738953,0,0.277710176914,-0.000244602741472,174,0.342709839344,0.75139772892,
1.57821400563,-0.0347027778625,0,0.27391716274,-0.000243083078079,175,0.344416499138,0.755574047565,
1.57994397084,-0.0385007858276,0,0.270147751663,-0.000241567181222,176,0.346009463072,0.759524285793,
1.58168156544,-0.0423169136047,0,0.266381873252,-0.000241337498745,177,0.347484230995,0.763238668442,
1.58342583577,-0.0461502075195,0,0.262639498926,-0.000239827952363,178,0.348837792873,0.766708552837,
1.58517630497,-0.0500001907349,0,0.258930584154,-0.00023768005479,179,0.350086152554,0.76996243,
1.58693249623,-0.0538649559021,0,0.255242566908,-0.000236337689112,180,0.351207494736,0.772973895073,
1.58869345585,-0.0577435493469,0,0.251595413877,-0.000233715885172,181,0.352214127779,0.775753259659,
1.59045870701,-0.0616354942322,0,0.247999075757,-0.000230456483002,182,0.353119134903,0.778331875801,
1.59222824971,-0.0655388832092,0,0.244423476878,-0.000229124493012,183,0.353908330202,0.780675768852,
1.5940016071,-0.0694527626038,0,0.240871068216,-0.000227635275388,184,0.354585677385,0.782796323299,
1.59577734868,-0.0733761787415,0,0.237379324324,-0.000223744949567,185,0.355144888163,0.784678637981,
1.5975549976,-0.077308177948,0,0.233950688398,-0.000219697944745,186,0.355601727962,0.786360263824,
1.59933503071,-0.0812473297119,0,0.230545084474,-0.000218219118977,187,0.355952978134,0.787829875946,
1.6011160175,-0.0851926803589,0,0.227199980729,-0.000214339402587,188,0.356198579073,0.78908932209,
1.60289748112,-0.0891432762146,0,0.223917821047,-0.000210303304685,189,0.356346338987,0.790144562721,
1.60467942158,-0.0930981636047,0,0.220683543895,-0.00020723227742,190,0.356399178505,0.791006803513,
1.60646136204,-0.097056388855,0,0.217499596895,-0.000204004651822,191,0.356344372034,0.791660428047,
1.60824234883,-0.101016998291,0,0.214385929187,-0.000199498244148,192,0.356188118458,0.792113542557,
1.6100219051,-0.104979038239,0,0.2113449831,-0.000194835973377,193,0.355936974287,0.792368590832,
1.61180003087,-0.108941078186,0,0.208354209711,-0.00019161867818,194,0.355599224567,0.792454481125,
1.61357577244,-0.112903118134,0,0.205448539306,-0.000186163625306,195,0.355155140162,0.792333781719,
1.61534912983,-0.116863250732,0,0.202597934776,-0.000182632883266,196,0.354637503624,0.792046904564,
1.61711914937,-0.120820999146,0,0.199829828738,-0.000177345139034,197,0.354022145271,0.791582524776,
1.61888583104,-0.124775886536,0,0.197136660807,-0.000172541677397,198,0.353331536055,0.790955543518,
1.62064869801,-0.128726482391,0,0.194513388312,-0.000168056386278,199,0.352563887835,0.790165841579,
1.62240727345,-0.132672786713,0,0.191977430607,-0.000162451867655,200,0.351702302694,0.789195358753,
1.62416108052,-0.136612892151,0,0.189516260056,-0.000157658924307,201,0.350772440434,0.788085818291,
1.62590964238,-0.140547275543,0,0.1871547742,-0.000151271116173,202,0.349758088589,0.786816000938,
1.62765295903,-0.144474506378,0,0.18487044994,-0.000146325952369,203,0.34868812561,0.785418272018,
1.62939103047,-0.148393630981,0,0.182648259852,-0.000142343944363,204,0.347535282373,0.783875703812,
1.63112242619,-0.152304649353,0,0.180540565644,-0.000134997367988,205,0.346321821213,0.78219294548,
1.63284762303,-0.156206607819,0,0.178514858736,-0.000129742559105,206,0.345050305128,0.780383527279,
1.63456614415,-0.160098552704,0,0.176573589021,-0.000124331307625,207,0.343713492155,0.778448343277,
1.63627798955,-0.163980960846,0,0.174724162842,-0.0001184468972,208,0.342311799526,0.776402831078,
1.63798220555,-0.167851924896,0,0.172971544718,-0.000112245156678,209,0.340864390135,0.774245381355,
1.63967879216,-0.171711921692,0,0.171323133989,-0.000105569907818,210,0.339355409145,0.771972715855,
1.64136774937,-0.175559997559,0,0.169763915875,-9.98559684284e-05,211,0.337808042765,0.769610881805,
1.64304907719,-0.179395675659,0,0.168286355369,-9.46251780748e-05,212,0.336211919785,0.767159342766,
1.64472182194,-0.183218955994,0,0.166925292368,-8.71632436846e-05,213,0.334572076797,0.764602780342,
1.64638646046,-0.187028884888,0,0.165648269202,-8.17802257636e-05,214,0.332895427942,0.761979818344,
1.64804203908,-0.190824985504,0,0.164482652215,-7.46447302485e-05,215,0.331177979708,0.759279310703,
1.64968951146,-0.19460773468,0,0.163400940111,-6.92706807841e-05,216,0.329431414604,0.756508469582,
1.6513274471,-0.198376178741,0,0.162440470577,-6.15057589764e-05,217,0.327650517225,0.753687500954,
1.65295679966,-0.202129840851,0,0.161558833683,-5.64566795055e-05,218,0.325849741697,0.750803232193,
1.65457709233,-0.205869197845,0,0.160780859292,-4.98178892263e-05,219,0.32401701808,0.74785900116,
1.65618784825,-0.209593772888,0,0.160116451514,-4.25449713814e-05,220,0.322168529034,0.744883179665,
1.65778954426,-0.213303089142,0,0.159540656332,-3.68701632594e-05,221,0.320300281048,0.741871237755,
1.6593812267,-0.216997146606,0,0.159088257173,-2.89650970888e-05,222,0.318417817354,0.738824546337,
1.66096384923,-0.220675945282,0,0.158724332928,-2.32999242094e-05,223,0.316522747278,0.735746860504,
1.66253693501,-0.224339485168,0,0.158466237025,-1.652410009e-05,224,0.314621835947,0.732662558556,
1.66410048405,-0.227987289429,0,0.15830645436,-1.02295859739e-05,225,0.312710613012,0.72956264019,
1.66565449635,-0.231619358063,0,0.158244918077,-3.93960802426e-06,226,0.310804754496,0.726456642151,
1.66719897191,-0.235236167908,0,0.158288999173,2.82206914862e-06,227,0.308893054724,0.723349392414,
1.66873391072,-0.238837242126,0,0.158431188421,9.10281458348e-06,228,0.306993335485,0.720257163048,
1.67025978962,-0.242423057556,0,0.158661454653,1.47411425925e-05,229,0.305104255676,0.717174708843,
1.67177565495,-0.245993614197,0,0.159014523209,2.26023067069e-05,230,0.303213357925,0.714106857777,
1.67328246037,-0.249549388885,0,0.159462957858,2.87066509612e-05,231,0.301344096661,0.711073517799,
1.67477972905,-0.253089427948,0,0.160009221943,3.49684253052e-05,232,0.299488335848,0.708072066307,
1.67626793782,-0.256615161896,0,0.160658139564,4.15390855278e-05,233,0.297654926777,0.705101311207,
1.67774756352,-0.260126113892,0,0.161384833692,4.65169215446e-05,234,0.295841753483,0.702181339264,
1.67921765248,-0.263622283936,0,0.162223996241,5.37149775706e-05,235,0.294052898884,0.699307799339,
1.68067915837,-0.267105102539,0,0.163163057473,6.01082371512e-05,236,0.292291671038,0.696486949921,
1.68213208119,-0.270573616028,0,0.164187108493,6.5547267072e-05,237,0.290568202734,0.693730413914,
1.68357642094,-0.274028778076,0,0.165310910627,7.19311766035e-05,238,0.288873940706,0.691049039364,
1.68501217762,-0.277471065521,0,0.166541795617,7.87838484459e-05,239,0.287220537663,0.688426315784,
1.68644030491,-0.280900478363,0,0.167844968324,8.34095623989e-05,240,0.285604894161,0.6858933568,
1.68786032597,-0.284317493439,0,0.169245123173,8.96154394836e-05,241,0.284028172493,0.683433532715,
1.68927319447,-0.287723064423,0,0.170722292245,9.45431296645e-05,242,0.282495826483,0.681066215038,
1.69067795674,-0.291116714478,0,0.172303688122,0.000101212173431,243,0.281017005444,0.678796768188,
1.69207604329,-0.294499874115,0,0.17395940184,0.000105966589388,244,0.279588162899,0.676631510258,
1.69346697728,-0.297873020172,0,0.175714088346,0.000112296089111,245,0.278203845024,0.67456895113,
1.69485171238,-0.301236152649,0,0.177532994638,0.000116404361076,246,0.276881188154,0.672611773014,
1.69622977177,-0.304589748383,0,0.179440766809,0.000122089456849,247,0.275617778301,0.670767307281,
1.69760163228,-0.307935237885,0,0.18144215657,0.000128048781986,248,0.274402201176,0.669053554535,
1.69896777073,-0.311272144318,0,0.18351236234,0.000132449164845,249,0.273256719112,0.667454838753,
1.70032866398,-0.314602375031,0,0.185663520421,0.000137626358714,250,0.272172123194,0.665977537632,
1.70168431202,-0.317925453186,0,0.187888152423,0.00014232467524,251,0.271164238453,0.664640903473,
1.70303566853,-0.321242809296,0,0.190173691119,0.000146218977875,252,0.270214915276,0.66344332695,
1.70438225667,-0.324554443359,0,0.192537345243,0.000151214168178,253,0.269337922335,0.662384152412,
1.7057250301,-0.327861785889,0,0.194966537084,0.000155404873323,254,0.268534988165,0.66148018837,
1.70706398884,-0.331165313721,0,0.197468533049,0.000160060212387,255,0.267810225487,0.660714924335,
1.70839960972,-0.33446598053,0,0.2000406686,0.000164545011022,256,0.26714771986,0.660103797913,
1.70973284642,-0.337764263153,0,0.202655632723,0.000167282498556,257,0.266576349735,0.659645855427,
1.71106322209,-0.341061115265,0,0.20534532305,0.00017206031765,258,0.266075134277,0.659343183041,
1.71239121357,-0.344357013702,0,0.208099698046,0.000176195632197,259,0.265655219555,0.659213662148,
1.71371777455,-0.347653388977,0,0.210906164507,0.000179525331543,260,0.265322208405,0.659241855145,
1.71504338185,-0.350950717926,0,0.213754690614,0.000182213404723,261,0.265065938234,0.659449696541,
1.71636755864,-0.354249477386,0,0.216669761085,0.000186467466681,262,0.264900803566,0.659824728966,
1.71769173543,-0.357551574707,0,0.219628860195,0.000189281068845,263,0.264815479517,0.660366415977,
1.71901591221,-0.360857009888,0,0.222631852052,0.000192085308,264,0.264828294516,0.661098480225,
1.72034056584,-0.36416721344,0,0.225683373423,0.00019518659254,265,0.264925271273,0.662005603313,
1.72166617314,-0.367482662201,0,0.228773372802,0.000197644760677,266,0.265104264021,0.663084983826,
1.72299321095,-0.370804309845,0,0.231899136549,0.000199929672613,267,0.265381217003,0.664350271225,
1.72432167927,-0.374133110046,0,0.235075168519,0.000203142026764,268,0.265754163265,0.665813446045,
1.72565300862,-0.377470493317,0,0.238271613483,0.000204444574416,269,0.266211777925,0.667457222939,
1.72698672215,-0.380816936493,0,0.241512848715,0.000207306518404,270,0.266765505075,0.669285714626,
1.72832377354,-0.38417339325,0,0.244778909259,0.000208891546413,271,0.26740860939,0.671301186085,
1.72966463963,-0.387541294098,0,0.248074361575,0.000210768591195,272,0.268148392439,0.673519730568,
1.73100932042,-0.390920639038,0,0.251399013703,0.000212633099687,273,0.268982261419,0.675917267799,
1.73235876957,-0.394313335419,0,0.254747520222,0.000214155585738,274,0.269910663366,0.678519964218,
1.73371346394,-0.397719860077,0,0.258109794956,0.000215032640199,275,0.270934253931,0.681319594383,
1.73507388035,-0.401141643524,0,0.261490358839,0.000216199292189,276,0.272054195404,0.684297561646,
1.73644049565,-0.40457868576,0,0.264871819392,0.000216253490873,277,0.273269295692,0.687487363815,
1.73781330983,-0.408032894135,0,0.268283144857,0.000218160639945,278,0.274577319622,0.690864264965,
1.73919327656,-0.411505222321,0,0.2717043394,0.000218788518798,279,0.275987952948,0.694442152977,
1.74058039586,-0.414996147156,0,0.275142446777,0.000219867247768,280,0.27748888731,0.698203206062,
1.74197609822,-0.418507099152,0,0.278567608427,0.000219036426217,281,0.279082328081,0.702171444893,
1.74337990681,-0.422039031982,0,0.282011283243,0.000220194410527,282,0.280774623156,0.706323027611,
1.74479277531,-0.425592422485,0,0.285446187166,0.000219629632884,283,0.282571673393,0.710691213608,
1.74621470372,-0.429168701172,0,0.288893866153,0.000220443740879,284,0.284450739622,0.715239286423,
1.74764712254,-0.432768344879,0,0.292309912988,0.000218415628517,285,0.286417663097,0.719977080822,
1.74908955494,-0.436392784119,0,0.295732967372,0.000218860979165,286,0.288488268852,0.7249096632,
1.75054247777,-0.440042972565,0,0.299160111374,0.000219119840196,287,0.290651410818,0.730043530464,
1.75200732152,-0.443719863892,0,0.302554210054,0.000217004448544,288,0.29290241003,0.73534989357,
1.75348360936,-0.447424411774,0,0.305946554416,0.000216889693329,289,0.295251131058,0.740861296654,
1.75497181813,-0.451157093048,0,0.309326946249,0.000216122931354,290,0.297686129808,0.746550321579,
1.7564729015,-0.454919338226,0,0.31268259059,0.000214538178204,291,0.300203949213,0.752422630787,
1.75798685948,-0.458711624146,0,0.316020368224,0.000213393370355,292,0.302814781666,0.758472144604,
1.75951464573,-0.46253490448,0,0.319320233692,0.000210966996842,293,0.305517941713,0.764721989632,
1.76105626027,-0.466390609741,0,0.322603501422,0.000209903391016,294,0.308298110962,0.771136701107,
1.76261170308,-0.470279216766,0,0.325876980874,0.000209275142483,295,0.311169505119,0.777735948563,
1.76418240468,-0.474202156067,0,0.329110758142,0.00020673453765,296,0.3141258955,0.784505605698,
1.76576836506,-0.478159427643,0,0.332304419975,0.000204167562551,297,0.317159563303,0.791454136372,
1.76736958424,-0.482151985168,0,0.335471958357,0.000202495125243,298,0.320276588202,0.798545598984,
1.76898701588,-0.486181259155,0,0.338600481425,0.000199997325545,299,0.323467075825,0.805827856064,
1.77062065999,-0.490247249603,0,0.341689527365,0.000197470650488,300,0.326744347811,0.813264787197,
1.77227099339,-0.494351863861,0,0.344750386616,0.000195666116183,301,0.330088675022,0.820865035057,
1.77393896977,-0.498494625092,0,0.347741372792,0.000191196317631,302,0.333514809608,0.828612983227,
1.77562363545,-0.502677440643,0,0.35072471594,0.000190704047034,303,0.337008446455,0.836526751518,
1.77732642094,-0.506900310516,0,0.353648908169,0.000186919855347,304,0.340570122004,0.84458220005,
1.77904780308,-0.511164188385,0,0.356510808479,0.000182935873638,305,0.344207823277,0.852789878845,
1.78078730504,-0.515470027924,0,0.359341170986,0.000180917162503,306,0.347904354334,0.86113524437,
1.78254540364,-0.519817829132,0,0.36212244957,0.000177691783921,307,0.351663023233,0.869614958763,
1.78432305256,-0.524209022522,0,0.364841641081,0.000173715483302,308,0.355493724346,0.878232121468,
1.78611977498,-0.52864408493,0,0.367522230101,0.000171247137074,309,0.359382271767,0.886983573437,
1.78793652455,-0.533123493195,0,0.370136875666,0.000167032182621,310,0.363333284855,0.89587110281,
1.78977330128,-0.537647724152,0,0.372692095009,0.000163233712344,311,0.367336601019,0.904859900475,
1.79163010518,-0.542217731476,0,0.375201494946,0.000160304509766,312,0.371390938759,0.913979709148,
1.79350788991,-0.546833515167,0,0.377630609818,0.000155173816218,313,0.375500589609,0.923212051392,
1.79540617863,-0.551496505737,0,0.380017009206,0.000152442822035,314,0.379662662745,0.932545423508,
1.79732544819,-0.556206703186,0,0.382343082707,0.000148587354566,315,0.383873075247,0.942002058029,
1.79926617543,-0.560964107513,0,0.384591251004,0.000143608894732,316,0.388122946024,0.951549291611,
1.8012278835,-0.565770149231,0,0.386798924869,0.000141020300453,317,0.392408639193,0.961192727089,
1.80321200291,-0.570624828339,0,0.388914800571,0.000135154666534,318,0.396742373705,0.970915555954,
1.80521758,-0.575528621674,0,0.390978865094,0.000131843361458,319,0.401118129492,0.980746269226,
1.8072450916,-0.580482006073,0,0.392980552077,0.000127857306534,320,0.405517756939,0.990648508072,
1.80929501454,-0.585484981537,0,0.394902236624,0.000122745532734,321,0.40996041894,1.00062561035,
1.81136687199,-0.59053850174,0,0.396773999445,0.000119554968125,322,0.414435446262,1.01067137718,
1.81346161763,-0.595642089844,0,0.398554350573,0.000113714661051,323,0.418927311897,1.02078902721,
1.81557877461,-0.600797176361,0,0.400280339098,0.000110240784521,324,0.423451691866,1.03096306324,
1.81771881978,-0.606003284454,0,0.401927244102,0.000105188230993,325,0.427997469902,1.04120659828,
1.81988175313,-0.611260414124,0,0.403494164574,0.000100078292437,326,0.43256047368,1.05149269104,
1.82206757466,-0.61656999588,0,0.405001228076,9.62531832087e-05,327,0.437143921852,1.0618429184,
1.82427628438,-0.621930599213,0,0.406426407861,9.10220514186e-05,328,0.441737800837,1.07221257687,
1.82650788228,-0.62734413147,0,0.407796745101,8.75182166409e-05,329,0.446347981691,1.08262646198,
1.8287628452,-0.63280916214,0,0.409073532492,8.15424819182e-05,330,0.450962007046,1.09307026863,
1.8310406963,-0.638327121735,0,0.410293400528,7.79062836266e-05,331,0.455588698387,1.10354328156,
1.83334191243,-0.64389705658,0,0.411424659199,7.22424768858e-05,332,0.460224270821,1.11404395103,
1.83566601674,-0.649519920349,0,0.412496830993,6.84680888215e-05,333,0.464850693941,1.12455165386,
1.83801348607,-0.655195236206,0,0.413485207533,6.31160816767e-05,334,0.469476252794,1.13507723808,
1.84038384358,-0.660923480988,0,0.414412235202,5.9197641298e-05,335,0.47410172224,1.14559733868,
1.84277756611,-0.666704177856,0,0.41525321703,5.3702238381e-05,336,0.478723078966,1.1561435461,
1.84519417683,-0.672537326813,0,0.41602358669,4.91925125361e-05,337,0.483338266611,1.1666687727,
1.84763367573,-0.678423404694,0,0.41672906019,4.5047899998e-05,338,0.487946927547,1.17719948292,
1.85009653966,-0.684361934662,0,0.417344959301,3.93276312946e-05,339,0.492531955242,1.1876950264,
1.85258181492,-0.690352916718,0,0.417903119149,3.56403182931e-05,340,0.497097492218,1.19818091393,
1.85509045521,-0.696396350861,0,0.418369242711,2.97631401232e-05,341,0.501655757427,1.20866203308,
1.85762103001,-0.702491760254,0,0.41878465858,2.65249905368e-05,342,0.506182730198,1.21909201145,
1.86017449299,-0.708639144897,0,0.419115076167,2.10974065744e-05,343,0.510698437691,1.22950220108,
1.86275036732,-0.714838504791,0,0.41937564433,1.66372939714e-05,344,0.515178024769,1.23987913132,
1.865348653,-0.721089363098,0,0.419558159169,1.16534670825e-05,345,0.519627809525,1.25020873547,
1.86796887318,-0.727392196655,0,0.419684492239,8.06621214959e-06,346,0.52406090498,1.26050186157,
1.87061102788,-0.733745574951,0,0.419732731291,3.07997001877e-06,347,0.528438985348,1.27072679996,
1.87327511708,-0.74015045166,0,0.419715092851,-1.12616441473e-06,348,0.532816469669,1.2809214592,
1.87596114079,-0.746605396271,0,0.419609724094,-6.72740096095e-06,349,0.537131488323,1.29104661942,
1.87866814534,-0.75311088562,0,0.419454648254,-9.90088131834e-06,350,0.541413366795,1.30110502243,
1.88139613072,-0.759666442871,0,0.419241520709,-1.36070352378e-05,351,0.545658349991,1.31109058857,
1.88414557377,-0.766271591187,0,0.418945742047,-1.88836076138e-05,352,0.54984909296,1.32102608681,
1.88691552083,-0.772925853729,0,0.41859159691,-2.26096449606e-05,353,0.554012656212,1.33086788654,
1.88970597188,-0.779629230499,0,0.418177481159,-2.64379965928e-05,354,0.558111965656,1.34064269066,
1.89251692692,-0.786380767822,0,0.417688337327,-3.12275292316e-05,355,0.562171041965,1.3503305912,
1.89534790913,-0.793180465698,0,0.417138781801,-3.50838350049e-05,356,0.566173911095,1.35994076729,
1.89819844166,-0.80002784729,0,0.416536629525,-3.84411227051e-05,357,0.570136666298,1.36946570873,
1.90106852452,-0.806921958923,0,0.41586681397,-4.27601302053e-05,358,0.574031412601,1.37888407707,
1.9039581577,-0.813863277435,0,0.415134331053,-4.67600760078e-05,359,0.577865481377,1.38820981979,
1.90686638752,-0.820850372314,0,0.41434971229,-5.00876133894e-05,360,0.581655681133,1.39744591713,
1.909793214,-0.827883243561,0,0.413511186208,-5.35282132724e-05,361,0.58538711071,1.40658450127,
1.91273863713,-0.834961414337,0,0.412610338797,-5.7505785138e-05,362,0.589049339294,1.4155973196,
1.91570170323,-0.842083930969,0,0.411664237098,-6.03937317532e-05,363,0.592656910419,1.42452549934,
1.91868288914,-0.849250793457,0,0.410655014098,-6.44220820261e-05,364,0.59618639946,1.43333363533,
1.92168124119,-0.856460571289,0,0.409593087421,-6.77853885613e-05,365,0.59967559576,1.44203710556,
1.92469675938,-0.863713741302,0,0.40848315155,-7.0848956664e-05,366,0.603083312511,1.45061278343,
1.92772849003,-0.871009349823,0,0.407342037087,-7.28381651079e-05,367,0.606420814991,1.45908248425,
1.93077738682,-0.878346443176,0,0.406122879625,-7.78183531867e-05,368,0.609705626965,1.46742963791,
1.9338415424,-0.885724544525,0,0.404880846976,-7.92776150566e-05,369,0.612911522388,1.47566139698,
1.93692191044,-0.89314365387,0,0.403582156715,-8.28929462612e-05,370,0.616040706635,1.4837692976,
1.94001753727,-0.900602340698,0,0.402237046676,-8.58549519143e-05,371,0.619110882282,1.49174141884,
1.94312794606,-0.908100128174,0,0.400852835106,-8.83498060075e-05,372,0.622102737427,1.49960625172,
1.94625313679,-0.915637016296,0,0.399427451191,-9.09767741258e-05,373,0.625007629395,1.50731372833,
1.94939263264,-0.923211574554,0,0.397955252907,-9.39638114339e-05,374,0.627864658833,1.51492714882,
1.95254547993,-0.930823326111,0,0.396459173626,-9.54870822051e-05,375,0.630629181862,1.52238869667,
1.9557121555,-0.938471794128,0,0.394914945864,-9.84660487036e-05,376,0.633313834667,1.52970921993,
1.95889170567,-0.94615650177,0,0.393345381764,-0.000100079792267,377,0.635946571827,1.53692388535,
1.96208413044,-0.953876495361,0,0.391735525648,-0.00010264765867,378,0.638487994671,1.54400706291,
1.96528895299,-0.961631298065,0,0.390092451422,-0.000104764469347,379,0.640962600708,1.5509250164,
1.96850569645,-0.969419956207,0,0.388416839873,-0.000106837825406,380,0.643349289894,1.55774116516,
1.97173436085,-0.97724199295,0,0.386700148472,-0.000109455855686,381,0.645655810833,1.56440615654,
1.97497351567,-0.98509645462,0,0.384974058972,-0.000110053599866,382,0.647888600826,1.57092809677,
1.97822411458,-0.992983341217,0,0.383205248665,-0.000112775894838,383,0.650056958199,1.57733654976,
1.98148472706,-1.00090122223,0,0.381419006772,-0.000113885674746,384,0.652131974697,1.58357620239,
1.98475535313,-1.00884962082,0,0.379606714858,-0.000115545128655,385,0.6541249156,1.58970534801,
1.98803551594,-1.01682806015,0,0.377775159162,-0.000116771922747,386,0.656053781509,1.59569358826,
1.99132473866,-1.02483558655,0,0.375924864045,-0.000117965015621,387,0.657891988754,1.60153031349,
1.99462349812,-1.03287220001,0,0.37403809658,-0.000120288711987,388,0.659663259983,1.60723924637,
1.99792988698,-1.04093599319,0,0.372148940798,-0.000120439400302,389,0.66134750843,1.61281776428,
2.0012448589,-1.04902744293,0,0.370230513898,-0.000122304005368,390,0.662966549397,1.61825358868,
2.00456746022,-1.05714511871,0,0.368292443179,-0.000123554722558,391,0.664488554001,1.62355184555,
2.00789721409,-1.06528902054,0,0.366347381742,-0.000123998737452,392,0.665964007378,1.62873268127,
2.01123364369,-1.0734577179,0,0.364389647712,-0.000124804982179,393,0.667331874371,1.63375818729,
2.01457674901,-1.08165073395,0,0.362410635031,-0.000126159715342,394,0.668629586697,1.63865566254,
2.0179260532,-1.0898680687,0,0.360422849492,-0.00012671758242,395,0.669865071774,1.64342665672,
2.02128107945,-1.09810829163,0,0.358420655183,-0.000127634510226,396,0.671012699604,1.64806115627,
2.0246413509,-1.1063709259,0,0.356410441397,-0.000128144004595,397,0.672068536282,1.65256083012,
2.02800686757,-1.11465597153,0,0.354389526178,-0.000128824592149,398,0.673077464104,1.6569596529,
2.03137667576,-1.12296199799,0,0.352367218109,-0.000128886304646,399,0.673997402191,1.66118431091,
2.03475125233,-1.13128852844,0,0.350320005098,-0.000130471227687,400,0.674836993217,1.66531157494,
2.03812916676,-1.13963460922,0,0.34827798035,-0.000130138491733,401,0.675613105297,1.66929864883,
2.04151089589,-1.14800071716,0,0.34622938459,-0.000130533448451,402,0.676310539246,1.67316973209,
2.04489548604,-1.15638494492,0,0.344177561774,-0.000130737005399,403,0.676939129829,1.67691242695,
2.04828293721,-1.16478776932,0,0.342125522872,-0.000130727665767,404,0.67749530077,1.68051791191,
2.05167277257,-1.17320775986,0,0.340067691406,-0.00013109466673,405,0.677973210812,1.68403339386,
2.05506451527,-1.18164491653,0,0.338015864852,-0.000130703184564,406,0.678382277489,1.68738460541,
2.05845816533,-1.19009780884,0,0.33594987831,-0.000131594874683,407,0.678712964058,1.69065308571,
2.06185324589,-1.1985669136,0,0.333887204162,-0.000131382031363,408,0.678988158703,1.69378209114,
2.0652488033,-1.20705080032,0,0.331836793807,-0.000130598939555,409,0.679186940193,1.69681835175,
2.06864579121,-1.21554946899,0,0.329766693137,-0.000131850937018,410,0.679328918457,1.69972681999,
2.07204277913,-1.22406196594,0,0.32770605996,-0.000131245882565,411,0.679388344288,1.70251917839,
2.0754392902,-1.23258829117,0,0.325666199615,-0.000129870514557,412,0.679397463799,1.70521819592,
2.07883627812,-1.24112701416,0,0.32359849048,-0.000131640743193,413,0.67932498455,1.70778989792,
2.08223183552,-1.24967813492,0,0.321557323624,-0.000129949216097,414,0.679191708565,1.7102547884,
2.08562691609,-1.25824117661,0,0.319505389314,-0.000130625701569,415,0.678985714912,1.71261036396,
2.08902056614,-1.26681566238,0,0.317462606079,-0.000130034359627,416,0.678724765778,1.71488201618,
2.09241278569,-1.27540063858,0,0.315414837639,-0.000130349133199,417,0.678397476673,1.7170317173,
2.09580262105,-1.28399610519,0,0.313387263117,-0.000129061927149,418,0.678021550179,1.71909034252,
2.09919054905,-1.29260158539,0,0.311357055768,-0.000129227767057,419,0.677565872669,1.7210252285,
2.10257561604,-1.30121612549,0,0.309338331344,-0.000128495146756,420,0.677056014538,1.72290015221,
2.10595829884,-1.30983924866,0,0.307308470524,-0.000129202319208,421,0.676487743855,1.7246658802,
2.10933764378,-1.3184709549,0,0.305292267795,-0.000128331304135,422,0.67586016655,1.726313591,
2.11271317402,-1.32711029053,0,0.303289621736,-0.000127466763548,423,0.675172030926,1.72789788246,
2.11608536641,-1.33575725555,0,0.30128332707,-0.000127697343344,424,0.674424350262,1.72936701775,
2.11945374409,-1.3444108963,0,0.299273426877,-0.00012792504638,425,0.673621177673,1.73076283932,
2.12281735341,-1.35307121277,0,0.297284193355,-0.000126608004116,426,0.672765254974,1.73207759857,
2.12617667119,-1.36173772812,0,0.295293189954,-0.000126719005791,427,0.671858131886,1.73328733444,
2.12953122059,-1.37040948868,0,0.293300409973,-0.000126830389497,428,0.670867443085,1.73441433907,
2.13288052479,-1.37908697128,0,0.291321291888,-0.000125959164562,429,0.669851660728,1.73546433449,
2.13622410695,-1.38776922226,0,0.289355616862,-0.000125101822842,430,0.668777287006,1.73644113541,
2.13956244389,-1.39645576477,0,0.287381235056,-0.000125654366571,431,0.66764909029,1.73732352257,
2.14289505879,-1.40514659882,0,0.285408278364,-0.000125562014833,432,0.666467964649,1.73812556267,
2.14622099797,-1.41384077072,0,0.283450048336,-0.000124623098146,433,0.665223300457,1.7388625145,
2.14954073826,-1.42253828049,0,0.281489542116,-0.000124766363919,434,0.66395175457,1.73950946331,
2.15285380284,-1.43123865128,0,0.279531621723,-0.000124600076153,435,0.662616550922,1.74009180069,
2.15615971486,-1.43994188309,0,0.277585988949,-0.000123816439872,436,0.661235570908,1.74060368538,
2.15945895115,-1.44864654541,0,0.275620975179,-0.00012504809171,437,0.659795582294,1.74103116989,
2.16275055806,-1.45735406876,0,0.273674211587,-0.000123885088778,438,0.658316910267,1.74141669273,
2.16603405873,-1.46606206894,0,0.271730712569,-0.000123675734107,439,0.656780481339,1.74169707298,
2.16931040684,-1.47477197647,0,0.269775113814,-0.00012444386923,440,0.655207812786,1.74192023277,
2.17257817189,-1.48348236084,0,0.267828554337,-0.000123866972422,441,0.653590619564,1.74208688736,
2.1758378307,-1.49219322205,0,0.265874247308,-0.000124358482742,442,0.651909649372,1.74217629433,
2.17908890645,-1.50090408325,0,0.26391673746,-0.000124560657376,443,0.650197684765,1.7422015667,
2.18233092228,-1.50961494446,0,0.2619651598,-0.00012418155378,444,0.648429334164,1.74216103554,
2.18556435505,-1.51832532883,0,0.259998128149,-0.000125163250268,445,0.646622657776,1.74208271503,
2.18878825108,-1.52703523636,0,0.258037518916,-0.000124752840155,446,0.644782304764,1.74190282822,
2.19200261036,-1.53574371338,0,0.256070169414,-0.000125179959869,447,0.642884552479,1.74169063568,
2.1952074329,-1.54445028305,0,0.254087713273,-0.000126139391388,448,0.640936076641,1.74139809608,
2.19840224186,-1.55315589905,0,0.252108074599,-0.000125958442619,449,0.638974070549,1.74107849598,
2.20158656041,-1.56185913086,0,0.250126275371,-0.000126094296102,450,0.636943221092,1.74067628384,
2.20476134221,-1.57056045532,0,0.248117760973,-0.000127791802474,451,0.634881019592,1.7402228117,
2.20792467991,-1.57925891876,0,0.246119792197,-0.000127119086743,452,0.632754147053,1.73970890045,
2.21107800404,-1.58795452118,0,0.24409092282,-0.000129083239513,453,0.630614697933,1.73914670944,
2.21421988408,-1.59664678574,0,0.242060138482,-0.000129203265085,454,0.628399312496,1.73850345612,
2.21735079686,-1.60533618927,0,0.240015316944,-0.000130094535958,455,0.626163601875,1.73784959316,
2.22047026555,-1.61402177811,0,0.237956066584,-0.000131010547464,456,0.623895704746,1.73709964752,
2.22357829014,-1.62270307541,0,0.235874092175,-0.000132454457486,457,0.621569097042,1.73629975319,
2.22667391697,-1.63138055801,0,0.233793944346,-0.000132336148434,458,0.619199812412,1.73546671867,
2.22975809971,-1.64005327225,0,0.231678692616,-0.000134567590817,459,0.616805553436,1.73455929756,
2.23282988469,-1.64872121811,0,0.229548547815,-0.000135513226046,460,0.614365816116,1.73361301422,
2.23588927189,-1.6573843956,0,0.227399310321,-0.000136719757705,461,0.611860334873,1.73261594772,
2.2389357845,-1.66604185104,0,0.225230561305,-0.000137958890379,462,0.609337866306,1.73153400421,
2.24196989934,-1.67469406128,0,0.223030292701,-0.000139961841676,463,0.606756687164,1.73043859005,
2.24499066273,-1.68334054947,0,0.220814032935,-0.00014097708828,464,0.604166030884,1.72927498817,
2.24799807469,-1.69198083878,0,0.21857347409,-0.000142485748874,465,0.601507782936,1.72806203365,
2.25099213521,-1.7006149292,0,0.216304373191,-0.000144298571663,466,0.598823964596,1.72678589821,
2.25397284428,-1.7092423439,0,0.21399858986,-0.000146629329882,467,0.596084177494,1.72546076775,
2.25693924824,-1.71786260605,0,0.211671329397,-0.000147993127069,468,0.593311131001,1.72409892082,
2.25989182393,-1.72647571564,0,0.209306673179,-0.000150369071744,469,0.590484321117,1.72264933586,
2.26282961766,-1.73508167267,0,0.206923396015,-0.000151551191676,470,0.58761882782,1.72116136551,
2.26575358311,-1.74368000031,0,0.204490333979,-0.00015471487447,471,0.584728479385,1.71964585781,
2.26866228978,-1.75226974487,0,0.202030107978,-0.000156440149408,472,0.581784307957,1.71802926064,
2.27155621449,-1.76085186005,0,0.199534349152,-0.000158697278873,473,0.578791677952,1.71639466286,
2.27443535725,-1.76942539215,0,0.196991346749,-0.000161699165006,474,0.575779080391,1.71467006207,
2.27729876439,-1.77798986435,0,0.19441570941,-0.000163772154506,475,0.572695076466,1.71293997765,
2.2801464359,-1.78654527664,0,0.191802992009,-0.000166127499664,476,0.569578230381,1.71110439301,
2.28297884861,-1.79509162903,0,0.189137649175,-0.00016947146053,477,0.566449463367,1.70924544334,
2.28579504887,-1.80362796783,0,0.186430527749,-0.000172125407904,478,0.56322157383,1.7073007822,
2.28859503666,-1.8121547699,0,0.18368068738,-0.00017483926767,479,0.559994399548,1.70531606674,
2.29137833516,-1.82067108154,0,0.18088774918,-0.000177577135852,480,0.556683719158,1.70326805115,
2.29414494435,-1.82917690277,0,0.178047278098,-0.000180596955583,481,0.553353369236,1.70114183426,
2.29689486424,-1.83767175674,0,0.175151513608,-0.000184109968628,482,0.549983143806,1.69898068905,
2.29962761799,-1.84615516663,0,0.172203613903,-0.000187422189469,483,0.546548187733,1.69675970078,
2.30234320561,-1.85462760925,0,0.169202469457,-0.000190804894314,484,0.543083250523,1.69445991516,
2.30504115025,-1.86308813095,0,0.166147829532,-0.000194203477923,485,0.539573907852,1.69211089611,
2.30772097508,-1.87153673172,0,0.163045879503,-0.000197208878405,486,0.536017119884,1.68969392776,
2.31038315693,-1.87997245789,0,0.15987525335,-0.000201563113306,487,0.532385528088,1.68719244003,
2.31302674214,-1.88839578629,0,0.156655840991,-0.000204661841272,488,0.528729200363,1.68463504314,
2.3156517307,-1.89680576324,0,0.153376928064,-0.000208441659473,489,0.525029480457,1.6820204258,
2.3182581226,-1.90520238876,0,0.150034156174,-0.000212498302261,490,0.521268069744,1.6793115139,
2.32084544102,-1.913585186,0,0.146630503929,-0.000216365694202,491,0.517463982105,1.67654681206,
2.32341368596,-1.92195367813,0,0.143158647027,-0.000220698506625,492,0.513612985611,1.6737190485,
2.32596238057,-1.93030786514,0,0.139624514252,-0.000224653848795,493,0.5096976161,1.67081928253,
2.32849104802,-1.93864679337,0,0.136028108276,-0.000228609373576,494,0.505756497383,1.66783154011,
2.33099968831,-1.94697093964,0,0.132367908354,-0.000232661455101,495,0.501728057861,1.66476523876,
2.33348830143,-1.95527935028,0,0.128633926901,-0.000237348265976,496,0.497691631317,1.66165363789,
2.33595593373,-1.96357154846,0,0.124839159088,-0.000241208986426,497,0.493564337492,1.65843880177,
2.33840306202,-1.97184705734,0,0.120966625907,-0.000246148852441,498,0.489403694868,1.65511620045,
2.34082873265,-1.98010587692,0,0.117031929759,-0.000250096158529,499,0.485185146332,1.65178322792,
2.34323342244,-1.98834705353,0,0.113015665202,-0.000255277208432,500,0.480902969837,1.64831066132,
2.34561617772,-1.996571064,0,0.108935883142,-0.00025931056557,501,0.476609438658,1.64478373528,
2.34797747532,-2.00477647781,-0.200477647781,0.104770921208,-0.000264721122098,502,0.472196996212,1.64114499092,
2.35031636158,-2.01296424866,0.0,0.100541118802,-0.0002688380038,503,0.467752665281,1.63746094704,
2.35267146031,-2.02120733261,0,0.095842470812,-0.00029861264757,504,0.471094697714,1.64866161346,
2.35500271718,-2.02942848206,0,0.0910736495231,-0.000303066754008,505,0.466179639101,1.64419436455,
2.35731060902,-2.03762960434,0,0.0862308404381,-0.00030776470647,506,0.461607456207,1.64029276371,
2.35959513585,-2.04581069946,0,0.0813099204879,-0.000312724631426,507,0.456902116537,1.63616645336,
2.36185582081,-2.05397033691,0,0.0763092823229,-0.000317786650219,508,0.452117085457,1.63192808628,
2.36409218709,-2.06210756302,0,0.0712298542144,-0.000322788303318,509,0.447257459164,1.62752819061,
2.36630375783,-2.07022333145,0,0.0660814657506,-0.000327166125715,510,0.442330926657,1.62306702137,
2.36849053303,-2.07831525803,0,0.0608492225341,-0.000332489075902,511,0.437353253365,1.61843860149,
2.37065155903,-2.08638381958,0,0.0555499178375,-0.000336746120169,512,0.432288318872,1.61373221874,
2.3727877895,-2.09442806244,0,0.0501574506971,-0.000342660879478,513,0.427160978317,1.60891163349,
2.37489731709,-2.1024479866,0,0.0447044098384,-0.000346504969423,514,0.421980291605,1.6039839983,
2.37698109547,-2.1104426384,0,0.0391650774556,-0.000351962692538,515,0.416719824076,1.59892094135,
2.37903817097,-2.11841154099,0,0.0335519233836,-0.000356625075778,516,0.411394715309,1.59373855591,
2.38106806675,-2.12635374069,0,0.0278664792723,-0.000361212843911,517,0.406011611223,1.58843493462,
2.38307078282,-2.13426876068,0,0.022103543039,-0.000366131299806,518,0.400529742241,1.58301520348,
2.38504584233,-2.14215564728,0,0.0162650004278,-0.000370929852124,519,0.39500901103,1.57747602463,
2.38699276845,-2.15001487732,0,0.0103581851996,-0.000375262432812,520,0.389412879944,1.57183969021,
2.38891156117,-2.15784502029,0,0.00437462920297,-0.00038013055571,521,0.383739650249,1.5660276413,
2.39080174367,-2.16564559937,0,-0.00168170983011,-0.000384747275194,522,0.377996087074,1.56011450291,
2.39266236226,-2.1734161377,0,-0.00779843072299,-0.000388577916109,523,0.372196167707,1.55406451225,
2.39449389378,-2.18115568161,0,-0.0139901383829,-0.000393335361259,524,0.366309225559,1.54788851738,
2.3962958614,-2.18886327744,0,-0.020254137887,-0.000397922486814,525,0.360359430313,1.54159617424,
2.39806731144,-2.19653892517,0,-0.0265762743128,-0.000401610339158,526,0.354345023632,1.53514909744,
2.39980872075,-2.20418214798,0,-0.0329689258241,-0.000406083098024,527,0.348226845264,1.52858376503,
2.40151913563,-2.21179151535,0,-0.0394223434139,-0.00040993775497,528,0.342071533203,1.52188873291,
2.40319807927,-2.21936655045,0,-0.0459320166384,-0.000413503866803,529,0.335845708847,1.51503753662,
2.40484555165,-2.22690677643,0,-0.052501484058,-0.00041729638999,530,0.329518258572,1.50803828239,
2.40646155278,-2.23441123962,0,-0.0591353370936,-0.000421380489831,531,0.323152691126,1.50094366074,
2.40804465214,-2.24187994003,0,-0.0658114360031,-0.000424058222347,532,0.316681355238,1.49369239807,
2.40959532658,-2.24931097031,0,-0.0725446025075,-0.000427675969692,533,0.310143560171,1.48628103733,
2.41111357609,-2.25670480728,0,-0.0793350661891,-0.00043130867094,534,0.303566336632,1.47874450684,
2.41259797017,-2.26406002045,0,-0.0861642689291,-0.000433762466139,535,0.296892613173,1.47107386589,
2.4140485088,-2.2713766098,0,-0.0930336980441,-0.000436310793453,536,0.290161669254,1.46326589584,
2.415465192,-2.27865314484,0,-0.0999478463074,-0.000439145374259,537,0.28333479166,1.45528745651,
2.41684754292,-2.28588891029,0,-0.106901525762,-0.000441650521107,538,0.276455938816,1.4471809864,
2.41819508473,-2.29308366776,0,-0.113888496954,-0.000443757874888,539,0.269477248192,1.4389449358,
2.41950734059,-2.30023622513,0,-0.120904364933,-0.000445586540914,540,0.262472599745,1.43054103851,
2.4207843105,-2.30734634399,0,-0.127950199877,-0.000447483788414,541,0.255366116762,1.4220058918,
2.42202551762,-2.31441283226,0,-0.13502111963,-0.00044907001899,542,0.248175740242,1.41331791878,
2.42323000828,-2.32143545151,0,-0.14210306514,-0.000449764456013,543,0.240952536464,1.40449666977,
2.42439825932,-2.32841300964,0,-0.149205578242,-0.000451064721109,544,0.233634784818,1.39551901817,
2.42552931706,-2.33534502983,0,-0.156314718726,-0.000451479848196,545,0.226264744997,1.38639569283,
2.42662365834,-2.3422305584,0,-0.163438937443,-0.000452431461326,546,0.21881583333,1.37712597847,
2.42768032948,-2.3490691185,0,-0.170564025476,-0.000452479503948,547,0.211296439171,1.36771547794,
2.42869885365,-2.35585999489,0,-0.177683301234,-0.000452104378367,548,0.20372082293,1.35818517208,
2.42967923085,-2.36260247231,0,-0.184796991667,-0.000451742092284,549,0.196062847972,1.34849655628,
2.4306205074,-2.36929559708,0,-0.191891224043,-0.000450407854244,550,0.18833757937,1.3386425972,
2.43152363698,-2.37593913078,0,-0.198979253452,-0.000450006395769,551,0.180567130446,1.32867324352,
2.43238718907,-2.38253164291,0,-0.20604022695,-0.000448281093464,552,0.172702282667,1.31852352619,
2.43321068684,-2.38907289505,0,-0.213066151063,-0.000446050058481,553,0.164778068662,1.30824792385,
2.43399508397,-2.39556217194,0,-0.220069737813,-0.000444624915854,554,0.156821429729,1.29785299301,
2.43473894993,-2.40199875832,0,-0.22702922318,-0.000441819355888,555,0.148789644241,1.28732562065,
2.43544228474,-2.40838193893,0,-0.233943185067,-0.000438923577418,556,0.140668392181,1.27659535408,
2.43610508839,-2.41471076012,0,-0.240809938759,-0.000435920971474,557,0.132522642612,1.2657995224,
2.43672640721,-2.42098498344,0,-0.24761398323,-0.000431934477723,558,0.124289289117,1.2548404932,
2.43730624119,-2.42720389366,0,-0.254353216533,-0.000427813757573,559,0.11601215601,1.24373364449,
2.43784506718,-2.43336653709,0,-0.261031723397,-0.000423953472208,560,0.107688128948,1.23253250122,
2.43834145466,-2.4394724369,0,-0.267627118324,-0.000418671013438,561,0.0992997959256,1.22120177746,
2.43879540364,-2.44552087784,0,-0.274136549072,-0.000413208818331,562,0.0908456966281,1.20971274376,
2.43920739094,-2.45151138306,0,-0.280563243396,-0.000407951641203,563,0.082364320755,1.19810342789,
2.4395764629,-2.45744347572,0,-0.286890996698,-0.000401666035402,564,0.0738073512912,1.18640160561,
2.43990261952,-2.46331644058,0,-0.293116192443,-0.000395151035177,565,0.0652367323637,1.17458999157,
2.44018538395,-2.46912908554,0,-0.299228412242,-0.000387973877448,566,0.0565575473011,1.16257274151,
2.44042475621,-2.47488188744,0,-0.305224013811,-0.000380566614421,567,0.0478867739439,1.15053248405,
2.44062073628,-2.48057365417,0,-0.311098379885,-0.000372862855149,568,0.0391541905701,1.13834416866,
2.4407723705,-2.48620390892,0,-0.316834670944,-0.000364092858921,569,0.0303709805012,1.12605059147,
2.44088061253,-2.49177217484,0,-0.322440427181,-0.000355797686042,570,0.0215668790042,1.11365735531,
2.44094403187,-2.49727797508,0,-0.327892437304,-0.00034603168095,571,0.0127097591758,1.10117435455,
2.44096310536,-2.50272083282,0,-0.333191700486,-0.000336320763628,572,0.00382781587541,1.08858680725,
2.44093783299,-2.50810050964,0,-0.338333099675,-0.000326294732613,573,-0.00509429071099,1.07592523098,
2.44086726109,-2.51341629028,0,-0.34329897981,-0.000315132114608,574,-0.0140488008037,1.06314301491,
2.44075234334,-2.51866793633,0,-0.348095747094,-0.000304373564253,575,-0.023026574403,1.05030751228,
2.44059212605,-2.52385449409,0,-0.352705052439,-0.000292474215409,576,-0.0320522077382,1.03735852242,
2.44038660924,-2.52897644043,0,-0.357122034058,-0.000280266988191,577,-0.0410923585296,1.02436351776,
2.44013579289,-2.53403282166,0,-0.36133978796,-0.000267620586319,578,-0.050150282681,1.01128757,
2.43983967701,-2.53902363777,0,-0.365352492277,-0.000254605714254,579,-0.0592257119715,0.998151242733,
2.43949826161,-2.54394841194,0,-0.369153455658,-0.000241165752484,580,-0.0683088004589,0.984961032867,
2.43911106984,-2.54880714417,0,-0.372730918613,-0.000226981104733,581,-0.0774181857705,0.971734046936,
2.4386781017,-2.5535993576,0,-0.376077930958,-0.000212356130963,582,-0.086552426219,0.958430349827,
2.43819983403,-2.55832481384,0,-0.379193327257,-0.000197655938065,583,-0.0956857800484,0.945082485676,
2.43767578999,-2.56298327446,0,-0.38206455658,-0.000182162337584,584,-0.104818016291,0.931704163551,
2.43710596959,-2.56757497787,0,-0.384685531836,-0.000166282569187,585,-0.113934576511,0.918344199657,
2.43649084965,-2.57209944725,0,-0.387054111167,-0.000150267850018,586,-0.12308819592,0.904895365238,
2.43582947651,-2.57655668259,0,-0.389152514214,-0.000133125592871,587,-0.132239103317,0.891448974609,
2.43512280385,-2.5809469223,0,-0.390985324639,-0.000116274461569,588,-0.141346618533,0.878020584583,
2.43437035481,-2.58526968956,0,-0.392539037447,-9.85670348714e-05,589,-0.150488659739,0.864557683468,
2.43357212941,-2.58952522278,0,-0.393807141671,-8.04467246414e-05,590,-0.159584492445,0.851080417633,
2.43272908131,-2.59371352196,0,-0.39479315013,-6.25501517423e-05,591,-0.168678894639,0.837665081024,
2.43184025685,-2.5978345871,0,-0.395479116863,-4.35155087497e-05,592,-0.177775427699,0.824239075184,
2.43090613286,-2.60188889503,0,-0.395864304885,-2.44347416661e-05,593,-0.186798781157,0.810864090919,
2.42992718617,-2.60587620735,0,-0.39594595816,-5.1796774802e-06,594,-0.195827797055,0.79749339819,
2.42890293995,-2.6097972393,0,-0.39571336774,1.4754182829e-05,595,-0.204832315445,0.784172773361,
2.42783387105,-2.61365175247,0,-0.395163647578,3.48705044449e-05,596,-0.213802471757,0.770894110203,
2.42671997944,-2.61743974686,0,-0.394289225994,5.54666161466e-05,597,-0.222729504108,0.757646739483,
2.42556221882,-2.62116241455,0,-0.393096337609,7.56665787766e-05,598,-0.231624245644,0.744534015656,
2.42435963551,-2.62481975555,0,-0.391567208107,9.69913396383e-05,599,-0.240450024605,0.731459379196,
2.42311366002,-2.62841200829,0,-0.389710275445,0.000117573248552,600,-0.249259024858,0.7184278965,
2.42182333867,-2.63193964958,0,-0.387509280458,0.000139354681111,601,-0.258008569479,0.705536365509,
2.42049010197,-2.6354033947,0,-0.384974094021,0.000160510475099,602,-0.266708284616,0.692707657814,
2.41911299626,-2.63880324364,0,-0.382087055386,0.000182774822533,603,-0.275338023901,0.680002212524,
2.41769345204,-2.64214038849,0,-0.378859620402,0.000204321976445,604,-0.283911019564,0.667427539825,
2.41623146931,-2.64541530609,0,-0.375285873479,0.000226243117561,605,-0.292428195477,0.654958128929,
2.41472704808,-2.64862847328,0,-0.371359980082,0.000247379226247,606,-0.300864934921,0.642609894276,
2.41318114201,-2.6517803669,0,-0.367085967564,0.000269310105157,607,-0.309235841036,0.630409598351,
2.41159327427,-2.65487241745,0,-0.362456776455,0.000291659487705,608,-0.317519396544,0.61837720871,
2.40996487538,-2.65790462494,0,-0.35747964812,0.000313532697479,609,-0.325738549232,0.606477618217,
2.40829546849,-2.66087841988,0,-0.352147839155,0.00033587116348,610,-0.333855003119,0.594779014587,
2.40658600728,-2.66379451752,0,-0.346466593107,0.00035787810277,611,-0.341907233,0.583209633827,
2.40483649174,-2.66665387154,0,-0.340432541227,0.000380097436276,612,-0.349843025208,0.571873128414,
2.40304787556,-2.66945743561,0,-0.334052060836,0.000401913222477,613,-0.357706576586,0.560684084892,
2.40122063557,-2.67220592499,0,-0.327325838295,0.000423686522733,614,-0.365456521511,0.549729049206,
2.39935524861,-2.67490077019,0,-0.320257700494,0.000445216586664,615,-0.373124599457,0.538971722126,
2.39745171467,-2.67754292488,0,-0.312844966828,0.000466909801187,616,-0.380671471357,0.528429508209,
2.39551146428,-2.68013334274,0,-0.305099239139,0.000487876532323,617,-0.388099581003,0.51811850071,
2.39353402058,-2.6826736927,0,-0.297016651162,0.000508839133119,618,-0.395429700613,0.508050441742,
2.3915208141,-2.68516469002,0,-0.288608084751,0.000526371229063,619,-0.402654051781,0.49820882082,
2.38947232167,-2.6876077652,0,-0.279878404358,0.000543144980464,620,-0.409749180079,0.488639622927,
2.38738854329,-2.69000434875,0,-0.270828137827,0.000563082852046,621,-0.416726231575,0.479302287102,
2.38527043263,-2.69235563278,0,-0.261466229463,0.000582464249937,622,-0.42358481884,0.470231831074,
2.38311894337,-2.69466280937,0,-0.251801775204,0.000601279823603,623,-0.430299788713,0.461443573236,
2.38093455235,-2.69692754745,0,-0.241841791409,0.000619647246408,624,-0.436911702156,0.4529530406,
2.3787177364,-2.69915127754,0,-0.231592461008,0.000637637010487,625,-0.443356186152,0.444758921862,
2.3764694492,-2.70133566856,0,-0.221065990186,0.000650136566855,626,-0.449676603079,0.436843603849,
2.37419016758,-2.70348167419,0,-0.210266708257,0.000666975215386,627,-0.455860733986,0.429212987423,
2.37188036839,-2.70559120178,0,-0.199204027644,0.000683234031374,628,-0.461922943592,0.421929895878,
2.36954148213,-2.70766592026,0,-0.187895518674,0.000698405681999,629,-0.467812687159,0.414952367544,
2.3671735088,-2.70970726013,0,-0.176344288764,0.000713386839723,630,-0.473573595285,0.408288449049,
2.36477740208,-2.71171712875,0,-0.164565280321,0.000727444843805,631,-0.479189693928,0.401949942112,
2.36235459248,-2.71369695663,0,-0.152575664966,0.000740441045344,632,-0.484646856785,0.395943105221,
2.35990460316,-2.7156484127,0,-0.140376353178,0.000753345179561,633,-0.489952385426,0.390295445919,
2.35742886464,-2.71757316589,0,-0.127986422826,0.000765105836384,634,-0.495122224092,0.384972780943,
2.35492833058,-2.71947336197,0,-0.115423469113,0.000775285664263,635,-0.500119388103,0.379997909069,
2.35240347783,-2.72135019302,0,-0.102695702886,0.000785427542111,636,-0.504981517792,0.375362753868,
2.34985526005,-2.72320580482,0,-0.0898214378907,0.000794445262677,637,-0.509667813778,0.371114194393,
2.34728367726,-2.72504162788,0,-0.0768065205625,0.000803078098326,638,-0.514221966267,0.36720341444,
2.34469111363,-2.72686004639,0,-0.0636845557772,0.000809667099029,639,-0.518584549427,0.363667964935,
2.34207709233,-2.72866249084,0,-0.0504577437928,0.000816110577373,640,-0.522818565369,0.36049425602,
2.33944256703,-2.73045063019,0,-0.0371431287983,0.000821500710046,641,-0.526900649071,0.357641935349,
2.33678849141,-2.73222661018,0,-0.0237609657677,0.000825557927596,642,-0.530793964863,0.355206727982,
2.33411581913,-2.73399233818,0,-0.0103304903279,0.000827941044331,643,-0.534557461739,0.353139519691,
2.33142502705,-2.73574972153,0,0.00313297845981,0.000829963238876,644,-0.538136959076,0.351462483406,
2.32871706883,-2.73749995232,0,0.0166138792813,0.000830041345392,645,-0.541599333286,0.350083529949,
2.32599242131,-2.73924565315,0,0.0300916768055,0.00082983696315,646,-0.544865489006,0.349137783051,
2.323252515,-2.74098825455,0,0.0435443061828,0.000828276569795,647,-0.547986090183,0.348529875278,
2.32049782673,-2.74272966385,0,0.0569549097754,0.00082567680797,648,-0.550963103771,0.34829223156,
2.31772883336,-2.74447202682,0,0.0703046373661,0.000821918197036,649,-0.553783833981,0.3484197855,
2.31494648854,-2.74621653557,0,0.0835761888575,0.000817089311617,650,-0.556460142136,0.348922073841,
2.31215174595,-2.74796533585,0,0.0967457158016,0.000810793857782,651,-0.55897539854,0.349772334099,
2.30934508244,-2.74972033501,0,0.10979471724,0.000803357287977,652,-0.561362445354,0.351000070572,
2.30652697484,-2.75148320198,0,0.122705864304,0.000794857795405,653,-0.563591182232,0.352572977543,
2.30369837681,-2.7532556057,0,0.135457265727,0.000784923843477,654,-0.565684914589,0.354482412338,
2.30086024205,-2.75503897667,0,0.148028341507,0.000773811923607,655,-0.567645013332,0.356734454632,
2.29801304738,-2.7568359375,0,0.160394075943,0.00076115641875,656,-0.569442272186,0.359386086464,
2.29515726964,-2.75864744186,0,0.172540566737,0.000747650912758,657,-0.571146726608,0.362298607826,
2.2922938625,-2.76047539711,0,0.184442803378,0.00073260415134,658,-0.572692513466,0.365553855896,
2.28942330281,-2.76232099533,0,0.196084619871,0.000716564428172,659,-0.574146330357,0.36915075779,
2.2865460674,-2.76418638229,0,0.207442680583,0.000699088475101,660,-0.575430989265,0.37306034565,
2.2836626331,-2.76607275009,0,0.218500098292,0.000680574623063,661,-0.576639890671,0.377265334129,
2.2807739536,-2.76798129082,0,0.229235640272,0.000660754767861,662,-0.577737689018,0.381699383259,
2.27788050572,-2.76991415024,0,0.239624827378,0.000639428987633,663,-0.578703820705,0.386556684971,
2.27498276631,-2.77187204361,0,0.2496533962,0.000617225823602,664,-0.579588890076,0.39158052206,
2.27208073536,-2.77385663986,0,0.259303756453,0.000593940920746,665,-0.580368638039,0.396925747395,
2.2691758434,-2.77586913109,0,0.268549435643,0.000569027132579,666,-0.581048846245,0.4025131464,
2.26626761357,-2.7779109478,0,0.277378005164,0.000543326677777,667,-0.58166128397,0.408342003822,
2.26335652272,-2.77998304367,0,0.285772305988,0.000516593424308,668,-0.582177639008,0.414428949356,
2.26044352452,-2.78208661079,0,0.293709118284,0.000488433081405,669,-0.582619786263,0.420726656914,
2.25752861897,-2.78422260284,0,0.301174831967,0.000459435722464,670,-0.583007156849,0.427190124989,
2.25461180607,-2.78639221191,0,0.308153669713,0.000429468175839,671,-0.583329617977,0.433915674686,
2.2516940395,-2.78859615326,0,0.314625486116,0.000398261290896,672,-0.583587706089,0.440789997578,
2.24877484242,-2.79083514214,0,0.320581828496,0.000366535325031,673,-0.583804428577,0.447835147381,
2.2458551685,-2.79311060905,0,0.325996395905,0.000333191744917,674,-0.58397591114,0.455059409142,
2.24293454091,-2.79542255402,0,0.330866115482,0.000299660000085,675,-0.584112226963,0.46239310503,
2.24001295964,-2.79777169228,0,0.335178014197,0.00026533090698,676,-0.584238827229,0.469863474369,
2.23709185521,-2.80015897751,0,0.338905326199,0.000229355412124,677,-0.584315299988,0.477447986603,
2.2341697971,-2.80258464813,0,0.342050355609,0.000193522713359,678,-0.584406256676,0.485129356384,
2.23124726216,-2.80504894257,0,0.344599828806,0.000156874361108,679,-0.584459662437,0.492872953415,
2.22832472722,-2.80755233765,0,0.346538418682,0.000119283497017,680,-0.584540128708,0.500705480576,
2.2254012386,-2.81009531021,0,0.347862130001,8.14483131222e-05,681,-0.584616184235,0.508583426476,
2.22247774998,-2.81267786026,0,0.34855575934,4.2678645938e-05,682,-0.58470916748,0.516493201256,
2.21955378453,-2.81529974937,0,0.348617649025,3.80798783081e-06,683,-0.584843397141,0.524402976036,
2.2166288654,-2.81796145439,0,0.348039782806,-3.5554843478e-05,684,-0.585000872612,0.532310128212,
2.2137029926,-2.82066226006,0,0.346820929378,-7.4992361196e-05,685,-0.585183620453,0.540204882622,
2.21077568928,-2.8234026432,0,0.344952998922,-0.000114926566437,686,-0.58541816473,0.548055827618,
2.20784695546,-2.826182127,0,0.342432720579,-0.000155060934415,687,-0.585716485977,0.555883407593,
2.20491679112,-2.82899999619,0,0.339259176735,-0.000195250658384,688,-0.586074590683,0.563596606255,
2.2019842426,-2.83185625076,0,0.33543236749,-0.000235439212786,689,-0.586509346962,0.571248054504,
2.19904930989,-2.83475017548,0,0.330951577207,-0.000275670934499,690,-0.587004780769,0.578794002533,
2.19611151616,-2.83768153191,0,0.325815457227,-0.000315984495518,691,-0.587577819824,0.586236953735,
2.19316990773,-2.84064912796,0,0.320035350635,-0.000355598943267,692,-0.588259756565,0.593513548374,
2.19022496144,-2.84365224838,0,0.313607510069,-0.000395443116604,693,-0.589043021202,0.600637435913,
2.18727524678,-2.84669017792,0,0.306542784026,-0.000434618679566,694,-0.589932084084,0.607586860657,
2.18432028691,-2.84976196289,0,0.298847264276,-0.000473418663831,695,-0.59092605114,0.614370822906,
2.18136055867,-2.85286664963,0,0.290520226182,-0.000512261355331,696,-0.592035770416,0.620939850807,
2.17839415471,-2.85600328445,0,0.281578910142,-0.000550043082382,697,-0.593274176121,0.627302110195,
2.17542059819,-2.85917019844,0,0.272037217015,-0.000586967409457,698,-0.594664275646,0.633382499218,
2.17243941227,-2.86236643791,0,0.261902346727,-0.000623448969253,699,-0.596189260483,0.639250040054,
2.16945059697,-2.86559057236,0,0.251183115585,-0.000659386821075,700,-0.597848415375,0.644834637642,
2.16645224492,-2.86884117126,0,0.239902567038,-0.00069390415545,701,-0.599649429321,0.650163292885,
2.16344387929,-2.87211704254,0,0.228071222383,-0.000727775256267,702,-0.601629495621,0.655164957047,