lower angle,upper angle,holding angle,system x,acceleration,ticks (200 tps),lower acceleration (shoulder),upper acceleration (elbow),
1.57079632679,0.0,0,2.25028849343e-15,1.53722915647e-16,1,0.0,0.0,
1.57074855117,9.3041715445e-05,0,0.000290347093006,1.98339797113e-05,2,-0.00955512467772,-0.0186083428562,
1.57065032407,0.000284832844045,0,0.000879482918889,4.0244038987e-05,3,-0.0196454226971,-0.0383582264185,
1.57050269933,0.000573227996938,0,0.00176246848939,6.0316087465e-05,4,-0.0295249484479,-0.0576790347695,
1.57030624157,0.000957147451118,0,0.00293555940251,8.01275113357e-05,5,-0.039291549474,-0.076783888042,
1.57006124134,0.00143605319317,0,0.00439655228686,9.97910463503e-05,6,-0.0490000471473,-0.09578114748,
1.56976804108,0.00200931192376,0,0.00614283575566,0.000119275714766,7,-0.0586400665343,-0.114651754498,
1.56942697912,0.00267628207803,0,0.00817208136309,0.000138600815342,8,-0.0682123973966,-0.133394047618,
1.56903848442,0.00343620148487,0,0.0104805271898,0.000157668457732,9,-0.077698931098,-0.151983857155,
1.56860299694,0.00428823847324,0,0.0130651034509,0.000176525646584,10,-0.0870975106955,-0.17040745914,
1.5681209616,0.00523151969537,0,0.0159232123855,0.000195204792675,11,-0.0964070782065,-0.188656270504,
1.56759291521,0.006265015807,0,0.0190513371229,0.000213643263472,12,-0.105609335005,-0.206699237227,
1.56701944495,0.00738762784749,0,0.0224452041658,0.000231789380118,13,-0.114694029093,-0.224522426724,
1.5664011534,0.00859815720469,0,0.0261015440948,0.000249711359015,14,-0.123658336699,-0.242106050253,
1.56573867152,0.00989541690797,0,0.030015859451,0.000267326165455,15,-0.132496327162,-0.259451746941,
1.56503268803,0.0112780937925,0,0.0341835174264,0.000284621178794,16,-0.141196712852,-0.276535511017,
1.56428389537,0.0127447871491,0,0.0386011261188,0.000301686730937,17,-0.149758607149,-0.293338835239,
1.56349307118,0.0142940189689,0,0.0432633783479,0.000318389068013,18,-0.158164829016,-0.309846311808,
1.56266104157,0.0159242078662,0,0.0481648141985,0.000334718276903,19,-0.166405931115,-0.326037526131,
1.56178858882,0.0176337882876,0,0.0533013317178,0.000350767008704,20,-0.174490556121,-0.341916173697,
1.56087658095,0.0194210987538,0,0.0586671896963,0.000366423253013,21,-0.182401701808,-0.357462018728,
1.55992590642,0.021284352988,0,0.0642578580434,0.000381769710495,22,-0.190134719014,-0.37265086174,
1.55893748539,0.023221751675,0,0.0700678468919,0.000396740843331,23,-0.197684288025,-0.387480288744,
1.55791229109,0.0252313949168,0,0.076091298166,0.000411311607031,24,-0.205039024353,-0.401928812265,
1.55685128743,0.0273113958538,0,0.0823224891174,0.0004254912543,25,-0.212200880051,-0.416000396013,
1.5557554607,0.0294597838074,0,0.0887561940666,0.000439313697615,26,-0.219165384769,-0.42967748642,
1.55462592753,0.0316744111478,0,0.0953851812668,0.000452641749501,27,-0.22590701282,-0.442925572395,
1.55346371891,0.0339531935751,0,0.102204368477,0.000465622591069,28,-0.232441455126,-0.455756396055,
1.55226990866,0.0362940430641,0,0.109207156291,0.00047815228314,29,-0.238761886954,-0.468169808388,
1.55104563671,0.0386946797371,0,0.116387535285,0.000490271443389,30,-0.24485398829,-0.480127215385,
1.54979204858,0.0411528386176,0,0.123739054509,0.000501949762359,31,-0.250718057156,-0.491631299257,
1.54851029726,0.0436662323773,0,0.131255339744,0.000513192359762,32,-0.25635010004,-0.502678871155,
1.54720159719,0.0462324954569,0,0.138928988852,0.000523929335043,33,-0.261740148067,-0.513252139091,
1.54586709576,0.0488492622972,0,0.146755062007,0.000534328706207,34,-0.266900062561,-0.523353338242,
1.54450807633,0.0515140630305,0,0.154725264923,0.000544160857941,35,-0.271804243326,-0.532960534096,
1.543125731,0.0542244799435,0,0.162833834201,0.000553599753968,36,-0.276469260454,-0.542084336281,
1.54172135057,0.0569779388607,0,0.171073842147,0.000562565423515,37,-0.280876129866,-0.550691843033,
1.54029618117,0.0597719587386,0,0.179438536158,0.000571069925076,38,-0.28503370285,-0.558803260326,
1.53885151918,0.0626039803028,0,0.187920547186,0.000579071146872,39,-0.288932055235,-0.566405296326,
1.53738872061,0.0654713064432,0,0.196512486257,0.000586535352862,40,-0.292560130358,-0.573464989662,
1.53590908001,0.0683713555336,0,0.205207403912,0.000593549479478,41,-0.29592821002,-0.580008983612,
1.5344139273,0.071301445365,0,0.21399863401,0.000600086552994,42,-0.299030035734,-0.586017370224,
1.5329045179,0.0742590352893,0,0.22288001849,0.000606228959435,43,-0.30188202858,-0.591516852379,
1.53138223762,0.0772413760424,0,0.231843894652,0.000611849617249,44,-0.304456561804,-0.596471130848,
1.52984850953,0.0802456736565,0,0.240881936039,0.000616903288446,45,-0.306745529175,-0.600858926773,
1.52830461512,0.0832693353295,0,0.249987849348,0.00062152668602,46,-0.308779358864,-0.60473304987,
1.52675197,0.0863095149398,0,0.259154404305,0.000625656594459,47,-0.310528069735,-0.608035862446,
1.52519189293,0.0893635526299,0,0.268374996976,0.000629335898381,48,-0.312015652657,-0.610806941986,
1.52362573991,0.0924287140369,0,0.2776428294,0.000632551120485,49,-0.313231110573,-0.613034486771,
1.5220548893,0.0955022126436,0,0.286951105242,0.000635302521362,50,-0.314170569181,-0.61469990015,
1.52048070828,0.0985813438892,0,0.296292150893,0.000637529708337,51,-0.314835488796,-0.615824699402,
1.51890464226,0.101663224399,0,0.305658236631,0.000639229542345,52,-0.315213173628,-0.616376280785,
1.5173279951,0.104745201766,0,0.315043197585,0.000640508529058,53,-0.315329134464,-0.616395413876,
1.5157521228,0.107824526727,0,0.324440480718,0.000641340232237,54,-0.315175503492,-0.615866363049,
1.51417839999,0.110898457468,0,0.33384273503,0.000641670325675,55,-0.314744442701,-0.614785850048,
1.51260819013,0.113964214921,0,0.343243608559,0.000641567029412,56,-0.3140424788,-0.613150835037,
1.51104284177,0.117019094527,0,0.352636127534,0.000640987851908,57,-0.313069730997,-0.610975325108,
1.50948369975,0.120060391724,0,0.36201345831,0.000639942487882,58,-0.311828225851,-0.60826086998,
1.50793212751,0.123085364699,0,0.371368673319,0.000638423335476,59,-0.310314387083,-0.6049939394,
1.5063894103,0.126091361046,0,0.380696312631,0.000636531655107,60,-0.308543860912,-0.601198911667,
1.50485689292,0.129075691104,0,0.389989319471,0.000634159419959,61,-0.306503564119,-0.596865057945,
1.50333589415,0.132035687566,0,0.399241246251,0.000631327464906,62,-0.304199784994,-0.592000484467,
1.50182770292,0.134968772531,0,0.408445337201,0.000628051578998,63,-0.301637381315,-0.586614370346,
1.50033356349,0.137872323394,0,0.417597182389,0.000624477272733,64,-0.298827707767,-0.580711781979,
1.4988547648,0.140743777156,0,0.426689800203,0.000620426616132,65,-0.29575869441,-0.574290633202,
1.49739258836,0.143580555916,0,0.435716721017,0.000615928419267,66,-0.292436987162,-0.56735688448,
1.4959482188,0.146380186081,0,0.444673391145,0.000611125631215,67,-0.28887373209,-0.55992436409,
1.49452299724,0.149140030146,0,0.453552101725,0.000605797561139,68,-0.285045772791,-0.551971316338,
1.49311807851,0.151857703924,0,0.462347995819,0.000600136491219,69,-0.280981838703,-0.543534874916,
1.4917346547,0.15453080833,0,0.471055089745,0.000594069219066,70,-0.276685923338,-0.534619271755,
1.49037388066,0.157156914473,0,0.479669237288,0.000587718087205,71,-0.27215474844,-0.52522456646,
1.48903694103,0.15973366797,0,0.488184034569,0.000580931488607,72,-0.267390072346,-0.515348494053,
1.48772493849,0.16225874424,0,0.496595616574,0.000573881223512,73,-0.262398838997,-0.505011320114,
1.48643905024,0.164729788899,0,0.504897861226,0.000566414083592,74,-0.257176995277,-0.494208037853,
1.48518034915,0.167144611478,0,0.513085897963,0.000558615086067,75,-0.251741528511,-0.482964068651,
1.48394996027,0.169500872493,0,0.521155289511,0.00055051096738,76,-0.246077030897,-0.471255838871,
1.48274890433,0.171796560287,0,0.529100276467,0.000542016263954,77,-0.240211248398,-0.459133267403,
1.4815782244,0.174029409885,0,0.536918260819,0.00053334428041,78,-0.234136894345,-0.4465726614,
1.48043900827,0.176197290421,0,0.544602906713,0.000524213419831,79,-0.227843552828,-0.433577477932,
1.47933215747,0.178298279643,0,0.552151427128,0.000514919309526,80,-0.221369951963,-0.420197665691,
1.47825872252,0.18033029139,0,0.559558155744,0.000505239727971,81,-0.214686751366,-0.406399965286,
1.47721961985,0.182291403413,0,0.566819766508,0.000495330354383,82,-0.207820504904,-0.392224907875,
1.47621580313,0.184179633856,0,0.57393250791,0.000485166803991,83,-0.200763523579,-0.377645760775,
1.47524818877,0.185993134975,0,0.580891890692,0.00047469919957,84,-0.193521946669,-0.362697064877,
1.47431763361,0.187730073929,0,0.587695375425,0.00046402666088,85,-0.18611176312,-0.347389519215,
1.47342499445,0.189388692379,0,0.594339256158,0.000453133599474,86,-0.178528219461,-0.331722229719,
1.47257109831,0.190967261791,0,0.60082045193,0.000442028973392,87,-0.170779511333,-0.315715134144,
1.4717567871,0.192464083433,0,0.607134871149,0.000430648100035,88,-0.16286405921,-0.299363255501,
1.47098285059,0.193877488375,0,0.613279864342,0.000419086505968,89,-0.154788181186,-0.282684147358,
1.47025003383,0.195205941796,0,0.619252315442,0.000407313620658,90,-0.14656445384,-0.265691250563,
1.46955905209,0.196447879076,0,0.625050666623,0.000395434505788,91,-0.138196408749,-0.24838924408,
1.46891065041,0.197601854801,0,0.630670401787,0.000383247069372,92,-0.129680886865,-0.230794876814,
1.4683055068,0.198666423559,0,0.636109457771,0.00037092007687,93,-0.121029987931,-0.212912797928,
1.46774431417,0.199640095234,0,0.641365927493,0.000358461908412,94,-0.112239547074,-0.194735080004,
1.46722764621,0.200521618128,0,0.646438525078,0.000345917709529,95,-0.103333562613,-0.176306322217,
1.46675616602,0.20130969584,0,0.651323396007,0.000333110762845,96,-0.0942962095141,-0.157615631819,
1.46633048455,0.202003031969,0,0.656018592281,0.000320171689734,97,-0.085135102272,-0.138667330146,
1.46595112334,0.202600494027,0,0.660522864471,0.000307147494184,98,-0.0758726298809,-0.119493290782,
1.46561860392,0.203100994229,0,0.664834261239,0.00029399077646,99,-0.0665046572685,-0.100099883974,
1.4653334404,0.203503385186,0,0.668952036532,0.000280782778273,100,-0.0570326931775,-0.0804772973061,
1.46509611706,0.20380666852,0.020380666852,0.672874196516,0.000267440094552,101,-0.0474644415081,-0.0606559067965,
1.46490710328,0.204009816051,0.0,0.676599757395,0.000254030439752,102,-0.0378015786409,-0.0406318642199,
1.46475820343,0.204128801823,0,0.680177997129,0.000243977869794,103,-0.029779329896,-0.023793939501,
1.46465852956,0.204145774245,0,0.68355567217,0.000230299228609,104,-0.0199357904494,-0.00339493900537,
1.46460838715,0.20405998826,0,0.6867333469,0.000216658907892,105,-0.0100278649479,0.0171585381031,
1.46460817108,0.203870609403,0,0.689709715933,0.000202929838097,106,-4.27486374974e-05,0.0378725044429,
1.46465815703,0.203577056527,0,0.692483858021,0.000189139416917,107,0.00999655947089,0.0587107613683,
1.46475867281,0.203178569674,0,0.695055745026,0.000175346959219,108,0.0201028399169,0.079696662724,
1.46491002391,0.202674493194,0,0.697424527522,0.000161487551147,109,0.0302705224603,0.100816331804,
1.46511244128,0.202064320445,0,0.699589740368,0.000147569070441,110,0.0404834151268,0.122032672167,
1.4653662006,0.201347470284,0,0.701550448288,0.000133628491935,111,0.0507507435977,0.143371552229,
1.46567142854,0.200523540378,0,0.703308356719,0.000119797364474,112,0.061045922339,0.164783865213,
1.4660283188,0.199592083693,0,0.704863416384,0.000105971936275,113,0.0713791251183,0.186289668083,
1.46643708746,0.198552712798,0,0.706213821887,9.20241114731e-05,114,0.0817522034049,0.207873493433,
1.4668977494,0.19740524888,0,0.70736184794,7.82317056364e-05,115,0.0921316295862,0.229493349791,
1.46741052071,0.196149259806,0,0.708306381109,6.43638184804e-05,116,0.102555423975,0.251200377941,
1.46797545353,0.194784581661,0,0.709048091163,5.05420562668e-05,117,0.112985432148,0.272934347391,
1.46859255532,0.193311095238,0,0.709588577034,3.68296082488e-05,118,0.123418986797,0.294697344303,
1.46926184843,0.191728726029,0,0.709928186828,2.31412417156e-05,119,0.133859649301,0.316475212574,
1.46998331795,0.190037429333,0,0.710068158852,9.53764439583e-06,120,0.144294291735,0.338261604309,
1.47075700114,0.188237145543,0,0.710008052356,-4.09556419909e-06,121,0.154737010598,0.36005666852,
1.47158279369,0.186327949166,0,0.709750496163,-1.7549205779e-05,122,0.165158167481,0.381837487221,
1.4724606062,0.184310019016,0,0.709295932515,-3.09722355321e-05,123,0.175562262535,0.403588056564,
1.47339033435,0.182183429599,0,0.708646980454,-4.42164695444e-05,124,0.185944646597,0.42531555891,
1.47437185893,0.179948449135,0,0.707803759374,-5.74521046493e-05,125,0.196303457022,0.446995049715,
1.4754050682,0.177605271339,0,0.706767279735,-7.06186056581e-05,126,0.206640437245,0.468636214733,
1.47648976097,0.175154224038,0,0.705539713999,-8.36365988884e-05,127,0.216938048601,0.49020755291,
1.47762574355,0.172595620155,0,0.70412319081,-9.6509250301e-05,128,0.22719720006,0.511718869209,
1.4788127477,0.169929996133,0,0.702519051968,-0.000109290143334,129,0.237400263548,0.533128023148,
1.48005054245,0.167157694697,0,0.700730311787,-0.000121865325743,130,0.247559994459,0.554462432861,
1.4813388745,0.164279222488,0,0.698758224056,-0.000134354757224,131,0.257666438818,0.575693130493,
1.48267744581,0.161295160651,0,0.696604503998,-0.000146726904786,132,0.267715483904,0.596812903881,
1.4840658764,0.158206164837,0,0.694272693114,-0.000158857520678,133,0.2776863873,0.617800831795,
1.48550385336,0.155012875795,0,0.69176410594,-0.000170889493149,134,0.287594109774,0.638657689095,
1.48699101905,0.151715904474,0,0.689082157645,-0.000182696382454,135,0.297432720661,0.659393906593,
1.48852697114,0.148316070437,0,0.686228618433,-0.000194382518743,136,0.307190477848,0.679968237877,
1.49011128495,0.144814163446,0,0.683206540719,-0.000205860425102,137,0.316862016916,0.70037984848,
1.49174352089,0.141211017966,0,0.680018815648,-0.000217141037448,138,0.326447665691,0.720630407333,
1.49342322449,0.137507542968,0,0.67666770447,-0.00022826733248,139,0.335939079523,0.740694046021,
1.49514988909,0.133704662323,0,0.673157141167,-0.00023912533978,140,0.34533149004,0.76057356596,
1.49692300806,0.129803359509,0,0.669490118172,-0.000249779225349,141,0.354623675346,0.780259132385,
1.49874206732,0.125804662704,0,0.665669193382,-0.000260258552043,142,0.363811433315,0.79974013567,
1.5006064559,0.121709689498,0,0.661699065989,-0.000270417426468,143,0.372878134251,0.818994998932,
1.50251561502,0.117519527674,0,0.65758298712,-0.000280354671954,144,0.381832450628,0.838032126427,
1.5044690008,0.11323530972,0,0.653322953411,-0.000290155593424,145,0.390677809715,0.856845140457,
1.50646599481,0.10885823518,0,0.648922635018,-0.000299706312647,146,0.399398714304,0.87541282177,
1.5085059377,0.104389585555,0,0.644385911922,-0.000308992599379,147,0.407988905907,0.893731951714,
1.51058817009,0.0998306274414,0,0.639716894565,-0.000317998536077,148,0.41644564271,0.911790847778,
1.51271201024,0.0951826870441,0,0.634919571703,-0.000326731145137,149,0.424769163132,0.929589450359,
1.51487675408,0.0904471501708,0,0.629997810399,-0.000335201330771,150,0.432948589325,0.947108745575,
1.51708167146,0.08562541008,0,0.62495631381,-0.000343351128406,151,0.440983653069,0.9643471241,
1.51932605083,0.080718934536,0,0.619797924649,-0.000351307656371,152,0.448876202106,0.981295108795,
1.52160914341,0.0757291615009,0,0.614527318478,-0.000358945279921,153,0.45661842823,0.997956514359,
1.52393015201,0.0706576704979,0,0.609148716752,-0.000366295068818,154,0.46420109272,1.01429784298,
1.52628831665,0.0655059665442,0,0.603666142443,-0.000373370576252,155,0.471632599831,1.03034079075,
1.52868277679,0.0602757111192,0,0.598084845193,-0.000380087817094,156,0.478892475367,1.04605281353,
1.53111271287,0.0549685247242,0,0.592409211698,-0.000386506422059,157,0.485987484455,1.06143689156,
1.53357730905,0.0495860427618,0,0.586643253679,-0.000392651886067,158,0.492919504642,1.07649731636,
1.53607573459,0.0441299118102,0,0.580791350731,-0.000398498902238,159,0.499684810638,1.0912258625,
1.53860709543,0.0386018641293,0,0.574858856247,-0.000403981275673,160,0.506272792816,1.10561060905,
1.54117045837,0.0330037288368,0,0.56885103223,-0.000409104818861,161,0.512672901154,1.11962819099,
1.5437649666,0.0273372344673,0,0.562771916048,-0.000413953805247,162,0.518902182579,1.13329994678,
1.54638976703,0.0216041244566,0,0.556625170163,-0.000418509053814,163,0.524960160255,1.14662265778,
1.54904385569,0.0158063098788,0,0.550417357312,-0.000422651493172,164,0.530817747116,1.15956354141,
1.55172631803,0.00994563940912,0,0.544152735134,-0.000426512979399,165,0.536493003368,1.17213487625,
1.55443621712,0.00402394868433,0,0.537836584999,-0.000430014849029,166,0.541980326176,1.18433904648,
1.55717259838,-0.00195693969727,0,0.531475040906,-0.000433099701987,167,0.547276496887,1.19616019726,
1.55993446621,-0.00799512863159,0,0.525074566349,-0.000435744186001,168,0.552374005318,1.20758759975,
1.56272086042,-0.0140881538391,0,0.51863139064,-0.000438645008996,169,0.557279169559,1.21863675117,
1.5655307654,-0.0202345848083,0,0.512160055692,-0.000440535884421,170,0.561981379986,1.22928380966,
1.56836323167,-0.0264320373535,0,0.505657654403,-0.000442643688468,171,0.566493630409,1.23954534531,
1.57121737401,-0.0326790809631,0,0.499133931414,-0.000444088765571,172,0.570800602436,1.24940943718,
1.5740917484,-0.0389738082886,0,0.492611650726,-0.000443984315336,173,0.57490247488,1.25885915756,
1.57698614995,-0.0453133583069,0,0.486053037868,-0.000446449211803,174,0.578811764717,1.26792407036,
1.57989867131,-0.0516963005066,0,0.479505380882,-0.000445696561657,175,0.582510232925,1.27657830715,
1.58282835881,-0.0581202507019,0,0.472965916035,-0.000445132174748,176,0.586011528969,1.28483009338,
1.58577521245,-0.0645837783813,0,0.466411856187,-0.000446118701223,177,0.589294731617,1.29266273975,
1.58873684804,-0.071084022522,0,0.459885479668,-0.000444227886688,178,0.592390120029,1.30010390282,
1.59171326558,-0.0776195526123,0,0.453363997678,-0.000443887975348,179,0.595276355743,1.30713474751,
1.59470303456,-0.0841884613037,0,0.446869655,-0.000442033866176,180,0.597947537899,1.3137472868,
1.59770520131,-0.0907883644104,0,0.440399685473,-0.000440368370924,181,0.600425183773,1.31996679306,
1.60071881215,-0.0974173545837,0,0.433958820563,-0.000438380596669,182,0.602701842785,1.32577836514,
1.60374243657,-0.104073047638,0,0.427561798039,-0.000435390217677,183,0.604772508144,1.33118700981,
1.60677559773,-0.110754013062,0,0.421203335564,-0.000432759154318,184,0.606637716293,1.3361890316,
1.60981734196,-0.117457866669,0,0.414880672072,-0.000430316450841,185,0.608303844929,1.34078621864,
1.61286623875,-0.124182701111,0,0.408616028388,-0.000426361479573,186,0.60977101326,1.34498953819,
1.61592133442,-0.130927085876,0,0.4024216067,-0.00042157625996,187,0.611031770706,1.34878492355,
1.61898167531,-0.137687683105,0,0.396279677275,-0.000417998152148,188,0.612107157707,1.35220706463,
1.62204678456,-0.144464015961,0,0.390199926211,-0.000413760839252,189,0.612973928452,1.35521626472,
1.62511475483,-0.151253223419,0,0.384207071463,-0.000407841637543,190,0.61365121603,1.35784494877,
1.62818558613,-0.158053874969,0,0.378278356203,-0.000403471304314,191,0.614143013954,1.36010015011,
1.63125784794,-0.164863586426,0,0.372428503306,-0.000398098573742,192,0.614451706409,1.36198604107,
1.63433058659,-0.171680927277,0,0.366669701592,-0.000391896815899,193,0.614563465118,1.36349093914,
1.63740332524,-0.178503990173,0,0.360989210023,-0.000386561617106,194,0.614488601685,1.36461806297,
1.64047463337,-0.185330867767,0,0.355409207298,-0.000379717487084,195,0.614240288734,1.36539375782,
1.64354355732,-0.192160129547,0,0.349941864497,-0.000372045383482,196,0.613807678223,1.36580264568,
1.64660962025,-0.198989391327,0,0.344566994926,-0.000365747477374,197,0.613204717636,1.36587262154,
1.64967139164,-0.205817222595,0,0.339314213784,-0.000357434263829,198,0.612430095673,1.36560034752,
1.6527288715,-0.212642192841,0,0.334160821481,-0.000350658653308,199,0.611484467983,1.36498892307,
1.65578110615,-0.219462394714,0,0.329111552055,-0.000343568852714,200,0.610370635986,1.36404085159,
1.65882618825,-0.226276397705,0,0.32421340785,-0.000333281190324,201,0.609109520912,1.36279213428,
1.66186507145,-0.233082771301,0,0.319408885525,-0.00032690586841,202,0.607686698437,1.3612165451,
1.66489537159,-0.239879131317,0,0.314747513899,-0.000317161004366,203,0.606108188629,1.35933470726,
1.66791708867,-0.246665000916,0,0.310221500892,-0.000307945342463,204,0.604384362698,1.35716485977,
1.67092974583,-0.253438472748,0,0.305818183442,-0.000299592082966,205,0.602512180805,1.35469210148,
1.67393238942,-0.260198116302,0,0.301549727935,-0.000290411369071,206,0.600498497486,1.35193812847,
1.67692406575,-0.266942977905,0,0.297435701716,-0.000279900732277,207,0.598360002041,1.34892451763,
1.67990477482,-0.273671150208,0,0.293446098119,-0.000271390959163,208,0.596080124378,1.34564864635,
1.68287308613,-0.280381679535,0,0.289617851359,-0.000260410620586,209,0.593683600426,1.34212970734,
1.68582899968,-0.287073612213,0,0.285935792455,-0.000250463034923,210,0.591167390347,1.33835864067,
1.68877156178,-0.293745517731,0,0.282412068039,-0.000239689442197,211,0.588537037373,1.33436536789,
1.69170029561,-0.300395965576,0,0.279041482211,-0.000229269506111,212,0.585796952248,1.33014380932,
1.69461520115,-0.307024478912,0,0.275816308177,-0.00021937548009,213,0.582940220833,1.32571721077,
1.69751532475,-0.313630104065,0,0.272756081938,-0.000208152154039,214,0.579997062683,1.32108640671,
1.70039971272,-0.320211410522,0,0.269872932804,-0.000196104882144,215,0.576953887939,1.31627106667,
1.7032688419,-0.326767921448,0,0.267141831215,-0.000185760514654,216,0.57382363081,1.31127285957,
1.70612223546,-0.333298206329,0,0.264557646313,-0.000175765134471,217,0.570614635944,1.30611610413,
1.70895893971,-0.339802265167,0,0.262154623606,-0.000163441108142,218,0.56732070446,1.30079078674,
1.71177847783,-0.34627866745,0,0.259927607293,-0.000151467896487,219,0.563956439495,1.29532527924,
1.71458132664,-0.352727413177,0,0.257858994172,-0.000140691989787,220,0.560525417328,1.28972733021,
1.71736653248,-0.359147548676,0,0.255968277754,-0.000128590332529,221,0.557041168213,1.28400969505,
1.72013361851,-0.365538597107,0,0.254265015644,-0.000115839743257,222,0.553495585918,1.27817821503,
1.7228835384,-0.371899604797,0,0.252699735475,-0.000106452714439,223,0.549904704094,1.27223837376,
1.72561486165,-0.378230571747,0,0.251323825562,-9.35724226052e-05,224,0.54626506567,1.26621699333,
1.72832758824,-0.384531497955,0,0.250136930856,-8.07166623795e-05,225,0.542591333389,1.26012814045,
1.73102219502,-0.390800952911,0,0.249099564138,-7.05467704346e-05,226,0.538882374763,1.25395655632,
1.73369772831,-0.397039890289,0,0.248260438233,-5.70643110923e-05,227,0.535149931908,1.24774646759,
1.73635466496,-0.403247356415,0,0.247587409405,-4.57683248613e-05,228,0.531394004822,1.24148178101,
1.73899300496,-0.409423351288,0,0.247080176724,-3.44930706281e-05,229,0.527628183365,1.23519134521,
1.74161227147,-0.415567874908,0,0.246755594287,-2.20720932603e-05,230,0.523845851421,1.22888565063,
1.74421246449,-0.421680450439,0,0.246606050319,-1.01690686291e-05,231,0.520061790943,1.22256064415,
1.74679358403,-0.427761554718,0,0.246638506408,2.20699959047e-06,232,0.516275882721,1.21623921394,
1.74935610692,-0.433811187744,0,0.24683551085,1.33960272628e-05,233,0.512507617474,1.20993757248,
1.75190003315,-0.439829826355,0,0.247204027783,2.50582124874e-05,234,0.508739233017,1.20366084576,
1.75442488591,-0.445816516876,0,0.247746334283,3.68749616982e-05,235,0.505001783371,1.1974105835,
1.75693161885,-0.451772689819,0,0.248449689012,4.78249401786e-05,236,0.501279294491,1.19121837616,
1.7594192783,-0.457698345184,0,0.24934794598,6.107654605e-05,237,0.49758669734,1.18507385254,
1.76188881794,-0.463593006134,0,0.250399378019,7.14906271773e-05,238,0.493927329779,1.17899763584,
1.76434071461,-0.46945810318,0,0.251608336892,8.22000995645e-05,239,0.490306615829,1.17300713062,
1.76677401463,-0.475293636322,0,0.253008605305,9.52064175392e-05,240,0.486735701561,1.16708755493,
1.76919014851,-0.481100082397,0,0.254555939459,0.000105203702551,241,0.483209878206,1.1612752676,
1.77158911625,-0.486877918243,0,0.256257262765,0.000115666400812,242,0.479736983776,1.15557813644,
1.77397044102,-0.492628097534,0,0.258143675384,0.000128248029012,243,0.476323664188,1.15000188351,
1.77633555333,-0.49835062027,0,0.260163819131,0.000137337203239,244,0.472975641489,1.14454364777,
1.77868397633,-0.504046440125,0,0.262348773613,0.000148539512298,245,0.46969127655,1.13921630383,
1.78101618687,-0.50971698761,0,0.264702751234,0.00016002727597,246,0.466480284929,1.13405334949,
1.78333313862,-0.515362262726,0,0.267191463983,0.000169184396569,247,0.463350772858,1.12902665138,
1.78563435475,-0.520983219147,0,0.269845878824,0.000180432273041,248,0.460293233395,1.12417030334,
1.78792126576,-0.52658033371,0,0.272621973678,0.000188700059099,249,0.457337856293,1.11949074268,
1.79019339482,-0.532155513763,0,0.275564962506,0.000200040393835,250,0.454457521439,1.11499285698,
1.79245217244,-0.537708759308,0,0.278623708619,0.000207905705478,251,0.451678514481,1.11068820953,
1.79469712178,-0.543241500854,0,0.281836195792,0.000218351300364,252,0.448999613523,1.10656571388,
1.79692919652,-0.548755168915,0,0.285189621302,0.000227924342576,253,0.446409732103,1.10264873505,
1.79914839665,-0.554249763489,0,0.288683583937,0.000237472450743,254,0.443926125765,1.09895634651,
1.80135662953,-0.559727191925,0,0.292278688421,0.000244343158264,255,0.441561669111,1.09547317028,
1.80355294148,-0.565188407898,0,0.296022478105,0.00025444516458,256,0.439301222563,1.09222602844,
1.80573876301,-0.570634365082,0,0.299878180998,0.000262047774536,257,0.437166571617,1.08920907974,
1.80791457097,-0.576066493988,0,0.303849833364,0.000269923405032,258,0.43513455987,1.08642590046,
1.81008084218,-0.581485748291,0,0.307934352074,0.000277590138126,259,0.433231621981,1.08389163017,
1.81223805348,-0.586894035339,0,0.312142774216,0.000286006033483,260,0.431455522776,1.08160686493,
1.81438668171,-0.59229183197,0,0.316464882709,0.000293724477215,261,0.429800182581,1.07958853245,
1.81652815739,-0.597681045532,0,0.320878103847,0.000299911841998,262,0.428273528814,1.07782292366,
1.81866248051,-0.6030626297,0,0.325396055329,0.000307024931676,263,0.426876753569,1.07632625103,
1.82079060475,-0.608438014984,0,0.33000584785,0.000313259624434,264,0.425619632006,1.07511341572,
1.82291300694,-0.613809108734,0,0.334718343291,0.000320234239359,265,0.424491524696,1.07416033745,
1.82503064076,-0.619176387787,0,0.339506564296,0.000325375661985,266,0.423510104418,1.07349252701,
1.82714398304,-0.624541759491,0,0.344381321517,0.000331251573061,267,0.422661483288,1.07310843468,
1.82925398747,-0.629907131195,0,0.349336659505,0.000336722153116,268,0.421960264444,1.07302772999,
1.83136065403,-0.635273456573,0,0.354385942066,0.000343100992613,269,0.421389967203,1.07321989536,
1.83346541325,-0.640641689301,0,0.359492505957,0.000346987244633,270,0.420973956585,1.07371878624,
1.83556921879,-0.646014213562,0,0.364657333307,0.000350941186205,271,0.420693606138,1.07451140881,
1.83767207066,-0.651392459869,0,0.369900654227,0.000356269617332,272,0.420572400093,1.07562053204,
1.83977492253,-0.656777381897,0,0.375202417554,0.000360235001199,273,0.420589953661,1.07700717449,
1.84187872807,-0.662170886993,0,0.380556496306,0.000363784078628,274,0.420758634806,1.07871091366,
1.84398396412,-0.667574882507,0,0.385973302366,0.000368040977165,275,0.421085089445,1.08072912693,
1.8460920612,-0.672989845276,0,0.391409254999,0.000369317217036,276,0.421546131372,1.08303678036,
1.8482030193,-0.678418159485,0,0.39689820432,0.000372911828352,277,0.42216578126,1.08567237854,
1.85031731526,-0.683861255646,0,0.402443459328,0.000376731425441,278,0.422929257154,1.08860599995,
1.85243685643,-0.68932056427,0,0.407998722296,0.000377405596693,279,0.42384532094,1.09184789658,
1.85456116597,-0.694797515869,0,0.413600308504,0.000380546857068,280,0.424917817116,1.0954105854,
1.85669167439,-0.700294017792,0,0.419225286169,0.000382130395423,281,0.426131606102,1.09926462173,
1.85882933537,-0.705811023712,0,0.424853479913,0.000382343413241,282,0.427488595247,1.10344302654,
1.86097414891,-0.711350917816,0,0.430518210848,0.00038481859549,283,0.429007530212,1.10793483257,
1.86312754551,-0.716914653778,0,0.436182752476,0.000384800302448,284,0.430669426918,1.11272239685,
1.86529000203,-0.722503662109,0,0.441850144248,0.000384966404749,285,0.432478904724,1.11782407761,
1.86746199528,-0.728119850159,0,0.447530173753,0.000385817546316,286,0.434427946806,1.12322771549,
1.86964495579,-0.7337641716,0,0.453186125503,0.000384176880074,287,0.436525255442,1.12893188,
1.87183888356,-0.73943901062,0,0.458850879388,0.000384762755745,288,0.438770204782,1.13494265079,
1.87404425541,-0.745145320892,0,0.464520365403,0.000385077517283,289,0.441157370806,1.14125216007,
1.87626297871,-0.750884532928,0,0.470148271276,0.000382247998164,290,0.44367852807,1.14783799648,
1.87849457661,-0.75665807724,0,0.475769965449,0.000381818878943,291,0.446334630251,1.15473937988,
1.88074047963,-0.762467861176,0,0.48136217768,0.000379811083281,292,0.449145168066,1.16192770004,
1.88300068776,-0.768314838409,0,0.486936983862,0.000378623546044,293,0.452075332403,1.16938364506,
1.88527663151,-0.774200439453,0,0.492464315499,0.000375393966793,294,0.45514523983,1.17714583874,
1.8875683109,-0.780126094818,0,0.497962868263,0.000373434183691,295,0.45834043622,1.18517160416,
1.88987667958,-0.786093711853,0,0.503425446997,0.000370985307638,296,0.461674928665,1.19347596169,
1.8922022144,-0.792103767395,0,0.508840905084,0.000367779977672,297,0.4651273489,1.20205569267,
1.89454539219,-0.798158168793,0,0.514218142985,0.00036517775466,298,0.468695759773,1.21088290215,
1.89690764348,-0.804258346558,0,0.519526936967,0.00036034132559,299,0.472398012877,1.2199870348,
1.89928849141,-0.810404777527,0,0.524788350115,0.000356566427181,300,0.476214706898,1.2293343544,
1.9016893665,-0.816599845886,0,0.529985401251,0.000352197789376,301,0.480140328407,1.23894286156,
1.90411026875,-0.822843551636,0,0.535116198654,0.000347694533647,302,0.484182357788,1.2487950325,
1.906551675,-0.829137802124,0,0.540189210305,0.000343772058646,303,0.488329410553,1.25885641575,
1.90901501576,-0.835484027863,0,0.545174046446,0.000337791245971,304,0.492583274841,1.26918494701,
1.91149933735,-0.841882228851,0,0.550100747032,0.000333571726679,305,0.4969432652,1.27971434593,
1.91400654713,-0.848334789276,0,0.554935989895,0.000324861292066,306,0.501390397549,1.29047381878,
1.91653616826,-0.854842185974,0,0.559700159405,0.000320081255343,307,0.505936086178,1.30143761635,
1.9190891544,-0.86140537262,0,0.564372130709,0.00031388224611,308,0.510585129261,1.31262099743,
1.92166550557,-0.86802482605,0,0.568956147328,0.000307968859123,309,0.515305876732,1.32397842407,
1.92426617543,-0.874702453613,0,0.573444079879,0.000301509501443,310,0.5201177001,1.33553779125,
1.92689116398,-0.881439208984,0,0.577846481666,0.000295730094973,311,0.524992406368,1.34728348255,
1.92954094807,-0.888235092163,0,0.582144920124,0.000288741186873,312,0.529958307743,1.35919809341,
1.93221600453,-0.895091533661,0,0.586340419339,0.000281821215531,313,0.534991919994,1.371281147,
1.93491633336,-0.902009010315,0,0.590436779521,0.000275155245082,314,0.540098309517,1.38352227211,
1.93764288823,-0.9089884758,0,0.594412564616,0.000267051326217,315,0.54525411129,1.39591169357,
1.9403951923,-0.916030883789,0,0.598293635248,0.000260685580661,316,0.550482034683,1.40845513344,
1.94317372242,-0.923136711121,0,0.60206771185,0.000253495379943,317,0.555751025677,1.42113399506,
1.94597943226,-0.930306434631,0,0.605706807292,0.000244425603473,318,0.561071634293,1.43393874168,
1.94881136815,-0.937540531158,0,0.609245725466,0.000237682489937,319,0.566448152065,1.446844697,
1.95167048375,-0.944839954376,0,0.612662701522,0.000229489148139,320,0.571846842766,1.45987379551,
1.9545572559,-0.952204704285,0,0.615938960271,0.000220035263358,321,0.577308118343,1.47300982475,
1.95747120778,-0.959635734558,0,0.619099584417,0.000212266237903,322,0.582773566246,1.48624801636,
1.96041233937,-0.967133522034,0,0.622147492621,0.000204693288445,323,0.588280379772,1.49954724312,
1.96338160435,-0.974698543549,0,0.625054422496,0.000195222732853,324,0.593804836273,1.5129430294,
1.96637804905,-0.982330322266,0,0.627841692283,0.000187179615443,325,0.599342107773,1.52637135983,
1.96940262715,-0.990029811859,0,0.630487245819,0.000177660154763,326,0.604894995689,1.53989064693,
1.9724548618,-0.997797012329,0,0.633002928372,0.000168935812103,327,0.610462367535,1.55343973637,
1.97553522984,-1.00563192368,0,0.635369601384,0.000158927213972,328,0.616029679775,1.56705474854,
1.97864325444,-1.01353549957,0,0.637611278426,0.000150531445258,329,0.621595919132,1.58068311214,
1.98177893559,-1.02150726318,0,0.639717823099,0.000141454564597,330,0.627158939838,1.59433507919,
1.98494275013,-1.02954721451,0,0.641669951445,0.000131083743677,331,0.63271099329,1.60800874233,
1.9881337444,-1.03765583038,0,0.643500359664,0.000122908721592,332,0.638242065907,1.62167954445,
1.99135239522,-1.04583263397,0,0.645183448388,0.000113014971571,333,0.643768250942,1.63535690308,
1.99459870259,-1.05407762527,0,0.64671504057,0.000102840990179,334,0.649259567261,1.64901638031,
1.99787266652,-1.06239080429,0,0.648090894406,9.23824437836e-05,335,0.654720425606,1.66265320778,
2.00117333333,-1.07077217102,0,0.649336947975,8.36658133059e-05,336,0.660153388977,1.6762663126,
2.00450070302,-1.07922124863,0,0.650442607504,7.42380876698e-05,337,0.665534555912,1.68984889984,
2.00785525242,-1.08773803711,0,0.651388227787,6.34916012903e-05,338,0.6708958745,1.7033894062,
2.01123650471,-1.09632205963,0,0.652178312722,5.30477992821e-05,339,0.676204562187,1.7168507576,
2.01464350621,-1.10497379303,0,0.652844066292,4.46993719756e-05,340,0.681452691555,1.73027062416,
2.01807673375,-1.11369180679,0,0.653347801598,3.38208550932e-05,341,0.686652004719,1.74361991882,
2.02153571049,-1.12247610092,0,0.65369962903,2.3621402579e-05,342,0.691796302795,1.75687837601,
2.02501995961,-1.13132619858,0,0.653903573899,1.36924939628e-05,343,0.696860849857,1.77007961273,
2.02852948109,-1.14024209976,0,0.653954542963,3.42192320248e-06,344,0.701882839203,1.78316390514,
2.03206379811,-1.1492228508,0,0.653850532407,-6.9828891023e-06,345,0.706822097301,1.79616761208,
2.03562195698,-1.15826845169,0,0.653615781934,-1.57600719057e-05,346,0.711682617664,1.80905246735,
2.03920443455,-1.16737747192,0,0.65321281401,-2.70530485192e-05,347,0.716466248035,1.82182359695,
2.04281027714,-1.1765499115,0,0.652665653739,-3.67328228383e-05,348,0.721162199974,1.83447659016,
2.04643900792,-1.18578481674,0,0.65197191507,-4.65725149486e-05,349,0.72578638792,1.8470044136,
2.05009062687,-1.19508171082,0,0.651120289566,-5.71710870006e-05,350,0.73031181097,1.85938811302,
2.05376418034,-1.20443964005,0,0.650122876258,-6.69571815548e-05,351,0.734740138054,1.87163996696,
2.05745966832,-1.21385860443,0,0.648973855792,-7.71335906174e-05,352,0.739087700844,1.88373947144,
2.06117613713,-1.22333669662,0,0.647673831275,-8.72692748373e-05,353,0.743308186531,1.89568698406,
2.06491358677,-1.23287439346,0,0.646222441735,-9.74289150427e-05,354,0.747443377972,1.9074780941,
2.06867106358,-1.2424697876,0,0.644620155236,-0.000107556622613,355,0.751468598843,1.91909098625,
2.07244761387,-1.25212240219,0,0.64288393014,-0.000116545914222,356,0.75538110733,1.9305434227,
2.07624371449,-1.26183128357,0,0.640982241692,-0.00012765105847,357,0.759179592133,1.94181895256,
2.08005793492,-1.2715959549,0,0.63894605161,-0.000136677734626,358,0.762879729271,1.9529145956,
2.08389027516,-1.28141498566,0,0.636752594267,-0.00014723236019,359,0.766445577145,1.96384096146,
2.08773978154,-1.29128789902,0,0.634418281084,-0.000156684832684,360,0.76987940073,1.97451877594,
2.09160597722,-1.30121278763,0,0.631929127965,-0.000167067245464,361,0.773218274117,1.98506307602,
2.09548790852,-1.31118965149,0,0.629306565116,-0.000176018887408,362,0.776398718357,1.99537754059,
2.09938509861,-1.32121753693,0,0.62654706142,-0.000185206710451,363,0.779484212399,2.00549459457,
2.10329707066,-1.33129405975,0,0.623631334749,-0.00019568889361,364,0.782413899899,2.01538109779,
2.10722334782,-1.34141969681,0,0.62057170442,-0.000205332272499,365,0.785222351551,2.02509570122,
2.11116297642,-1.35159254074,0,0.617367960068,-0.00021500046132,366,0.7878870368,2.03455018997,
2.11511500279,-1.36181163788,0,0.614030192019,-0.000223991337286,367,0.790436685085,2.04383707047,
2.11907895009,-1.37207555771,0,0.61054949202,-0.000233579785988,368,0.79282438755,2.05283784866,
2.12305434147,-1.38238382339,0,0.606927199326,-0.000243078177414,369,0.795062065125,2.06165409088,
2.12704070012,-1.39273500443,0,0.603154423147,-0.000253172972447,370,0.797201037407,2.07024049759,
2.13103611867,-1.40312814713,0,0.599267826332,-0.000260807114096,371,0.799149513245,2.07859277725,
2.13504107396,-1.41356134415,0,0.595226331349,-0.000271196915749,372,0.800976157188,2.08666563034,
2.13905413548,-1.42403411865,0,0.591057816383,-0.000279716299118,373,0.80265635252,2.0945558548,
2.14307530324,-1.43454504013,0,0.586739838796,-0.000289741379403,374,0.804183542728,2.10220313072,
2.14710314671,-1.44509315491,0,0.582294907916,-0.000298255798298,375,0.805556297302,2.10958719254,
2.15113718907,-1.45567655563,0,0.577709044904,-0.000307708003291,376,0.806799292564,2.11672496796,
2.15517647664,-1.46629476547,0,0.572996005167,-0.000316237256537,377,0.80784112215,2.12360787392,
2.15922005574,-1.47694587708,0,0.568154929079,-0.000324823579216,378,0.808774292469,2.13026475906,
2.16326792637,-1.4876294136,0,0.563173090576,-0.000334263478502,379,0.809553444386,2.13668107986,
2.16731865803,-1.49834346771,0,0.558062696359,-0.000342884215536,380,0.810153901577,2.14281392097,
2.17137177388,-1.50908708572,0,0.552819240287,-0.000351806983339,381,0.810615241528,2.1487300396,
2.17542632023,-1.51985883713,0,0.547446447957,-0.000360479571655,382,0.810909330845,2.15435218811,
2.17948134343,-1.53065729141,0,0.541947948364,-0.000368908369482,383,0.811044871807,2.15976214409,
2.18353684346,-1.54148197174,0,0.53631089143,-0.000378198957405,384,0.811041116714,2.16488409042,
2.18759091298,-1.55233049393,0,0.530555194203,-0.000386153213568,385,0.810854136944,2.16977548599,
2.19164355198,-1.56320238113,0,0.5246679148,-0.000394975033226,386,0.810537338257,2.17440032959,
2.19569380681,-1.57409620285,0,0.518652452209,-0.000403569149138,387,0.81002420187,2.17873573303,
2.19974072377,-1.58501052856,0,0.512512117639,-0.000411940871516,388,0.809394538403,2.18284535408,
2.20378334919,-1.59594392776,0,0.50625013631,-0.000420095737038,389,0.8085526824,2.1866877079,
2.20782120625,-1.60689496994,0,0.499857353441,-0.000428864519421,390,0.807577371597,2.19026947021,
2.21185334126,-1.61786317825,0,0.493345436057,-0.00043684989004,391,0.80646109581,2.19361019135,
2.21587927739,-1.62884616852,0,0.486696826129,-0.000446013723618,392,0.805121123791,2.1966445446,
2.21989758412,-1.6398434639,0,0.479935159244,-0.000453590695674,393,0.803698182106,2.19945144653,
2.22390778462,-1.65085363388,0,0.473051180965,-0.000461788596636,394,0.802042663097,2.20198297501,
2.22790940205,-1.66187477112,0,0.466031810331,-0.000470863509281,395,0.8002794981,2.2042722702,
2.2319010059,-1.67290592194,0,0.458896092367,-0.000478660878991,396,0.798323690891,2.20628881454,
2.2358816425,-1.6839466095,0,0.451654672156,-0.000485744386649,397,0.796208560467,2.20804452896,
2.23985131184,-1.69499397278,0,0.444274811441,-0.00049502310059,398,0.793932616711,2.20953369141,
2.24380906025,-1.70604753494,0,0.436767406355,-0.000503568499302,399,0.791514992714,2.21076703072,
2.24775345723,-1.71710634232,0,0.429150739416,-0.000510888199439,400,0.78891736269,2.21172451973,
2.25168450276,-1.72816848755,0,0.421400457368,-0.000519843384253,401,0.786129891872,2.21245026588,
2.2556002895,-1.73923301697,0,0.413546183341,-0.000526810516035,402,0.783240020275,2.21289563179,
2.25950129429,-1.75029850006,0,0.405556114293,-0.00053588357038,403,0.780137836933,2.213078022,
2.26338560978,-1.76136350632,0,0.397455867192,-0.000543265309642,404,0.776902914047,2.2130150795,
2.26725275914,-1.77242660522,0,0.389236701053,-0.000551233146832,405,0.77346944809,2.21264314651,
2.27110274235,-1.78348684311,0,0.38088247271,-0.000560283413929,406,0.769921600819,2.21205687523,
2.27493365208,-1.79454278946,0,0.372418339711,-0.000567646383167,407,0.766190171242,2.21122360229,
2.27874501149,-1.8055934906,0,0.363839184285,-0.000575350946926,408,0.762292265892,2.21008563042,
2.28253634373,-1.81663703918,0,0.355133216948,-0.000583847199762,409,0.758247971535,2.20872592926,
2.2863062183,-1.8276720047,0,0.346314209382,-0.000591418741513,410,0.754025638103,2.20706582069,
2.29005463521,-1.83869791031,0,0.337369751399,-0.000599823211759,411,0.749636352062,2.20515823364,
2.29378016392,-1.84971284866,0,0.328310147232,-0.000607536548233,412,0.745103597641,2.2030005455,
2.29748185078,-1.86071586609,0,0.319141291657,-0.000614853014093,413,0.740416109562,2.20059514046,
2.30115969578,-1.87170553207,0,0.309844581084,-0.000623281826954,414,0.735560417175,2.19789385796,
2.30481274525,-1.88267993927,0,0.300419959697,-0.000631846461617,415,0.730536043644,2.19496178627,
2.30843909184,-1.89363908768,0,0.290900565756,-0.000638190863189,416,0.725353002548,2.19176959991,
2.31203921238,-1.90458011627,0,0.281248681559,-0.00064706401284,417,0.720014810562,2.18828105927,
2.31561167637,-1.91550302505,0,0.271486817798,-0.00065442691165,418,0.714505136013,2.1845676899,
2.31915600697,-1.92640590668,0,0.261604680201,-0.000662480241276,419,0.708853602409,2.18059325218,
2.3226712505,-1.93728733063,0,0.251605470658,-0.000670318093118,420,0.703055083752,2.17632985115,
2.32615645329,-1.94814682007,0,0.241497972437,-0.000677567856995,421,0.697055757046,2.17185735703,
2.3296111385,-1.95898246765,0,0.231272452354,-0.00068546970472,422,0.6909263134,2.167075634,
2.33303435246,-1.96979236603,0,0.220929644179,-0.000693322375311,423,0.684641361237,2.16203927994,
2.33642561833,-1.98057603836,0,0.210468557688,-0.000701241283368,424,0.678195953369,2.1567761898,
2.3397835056,-1.99133253098,0,0.199905105144,-0.000708093475481,425,0.671569824219,2.15121507645,
2.34310753743,-2.00205945969,0,0.189227847871,-0.00071571198409,426,0.66483515501,2.14541459084,
2.34639676014,-2.01275587082,0,0.178443127728,-0.000722905615029,427,0.657892763615,2.13936090469,
2.34965117375,-2.02342128754,0,0.167540494773,-0.000730799109492,428,0.650826394558,2.1330063343,
2.35286887089,-2.03405332565,0,0.156538181992,-0.000737469615407,429,0.64359754324,2.12643289566,
2.35604985158,-2.04465103149,0,0.145423703872,-0.000744977501189,430,0.636205971241,2.11960148811,
2.35919316212,-2.05521345139,0,0.134203678456,-0.000752005356511,431,0.628666162491,2.11244869232,
2.3622983257,-2.06573867798,0,0.122870992763,-0.00075954529173,432,0.620964765549,2.1051003933,
2.36536391179,-2.07622623444,0,0.111443895239,-0.000765862540824,433,0.613120317459,2.09746313095,
2.36838896672,-2.08667373657,0,0.0999225892737,-0.0007721658752,434,0.605091691017,2.08953094482,
2.37137396733,-2.09708070755,0,0.0882889468766,-0.000779683835034,435,0.596951246262,2.08140563965,
2.37431700627,-2.10744524002,0,0.0765641574342,-0.000785781969911,436,0.588633358479,2.07294917107,
2.37721808354,-2.11776685715,0,0.0647395145471,-0.000792463608366,437,0.580165624619,2.06426668167,
2.38007576863,-2.12804317474,0,0.0528254774584,-0.000798444054303,438,0.571546494961,2.05531811714,
2.3828895847,-2.13827371597,0,0.0408226476529,-0.000804384217082,439,0.562772810459,2.04607963562,
2.38565905491,-2.14845657349,0,0.0287263546799,-0.000810637031277,440,0.553857505322,2.03660368919,
2.38838274876,-2.15859079361,0,0.016553144976,-0.000815780619289,441,0.54480278492,2.02686834335,
2.39106066624,-2.16867494583,0,0.00429210880461,-0.000821655238919,442,0.535563647747,2.01684832573,
2.39369185368,-2.17870807648,0,-0.00804846940665,-0.000826974658223,443,0.526213526726,2.00656652451,
2.3962753574,-2.18868780136,0,-0.0204649824817,-0.000832051998593,444,0.516693532467,1.99602270126,
2.39881022374,-2.19861412048,0,-0.0329457300081,-0.000836345051495,445,0.507007479668,1.98521912098,
2.40129645268,-2.20848464966,0,-0.0455030472297,-0.000841464811863,446,0.497205883265,1.9741435051,
2.40373261372,-2.21829891205,0,-0.0581181466384,-0.000845324073682,447,0.487258821726,1.96281170845,
2.40611823002,-2.22805452347,0,-0.0707941721668,-0.000849388703225,448,0.477137804031,1.95120584965,
2.40845282475,-2.23775148392,0,-0.0835269453724,-0.000853178705123,449,0.466901689768,1.93933701515,
2.41073544423,-2.24738740921,0,-0.0963106298564,-0.000856578162997,450,0.456514060497,1.92720270157,
2.41296513478,-2.25696134567,0,-0.109135220379,-0.00085930742416,451,0.445975571871,1.91480886936,
2.41514189641,-2.26647186279,0,-0.122007328629,-0.000862478309263,452,0.435319602489,1.90215134621,
2.4172642986,-2.2759180069,0,-0.134908616923,-0.00086442126761,453,0.424501180649,1.88924205303,
2.41933186451,-2.28529810905,0,-0.147837744989,-0.000866273948359,454,0.413526535034,1.87604320049,
2.42134411732,-2.29461121559,0,-0.160791299123,-0.000867895367601,455,0.402462601662,1.86261188984,
2.42330010335,-2.30385541916,0,-0.173759843241,-0.000868886335559,456,0.391227155924,1.84887087345,
2.42519934575,-2.3130300045,0,-0.186738764571,-0.000869569694281,457,0.379852235317,1.83489727974,
2.42704136769,-2.32213330269,0,-0.199724793836,-0.000870033775906,458,0.368372559547,1.82069802284,
2.42882473866,-2.33116412163,0,-0.212698701591,-0.000869209434792,459,0.356738626957,1.80619001389,
2.4305499355,-2.34012126923,0,-0.225670195291,-0.000869035948688,460,0.344974368811,1.79143476486,
2.43221505085,-2.34900331497,0,-0.238612564822,-0.000867070963265,461,0.333092451096,1.77644407749,
2.43382056157,-2.35780930519,0,-0.251534157658,-0.000865666558217,462,0.3210734725,1.76116228104,
2.43536503712,-2.36653733253,0,-0.26441540427,-0.000862951175476,463,0.308899670839,1.74564194679,
2.43684847752,-2.37518668175,0,-0.277256155824,-0.000860226689006,464,0.29666030407,1.72989165783,
2.43826992909,-2.38375592232,0,-0.290042583805,-0.000856576135034,465,0.284256368876,1.71385741234,
2.43962843815,-2.39224386215,0,-0.30276035104,-0.000851963397433,466,0.27174860239,1.69761633873,
2.44092400471,-2.40064954758,0,-0.315408253728,-0.000847271179673,467,0.259117662907,1.6811375618,
2.44215615193,-2.40897130966,0,-0.327978130086,-0.000842033148112,468,0.246376797557,1.66435468197,
2.44332344929,-2.41720795631,0,-0.340447651131,-0.000835299855774,469,0.233501896262,1.64737141132,
2.44442637364,-2.42535877228,0,-0.352820632347,-0.000828788393467,470,0.220556437969,1.63015007973,
2.44546349446,-2.43342208862,0,-0.365074245548,-0.00082077962978,471,0.207439184189,1.61267316341,
2.44643481175,-2.44139671326,0,-0.377204751047,-0.000812521049515,472,0.194261908531,1.59498894215,
2.44733984868,-2.44928216934,0,-0.389201293467,-0.000803536705513,473,0.18097871542,1.57708072662,
2.44817717473,-2.45707654953,0,-0.401039957509,-0.000792950204975,474,0.167541250587,1.55893111229,
2.44894774357,-2.46477937698,0,-0.412728204335,-0.000782859540223,475,0.154076963663,1.54056715965,
2.44965012471,-2.47238945961,0,-0.424241253427,-0.000771113974198,476,0.140491649508,1.52203464508,
2.45028431813,-2.47990560532,0,-0.435572753015,-0.000758943806157,477,0.126794710755,1.50325071812,
2.45084937016,-2.48732662201,0,-0.446703397232,-0.000745480802991,478,0.113028392196,1.48423814774,
2.4513452808,-2.49465203285,0,-0.457626173623,-0.000731548226501,479,0.0991745442152,1.46506440639,
2.45177109639,-2.50188040733,0,-0.468320891319,-0.000716230111434,480,0.0852108374238,1.44568550587,
2.45212729374,-2.50901079178,0,-0.478785207002,-0.000700784730131,481,0.0711779370904,1.42611646652,
2.45241244236,-2.51604247093,0,-0.488992608651,-0.000683568726612,482,0.0570751316845,1.40635228157,
2.45262701909,-2.52297472954,0,-0.498940035865,-0.000666147879055,483,0.0429423339665,1.38647842407,
2.45277054707,-2.52980661392,0,-0.508611826149,-0.00064767956666,484,0.0286687798798,1.3663687706,
2.45284207264,-2.53653717041,0,-0.517986157435,-0.000627750932003,485,0.0143544496968,1.34609556198,
2.45284207264,-2.54316568375,0,-0.527058380609,-0.000607509495777,486,-5.61587512493e-07,1.3257073164,
2.45277007023,-2.54969143867,0,-0.535811847049,-0.000586156463989,487,-0.0144348843023,1.30514979362,
2.45262558857,-2.55611371994,0,-0.544229581923,-0.000563665872816,488,-0.028918042779,1.28445959091,
2.45240815083,-2.56243181229,0,-0.552294281263,-0.00054001807868,489,-0.04345125705,1.26363122463,
2.45211823384,-2.56864547729,0,-0.560000175827,-0.000515984199491,490,-0.0580117627978,1.24271321297,
2.45175488392,-2.57475352287,0,-0.567322794065,-0.000490312334698,491,-0.072639554739,1.2216385603,
2.45131857792,-2.58075594902,0,-0.574255965475,-0.00046422875037,492,-0.0872865617275,1.20047867298,
2.450808839,-2.5866522789,0,-0.580781377367,-0.00043691901921,493,-0.101937301457,1.179251194,
2.45022566716,-2.59244179726,0,-0.586885269526,-0.000408689734157,494,-0.116653554142,1.15789914131,
2.44956858555,-2.59812426567,0,-0.592549213531,-0.000379227520541,495,-0.131360992789,1.13649845123,
2.44883807103,-2.60369944572,0,-0.597765111104,-0.000349222968328,496,-0.146109879017,1.11504435539,
2.44803412358,-2.609167099,0,-0.602519195934,-0.000318298499449,497,-0.160850152373,1.09352695942,
2.44715578953,-2.61452698708,0,-0.606787085868,-0.000285742232682,498,-0.175578683615,1.07196629047,
2.4462044994,-2.61977863312,0,-0.61056935325,-0.000253225163408,499,-0.190332427621,1.05035793781,
2.44517882268,-2.62492251396,0,-0.613837922057,-0.000218828863535,500,-0.205084189773,1.02877652645,
2.44408018986,-2.62995815277,0,-0.616592632948,-0.00018442373227,501,-0.219789281487,1.00716817379,
2.44290764729,-2.6348862648,-0.26348862648,-0.618811047742,-0.000148516963294,502,-0.234492361546,0.985595881939,
2.4416616718,-2.6397061348,0.0,-0.620481572706,-0.000111835433849,503,-0.249162405729,0.964006543159,
2.44038517872,-2.64449977875,0,-0.622295602281,-0.000121440367826,504,-0.255306631327,0.958692669868,
2.43903382222,-2.64918231964,0,-0.623516871006,-8.17565881901e-05,505,-0.270333319902,0.936502575874,
2.43760950963,-2.65375852585,0,-0.624165312644,-4.34085341165e-05,506,-0.284830927849,0.915231108665,
2.43611271779,-2.65822768211,0,-0.624228360851,-4.22056688469e-06,507,-0.299392849207,0.893861532211,
2.43454296986,-2.66259026527,0,-0.623687506813,3.62033125283e-05,508,-0.313918679953,0.872518062592,
2.43290121953,-2.66684675217,0,-0.622538688836,7.68970839781e-05,509,-0.328375577927,0.851274132729,
2.43118698994,-2.67099714279,0,-0.62076157391,0.000118950979229,510,-0.342785269022,0.830122232437,
2.42940123478,-2.67504239082,0,-0.618353579711,0.000161175727443,511,-0.35713621974,0.809068083763,
2.42754443089,-2.67898321152,0,-0.61530644015,0.000203953168598,512,-0.371404320002,0.788170337677,
2.42561657826,-2.68282032013,0,-0.611607205431,0.000247596162122,513,-0.385565400124,0.767399787903,
2.42361815373,-2.6865541935,0,-0.60724667591,0.000291853729182,514,-0.399670481682,0.746825456619,
2.42155011097,-2.69018650055,0,-0.602225148457,0.000336089394988,515,-0.413634955883,0.726451456547,
2.41941244999,-2.69371747971,0,-0.59652786873,0.000381311898754,516,-0.427539765835,0.706216275692,
2.41720564763,-2.6971487999,0,-0.590150802609,0.000426802578469,517,-0.441316753626,0.686256408691,
2.41493065754,-2.70048117638,0,-0.583090549616,0.000472520275778,518,-0.454965740442,0.666498780251,
2.41258843342,-2.70371627808,0,-0.57534793669,0.000518181366356,519,-0.468490481377,0.647003650665,
2.41017897526,-2.70685505867,0,-0.566911760702,0.000564590976949,520,-0.481878817081,0.627780377865,
2.40770323674,-2.70989894867,0,-0.557782185203,0.000610988127285,521,-0.495136976242,0.608802199364,
2.40516217152,-2.71284985542,0,-0.547961827763,0.000657207760698,522,-0.508254468441,0.590150296688,
2.40255625645,-2.71570897102,0,-0.537445749187,0.000703757776453,523,-0.52118241787,0.571822881699,
2.39988596837,-2.7184779644,0,-0.526231557385,0.000750467037815,524,-0.53400939703,0.553801596165,
2.39715321461,-2.7211587429,0,-0.514331589525,0.000796346881582,525,-0.546586334705,0.53618055582,
2.39435799519,-2.72375321388,0,-0.501740895306,0.000842557232088,526,-0.559025347233,0.518902003765,
2.39150174061,-2.72626328468,0,-0.488468110969,0.000888188884613,527,-0.571299612522,0.50200432539,
2.38858492772,-2.72869086266,0,-0.474513493112,0.000933803349667,528,-0.583356380463,0.485523223877,
2.38560851018,-2.73103833199,0,-0.459884612298,0.000978907954128,529,-0.595234274864,0.469437360764,
2.3825739185,-2.7333073616,0,-0.444590012485,0.00102344175602,530,-0.606893956661,0.453825891018,
2.3794825832,-2.73550033569,0,-0.428642418192,0.00106712030133,531,-0.618325591087,0.43864941597,
2.37633450429,-2.73762011528,0,-0.412044851253,0.00111059699245,532,-0.629577457905,0.423951089382,
2.37313158909,-2.73966884613,0,-0.394814178818,0.00115294409865,533,-0.640579879284,0.409728586674,
2.3698747913,-2.74164891243,0,-0.376960491529,0.00119461522434,534,-0.651372730732,0.396003067493,
2.36656506459,-2.74356269836,0,-0.358494438929,0.00123557240348,535,-0.661910176277,0.382776737213,
2.3632043163,-2.74541354179,0,-0.339441294753,0.00127474690207,536,-0.672207832336,0.370143413544,
2.35979302327,-2.74720311165,0,-0.319804508971,0.00131377683592,537,-0.682278752327,0.357970356941,
2.35633261601,-2.74893546104,0,-0.299610713549,0.00135101776842,538,-0.692068755627,0.346457779408,
2.3528240482,-2.75061249733,0,-0.278870287183,0.00138756824477,539,-0.701621055603,0.335435390472,
2.34926970402,-2.75223779678,0,-0.257616904769,0.0014218578909,540,-0.710896372795,0.325042963028,
2.34567006032,-2.75381398201,0,-0.235862398087,0.00145536294076,541,-0.719934821129,0.315225362778,
2.34202654759,-2.75534415245,0,-0.213630645184,0.00148727062957,542,-0.728663146496,0.306049287319,
2.33834107319,-2.75683164597,0,-0.190951969384,0.00151714782678,543,-0.737157642841,0.297460854053,
2.3346145908,-2.75827932358,0,-0.167846120648,0.0015457036885,544,-0.745334506035,0.289538741112,
2.33084805409,-2.75969052315,0,-0.144336714767,0.00157258576294,545,-0.753253638744,0.282227575779,
2.32704384724,-2.76106858253,0,-0.120460631952,0.00159708716187,546,-0.760881185532,0.275644540787,
2.32320292393,-2.76241707802,0,-0.0962447803669,0.00161978936199,547,-0.768216848373,0.269642949104,
2.31932623784,-2.7637386322,0,-0.0717105762456,0.0016410602798,548,-0.775272190571,0.264319121838,
2.31541617314,-2.7650372982,0,-0.0469022121704,0.00165937459865,549,-0.78202188015,0.259719610214,
2.31147368351,-2.76631641388,0,-0.02184766887,0.00167581028346,550,-0.788494348526,0.255800485611,
2.30750067631,-2.76757931709,0,0.00341600274355,0.00168977426343,551,-0.794664680958,0.252548992634,
2.30349810521,-2.7688293457,0,0.0288590580823,0.00170174630106,552,-0.800543606281,0.249996006489,
2.29946740071,-2.77007007599,0,0.0544450717102,0.00171128450092,553,-0.806115090847,0.248155534267,
2.29541047017,-2.77130508423,0,0.0801326077217,0.00171805129126,554,-0.811400771141,0.247007966042,
2.29132826726,-2.7725379467,0,0.105887403722,0.00172252626919,555,-0.816411733627,0.246566057205,
2.28722269932,-2.77377223969,0,0.131666122006,0.00172409546244,556,-0.821102678776,0.246826350689,
2.28309519688,-2.77501130104,0,0.15743029894,0.00172309907533,557,-0.825511097908,0.24779522419,
2.27894719044,-2.77625846863,0,0.183140573559,0.00171947045232,558,-0.829642117023,0.249448359013,
2.27477963368,-2.77751779556,0,0.208755270921,0.00171305533925,559,-0.833483457565,0.251841068268,
2.27059443394,-2.77879214287,0,0.234232686963,0.00170383834817,560,-0.837055623531,0.254867017269,
2.26639302174,-2.78008532524,0,0.259527004763,0.00169156920394,561,-0.840328931808,0.258627891541,
2.26217635075,-2.78140044212,0,0.284600930628,0.00167680790002,562,-0.843338131905,0.263068199158,
2.25794585148,-2.78274154663,0,0.309404789016,0.00165871181877,563,-0.846082985401,0.26821488142,
2.25370295445,-2.78411149979,0,0.333897267641,0.00163785786891,564,-0.848565220833,0.273962378502,
2.24944861332,-2.78551363945,0,0.358036403193,0.00161420182798,565,-0.850812494755,0.280420005322,
2.24518521229,-2.78695106506,0,0.381769360262,0.00158701772582,566,-0.852774977684,0.287489414215,
2.24091227452,-2.78842735291,0,0.40506225612,0.00155756674105,567,-0.854501545429,0.29525154829,
2.23663218419,-2.78994512558,0,0.427864366503,0.00152472734111,568,-0.856018781662,0.303588628769,
2.23234589497,-2.79150795937,0,0.450128128806,0.00148870206232,569,-0.857272386551,0.31257390976,
2.22805436055,-2.79311847687,0,0.471812974802,0.00144997037855,570,-0.858355224133,0.322123587132,
2.22375805775,-2.79478001595,0,0.492875389632,0.00140832975692,571,-0.859184503555,0.33228635788,
2.21945889393,-2.79649472237,0,0.513269424886,0.00136361328971,572,-0.859850049019,0.342959046364,
2.21515782277,-2.79826569557,0,0.532948094013,0.00131565199546,573,-0.86030715704,0.354172289371,
2.21085436741,-2.80009555817,0,0.551879250355,0.00126565367709,574,-0.860598325729,0.365964174271,
2.20655091206,-2.80198669434,0,0.570008872918,0.00121204871058,575,-0.860724151134,0.378209292889,
2.20224745671,-2.80394124985,0,0.587303699052,0.00115620881075,576,-0.86068791151,0.390954911709,
2.19794495503,-2.80596208572,0,0.603715686581,0.00109717399044,577,-0.860508978367,0.404159128666,
2.19364388386,-2.8080508709,0,0.619210584094,0.00103579635317,578,-0.860220849514,0.417735993862,
2.18934472004,-2.81020975113,0,0.633749271469,0.000971855212983,579,-0.859787881374,0.431793272495,
2.18504841725,-2.81244039536,0,0.647292605865,0.00090530673685,580,-0.859284877777,0.446166992188,
2.18075497548,-2.81474518776,0,0.659801853471,0.000836170318179,581,-0.858672082424,0.46091991663,
2.1764653484,-2.8171248436,0,0.671245708616,0.000764878162393,582,-0.857993423939,0.475958287716,
2.17217905919,-2.81958127022,0,0.681592618044,0.000691550368141,583,-0.857266843319,0.491313159466,
2.16789658467,-2.82211613655,0,0.690805193116,0.00061572661725,584,-0.856468319893,0.50694334507,
2.16361792485,-2.82472968102,0,0.698863085352,0.00053854509475,585,-0.855671226978,0.522745907307,
2.1593440334,-2.82742381096,0,0.705722252034,0.000458421038696,586,-0.854848146439,0.538810610771,
2.15507395665,-2.8301987648,0,0.711369224847,0.000377400935797,587,-0.854014575481,0.555018246174,
2.15080769459,-2.8330552578,0,0.715778331154,0.00029466684948,588,-0.853217601776,0.571339011192,
2.14654524724,-2.8359940052,0,0.718923691665,0.000210206029602,589,-0.852452337742,0.587742626667,
2.14228661458,-2.83901500702,0,0.72078645601,0.000124487822809,590,-0.851735472679,0.604220747948,
2.13803131978,-2.8421189785,0,0.721344125447,3.72681730524e-05,591,-0.851060032845,0.620768785477,
2.133778886,-2.84530520439,0,0.720588650861,-5.04864548442e-05,592,-0.850517630577,0.637241601944,
2.12952883641,-2.84857368469,0,0.718504816299,-0.000139255030704,593,-0.850038051605,0.653720617294,
2.12528021733,-2.85192418098,0,0.715083430921,-0.000228635248019,594,-0.849666953087,0.670117855072,
2.12103302876,-2.85535621643,0,0.710310831733,-0.000318925386984,595,-0.849459528923,0.6863758564,
2.11678631703,-2.85886883736,0,0.704185673372,-0.000409303321433,596,-0.849365234375,0.702526211739,
2.11253912846,-2.86246109009,0,0.696706904484,-0.000499748723375,597,-0.849449753761,0.718446850777,
2.10829050938,-2.86613202095,0,0.687873776636,-0.00059024155215,598,-0.84972769022,0.734168708324,
2.10403950612,-2.86987996101,0,0.677693662012,-0.000680228795239,599,-0.85018247366,0.749619781971,
2.09978516499,-2.8737039566,0,0.666166642094,-0.000770204800092,600,-0.850843966007,0.764797270298,
2.09552653233,-2.87760233879,0,0.653301069929,-0.000859627210569,601,-0.851733624935,0.779666364193,
2.09126217762,-2.88157296181,0,0.639114590714,-0.00094786438769,602,-0.852869510651,0.794132947922,
2.0869911472,-2.88561415672,0,0.623616841035,-0.00103545212104,603,-0.854237914085,0.808234214783,
2.0827115337,-2.88972353935,0,0.60683283086,-0.00112137401431,604,-0.855900883675,0.821896195412,
2.07842238347,-2.89389896393,0,0.588778986449,-0.00120618938595,605,-0.85783970356,0.835079431534,