lower angle,upper angle,holding angle,system x,acceleration,ticks (200 tps),lower acceleration (shoulder),upper acceleration (elbow),
1.57079632679,0.0,0,2.25028849343e-15,7.89837783775e-17,1,0.0,0.0,
1.57090599934,-0.000213623046875,0,-0.00066590308976,-2.3372597198e-05,2,0.0219370573759,0.0426497496665,
1.57113058964,-0.000651359558105,0,-0.00202524657315,-4.77113550623e-05,3,0.0449108332396,0.0875764191151,
1.57146819035,-0.00130939483643,0,-0.00406801662464,-7.1698270485e-05,4,0.0674579143524,0.131618887186,
1.57191689412,-0.00218534469604,0,-0.00676166835676,-9.45425667496e-05,5,0.0897807329893,0.175229266286,
1.57247670094,-0.00327825546265,0,-0.0101212204133,-0.000117913615472,6,0.111967101693,0.218578457832,
1.57314665715,-0.00458669662476,0,-0.0141341525433,-0.000140844878059,7,0.134002372622,0.261660963297,
1.5739262859,-0.00610876083374,0,-0.0188129760928,-0.000164214936923,8,0.155873283744,0.304429352283,
1.57481415669,-0.00784301757813,0,-0.0241276417,-0.000186530010606,9,0.177554294467,0.346844762564,
1.575808839,-0.00978755950928,0,-0.0300556063449,-0.000208053583669,10,0.19902458787,0.388875573874,
1.57691033284,-0.0119400024414,0,-0.0366344027781,-0.000230894232549,11,0.220274448395,0.43047118187,
1.57811673085,-0.0142979621887,0,-0.0438314632017,-0.000252591122584,12,0.241276696324,0.471591323614,
1.57942707936,-0.0168590545654,0,-0.0516492595215,-0.000274374726454,13,0.262010782957,0.512225985527,
1.58083899418,-0.0196204185486,0,-0.0600451957397,-0.000294663030316,14,0.282468020916,0.552299261093,
1.58235247532,-0.0225791931152,0,-0.069064281359,-0.000316530693609,15,0.302620142698,0.59178674221,
1.58396466176,-0.0257325172424,0,-0.0786463775129,-0.000336287452541,16,0.322447568178,0.630673289299,
1.58567412297,-0.0290770530701,0,-0.0887914123714,-0.00035604162028,17,0.341953068972,0.668904900551,
1.58747990529,-0.032609462738,0,-0.0995168217134,-0.000376407147841,18,0.36109662056,0.706434547901,
1.58937914769,-0.0363259315491,0,-0.11077744926,-0.000395187663984,19,0.379879832268,0.743267536163,
1.59137041966,-0.0402226448059,0,-0.12258068857,-0.000414227369489,20,0.398274600506,0.779340326786,
1.59345181386,-0.0442957878113,0,-0.134916394746,-0.000432910878008,21,0.416276097298,0.814645588398,
1.59562142293,-0.0485415458679,0,-0.147774405284,-0.000451237268519,22,0.433858692646,0.849126935005,
1.59787638585,-0.0529551506042,0,-0.161124519261,-0.000468503493537,23,0.451017469168,0.882774174213,
1.60021479527,-0.057532787323,0,-0.174956540007,-0.000485411524478,24,0.467741578817,0.915558934212,
1.60263522069,-0.0622701644897,0,-0.189285273347,-0.000502838924256,25,0.48400875926,0.947456002235,
1.60513432423,-0.0671625137329,0,-0.204062948006,-0.000518589759822,26,0.499816834927,0.978425323963,
1.60770972172,-0.0722045898438,0,-0.219284314298,-0.000534155822061,27,0.515148162842,1.00846529007,
1.61035998265,-0.077392578125,0,-0.234956607176,-0.000549975333699,28,0.529991388321,1.03756046295,
1.61308176915,-0.0827207565308,0,-0.251047014449,-0.000564643560204,29,0.544350385666,1.06566357613,
1.61587269703,-0.0881848335266,0,-0.267535216379,-0.00057859796112,30,0.558196544647,1.09276866913,
1.61873038212,-0.0937790870667,0,-0.28442338424,-0.000592628803774,31,0.571532011032,1.11885273457,
1.62165196339,-0.0994982719421,0,-0.301688659391,-0.000605857411369,32,0.584346950054,1.14390015602,
1.62463505665,-0.105338096619,0,-0.319310669024,-0.000618370835917,33,0.596634566784,1.16788876057,
1.62767727772,-0.111291885376,0,-0.337306522336,-0.000631484400281,34,0.608389914036,1.19084596634,
1.6307748119,-0.11735534668,0,-0.355603322527,-0.000642039656608,35,0.619596362114,1.21269536018,
1.63392622868,-0.123522758484,0,-0.374238139512,-0.000653895703549,36,0.630266606808,1.23347115517,
1.6371281902,-0.129788398743,0,-0.393178044764,-0.000664596164168,37,0.640389204025,1.25313961506,
1.64037783543,-0.136147022247,0,-0.412400101586,-0.000674491695405,38,0.649943709373,1.27169156075,
1.64367278019,-0.142592906952,0,-0.431906341199,-0.000684458433398,39,0.658952236176,1.28914546967,
1.64700968663,-0.149120330811,0,-0.451663821525,-0.000693252673612,40,0.667394042015,1.30546712875,
1.65038617054,-0.155723571777,0,-0.471674552338,-0.000702129241073,41,0.675280630589,1.32065916061,
1.65379889409,-0.162396907806,0,-0.491905590414,-0.000709853731373,42,0.682589530945,1.33471870422,
1.6572459499,-0.169135093689,0,-0.512368907522,-0.000717998316469,43,0.689349293709,1.34764099121,
1.6607235233,-0.175932407379,0,-0.533014104173,-0.000724374234562,44,0.695529699326,1.35942733288,
1.66422923008,-0.182782649994,0,-0.553850656258,-0.000731082056731,45,0.701146304607,1.3700735569,
1.66776020924,-0.189680576324,0,-0.574855614367,-0.00073698540805,46,0.706189870834,1.37956023216,
1.67131359974,-0.196619987488,0,-0.596020997069,-0.00074260829043,47,0.710694372654,1.38794779778,
1.67488654057,-0.203596115112,0,-0.617316404366,-0.000747164557741,48,0.714606523514,1.39516735077,
1.67847664753,-0.210602283478,0,-0.638758777401,-0.000752315063049,49,0.717979133129,1.40126657486,
1.68208058278,-0.217633724213,0,-0.660300315944,-0.000755788420223,50,0.720780611038,1.40623486042,
1.68569548527,-0.224683761597,0,-0.681940558564,-0.000759245499556,51,0.723032534122,1.41007745266,
1.68931944768,-0.231747627258,0,-0.703684005263,-0.000762860668651,52,0.724731981754,1.41279399395,
1.69294865529,-0.238820075989,0,-0.72547301153,-0.00076445323642,53,0.725884377956,1.41441202164,
1.69658120076,-0.245894432068,0,-0.74734196073,-0.000767252088629,54,0.726486444473,1.41491603851,
1.70021374623,-0.252965927124,0,-0.769243219687,-0.00076837981341,55,0.726554632187,1.41432118416,
1.70384438435,-0.260029315948,0,-0.791188817006,-0.000769929446385,56,0.726084053516,1.4126380682,
1.70746977726,-0.267078399658,0,-0.813153557018,-0.00077059523605,57,0.725086510181,1.40987849236,
1.71108754078,-0.274108886719,0,-0.835117244155,-0.000770552424729,58,0.72355312109,1.40603542328,
1.71469529072,-0.281114578247,0,-0.857089487556,-0.000770847330508,59,0.721513569355,1.40115070343,
1.71828968922,-0.288090705872,0,-0.87902289922,-0.000769479486918,60,0.718960165977,1.3952037096,
1.72186930577,-0.295031547546,0,-0.900954391658,-0.000769406326146,61,0.715899169445,1.38823115826,
1.7254308025,-0.301932811737,0,-0.922829237521,-0.00076741316436,62,0.712332725525,1.38021588326,
1.72897227208,-0.308788776398,0,-0.944667054374,-0.000766072415007,63,0.708267211914,1.37118887901,
1.73249085347,-0.315594673157,0,-0.96643798456,-0.00076371773007,64,0.703719079494,1.3611536026,
1.73598463933,-0.322345256805,0,-0.988154260027,-0.00076178799054,65,0.698697328568,1.35015189648,
1.73945029179,-0.329035758972,0,-1.00976883613,-0.000758214744197,66,0.693195939064,1.33815121651,
1.74288638035,-0.335661888123,0,-1.03129648597,-0.000755158978664,67,0.687222063541,1.3251979351,
1.74629052083,-0.342218399048,0,-1.05273225089,-0.000751930181233,68,0.680794835091,1.31129145622,
1.74965985219,-0.348700523376,0,-1.07404654952,-0.000747662834208,69,0.67390447855,1.29645204544,
1.75299294392,-0.355103969574,0,-1.09525423255,-0.00074391742646,70,0.666573107243,1.28067445755,
1.75628693501,-0.361423969269,0,-1.1163258268,-0.00073913645581,71,0.658807575703,1.26400160789,
1.7595399181,-0.367656230927,0,-1.1372590157,-0.000734274310197,72,0.650609493256,1.24643731117,
1.76274998585,-0.373795986176,0,-1.15805890079,-0.000729562773472,73,0.641984939575,1.22797071934,
1.76591475407,-0.379839420319,0,-1.17869862953,-0.000723939785379,74,0.632948219776,1.20865678787,
1.76903231541,-0.385781764984,0,-1.19918339141,-0.000718499215425,75,0.623497247696,1.1884894371,
1.77210028569,-0.391619205475,0,-1.21948645904,-0.000712121174859,76,0.613643825054,1.16746449471,
1.77511723439,-0.397347450256,0,-1.23962291772,-0.000706271834806,77,0.603390574455,1.14561891556,
1.77808077733,-0.402962207794,0,-1.25957351568,-0.000699747151696,78,0.592753827572,1.12296402454,
1.78098948399,-0.408459663391,0,-1.27934602556,-0.000693494254894,79,0.581740736961,1.09951400757,
1.78384144703,-0.41383600235,0,-1.29893108519,-0.000686914475802,80,0.570344686508,1.07527112961,
1.78663428227,-0.419087409973,0,-1.3183022468,-0.000679407057418,81,0.558586478233,1.05027747154,
1.78936655919,-0.424209594727,0,-1.33747475838,-0.000672431964546,82,0.546460986137,1.02450478077,
1.79203637044,-0.429199695587,0,-1.35642470301,-0.000664619917323,83,0.533986151218,0.997986078262,
1.7946422855,-0.434053421021,0,-1.37516738584,-0.000657345553868,84,0.521168172359,0.970745325089,
1.79718239705,-0.438767433167,0,-1.39368632882,-0.000649492201704,85,0.508005976677,0.942786157131,
1.79965479771,-0.443337917328,0,-1.41197245549,-0.000641322052947,86,0.494506180286,0.914125025272,
1.80205853383,-0.447762012482,0,-1.43003623217,-0.000633519000467,87,0.480685383081,0.884767711163,
1.8043912212,-0.452035427094,0,-1.44785890513,-0.000625058273224,88,0.466542959213,0.854718387127,
1.80665142933,-0.45615530014,0,-1.46543393385,-0.000616368325772,89,0.452084451914,0.824011206627,
1.80883820454,-0.460118770599,0,-1.48277187211,-0.000608048667562,90,0.437312632799,0.792638897896,
1.81094916264,-0.463922023773,0,-1.49984677701,-0.000598818221747,91,0.422250777483,0.760634541512,
1.81298382679,-0.467561721802,0,-1.51669362704,-0.000590815898455,92,0.406875878572,0.7279920578,
1.81493981282,-0.471035480499,0,-1.5332645928,-0.000581136409094,93,0.391204059124,0.694712221622,
1.81681616704,-0.474339485168,0,-1.54958497418,-0.000572344294103,94,0.37525638938,0.660845756531,
1.8186109821,-0.477471351624,0,-1.56562407568,-0.000562475738257,95,0.359027892351,0.626364707947,
1.82032378117,-0.480427742004,0,-1.58141693214,-0.000553835578615,96,0.342513293028,0.59128600359,
1.8219526569,-0.483206272125,0,-1.5969329066,-0.000544121652642,97,0.325743913651,0.555646598339,
1.82349570195,-0.485803127289,0,-1.61216334323,-0.000534103564532,98,0.308682650328,0.519422054291,
1.8249529163,-0.488216400146,0,-1.62713838662,-0.00052514344521,99,0.291382908821,0.482653558254,
1.82632191578,-0.490443229675,0,-1.64181780236,-0.00051477224074,100,0.273815870285,0.445330798626,
1.82760174672,-0.492480278015,-0.0492480278015,-1.65621968325,-0.000505033549815,101,0.2559877038,0.40745216608,
1.82879145543,-0.494325637817,0.0,-1.67034021418,-0.000495162888832,102,0.237923502922,0.369068682194,
1.82990487019,-0.4960064888,0,-1.68425663723,-0.000488001174909,103,0.222728252411,0.336193263531,
1.83092530171,-0.497489929199,0,-1.69787924391,-0.000477692899907,104,0.204085215926,0.296607375145,
1.83185227314,-0.498773097992,0,-1.71123583248,-0.000468361188916,105,0.18530729413,0.256695747375,
1.83268340031,-0.499854564667,0,-1.72426441276,-0.000456855340939,106,0.166288256645,0.216255173087,
1.83341868321,-0.500730991364,0,-1.73701706347,-0.000447135624226,107,0.147025287151,0.175322845578,
1.83405621449,-0.501400470734,0,-1.74945608146,-0.000436135239248,108,0.127533093095,0.133879840374,
1.83459551732,-0.501860618591,0,-1.76160196922,-0.000425854441869,109,0.107814438641,0.0919787883759,
1.83503468434,-0.502108573914,0,-1.77343162409,-0.000414763304552,110,0.0878823772073,0.0495990142226,
1.83537323872,-0.502142429352,0,-1.78495823832,-0.00040413510035,111,0.0677339285612,0.00677629187703,
1.83561022679,-0.50195980072,0,-1.796185327,-0.000393629362236,112,0.0473646447062,-0.0365165993571,
1.83574421803,-0.501558303833,0,-1.80709943038,-0.000382653050121,113,0.0267916992307,-0.0802493169904,
1.83577425877,-0.500936508179,0,-1.81768943534,-0.000371287340584,114,0.00600611791015,-0.124417304993,
1.83569939534,-0.500091075897,0,-1.82797341642,-0.000360555567204,115,-0.014985287562,-0.169034734368,
1.83551819722,-0.499021053314,0,-1.83791594654,-0.000348581862041,116,-0.0361851975322,-0.214069098234,
1.83523066441,-0.49772310257,0,-1.84756899949,-0.000338430253265,117,-0.057567153126,-0.25952911377,
1.83483488957,-0.496196269989,0,-1.85688011728,-0.000326439612353,118,-0.0791599303484,-0.305388987064,
1.83432991902,-0.49443769455,0,-1.86585996851,-0.00031482237505,119,-0.100947335362,-0.351692795753,
1.83371527592,-0.49244594574,0,-1.87451424224,-0.000303405386391,120,-0.122926235199,-0.398373067379,
1.8329900066,-0.490218639374,0,-1.88284623619,-0.000292104271161,121,-0.145098656416,-0.445467144251,
1.83215268055,-0.487753868103,0,-1.89083490269,-0.00028006548656,122,-0.167451649904,-0.492943823338,
1.83120282094,-0.485049724579,0,-1.8984931182,-0.000268478065141,123,-0.189986050129,-0.540797114372,
1.83013899724,-0.48210477829,0,-1.90579239486,-0.000255891139824,124,-0.21272289753,-0.589055418968,
1.82896073262,-0.478916168213,0,-1.91276015088,-0.000244267072849,125,-0.235632687807,-0.637693226337,
1.82766755024,-0.475482940674,0,-1.91939446682,-0.000232575991282,126,-0.258714973927,-0.686680674553,
1.82625754277,-0.471802711487,0,-1.92566428988,-0.000219796345407,127,-0.281993687153,-0.736045241356,
1.82473023335,-0.467873573303,0,-1.93158220469,-0.000207458251901,128,-0.305431425571,-0.785768151283,
1.82308514515,-0.463694572449,0,-1.93714606131,-0.000195044909698,129,-0.329051971436,-0.835856258869,
1.82132084767,-0.4592628479,0,-1.94234891915,-0.000182388465655,130,-0.352847248316,-0.886287808418,
1.81943686406,-0.454577922821,0,-1.94718110446,-0.000169392698548,131,-0.376810878515,-0.937063694,
1.81743224064,-0.449636936188,0,-1.95165254571,-0.00015674556265,132,-0.400930851698,-0.988182783127,
1.81530602376,-0.444438457489,0,-1.9557510257,-0.000143670207394,133,-0.425230443478,-1.03964281082,
1.81305725972,-0.438981533051,0,-1.95945683796,-0.00012990443107,134,-0.44969829917,-1.09143352509,
1.81068594853,-0.433263778687,0,-1.96280642992,-0.00011741634339,135,-0.474312394857,-1.14353525639,
1.80819018284,-0.427283763885,0,-1.96575305477,-0.000103289931885,136,-0.499098747969,-1.19598245621,
1.8055704395,-0.421040058136,0,-1.96833533072,-9.05171868585e-05,137,-0.524034142494,-1.24872291088,
1.8028243343,-0.414531230927,0,-1.97048907802,-7.54953020261e-05,138,-0.549127757549,-1.30178523064,
1.79995282094,-0.407755851746,0,-1.97226981861,-6.24181450747e-05,139,-0.574379742146,-1.35513782501,
1.79695399205,-0.400711536407,0,-1.97364496597,-4.82008534121e-05,140,-0.599779069424,-1.40880227089,
1.7938273708,-0.393397808075,0,-1.97460360584,-3.3601417675e-05,141,-0.62532556057,-1.46275246143,
1.79057200352,-0.385812759399,0,-1.97513969492,-1.87903687956e-05,142,-0.651012897491,-1.51697802544,
1.78718789021,-0.377955436707,0,-1.97526658863,-4.44769428092e-06,143,-0.676842749119,-1.5714802742,
1.78367360035,-0.369824409485,0,-1.97495333575,1.09795988499e-05,144,-0.702814400196,-1.62624907494,
1.78002913395,-0.361417770386,0,-1.97422781622,2.54294584469e-05,145,-0.728919863701,-1.68129634857,
1.77625353734,-0.352735042572,0,-1.97306108466,4.08935232937e-05,146,-0.755155086517,-1.73658323288,
1.77234585682,-0.343774318695,0,-1.97144624607,5.65990540732e-05,147,-0.781518042088,-1.79211401939,
1.76830609242,-0.334535121918,0,-1.96938840967,7.21252899237e-05,148,-0.807998776436,-1.84786903858,
1.76413281361,-0.325016021729,0,-1.96685560088,8.87719315429e-05,149,-0.834602355957,-1.90385806561,
1.75982649724,-0.315215587616,0,-1.96388470577,0.00010412550022,150,-0.861321628094,-1.9600610733,
1.75538571278,-0.305133342743,0,-1.96042842966,0.000121136449399,151,-0.888134360313,-2.01645684242,
1.75081046025,-0.294767856598,0,-1.95650600119,0.000137473015345,152,-0.915055036545,-2.07305574417,
1.7461002628,-0.284119129181,0,-1.95209678636,0.000154532643959,153,-0.942064762115,-2.12980556488,
1.74125416676,-0.273185253143,0,-1.94719243612,0.000171883869639,154,-0.969171583652,-2.18673992157,
1.73627264897,-0.261966228485,0,-1.94180651806,0.000188759997819,155,-0.996359467506,-2.24381136894,
1.73115427891,-0.250461101532,0,-1.93589793603,0.00020707613017,156,-1.02361011505,-2.30101490021,
1.72589953343,-0.238669872284,0,-1.92947979865,0.000224932643168,157,-1.05092346668,-2.35832166672,
1.72050841252,-0.226591110229,0,-1.92257011561,0.000242157294188,158,-1.07829070091,-2.41572666168,
1.71497996251,-0.214225292206,0,-1.91512194408,0.000261027142357,159,-1.10571050644,-2.47321557999,
1.70931418339,-0.201571464539,0,-1.90714531042,0.000279545179382,160,-1.13315546513,-2.53074169159,
1.70351107518,-0.188630104065,0,-1.89862753708,0.000298507363199,161,-1.16062235832,-2.58830785751,
1.69757063786,-0.175400733948,0,-1.88957069648,0.000317396594929,162,-1.18809866905,-2.64587044716,
1.69149287144,-0.161883831024,0,-1.87996162065,0.00033674388686,163,-1.21556866169,-2.70341801643,
1.68527777592,-0.148078918457,0,-1.86980189661,0.000356037152254,164,-1.24301636219,-2.76091217995,
1.6789253513,-0.133987426758,0,-1.85906283816,0.000376336204627,165,-1.270439744,-2.81834244728,
1.67243655125,-0.119609355927,0,-1.84777295705,0.000395635711608,166,-1.29781806469,-2.8756608963,
1.66581089894,-0.1049451828,0,-1.83590062915,0.000416043591393,167,-1.3251106739,-2.93280792236,
1.65904934804,-0.0899963378906,0,-1.82345137455,0.000436256590659,168,-1.3523260355,-2.98979043961,
1.65215189854,-0.0747637748718,0,-1.8104030325,0.000457246522953,169,-1.37944197655,-3.04656457901,
1.64511998097,-0.0592484474182,0,-1.79678567275,0.000477181705913,170,-1.40642511845,-3.1030626297,
1.63795359532,-0.0434522628784,0,-1.78256165097,0.000498362013451,171,-1.43325936794,-3.15926265717,
1.6306541721,-0.0273766517639,0,-1.76775309468,0.000518837236792,172,-1.4599250555,-3.21513557434,
1.62322218815,-0.0110235214233,0,-1.75233941324,0.000540034124982,173,-1.48639428616,-3.27058887482,
1.61565907399,0.0056043905206,0,-1.73632174877,0.000561190774535,174,-1.51264476776,-3.32561135292,
1.60796578328,0.0225049573928,0,-1.71969316422,0.000582590055746,175,-1.53863406181,-3.38013458252,
1.60014422337,0.0396753624082,0,-1.70247068744,0.000603392558924,176,-1.56435406208,-3.43410229683,
1.59219534794,0.0571125037968,0,-1.68463168977,0.000624985577153,177,-1.58975982666,-3.48745131493,
1.58412106434,0.0748130604625,0,-1.66618494434,0.000646272684709,178,-1.61483168602,-3.54013538361,
1.57592375676,0.0927733257413,0,-1.64715050925,0.000666856857898,179,-1.63952457905,-3.59207892418,
1.56760441122,0.110989287496,0,-1.62749223779,0.000688706977641,180,-1.66381692886,-3.64321756363,
1.55916612601,0.12945663929,0,-1.60724671997,0.000709274960431,181,-1.68766713142,-3.69349813461,
1.55061102199,0.148170620203,0,-1.58640747734,0.000730069483868,182,-1.7110311985,-3.74282431602,
1.54194162885,0.167126178741,0,-1.56497839436,0.000750726070775,183,-1.73388981819,-3.79114055634,
1.53316074709,0.18631786108,0,-1.54296691891,0.000771123104039,184,-1.75618743896,-3.83836317062,
1.5242713886,0.205739811063,0,-1.52038190637,0.000791209572209,185,-1.77788364887,-3.88442707062,
1.5152767087,0.225385814905,0,-1.49723185341,0.000810998776726,186,-1.79894816875,-3.92923498154,
1.50618007133,0.245249256492,0,-1.47352660962,0.000830442608222,187,-1.81934010983,-3.97272157669,
1.49698510865,0.265323102474,0,-1.44927934,0.000849425078515,188,-1.83900439739,-4.0148062706,
1.4876955981,0.285599946976,0,-1.42450275623,0.000867961980523,189,-1.85791575909,-4.05539989471,
1.4783155928,0.306071847677,0,-1.39921135942,0.000885988512853,190,-1.87601542473,-4.09442281723,
1.46884930978,0.326730638742,0,-1.37342222327,0.000903417986359,191,-1.89326953888,-4.13179588318,
1.45930117468,0.347567647696,0,-1.34715227652,0.000920253477963,192,-1.9096391201,-4.16744375229,
1.44967580686,0.368573844433,0,-1.32042008313,0.00093643905627,193,-1.92508888245,-4.20126771927,
1.439978079,0.389739692211,0,-1.29324574005,0.000951918774884,194,-1.93955898285,-4.23321819305,
1.43021305005,0.411055505276,0,-1.26565392325,0.000966534939018,195,-1.95301938057,-4.26319408417,
1.42038594286,0.432510942221,0,-1.2376653894,0.000980421123681,196,-1.96543872356,-4.29113960266,
1.41050213675,0.454095542431,0,-1.20930489828,0.000993442655465,197,-1.97677946091,-4.31696414948,
1.40056721965,0.475798517466,0,-1.18059991281,0.00100550112808,198,-1.98699820042,-4.34063577652,
1.39058695833,0.497608602047,0,-1.15157730674,0.00101614247823,199,-1.99607253075,-4.3620672226,
1.38056717912,0.519514381886,0,-1.12226407086,0.00102118850082,200,-2.00397276878,-4.38120794296,
1.37051390211,0.541504263878,0,-1.09269164077,0.00102531951618,201,-2.01067018509,-4.39801216125,
1.36043331126,0.563566207886,0,-1.06289083907,0.00103322597409,202,-2.01613545418,-4.41243076324,
1.35033157567,0.585688114166,0,-1.03289133756,0.00104010297387,203,-2.02036309242,-4.42442893982,
1.34021505813,0.607857823372,0,-1.00272900959,0.00104573827646,204,-2.02332091331,-4.43398189545,
1.33009007672,0.630062878132,0,-0.972434029451,0.00105032647138,205,-2.02501559258,-4.44105672836,
1.31996308366,0.652290701866,0,-0.942039831037,0.00105375425907,206,-2.02541470528,-4.44562864304,
1.30984051625,0.674529016018,0,-0.911583919078,0.00105588460553,207,-2.02452468872,-4.447701931,
1.29972885648,0.696765124798,0,-0.881099569605,0.00105686140979,208,-2.02235794067,-4.44727802277,
1.28963445226,0.718986749649,0,-0.850621710898,0.00105662679395,209,-2.01889562607,-4.44435501099,
1.27956371109,0.741181313992,0,-0.820183355487,0.00105524335866,210,-2.01416683197,-4.43896436691,
1.26952298085,0.763336598873,0,-0.789820859817,0.0010526007339,211,-2.00816202164,-4.43110179901,
1.25951854984,0.785440444946,0,-0.759569649139,0.00104872679181,212,-2.00090122223,-4.42082262039,
1.24955658714,0.807480871677,0,-0.729463885613,0.00104366853749,213,-1.9924145937,-4.4081363678,
1.23964308301,0.829446256161,0,-0.699536955553,0.00103745975199,214,-1.98271417618,-4.39311885834,
1.22978402773,0.851325154305,0,-0.669824998338,0.00102277614657,215,-1.97182416916,-4.37581300735,
1.21998517314,0.873106122017,0,-0.640356437687,0.00101438842147,216,-1.95978689194,-4.35624980927,
1.21025218169,0.894778549671,0,-0.61116844907,0.00100472237815,217,-1.94660997391,-4.33451366425,
1.20059041778,0.916331708431,0,-0.582286924433,0.000994165348083,218,-1.93236207962,-4.31067800522,
1.19100527565,0.937755525112,0,-0.55374792289,0.000982366854603,219,-1.91704487801,-4.28480625153,
1.18150173227,0.959040105343,0,-0.525576402835,0.000969709975288,220,-1.90072309971,-4.25697374344,
1.17208467523,0.980176270008,0,-0.497804232165,0.000955954960864,221,-1.88342559338,-4.2272567749,
1.16275866429,1.0011548996,0,-0.47045365369,0.000941435936404,222,-1.86520981789,-4.19576644897,
1.15352822939,1.02196741104,0,-0.443553327967,0.000925930807539,223,-1.84609484673,-4.16253566742,
1.14439769188,1.04260575771,0,-0.417132387809,0.000909423264724,224,-1.82612407207,-4.12769031525,
1.13537086646,1.06306219101,0,-0.391207854899,0.000892326987272,225,-1.80538392067,-4.09131336212,
1.12645162741,1.08332931995,0,-0.365803619874,0.000874411330586,226,-1.78385949135,-4.05348396301,
1.11764343182,1.10340070724,0,-0.340942712309,0.000855701020409,227,-1.76165163517,-4.01429700851,
1.10894961754,1.12326967716,0,-0.316641693638,0.000836423327295,228,-1.73877441883,-3.97384309769,
1.10037328402,1.14293050766,0,-0.292921906334,0.000816411807261,229,-1.71527433395,-3.93219590187,
1.09191723267,1.16237783432,0,-0.269800088837,0.000795824463025,230,-1.69122219086,-3.88947343826,
1.08358417551,1.18160617352,0,-0.247289110362,0.000774794331814,231,-1.66661608219,-3.84571218491,
1.07537649671,1.20061135292,0,-0.225408036153,0.000753108012975,232,-1.64154267311,-3.80106067657,
1.06729640166,1.219389081,0,-0.204169255965,0.000730996026398,233,-1.61602282524,-3.7555577755,
1.05934597651,1.23793518543,0,-0.183583341364,0.000708518720963,234,-1.59010565281,-3.70926809311,
1.05152692,1.25624680519,0,-0.163665000397,0.000685521450814,235,-1.56381988525,-3.66232848167,
1.04384072224,1.274320364,0,-0.144414644315,0.000662526069624,236,-1.53723549843,-3.61476898193,
1.03628905217,1.29215371609,0,-0.125854986889,0.000638749765104,237,-1.51033341885,-3.56667327881,
1.02887310187,1.30974411964,0,-0.107987913414,0.000614909130876,238,-1.48320198059,-3.51810383797,
1.02159388463,1.32708978653,0,-0.0908213534426,0.000590795461309,239,-1.45585417747,-3.46914958954,
1.0144522349,1.3441889286,0,-0.074358344853,0.00056657760552,240,-1.4283362627,-3.41987657547,
1.00744898716,1.36104047298,0,-0.0586102277501,0.000541969619821,241,-1.4006588459,-3.37032055855,
1.00058455864,1.37764322758,0,-0.0435752596529,0.000517422346593,242,-1.37289452553,-3.32057905197,
0.993859545388,1.39399635792,0,-0.0292611420289,0.000492610240831,243,-1.34501051903,-3.27065420151,
0.98727412621,1.41009950638,0,-0.0156691363415,0.000467755640971,244,-1.31709063053,-3.22067594528,
0.980828539529,1.42595255375,0,-0.00280504026663,0.000442702115317,245,-1.28912186623,-3.17062449455,
0.974522785344,1.44155538082,0,0.00933177111224,0.000417669759532,246,-1.26115322113,-3.12059211731,
0.968356804052,1.45690834522,0,0.0207382423012,0.000392531796292,247,-1.23319733143,-3.07058858871,
0.962330297628,1.47201180458,0,0.0314176243784,0.000367507706004,248,-1.20530200005,-3.02071905136,
0.956442968049,1.48686671257,0,0.0413667120832,0.000342373613668,249,-1.17747223377,-2.97099494934,
0.950694517293,1.50147366524,0,0.0505857129547,0.000317247114984,250,-1.14969968796,-2.92141103745,
0.945084170499,1.51583409309,0,0.0590790760205,0.000292273966567,251,-1.12207472324,-2.87209701538,
0.939611510434,1.52994918823,0,0.0668437056643,0.000267189078163,252,-1.09453701973,-2.82303142548,
0.934275821843,1.54382026196,0,0.0738831051481,0.000242231476795,253,-1.06713759899,-2.77422428131,
0.929076270261,1.55744898319,0,0.0802001684097,0.000217373177494,254,-1.03991556168,-2.72576284409,
0.924012021222,1.57083725929,0,0.0857952678269,0.000192528593303,255,-1.0128493309,-2.67767238617,
0.919082001844,1.58398711681,0,0.0906737151974,0.00016786718244,256,-0.985994637012,-2.62996387482,
0.914285318055,1.59690034389,0,0.0948381318979,0.000143296356563,257,-0.959342122078,-2.58265137672,
0.909620896974,1.60957920551,0,0.0982911186619,0.000118815387015,258,-0.932879805565,-2.53578996658,
0.905087486902,1.62202632427,0,0.101036438201,9.44642551683e-05,259,-0.906687676907,-2.48942041397,
0.90068395535,1.63424384594,0,0.103078967939,7.02812934252e-05,260,-0.880698382854,-2.44351649284,
0.896408991018,1.64623451233,0,0.104422565787,4.62314327123e-05,261,-0.85499548912,-2.39815306664,
0.892261342206,1.65800094604,0,0.105070522269,2.2295162347e-05,262,-0.829527497292,-2.35329985619,
0.888239399591,1.66954600811,0,0.105032867701,-1.29562445398e-06,263,-0.804374873638,-2.30902266502,
0.884342149892,1.68087255955,0,0.104304595163,-2.50583304521e-05,264,-0.779462337494,-2.26529955864,
0.880567745366,1.69198346138,0,0.102901414905,-4.82801222103e-05,265,-0.754878163338,-2.22221183777,
0.876914874711,1.70288193226,0,0.100822511203,-7.1529632821e-05,266,-0.730583250523,-2.17970228195,
0.873381868997,1.71357119083,0,0.0980758871582,-9.45034419218e-05,267,-0.70659917593,-2.13785886765,
0.869967118898,1.72405433655,0,0.0946689742343,-0.00011722121584,268,-0.682947337627,-2.09664297104,
0.866669074693,1.73433482647,0,0.0906047625614,-0.000139835774599,269,-0.659611999989,-2.0560836792,
0.863485888639,1.74441599846,0,0.0858944129929,-0.000162065975168,270,-0.636630415916,-2.01624059677,
0.860416130224,1.75430130959,0,0.0805380675974,-0.000184290977822,271,-0.613953948021,-1.97706758976,
0.857457892099,1.76399421692,0,0.0745473236433,-0.000206116623115,272,-0.591658294201,-1.93860936165,
0.854609147706,1.77349877357,0,0.0679318835471,-0.000227608028283,273,-0.569733083248,-1.90088677406,
0.851868466535,1.78281831741,0,0.0606930165647,-0.000249055480303,274,-0.548127174377,-1.86388754845,
0.849233881631,1.79195654392,0,0.0528419320588,-0.000270117032261,275,-0.52691411972,-1.82764720917,
0.846703545251,1.80091738701,0,0.0443852910476,-0.000290948834222,276,-0.506085574627,-1.79219317436,
0.844275371232,1.80970489979,0,0.0353345307435,-0.000311386813944,277,-0.485628128052,-1.7575057745,
0.841947690645,1.81832289696,0,0.0256933399222,-0.000331697577346,278,-0.465549319983,-1.72359323502,
0.839718357721,1.82677519321,0,0.015476517006,-0.000351499025952,279,-0.445871710777,-1.69047391415,
0.837585524717,1.83506596088,0,0.00468954855223,-0.00037111148129,280,-0.426568448544,-1.65818524361,
0.83554710547,1.84319937229,0,-0.00665640765541,-0.00039033927494,281,-0.407684773207,-1.62670493126,
0.833601192632,1.85117995739,0,-0.018556517843,-0.000409400890187,282,-0.389183014631,-1.59607481956,
0.83174570004,1.85901129246,0,-0.0309950044473,-0.000427918996538,283,-0.371114611626,-1.56627202034,
0.829978422323,1.86669790745,0,-0.0439598926486,-0.000446025230297,284,-0.353458821774,-1.53730821609,
0.828297332921,1.87424397469,0,-0.0574404865566,-0.000463763199236,285,-0.336197733879,-1.50922238827,
0.826700643697,1.88165378571,0,-0.0714318772916,-0.000481332086494,286,-0.319347918034,-1.48199152946,
0.825185910859,1.88893198967,0,-0.0859166822545,-0.000498302323961,287,-0.302943229675,-1.45566082001,
0.82375110785,1.89608299732,0,-0.100884831201,-0.000514926601502,288,-0.286956876516,-1.43020367622,
0.822394148507,1.90311121941,0,-0.116324580376,-0.00053112775337,289,-0.271392166615,-1.405636549,
0.821112708249,1.91002106667,0,-0.132218658272,-0.000546752417664,290,-0.256288319826,-1.38198828697,
0.819904700914,1.91681742668,0,-0.148557607122,-0.000562049809595,291,-0.241587594151,-1.35922920704,
0.818768219152,1.92350435257,0,-0.1653301509,-0.000576960523734,292,-0.227302983403,-1.33738291264,
0.817700699964,1.9300866127,0,-0.182514970731,-0.000591137964496,293,-0.213494613767,-1.31647324562,
0.816699997583,1.93656909466,0,-0.200099982378,-0.000604899527078,294,-0.20013897121,-1.29650962353,
0.81576420466,1.94295632839,0,-0.21807548456,-0.00061832715562,295,-0.187155112624,-1.27744948864,
0.814890758195,1.94925296307,0,-0.236418094884,-0.000630950289831,296,-0.174677744508,-1.25932919979,
0.814077631631,1.95546364784,0,-0.255115334319,-0.000643143991314,297,-0.162629276514,-1.24216687679,
0.813322619596,1.9615932703,0,-0.274151762605,-0.000654806286151,298,-0.151007503271,-1.22595083714,
0.812623397508,1.96764671803,0,-0.293508864713,-0.000665831162142,299,-0.139836758375,-1.21066963673,
0.8119778196,1.97362840176,0,-0.313168649297,-0.000676236928192,300,-0.129112958908,-1.19634234905,
0.811383620897,1.97954344749,0,-0.33311404146,-0.000686055805216,301,-0.118839979172,-1.18300056458,
0.810838596025,1.98539626598,0,-0.353324687139,-0.000695173394332,302,-0.108994752169,-1.17057836056,
0.810340658822,1.99119198322,0,-0.373785928601,-0.0007037877377,303,-0.0995985046029,-1.15915966034,
0.809887365499,1.99693536758,0,-0.394473186593,-0.000711556548277,304,-0.0906455144286,-1.14868915081,
0.809476629892,2.00263118744,0,-0.415368579008,-0.000718710261764,305,-0.0821499153972,-1.13916707039,
0.809106306234,2.00828433037,0,-0.436452918068,-0.000725133235955,306,-0.0740611553192,-1.13059580326,
0.808774189153,2.01389932632,0,-0.457703318705,-0.000730836691454,307,-0.0664313584566,-1.12301290035,
0.808478132882,2.0194811821,0,-0.479099793926,-0.000735854768724,308,-0.0592134743929,-1.11635887623,
0.808215872445,2.02503466606,0,-0.50061803695,-0.000740036384523,309,-0.0524457246065,-1.11067163944,
0.807985321679,2.03056406975,0,-0.522234353474,-0.000743403534284,310,-0.0461119785905,-1.10596168041,
0.807784513631,2.0360751152,0,-0.543933394234,-0.000746242377979,311,-0.0401676595211,-1.10219502449,
0.807611123719,2.04157185555,0,-0.565684044236,-0.000748011352572,312,-0.0346819683909,-1.09934079647,
0.807463244596,2.04705905914,0,-0.587466068018,-0.00074908442325,313,-0.0295661538839,-1.09743964672,
0.807338730493,2.05254125595,0,-0.609252639253,-0.000749234981171,314,-0.0249048601836,-1.09648346901,
0.807235554853,2.05802369118,0,-0.631021579013,-0.000748622924822,315,-0.0206299405545,-1.0964525938,
0.807151810327,2.0635099411,0,-0.652744946879,-0.000747030911849,316,-0.0167537145317,-1.09731972218,
0.807085589567,2.06900548935,0,-0.674402137258,-0.000744748944886,317,-0.0132414512336,-1.09909141064,
0.807034746805,2.07451438904,0,-0.695960976069,-0.000741361307714,318,-0.0101714786142,-1.10179531574,
0.806997672715,2.08004117012,0,-0.717400784911,-0.000737262749673,319,-0.00741810165346,-1.10534131527,
0.806972281137,2.08559012413,0,-0.73868986096,-0.000732074162739,320,-0.00507607869804,-1.10978758335,
0.806956843534,2.09116530418,0,-0.759801584237,-0.000725969968265,321,-0.00308852968737,-1.11508762836,
0.806949690976,2.09677171707,0,-0.780713147621,-0.000719081750733,322,-0.00144203496166,-1.12124836445,
0.80694909493,2.10241293907,0,-0.801394219073,-0.000711150620861,323,-0.000109459157102,-1.12823224068,
0.806953386464,2.1080930233,0,-0.82181654234,-0.000702248259118,324,0.000860155094415,-1.13601505756,
0.80696089665,2.11381626129,0,-0.841951753993,-0.000692370704819,325,0.00149892945774,-1.14463400841,
0.806970075765,2.11958646774,0,-0.861771062738,-0.00068150305595,326,0.00183599535376,-1.15403926373,
0.806979433694,2.12540721893,0,-0.881245068876,-0.000669620987882,327,0.00187264371198,-1.16418361664,
0.806987420717,2.13128256798,0,-0.900343913729,-0.000656715808469,328,0.00159648689441,-1.17510724068,
0.806992904344,2.13721632957,0,-0.919043565885,-0.000642983937286,329,0.001102333772,-1.18674123287,
0.806994513669,2.14321160316,0,-0.937312379142,-0.000628164276497,330,0.000317923084367,-1.19905781746,
0.806990937391,2.14927196503,0,-0.955120358886,-0.000612313940758,331,-0.000720573647413,-1.21207714081,
0.806980983415,2.15540075302,0,-0.972437955536,-0.000595448084069,332,-0.00198676344007,-1.22575461864,
0.806963698068,2.16160106659,0,-0.989238231116,-0.00057765631656,333,-0.00345871876925,-1.24006390572,
0.806937829652,2.16787600517,0,-1.00548792328,-0.000558718930681,334,-0.00517622800544,-1.25498342514,
0.806902603307,2.17422819138,0,-1.02116007158,-0.000538857121023,335,-0.00703798048198,-1.27047848701,
0.806857124963,2.18066096306,0,-1.03622639986,-0.000518023362064,336,-0.0091096367687,-1.2865370512,
0.80680061976,2.18717646599,0,-1.05065674723,-0.000496152510785,337,-0.0112974066287,-1.30312287807,
0.806732253232,2.19377756119,0,-1.06442070405,-0.000473236146887,338,-0.0136697627604,-1.32020306587,
0.806651667753,2.20046639442,0,-1.07749350601,-0.000449469293737,339,-0.0161248911172,-1.33775067329,
0.806557969251,2.20724511147,0,-1.08984017373,-0.000424500169445,340,-0.0187271963805,-1.35574269295,
0.806451157728,2.21411561966,0,-1.1014397315,-0.00039881022963,341,-0.0213651545346,-1.37413442135,
0.806330637136,2.22108030319,0,-1.1122608606,-0.000372043968774,342,-0.0241055078804,-1.39289748669,
0.806196169057,2.22814011574,0,-1.12227479176,-0.00034428799471,343,-0.0268947500736,-1.41201138496,
0.806047574678,2.23529744148,0,-1.13145539413,-0.000315635134012,344,-0.0297181084752,-1.431453228,
0.805884973207,2.24255299568,0,-1.13977776062,-0.000286126065068,345,-0.0325236059725,-1.45114529133,
0.805708245435,2.24990844727,0,-1.14721364435,-0.000255646528987,346,-0.0353527627885,-1.47108197212,
0.805517629781,2.25736451149,0,-1.15373844902,-0.00022432160109,347,-0.0381293073297,-1.49120771885,
0.805313245454,2.26492190361,0,-1.15932486495,-0.000192058500966,348,-0.0408778041601,-1.51152205467,
0.805095569291,2.27258205414,0,-1.1639513487,-0.000159055104509,349,-0.0435339845717,-1.53197419643,
0.804865018525,2.28034448624,0,-1.167592461,-0.000125177759991,350,-0.0461119934916,-1.55249524117,
0.804622010389,2.28820991516,0,-1.17022334988,-9.04464972734e-05,351,-0.0485908463597,-1.57310259342,
0.804367379346,2.29617834091,0,-1.17182438162,-5.5040964327e-05,352,-0.050929158926,-1.59372055531,
0.804101900258,2.30425000191,0,-1.17237434151,-1.89066224114e-05,353,-0.0530805550516,-1.61430907249,
0.803826347986,2.31242442131,0,-1.17185086049,1.7996201496e-05,354,-0.0551131293178,-1.63486170769,
0.803541855016,2.32070064545,0,-1.17023642416,5.54991918274e-05,355,-0.0568920783699,-1.65528845787,
0.80324919621,2.32907867432,0,-1.16750773768,9.38028591678e-05,356,-0.0585346519947,-1.67563164234,
0.802949921289,2.33755755424,0,-1.16365244866,0.00013253060447,357,-0.0598543025553,-1.69577372074,
0.802645043531,2.34613609314,0,-1.15864950433,0.000171981536263,358,-0.0609690845013,-1.7157074213,
0.802336112657,2.35481309891,0,-1.15248554981,0.000211890970871,359,-0.0617917105556,-1.73541915417,
0.802024559179,2.36358690262,0,-1.14514510074,0.000252332088278,360,-0.0623008459806,-1.75479578972,
0.801712171235,2.37245631218,0,-1.13661741179,0.000293142031969,361,-0.0624760240316,-1.77390396595,
0.801400498548,2.38141942024,0,-1.1268880822,0.000334446423487,362,-0.0623511262238,-1.7926094532,
0.801091329255,2.39047408104,0,-1.11594615911,0.000376126683086,363,-0.0618312619627,-1.81092834473,
0.800786689916,2.39961791039,0,-1.10378414796,0.000418063965609,364,-0.0609208755195,-1.82881903648,
0.800488428273,2.40884900093,0,-1.09039141782,0.000460366119247,365,-0.0596452280879,-1.84622204304,
0.800198868909,2.41816473007,0,-1.07576453853,0.000502785643009,366,-0.0579073503613,-1.86311507225,
0.799920097986,2.42756199837,0,-1.0598973262,0.000545416094066,367,-0.0557484664023,-1.87945258617,
0.799654440084,2.43703818321,0,-1.0427864254,0.000588161804897,368,-0.0531274043024,-1.89522886276,
0.799404338994,2.44658994675,0,-1.02443117047,0.000630929826047,369,-0.0500208176672,-1.9103718996,
0.799172238508,2.45621418953,0,-1.0048307566,0.000673724928759,370,-0.0464266762137,-1.92484760284,
0.798960701623,2.46590733528,0,-0.983987042058,0.000716455272878,371,-0.0423098914325,-1.93867087364,
0.798772350946,2.47566604614,0,-0.961902577867,0.000759097305505,372,-0.0376570634544,-1.95173978806,
0.798610107103,2.48548603058,0,-0.938586137047,0.000801437173111,373,-0.0324510000646,-1.96403157711,
0.798476711908,2.49536395073,0,-0.914042651877,0.000843607027617,374,-0.0266791153699,-1.97559678555,
0.798374907174,2.50529527664,0,-0.888280353387,0.000885493242038,375,-0.0203526206315,-1.9862767458,
0.798307851949,2.5152759552,0,-0.861312374541,0.000926927350739,376,-0.0134063567966,-1.99614834785,
0.798278705278,2.52530145645,0,-0.833153736621,0.000967844266461,377,-0.00583793641999,-2.00512433052,
0.798290328183,2.53536748886,0,-0.803816025859,0.00100836233123,378,0.00232608383521,-2.0132021904,
0.798346058526,2.54546928406,0,-0.77331895167,0.00104820202039,379,0.0111441239715,-2.02034497261,
0.798448995748,2.55560159683,0,-0.741682013575,0.00108736854798,380,0.0205945037305,-2.02649068832,
0.798602596917,2.56575989723,0,-0.708927861149,0.00112575962445,381,0.0307297818363,-2.03168582916,
0.798810199895,2.57593894005,0,-0.675081265921,0.0011632991009,382,0.0415161699057,-2.03583407402,
0.799075202146,2.58613371849,0,-0.640168226472,0.00119994372389,383,0.0530023388565,-2.03895902634,
0.799401060739,2.59633874893,0,-0.604218619223,0.00123556047067,384,0.0651750043035,-2.04102778435,
0.799791351953,2.60654854774,0,-0.56726527939,0.00127004807857,385,0.0780481621623,-2.0420050621,
0.800249354043,2.61675810814,0,-0.529337425548,0.00130353098207,386,0.0916037261486,-2.04190373421,
0.800779000917,2.62696123123,0,-0.490478120233,0.00133553317678,387,0.10592404753,-2.04063344002,
0.801383630433,2.63715219498,0,-0.450723987991,0.00136627546366,388,0.120925560594,-2.03822541237,
0.802066938081,2.64732551575,0,-0.410116331711,0.00139559882847,389,0.136659860611,-2.03472757339,
0.802832440534,2.6574754715,0,-0.368697622316,0.00142328186516,390,0.153118297458,-2.02999615669,
0.803684071698,2.66759586334,0,-0.326519079135,0.00144937864177,391,0.170327499509,-2.02409553528,
0.804625407853,2.67768073082,0,-0.283629396903,0.00147380357814,392,0.188275530934,-2.01698899269,
0.805660144487,2.68772411346,0,-0.240080811711,0.00149643338376,393,0.206947281957,-2.00869750977,
0.806791857877,2.69772005081,0,-0.195926792034,0.00151722362349,394,0.226354792714,-1.99917531013,
0.808024362722,2.70766210556,0,-0.151228303606,0.00153591834341,395,0.246513351798,-1.98841071129,
0.809361235299,2.71754431725,0,-0.106044017047,0.00155259866951,396,0.267385870218,-1.97644126415,
0.810806409517,2.72736024857,0,-0.0604413982789,0.00156695971031,397,0.289045631886,-1.96323108673,
0.812363104024,2.73710417747,0,-0.0144798043209,0.00157928196578,398,0.311339050531,-1.94879519939,
0.814035252729,2.74676942825,0,0.0317661706597,0.00158902467107,399,0.334436267614,-1.93309295177,
0.815826431909,2.75635027885,0,0.0782282538516,0.0015964375422,400,0.358243256807,-1.91614866257,
0.817740277448,2.76584005356,0,0.124828537838,0.00160117292341,401,0.382765501738,-1.89799165726,
0.819780007997,2.77523303032,0,0.171495881679,0.001603464806,402,0.407955527306,-1.87862026691,
0.821949378648,2.78452277184,0,0.218146640919,0.00160288255581,403,0.433871567249,-1.85798621178,
0.824251786866,2.79370331764,0,0.264700327539,0.00159953494992,404,0.460477769375,-1.83615970612,
0.826690630117,2.80276870728,0,0.31107331376,0.00159331115327,405,0.487761199474,-1.81309914589,
0.829269186654,2.81171274185,0,0.357177940079,0.00158407892686,406,0.515720367432,-1.78883862495,
0.831990794339,2.82052993774,0,0.402928161426,0.0015718901001,407,0.544312894344,-1.76342201233,
0.834858671823,2.82921385765,0,0.448228377993,0.00155641637872,408,0.573583006859,-1.7368234396,
0.837875739732,2.83775925636,0,0.492991141209,0.00153793558447,409,0.603424608707,-1.70909333229,
0.841045395532,2.84616017342,0,0.53711651377,0.0015160239314,410,0.633934020996,-1.68022847176,
0.844370321431,2.8544113636,0,0.58051245365,0.00149094854248,411,0.664987742901,-1.65025115013,
0.847853616872,2.86250710487,0,0.623076624333,0.00146235984865,412,0.69665157795,-1.61918652058,
0.851497904458,2.87044239044,0,0.664712935297,0.00143046922438,413,0.728859186172,-1.58707714081,
0.855305926004,2.87821221352,0,0.705321342702,0.00139514227885,414,0.76160132885,-1.55395829678,
0.859280184903,2.88581109047,0,0.744796135521,0.00135618424394,415,0.794856309891,-1.51981496811,
0.863423303762,2.89323449135,0,0.783036010447,0.00131374709799,416,0.828615903854,-1.48474788666,
0.867737547555,2.90047812462,0,0.819941477436,0.00126788834373,417,0.862850964069,-1.44871592522,
0.872225121656,2.90753698349,0,0.855403941276,0.00121830431847,418,0.897501945496,-1.41183686256,
0.87688817183,2.91440725327,0,0.889323347797,0.00116528193418,419,0.93261641264,-1.37408137321,
0.881728665033,2.92108488083,0,0.92159599467,0.00110869904374,420,0.968092024326,-1.33555626869,
0.886748449006,2.92756605148,0,0.952118611099,0.00104857031833,421,1.0039536953,-1.29627299309,
0.891949311891,2.93384718895,0,0.980788137854,0.000984902030637,422,1.04017090797,-1.25623703003,
0.897332624593,2.93992495537,0,1.00750417391,0.00091778191469,423,1.07665979862,-1.2155777216,
0.902899996438,2.94579648972,0,1.0321673857,0.000847229221894,424,1.11347448826,-1.17431032658,
0.90865261952,2.95145869255,0,1.05467660831,0.000773229251738,425,1.15052390099,-1.13248515129,
0.91459156672,2.95690941811,0,1.07493930079,0.000696049431724,426,1.1877862215,-1.09016001225,
0.92071773211,2.9621462822,0,1.09285989927,0.000615590476312,427,1.22523880005,-1.04741096497,
0.927032069364,2.96716785431,0,1.10835107136,0.000532132849248,428,1.26287770271,-1.00428986549,
0.933534936109,2.97197198868,0,1.12132016045,0.000445494129286,429,1.3005862236,-0.960857152939,
0.940226987996,2.97655773163,0,1.13168437101,0.000356012596562,430,1.33840990067,-0.917159080505,
0.947108582654,2.98092389107,0,1.139359242,0.000263631289614,431,1.37631261349,-0.873287558556,
0.954179541269,2.985070467,0,1.144276033,0.000168889849223,432,1.41421759129,-0.829316020012,
0.96143974463,2.98899698257,0,1.14635995572,7.15813810007e-05,433,1.45205140114,-0.785315275192,
0.968889133134,2.99270367622,0,1.145543707,-2.80373525572e-05,434,1.48988044262,-0.741330742836,
0.97652705113,2.99619102478,0,1.14176622698,-0.00012975177351,435,1.52760362625,-0.697484970093,
0.984353021779,2.99945998192,0,1.13497119709,-0.000233399109198,436,1.56520080566,-0.653783559799,
0.992366091409,3.00251173973,0,1.12510835002,-0.000338771545252,437,1.60261356831,-0.610383629799,
1.00056524674,3.00534820557,0,1.11213697693,-0.000445539579262,438,1.63982820511,-0.567323207855,
1.00894905726,3.00797152519,0,1.09602268122,-0.000553487960878,439,1.67678284645,-0.524644374847,
1.01751639048,3.01038384438,0,1.07673060163,-0.000662632117399,440,1.71347486973,-0.482499718666,
1.02626551787,3.01258850098,0,1.05424524996,-0.000772306861549,441,1.74984252453,-0.44093310833,
1.03519465128,3.01458859444,0,1.02855041004,-0.000882536418443,442,1.7858300209,-0.400027990341,
1.04430164496,3.01638793945,0,0.999642707418,-0.000992880090813,443,1.82141411304,-0.359885573387,
1.05358447234,3.01799082756,0,0.967526354403,-0.0011030758186,444,1.85657453537,-0.320555448532,
1.06304057042,3.01940155029,0,0.932211087136,-0.00121293666368,445,1.89124178886,-0.282147407532,
1.07266761462,3.02062511444,0,0.893717039489,-0.0013221041802,446,1.92542338371,-0.244715452194,
1.08246271411,3.02166676521,0,0.852073523288,-0.00143026401621,447,1.95904171467,-0.208368897438,
1.09242294828,3.02253293991,0,0.807328598287,-0.00153677159916,448,1.99205601215,-0.173205256462,
1.10254515807,3.02322912216,0,0.759522716946,-0.00164188773184,449,2.02446079254,-0.139251470566,
1.11282612483,3.0237622261,0,0.70871879987,-0.00174484092075,450,2.05620384216,-0.106635570526,
1.12326236168,3.0241394043,0,0.654988251945,-0.00184533503348,451,2.08727169037,-0.0753998756409,
1.13385029236,3.02436733246,0,0.598400503156,-0.00194344790821,452,2.11759877205,-0.0456285476685,
1.14458613197,3.02445459366,0,0.539055620396,-0.00203811931541,453,2.14719057083,-0.0174236297607,
1.155466036,3.02440857887,0,0.477042256698,-0.00212973854653,454,2.17599868774,0.00918221473694,
1.16648580233,3.02423810959,0,0.412474610023,-0.00221744306496,455,2.20397853851,0.0340781211853,
1.17764137785,3.02395200729,0,0.345470501091,-0.00230108715788,456,2.23113799095,0.0572366714478,
1.18892844121,3.02355909348,0,0.276153686893,-0.00238041822837,457,2.25743627548,0.0785684585571,
1.20034255187,3.02306890488,0,0.204662915561,-0.00245503014928,458,2.28284072876,0.0980286598206,
1.21187915007,3.02249121666,0,0.131145485624,-0.00252460159306,459,2.30735230446,0.115554332733,
1.22353376547,3.02183580399,0,0.0557527218968,-0.00258898210588,460,2.33094763756,0.13108921051,
1.2353016297,3.02111291885,0,-0.0213511769782,-0.00264772105617,461,2.35359930992,0.144581079483,
1.24717797438,3.02033305168,0,-0.0999941430828,-0.00270055071311,462,2.37530183792,0.156000137329,