lower angle,upper angle,holding angle,system x,acceleration,ticks (200 tps),lower acceleration (shoulder),upper acceleration (elbow),
1.57079632679,0.0,0,2.25028849343e-15,6.08605793827e-16,1,0.0,0.0,
1.57063746194,0.000306436471874,0,0.00101190914015,0.000273652657809,2,-0.0317729711533,-0.0612872950733,
1.57031527203,0.000930601265281,0,0.00302179267766,0.000543497063806,3,-0.0644379854202,-0.124832972884,
1.56983194634,0.00186768197455,0,0.00602498928834,0.000812055602652,4,-0.0966651365161,-0.187416136265,
1.56918862526,0.00311542116106,0,0.0100151424529,0.00107886452048,5,-0.128664240241,-0.249547913671,
1.56838616944,0.00467226095498,0,0.0149851539865,0.00134372605343,6,-0.160491153598,-0.311367928982,
1.56742560101,0.00653634406626,0,0.0209267026985,0.00160588756689,7,-0.192113697529,-0.372816592455,
1.56630798342,0.0087057352066,0,0.0278311698933,0.00186602662018,8,-0.223523512483,-0.433878362179,
1.56503453531,0.0111781610176,0,0.0356895487233,0.00212370246636,9,-0.254689604044,-0.494485318661,
1.56360663526,0.0139510845765,0,0.0444910923771,0.00237844634141,10,-0.285580068827,-0.554584622383,
1.5620257408,0.0170216988772,0,0.0542263911338,0.00263062565814,11,-0.316179007292,-0.614122748375,
1.56029348733,0.0203869733959,0,0.0648829990477,0.00287939438589,12,-0.346450686455,-0.673055410385,
1.55841156101,0.0240436252207,0,0.0764505566873,0.00312534413117,13,-0.376385390759,-0.731330037117,
1.55638173508,0.0279881153256,0,0.0889195110235,0.00336868236883,14,-0.405965328217,-0.788898229599,
1.5542060184,0.0322166793048,0,0.102275168879,0.00360802404487,15,-0.435143202543,-0.845713376999,
1.55188644963,0.0367253012955,0,0.116505666999,0.00384408634119,16,-0.463914066553,-0.901724219322,
1.54942518386,0.0415097735822,0,0.131597846515,0.00407662498589,17,-0.49225383997,-0.956895530224,
1.54682452703,0.0465656369925,0,0.147536921611,0.00430513856505,18,-0.520131587982,-1.01117324829,
1.54408680747,0.0518882349133,0,0.164310347114,0.00453024723207,19,-0.547544538975,-1.06452131271,
1.54121449689,0.0574727058411,0,0.181903483551,0.00475137911231,20,-0.574462175369,-1.11689436436,
1.53821009124,0.0633141100407,0,0.200301978872,0.00496860352647,21,-0.600881516933,-1.16828203201,
1.53507624666,0.0694072023034,0,0.219490347703,0.00518162488248,22,-0.626769661903,-1.21861982346,
1.53181567142,0.0757465437055,0,0.239454176921,0.00539073440772,23,-0.652115225792,-1.26786923409,
1.5284311595,0.0823266431689,0,0.260176662961,0.0055952793366,24,-0.67690294981,-1.31602215767,
1.5249255384,0.0891417935491,0,0.281643104398,0.00579582147904,25,-0.701125562191,-1.36302900314,
1.52130173618,0.0961861386895,0,0.303837381483,0.00599199133336,26,-0.724760830402,-1.40887117386,
1.51756281505,0.103453569114,0,0.32674236527,0.00618350890679,27,-0.747784852982,-1.45348894596,
1.5137117068,0.110938161612,0,0.350342708562,0.00637089370087,28,-0.770222663879,-1.49692094326,
1.50975156675,0.118633560836,0,0.374621582993,0.00655370325552,29,-0.792029082775,-1.53908205032,
1.50568548689,0.1265334934,0,0.399563118508,0.00673221067826,30,-0.813217818737,-1.57998871803,
1.50151675294,0.13463139534,0,0.425148831112,0.00690570968826,31,-0.833747327328,-1.61958217621,
1.49724856118,0.142920777202,0,0.451362268159,0.00707473873161,32,-0.853638827801,-1.65788018703,
1.49288417498,0.151394993067,0,0.478186899916,0.00723929955415,33,-0.872878372669,-1.69484376907,
1.48842689494,0.160047307611,0,0.50560615893,0.00739935788698,34,-0.891458570957,-1.7304623127,
1.48388004402,0.168870970607,0,0.533602817031,0.00755474054362,35,-0.909371256828,-1.76473462582,
1.47924703459,0.177859023213,0,0.562159572915,0.00770545117789,36,-0.926605463028,-1.79762125015,
1.4745312492,0.187004625797,0,0.591258274031,0.00785124541681,37,-0.943159222603,-1.82912182808,
1.46973602573,0.196300849319,0,0.620883736098,0.00799293773198,38,-0.959046006203,-1.85924625397,
1.46486478398,0.205740660429,0,0.65101934257,0.00813012234151,39,-0.974249362946,-1.88796496391,
1.45992103318,0.215316981077,0,0.681645845011,0.00825333621569,40,-0.988751292229,-1.91526532173,
1.45490812609,0.225022792816,0,0.712748718451,0.00838111244244,41,-1.00258266926,-1.94116926193,
1.44982956449,0.234850928187,0,0.744310268371,0.00850380583488,42,-1.01571536064,-1.9656317234,
1.44468866388,0.24479444325,0,0.776316046363,0.00862297606333,43,-1.02817988396,-1.9887046814,
1.43948902289,0.254846006632,0,0.80874728405,0.00873709879672,44,-1.03993368149,-2.01031970978,
1.43423397938,0.26499864459,0,0.841589086198,0.00884726914058,45,-1.0510122776,-2.03052854538,
1.42892697553,0.275245130062,0,0.874826670005,0.00895335155448,46,-1.06140255928,-2.04930448532,
1.42357140879,0.285578429699,0,0.908443817079,0.00905507562655,47,-1.07111501694,-2.06666278839,
1.41817069153,0.295991390944,0,0.942425595113,0.00915278401007,48,-1.08014380932,-2.08259415627,
1.41272828082,0.306476831436,0,0.976755884455,0.00924613260135,49,-1.08848512173,-2.09709739685,
1.40724754433,0.317027747631,0,1.01141900839,0.00933523690023,50,-1.09615027905,-2.11018466949,
1.4017317901,0.327637076378,0,1.04640236467,0.00942092741312,51,-1.1031537056,-2.12187051773,
1.39618435601,0.338297784328,0,1.08169179119,0.00950281179955,52,-1.10948836803,-2.13214635849,
1.39060862462,0.349002808332,0,1.11727196569,0.00958054124964,53,-1.11515283585,-2.14101004601,
1.38500782947,0.359745204449,0,1.15313111014,0.00965506585708,54,-1.12016117573,-2.1484811306,
1.37938533823,0.370517969131,0,1.18925352647,0.00972539294781,55,-1.12449991703,-2.1545548439,
1.37374430994,0.381314247847,0,1.22562875875,0.00979286207369,56,-1.12820780277,-2.15925955772,
1.36808805267,0.392127066851,0,1.26224283323,0.00985661340626,57,-1.13125371933,-2.16256761551,
1.36241978506,0.402949571609,0,1.2990831842,0.00991697738649,58,-1.13365709782,-2.16451215744,
1.35674254695,0.413775116205,0,1.33614048841,0.00997483198922,59,-1.13544738293,-2.16511011124,
1.35105964641,0.424596846104,0,1.37339903114,0.0100284285688,60,-1.13658225536,-2.16434383392,
1.34537416796,0.435407996178,0,1.41084980307,0.0100795884506,61,-1.13709890842,-2.16223621368,
1.33968921105,0.446201920509,0,1.44848146751,0.0101276844409,62,-1.13698935509,-2.15878248215,
1.33400780062,0.456972002983,0,1.48628495538,0.0101733412681,63,-1.13628423214,-2.15401506424,
1.328333051,0.467711538076,0,1.52424943162,0.0102160724706,64,-1.13494861126,-2.1479113102,
1.32266794244,0.478414148092,0,1.56236389599,0.0102558010056,65,-1.13302648067,-2.14053177834,
1.31701548497,0.48907327652,0,1.60061910721,0.0102931092217,66,-1.13049161434,-2.13182234764,
1.31137861411,0.499682426453,0,1.63900764822,0.0103283904638,67,-1.12737584114,-2.12183570862,
1.30576031009,0.510235190392,0,1.67751922957,0.0103550116618,68,-1.12366700172,-2.1105530262,
1.30016343395,0.520725250244,0,1.71614653588,0.0103853420636,69,-1.11938679218,-2.09802389145,
1.2945908467,0.531146287918,0,1.75488235072,0.0104138990311,70,-1.11451673508,-2.08420610428,
1.28904549877,0.541491985321,0,1.79371640108,0.0104397257429,71,-1.10907042027,-2.06914281845,
1.28353016178,0.55175614357,0,1.83264305667,0.0104636595615,72,-1.1030715704,-2.05283904076,
1.27804760734,0.561932563782,0,1.87165680405,0.0104864457914,73,-1.09651494026,-2.03529548645,
1.27260072629,0.572015106678,0,1.9107471513,0.0104810153819,74,-1.08938717842,-2.01651525497,
1.26719217102,0.58199775219,0,1.94991035462,0.0104998297963,75,-1.08171617985,-1.99652850628,
1.26182471315,0.591874361038,0,1.98914041838,0.0105171560677,76,-1.07350063324,-1.97533071041,
1.2565010945,0.601638913155,0,2.02843075008,0.0105327022223,77,-1.06472480297,-1.95290589333,
1.25122399727,0.61128538847,0,2.06777701546,0.0105470895746,78,-1.0554279089,-1.92931127548,
1.24599610368,0.620807945728,0,2.1071723537,0.0105595939149,79,-1.04557859898,-1.9045085907,
1.24082009594,0.630200564861,0,2.14661278502,0.0105709440031,80,-1.03520774841,-1.87853622437,
1.23569850723,0.639457583427,0,2.18609433623,0.0105813501675,81,-1.0243229866,-1.85139393806,
1.23063398997,0.648572981358,0,2.22561444281,0.0105910690655,82,-1.01290178299,-1.82308351994,
1.22562931577,0.657540917397,0,2.26516391622,0.0105982783705,83,-1.00094079971,-1.79359555244,
1.22068680922,0.666355788708,0,2.30474575632,0.0106063173561,84,-0.988498985767,-1.762981534,
1.21580924193,0.675011873245,0,2.3443494371,0.0106113027631,85,-0.975515961647,-1.73120701313,
1.2109991471,0.683503270149,0,2.38397562311,0.0106166892241,86,-0.962025403976,-1.6982831955,
1.20625902812,0.691824316978,0,2.42362267124,0.0106217054118,87,-0.948023080826,-1.6642203331,
1.20159144799,0.69996958971,0,2.46328357061,0.0106248550724,88,-0.933526515961,-1.62905550003,
1.1969988207,0.707933425903,0,2.502960265,0.0106285177923,89,-0.918525636196,-1.59276080132,
1.19248379866,0.715710103512,0,2.54264762537,0.0106308135427,90,-0.903003573418,-1.55533349514,
1.18804891507,0.723293960094,0,2.5823440212,0.0106326503947,91,-0.886984586716,-1.51678740978,
1.18369658391,0.730679631233,0,2.62204776731,0.0106340369116,92,-0.870468556881,-1.47714328766,
1.17942927877,0.737861633301,0,2.66175718618,0.0106349837463,93,-0.853466629982,-1.4364066124,
1.17524956266,0.744834303856,0,2.70147048418,0.010635436741,94,-0.835949122906,-1.394536376,
1.17115984956,0.751592218876,0,2.7411877356,0.0106359168827,95,-0.817948281765,-1.351593256,
1.16716267268,0.758129894733,0,2.78090613126,0.0106356398733,96,-0.799442112446,-1.30754637718,
1.1632605652,0.764441907406,0,2.82062230665,0.0106344948847,97,-0.780427575111,-1.26239359379,
1.15945585171,0.77052283287,0,2.86034032114,0.010634384544,98,-0.760944008827,-1.21619009972,
1.15575115482,0.776367127895,0,2.900056173,0.0106260817677,99,-0.74093914032,-1.16885495186,
1.15214891831,0.781969368458,0,2.93977052008,0.0106250056561,100,-0.720450222492,-1.12045359612,
1.14865152637,0.787324368954,0.0787324368954,2.97948286143,0.0106238600813,101,-0.69947963953,-1.07099664211,
1.14526160161,0.792426526546,0.0,3.01919109815,0.0106221762613,102,-0.67798769474,-1.02043044567,
1.14196510712,0.797301888466,0,3.05899140546,0.0106461747801,103,-0.65929877758,-0.975080013275,
1.13878177206,0.801912426949,0,3.09878008373,0.01064042161,104,-0.636670649052,-0.922106385231,
1.13571311633,0.806254386902,0,3.13856620024,0.0106391464126,105,-0.613731861115,-0.868390917778,
1.13276182214,0.81032204628,0,3.17834878415,0.0106376044659,106,-0.590256333351,-0.813527822495,
1.12993048231,0.81410998106,0,3.21812586471,0.0106355004874,107,-0.566268324852,-0.75758087635,
1.12722163002,0.81761276722,0,3.25789782944,0.0106335526467,108,-0.541765809059,-0.700553655624,
1.12463782827,0.82082504034,0,3.29766353323,0.0106312879348,109,-0.516755640507,-0.642440617085,
1.12218155066,0.823741316795,0,3.33742692101,0.0106300853796,110,-0.491254389286,-0.583268404007,
1.11985541979,0.826356470585,0,3.37718202219,0.0106272820444,111,-0.465227484703,-0.523012936115,
1.11766199867,0.828664839268,0,3.41693305764,0.0106256182056,112,-0.438686400652,-0.461677759886,
1.11560385028,0.830661177635,0,3.45667844986,0.0106235207588,113,-0.411629766226,-0.399270772934,
1.11368356744,0.832340061665,0,3.49641854812,0.0106214525441,114,-0.384047925472,-0.335777491331,
1.11190383235,0.833696126938,0,3.53615012841,0.0106185581492,115,-0.355942964554,-0.271201908588,
1.11026729743,0.834723770618,0,3.57587474266,0.0106106473198,116,-0.327306896448,-0.20553816855,
1.10877658526,0.835417687893,0,3.61559083718,0.0106076761436,117,-0.298141747713,-0.13877479732,
1.10743440787,0.835772335529,0,3.65529760763,0.0106045523063,118,-0.26843932271,-0.0709347128868,
1.10624338786,0.835782408714,0,3.6949939705,0.0106011092222,119,-0.238203734159,-0.00200834870338,
1.10520632664,0.835442245007,0,3.73467831105,0.0105973249243,120,-0.207406997681,0.0680440068245,
1.10432596604,0.834746360779,0,3.77434856618,0.0105929671511,121,-0.176069945097,0.139188140631,
1.10360501806,0.833689212799,0,3.81400469721,0.0105886358132,122,-0.144189685583,0.211422502995,
1.10304646293,0.832265138626,0,3.85363956898,0.0105823612022,123,-0.11171336472,0.284811794758,
1.10265304247,0.830468654633,0,3.89325148161,0.0105754861507,124,-0.0786821618676,0.359306335449,
1.10242761771,0.828293979168,0,3.93283918838,0.0105684397179,125,-0.0450812205672,0.434924155474,
1.10237313906,0.825735628605,0,3.97239407501,0.0105590233805,126,-0.0109001584351,0.51167345047,
1.10249252717,0.822787761688,0,4.01191376849,0.0105489254085,127,0.0238784216344,0.589584469795,
1.10278879205,0.819444596767,0,4.05139195487,0.0105371663823,128,0.0592537149787,0.668639183044,
1.10326494376,0.815700232983,0,4.09082396529,0.0105242192324,129,0.095235273242,0.748867213726,
1.10392411152,0.811548888683,0,4.13019919838,0.0105082824195,130,0.131830513477,0.830265581608,
1.10476930539,0.80698466301,0,4.16951258944,0.0104911592644,131,0.169042229652,0.912844359875,
1.1058038334,0.802001595497,0,4.20874966075,0.0104701127103,132,0.206898972392,0.996625781059,
1.10703076521,0.796593487263,0,4.24790714178,0.010448224841,133,0.245393306017,1.08162343502,
1.10845346848,0.790754377842,0,4.2869677802,0.010421566572,134,0.284539669752,1.16783285141,
1.11007519166,0.784477949142,0,4.3259231703,0.0103928573234,135,0.324350833893,1.25528240204,
1.11189945141,0.777757942677,0,4.36475441443,0.0103591349916,136,0.364852339029,1.34400784969,
1.11392952601,0.770588099957,0,4.40345001301,0.0103203992809,137,0.406023621559,1.43397164345,
1.11616911093,0.762961804867,0,4.44198899177,0.0102780238972,138,0.447916924953,1.52525997162,
1.11862169305,0.754872620106,0,4.48035393001,0.0102310124742,139,0.490514218807,1.61784291267,
1.12129087845,0.746313869953,0,4.51852604178,0.0101790156343,140,0.533841311932,1.71175098419,
1.12418045203,0.737278819084,0,4.55648035662,0.0101203571542,141,0.577919304371,1.80702877045,
1.12729413907,0.727760493755,0,4.59419640856,0.0100561487954,142,0.622741818428,1.90365874767,
1.13063602249,0.717751920223,0,4.63164032421,0.00998299435541,143,0.668372750282,2.00171422958,
1.13420988719,0.70724606514,0,4.66878793796,0.0099033587603,144,0.714772105217,2.10118532181,
1.13801981608,0.696235597134,0,4.70560797545,0.00981544114197,145,0.761986136436,2.20209980011,
1.1420700411,0.684712946415,0,4.74206609339,0.00971839380636,146,0.810039937496,2.3045258522,
1.14636470477,0.672670722008,0,4.77812657337,0.00961183823183,147,0.858934402466,2.40844345093,
1.15090830723,0.660101115704,0,4.81374590237,0.00949365633219,148,0.908724248409,2.5139374733,
1.15570522944,0.646996259689,0,4.848883567,0.00936472170642,149,0.959381103516,2.62099170685,
1.16075997154,0.633347928524,0,4.88349828816,0.00922480995043,150,1.01096236706,2.72967791557,
1.16607742111,0.619147837162,0,4.91753399646,0.00906997812096,151,1.06349551678,2.84003782272,
1.17166228692,0.604387521744,0,4.95094107131,0.00890198449239,152,1.11697626114,2.95208311081,
1.17751945654,0.589058279991,0,4.98366473905,0.00871937717587,153,1.1714373827,3.06586551666,
1.18365408579,0.573151051998,0,5.0156436032,0.00852043525707,154,1.22693681717,3.18147087097,
1.19007133047,0.556656718254,0,5.04681419396,0.00830456352214,155,1.28345358372,3.2988858223,
1.19677658478,0.53956580162,0,5.07710707254,0.00807024263551,156,1.34105312824,3.41820669174,
1.20377524296,0.521868646145,0,5.10645221338,0.00781730331833,157,1.39974117279,3.53946948051,
1.21107311646,0.503555059433,0,5.13476972057,0.00754311794569,158,1.45958244801,3.66274929047,
1.21867583791,0.484614878893,0,5.16198176142,0.00724819935972,159,1.52055931091,3.78806638718,
1.2265895168,0.465037554502,0,5.18799576003,0.00692864447828,160,1.58274328709,3.91550922394,
1.23482029239,0.444811969995,0,5.21272272626,0.00658545795583,161,1.64616942406,4.04515266418,
1.24337442318,0.423927009106,0,5.23606505683,0.00621629848582,162,1.71084010601,4.17703771591,
1.25225843588,0.402370989323,0,5.25791987102,0.00581982511259,163,1.77681612968,4.31126022339,
1.26147909562,0.380131781101,0,5.27817795474,0.00539431373217,164,1.84414207935,4.44788694382,
1.27104319731,0.357197135687,0,5.29672581896,0.00493865121893,165,1.91283607483,4.586977005,
1.28095783392,0.333554327488,0,5.31344150867,0.0044505646192,166,1.9829416275,4.72861862183,
1.29123033682,0.309190094471,0,5.32819740708,0.00392728324168,167,2.05451989174,4.87291145325,
1.30186812679,0.284090846777,0,5.34086205883,0.00337047377934,168,2.12757945061,5.01991844177,
1.31287904183,0.258242547512,0,5.35129001265,0.00277505845656,169,2.20220065117,5.16973400116,
1.32427091996,0.231630653143,0,5.35933751522,0.00214137215635,170,2.27839684486,5.32246398926,
1.3360518674,0.20424027741,0,5.364850042,0.00146674831001,171,2.35621523857,5.4781665802,
1.34823030333,0.176055908203,0,5.36766487226,0.000748911774013,172,2.43571591377,5.63696861267,
1.36081478099,0.147061780095,0,5.36761144239,-1.42147030538e-05,173,2.51692891121,5.79893398285,
1.37381404737,0.117241546512,0,5.36451412671,-0.000823974674783,174,2.5998916626,5.96416378021,
1.38723713259,0.0865783318877,0,5.35818793812,-0.00168285238125,175,2.68465662003,6.13276767731,
1.40109324554,0.055054962635,0,5.34843846894,-0.00259332970111,176,2.77126646042,6.30480861664,
1.41539169947,0.0226537678391,0,5.33506753928,-0.00355574278008,177,2.85974192619,6.48038482666,
1.43014204601,-0.0106434822083,0,5.31786909388,-0.00457332530032,178,2.95012331009,6.65956497192,
1.44535391132,-0.0448546409607,0,5.2966204556,-0.00565002666388,179,3.04243135452,6.84241104126,
1.4610370631,-0.0799984931946,0,5.27110018253,-0.00678547594781,180,3.1366944313,7.02898168564,
1.47720131377,-0.116094112396,0,5.24108145436,-0.00798111981201,181,3.23292088509,7.21932506561,
1.49385640124,-0.153160095215,0,5.20632460059,-0.00924033790838,182,3.33109545708,7.41344642639,
1.5110121491,-0.191215991974,0,5.16659336045,-0.0105622083651,183,3.43123412132,7.61136054993,
1.52867814998,-0.230279445648,0,5.1216227017,-0.0119543179586,184,3.53329229355,7.81300115585,
1.54686369287,-0.270370006561,0,5.07117991036,-0.0134081617154,185,3.6372089386,8.01830482483,
1.56557766773,-0.311503887177,0,5.01498871657,-0.0149352219072,186,3.74290418625,8.22714614868,
1.58482869069,-0.353699207306,0,4.95280460118,-0.0165270611026,187,3.85029244423,8.43933105469,
1.60462410847,-0.396970272064,0,4.88436525022,-0.0181884088823,188,3.95923018456,8.65462589264,
1.62497122685,-0.44133234024,0,4.80941844391,-0.0199165707891,189,4.06952762604,8.87271118164,
1.64587529103,-0.486795902252,0,4.7277107888,-0.0217119244182,190,4.1809463501,9.0931186676,
1.6673401157,-0.533370018005,0,4.63901560174,-0.0235673205782,191,4.29320001602,9.31533432007,
1.68936903874,-0.581061840057,0,4.54309332107,-0.0254859097722,192,4.40594434738,9.5387172699,
1.71196206013,-0.629870891571,0,4.43971315257,-0.027465673154,193,4.51874065399,9.76240158081,
1.73511631886,-0.679795742035,0,4.3287322156,-0.0294834101954,194,4.63108062744,9.98548126221,
1.75882704655,-0.730826854706,0,4.20996444619,-0.0315502470719,195,4.74235725403,10.2067699432,
1.7830851833,-0.782948493958,0,4.08329326147,-0.0336478316175,196,4.8518910408,10.424949646,
1.80787833134,-0.836137771606,0,3.94862844328,-0.035769142964,197,4.9588508606,10.6384601593,
1.83318837086,-0.890362262726,0,3.80595826989,-0.0378933979109,198,5.0623497963,10.8456192017,
1.85899432103,-0.94558095932,0,3.65527023447,-0.0399261937128,199,5.16140556335,11.0444583893,
1.88526709477,-1.00174188614,0,3.49669730895,-0.0419141176061,200,5.25490188599,11.2328987122,
1.91197426716,-1.05878210068,0,3.33036505476,-0.0439619137838,201,5.34171485901,11.4087600708,
1.93907578389,-1.11662626266,0,3.15651767629,-0.0459444511952,202,5.42062616348,11.5696754456,
1.96652634541,-1.17518854141,0,2.97546666057,-0.0478452462429,203,5.49044561386,11.7133407593,
1.99427445332,-1.23437166214,0,2.78761167947,-0.0496397711726,204,5.55000972748,11.8374977112,
2.022263364,-1.29406738281,0,2.59341853878,-0.0513110041947,205,5.59820175171,11.9400138855,
2.05043204228,-1.35415792465,0,2.39340859315,-0.0528439404726,206,5.63406467438,12.0190544128,
2.07871420781,-1.41451883316,0,2.18821557603,-0.0542102793951,207,5.65684270859,12.0731277466,
2.1070421497,-1.47501993179,0,1.97848292363,-0.0554066708815,208,5.66595840454,12.1011257172,
2.1353457729,-1.53552770615,0,1.76491386475,-0.0564167472344,209,5.66108083725,12.1024465561,
2.16355498234,-1.59590864182,0,1.54823302156,-0.0572309380997,210,5.6421957016,12.0770750046,
2.19160063664,-1.65603065491,0,1.32917051653,-0.0578565321228,211,5.60950946808,12.0254058838,
2.21941645543,-1.71576833725,0,1.10845259794,-0.0582900099272,212,5.56348180771,11.9484004974,
2.24693901936,-1.77500104904,0,0.886781367302,-0.0584554584534,213,5.50484466553,11.8474273682,
2.27410920064,-1.83361768723,0,0.664832199017,-0.0584710144748,214,5.43443918228,11.7242031097,
2.30087407033,-1.89151763916,0,0.443211480233,-0.058380454783,215,5.35330200195,11.5807247162,
2.32718499104,-1.94860887527,0,0.222485531397,-0.0581415732256,216,5.26249599457,11.4190921783,
2.35299952427,-2.00481319427,0,0.00316699485796,-0.0577667396533,217,5.16317176819,11.2415351868,
2.37828047673,-2.0600605011,0,-0.214301256761,-0.0572763830089,218,5.05644989014,11.0502204895,
2.40299637715,-2.11429357529,0,-0.429530646031,-0.056644351598,219,4.94341659546,10.8472938538,
2.42712052266,-2.16746425629,0,-0.642190498799,-0.0559640034198,220,4.82506942749,10.6347141266,
2.45063145558,-2.21953248978,0,-0.852019766761,-0.0552160124838,221,4.70238924026,10.4142951965,
2.47351153294,-2.27046823502,0,-1.05879367785,-0.0544089725967,222,4.57619571686,10.1876811981,
2.49574644963,-2.32024693489,0,-1.26233435043,-0.0535552187495,223,4.44725036621,9.95631790161,
2.5173266689,-2.3688519001,0,-1.4625235752,-0.0526705298557,224,4.31620121002,9.72146224976,
2.53824408452,-2.41627049446,0,-1.65926076051,-0.0517580516125,225,4.18363380432,9.48419761658,
2.55849345128,-2.462495327,0,-1.85248161449,-0.0508302624252,226,4.0499625206,9.24538230896,
2.57807095448,-2.50752234459,0,-2.04214130069,-0.0495193927149,227,3.91569519043,9.00581359863,
2.59697611729,-2.55135083199,0,-2.22823675231,-0.0485856061277,228,3.78107690811,8.76607131958,
2.6152075092,-2.59398245811,0,-2.41075362259,-0.0476484516791,229,3.64642286301,8.52664852142,
2.63276656071,-2.63542032242,0,-2.58971205849,-0.0467169976853,230,3.51188468933,8.28790473938,
2.64965470234,-2.67566943169,0,-2.76513143083,-0.045790770516,231,3.3777050972,8.05013751984,
2.66587431828,-2.7147359848,0,-2.93704089351,-0.0448720481418,232,3.24396038055,7.81352949142,
2.68142731587,-2.75262594223,0,-3.10546420077,-0.0439598051829,233,3.11072587967,7.57824468613,
2.69631798665,-2.78934645653,0,-3.27044382056,-0.0430581304548,234,2.97817063332,7.34436321259,
2.71054919163,-2.82490491867,0,-3.43200661314,-0.0421642293812,235,2.8462369442,7.1119184494,
2.72412379185,-2.85930848122,0,-3.59017616352,-0.0412763067554,236,2.71499633789,6.88088941574,
2.737045602,-2.8925640583,0,-3.74497733521,-0.0403951361459,237,2.58445882797,6.65127706528,
2.74931843678,-2.92467832565,0,-3.89642770041,-0.0395187195076,238,2.45460104942,6.42301750183,
2.76094563405,-2.95565772057,0,-4.04453460078,-0.038644317061,239,2.32541275024,6.19603252411,
2.77192957799,-2.98550820351,0,-4.18929292734,-0.037768679438,240,2.19688820839,5.97024536133,
2.78227503697,-3.01423549652,0,-4.33069988883,-0.0368918552428,241,2.06906318665,5.7455906868,
2.79198391835,-3.04184436798,0,-4.4687286331,-0.0360084184373,242,1.94174802303,5.52187156677,
2.80105908314,-3.06833934784,0,-4.60334731629,-0.0351168634922,243,1.81512081623,5.29908943176,
2.80950434605,-3.09372401237,0,-4.73451324886,-0.0342142950517,244,1.68903946877,5.07706785202,
2.81732161442,-3.1180024147,0,-4.86217053166,-0.0332535607455,245,1.56344568729,4.85575151443,
2.82451327244,-3.14117670059,0,-4.98624666947,-0.0323181488858,246,1.43837118149,4.63495397568,
2.83108218113,3.11993575096,0,-5.1066618189,-0.0313628722776,247,1.31376075745,4.41463756561,
2.83702977101,3.09896278381,0,-5.22331777592,-0.0303810330352,248,1.18955659866,4.19466686249,
2.84235890309,3.07908821106,0,-5.33610700758,-0.0293722739901,249,1.06581938267,3.97497415543,
2.84707100789,3.06031107903,0,-5.44490659246,-0.0283317735579,250,0.94239282608,3.75545740128,
2.85116799275,3.04263138771,0,-5.54957748759,-0.027255186052,251,0.819368064404,3.53598642349,
2.85465128819,3.02604866028,0,-5.64997199961,-0.0261398538101,252,0.696675360203,3.31656455994,
2.85752280156,3.01056361198,0,-5.74592388695,-0.0249817753235,253,0.574295639992,3.09703922272,
2.85978348652,2.99617648125,0,-5.83725868031,-0.0237783467847,254,0.45220220089,2.87741947174,
2.86143572728,2.98288869858,0,-5.92378195958,-0.0225196717345,255,0.330429553986,2.65760326385,
2.86248047749,2.97070097923,0,-6.00529322429,-0.0212138456649,256,0.20888876915,2.43755102158,
2.86291869084,2.95961499214,0,-6.08157450928,-0.0198516284197,257,0.0876577496529,2.21722054482,
2.86275227467,2.9496319294,0,-6.15239865974,-0.0184304206695,258,-0.0333020687103,1.99660897255,
2.86198218266,2.94075345993,0,-6.217525092,-0.0169467440963,259,-0.153986215591,1.77566897869,
2.86060984532,2.93298172951,0,-6.27669798408,-0.0153967297237,260,-0.274472296238,1.55435967445,
2.85863717,2.92631816864,0,-6.32965491519,-0.0137707584555,261,-0.394604384899,1.33273553848,
2.85606463353,2.92076420784,0,-6.37612523518,-0.0120832958148,262,-0.514476060867,1.11081111431,
2.8528946201,2.91632151604,0,-6.41582296338,-0.0103217131118,263,-0.634050488472,0.888513088226,
2.84912760655,2.91299200058,0,-6.44845336452,-0.00848367950114,264,-0.753348886967,0.665907919407,
2.8447664539,2.91077661514,0,-6.47371513492,-0.00656748976129,265,-0.872202754021,0.443104147911,
2.83981259266,2.9096763134,0,-6.4913002797,-0.0045714878757,266,-0.990846395493,0.220021724701,
2.83426745335,2.90969252586,0,-6.50088809726,-0.00249233947697,267,-1.10898840427,-0.00320172309875,
2.82813389699,2.91082525253,0,-6.50215850787,-0.000330221084457,268,-1.22674882412,-0.226546883583,
2.82141335408,2.91307473183,0,-6.49478430388,0.0019166904892,269,-1.34404885769,-0.449914216995,
2.81410916249,2.91644096375,0,-6.47842992587,0.0042505321852,270,-1.46088683605,-0.673234760761,
2.8062237064,2.9209227562,0,-6.45276491411,0.00667000228193,271,-1.57711791992,-0.896396994591,
2.79775984684,2.92651939392,0,-6.41744853936,0.00917773642478,272,-1.69278585911,-1.11931598186,
2.78872044484,2.93322873116,0,-6.37214716679,0.0117698918247,273,-1.80783855915,-1.3418866396,
2.77910979191,2.94104838371,0,-6.31652376351,0.014450677882,274,-1.92216777802,-1.56395709515,
2.76893170277,2.94997525215,0,-6.25024540464,0.0172177941965,275,-2.03568339348,-1.78537249565,
2.75818951527,2.96000528336,0,-6.17298580643,0.0200692255667,276,-2.14844202995,-2.0060300827,
2.74688847462,2.97113394737,0,-6.08442082279,0.0230046924414,277,-2.26026368141,-2.22574424744,
2.73503287236,2.98335528374,0,-5.98423985512,0.026020618112,278,-2.37112426758,-2.44430613518,
2.72262843052,2.99666285515,0,-5.87213797194,0.0291152807632,279,-2.48086881638,-2.66155004501,
2.709681348,3.01104903221,0,-5.74782432933,0.0322850558815,280,-2.58947777748,-2.87726640701,
2.69619734684,3.02650499344,0,-5.61102321838,0.0355261631555,281,-2.69682216644,-3.09122848511,
2.6821835796,3.04302048683,0,-5.46147820845,0.0388332762832,282,-2.80281639099,-3.30317187309,
2.66764719883,3.06058478355,0,-5.2989454401,0.0422034693487,283,-2.90733218193,-3.51290392876,
2.65259631077,3.07918453217,0,-5.12321400589,0.0456279919861,284,-3.01020669937,-3.72001385689,
2.63703949849,3.09880590439,0,-4.93408959305,0.0491027558164,285,-3.1114180088,-3.92431330681,
2.62098629872,3.11943268776,0,-4.7314130268,0.0526185771982,286,-3.21069264412,-4.1254119873,
2.60444720189,3.1410472393,0,-4.51505478912,0.0561672864877,287,-3.30795383453,-4.32296323776,
2.58743222157,-3.11955571175,0,-4.28492026603,0.0597404836954,288,-3.40302586555,-4.51660203934,
2.56995423237,-3.09602665901,0,-4.04095132335,0.063327927938,289,-3.49571371078,-4.70588827133,
2.55202563206,-3.07157540321,0,-3.78313724114,0.0669181670528,290,-3.58580970764,-4.89038658142,
2.53366072575,-3.04622769356,0,-3.51150705572,0.0705004685158,291,-3.67310810089,-5.06960916519,
2.51487429539,-3.02001333237,0,-3.22614845456,0.074059609383,292,-3.75741767883,-5.24302911758,
2.49568255345,-2.99296307564,0,-2.92718913008,0.0775852435098,293,-3.83845949173,-5.41012525558,
2.47610361973,-2.96511268616,0,-2.61483263983,0.081057682376,294,-3.91588521004,-5.57021427155,
2.45615656773,-2.93649959564,0,-2.28933018558,0.0844646100306,295,-3.98954772949,-5.72272777557,
2.43586190144,-2.90716576576,0,-1.95100552849,0.0877871469852,296,-4.05903673172,-5.86692094803,
2.41524250905,-2.87715625763,0,-1.60025191692,0.0910073964493,297,-4.12402629852,-6.00207281113,
2.39432270924,-2.84652018547,0,-1.2375347174,0.0941065175904,298,-4.18414926529,-6.12739372253,
2.37312825123,-2.81531071663,0,-0.863391334581,0.0970224759218,299,-4.23904371262,-6.24202728271,
2.35168774525,-2.78358626366,0,-0.478450450639,0.0996997888396,300,-4.28827571869,-6.34508991241,
2.33003123204,-2.75140881538,0,-0.0834101674595,0.102308861321,301,-4.33144950867,-6.43566226959,
2.30819209019,-2.71884632111,0,0.32093045434,0.104709469086,302,-4.36801767349,-6.51272916794,
2.28620512883,-2.68597078323,0,0.733700621437,0.106886329391,303,-4.39755916595,-6.57529067993,
2.26410801808,-2.65286064148,0,1.15393147838,0.108811843306,304,-4.41955041885,-6.62226581573,
2.24194176594,-2.61959838867,0,1.58056645252,0.110464236771,305,-4.43351411819,-6.65262079239,
2.21974785725,-2.58627343178,0,2.0124759388,0.11182403085,306,-4.43891763687,-6.66524124146,
2.19757254521,-2.55297923088,0,2.44843182389,0.112865732511,307,-4.43523931503,-6.65905475616,
2.17546399037,-2.51981520653,0,2.88712842298,0.11354469706,308,-4.42195701599,-6.6329574585,
2.1534717838,-2.48688673973,0,3.32719348363,0.113892721625,309,-4.39856863022,-6.5859336853,
2.13164933125,-2.45430278778,0,3.76717581516,0.113865261314,310,-4.36463832855,-6.5169711113,
2.11005194584,-2.4221777916,0,4.20556071356,0.1134459649,311,-4.31964921951,-6.42516994476,
2.0887363712,-2.39063000679,0,4.64078917837,0.112621883922,312,-4.26333189011,-6.30972719193,
2.06776078145,-2.35978150368,0,5.07126217331,0.111385455302,313,-4.1952085495,-6.16991519928,
2.04718621174,-2.32975625992,0,5.49533236864,0.109722858111,314,-4.11510419846,-6.00517082214,
2.02707274357,-2.30068159103,0,5.91135323353,0.107634489773,315,-4.02280664444,-5.81508636475,
2.00748236577,-2.27268505096,0,6.31765526798,0.105110065372,316,-3.91821670532,-5.59943342209,
1.98847611348,-2.24589490891,0,6.71258606318,0.102162840264,317,-3.80134034157,-5.35820531845,
1.9701154987,-2.2204375267,0,7.09450050645,0.0987866071845,318,-3.67224025726,-5.09155273438,
1.95246012608,-2.19643878937,0,7.46179026817,0.0949986562724,319,-3.53113341331,-4.79983234406,
1.93556912343,-2.17402076721,0,7.81287349129,0.0908014987643,320,-3.37832736969,-4.48369503021,
1.91949828068,-2.15330171585,0,8.14623647813,0.0862135414787,321,-3.21422028542,-4.14388418198,
1.90430195729,-2.13439464569,0,8.46040523215,0.0811458189145,322,-3.03935337067,-3.78145170212,
1.89003022114,-2.11740684509,0,8.75398822703,0.075791372553,323,-2.85437512398,-3.39762592316,
1.87673075596,-2.10243797302,0,9.025646965,0.0701275284956,324,-2.65989518166,-2.99379134178,
1.86444695393,-2.08958053589,0,9.27411908981,0.0641374659165,325,-2.45681142807,-2.57151341438,
1.85321743886,-2.07891845703,0,9.49822524472,0.0578447932014,326,-2.24596476555,-2.13254117966,
1.84307558934,-2.07052469254,0,9.69687917915,0.0512034884025,327,-2.02832865715,-1.67874598503,
1.83405144612,-2.06446409225,0,9.86903986966,0.0443720966508,328,-1.80492258072,-1.21213030815,
1.82616742054,-2.06079006195,0,10.0137894776,0.0373031727638,329,-1.57681202888,-0.73481798172,
1.81944115559,-2.05954456329,0,10.1302813871,0.0300136129668,330,-1.34518611431,-0.249052166939,
1.81388552586,-2.06075906754,0,10.2177336153,0.0225304070275,331,-1.11116015911,0.242911219597,
1.80950529973,-2.06445264816,0,10.2754895572,0.0148695322993,332,-0.876031041145,0.738657951355,
1.80630047719,-2.07063102722,0,10.3029667741,0.00707362544982,333,-0.641017735004,1.23575305939,
1.80426295201,-2.07928991318,0,10.2997003966,-0.000840830641733,334,-0.407451689243,1.73173236847,
1.80337984959,-2.09040975571,0,10.2653137706,-0.00885133114613,335,-0.17659303546,2.22402667999,
1.80363066594,-2.10396051407,0,10.1995512231,-0.016926695039,336,0.0501656234264,2.71016311646,
1.80498869816,-2.11989831924,0,10.1022768567,-0.025036256352,337,0.271519958973,3.18756628036,
1.807419614,-2.13816642761,0,9.97350294918,-0.0331408157074,338,0.486189901829,3.65377569199,
1.81088335911,-2.15869808197,0,9.81335635779,-0.0412125787251,339,0.69280731678,4.10636281967,
1.81533463398,-2.18141269684,0,9.62210360899,-0.0492148933184,340,0.890244722366,4.54300785065,
1.82072050969,-2.20621919632,0,9.40018327358,-0.0571021688599,341,1.0771869421,4.96145486832,
1.82698376576,-2.23301696777,0,9.14816348531,-0.0647945405354,342,1.25260400772,5.35966825485,
1.83406098286,-2.26169490814,0,8.86678919071,-0.0723371516665,343,1.41544854641,5.7357506752,
1.84188445012,-2.29213404655,0,8.55695192476,-0.0796501277683,344,1.56478393078,6.08805036545,
1.85038407246,-2.32420873642,0,8.21966878722,-0.0867009620493,345,1.6998745203,6.41514253616,
1.85948403279,-2.35778665543,0,7.85613813536,-0.093442971979,346,1.82002747059,6.71585893631,
1.86910756032,-2.39273166656,0,7.46766526482,-0.0998472664241,347,1.92472076416,6.98927307129,
1.87917550007,-2.42890405655,0,7.05568729572,-0.105882486033,348,2.01357126236,7.23478984833,
1.88960726658,-2.46616244316,0,6.62175162954,-0.111519044765,349,2.08638310432,7.45202350616,
1.90032227437,-2.50436496735,0,6.16749277439,-0.116735473393,350,2.14302420616,7.64088535309,
1.9112394611,-2.54337072372,0,5.69462696499,-0.121510880286,351,2.18351960182,7.80149936676,
1.92227967183,-2.58303952217,0,5.20492877674,-0.125827755041,352,2.20804834366,7.93420982361,
1.93336375157,-2.62323522568,0,4.70021896706,-0.129670650782,353,2.2168366909,8.03958415985,
1.94441492955,-2.66382479668,0,4.18234451726,-0.133045704555,354,2.21026110649,8.11832904816,
1.95535881917,-2.70467853546,0,3.65317440645,-0.135939830651,355,2.18872880936,8.17123317719,
1.96612246434,-2.74567270279,0,3.11457590713,-0.138354449819,356,2.15275239944,8.19928741455,
1.97663624684,-2.78668737411,0,2.56841459895,-0.140283566061,357,2.10284948349,8.20343589783,
1.98683436314,-2.82760882378,0,2.01652100403,-0.141746256252,358,2.03957152367,8.18478012085,
1.99665196339,-2.8683283329,0,1.46072029429,-0.14274182723,359,1.96360957623,8.14440250397,
2.00602991978,-2.90874242783,0,0.90278893517,-0.14328132952,360,1.87552452087,8.08336639404,
2.0149091045,-2.94875335693,0,0.344485313888,-0.143369387361,361,1.77589225769,8.00269126892,
2.0232361118,-2.9882683754,0,-0.212485756809,-0.143019672162,362,1.66542124748,7.90348529816,
2.03096039692,-3.02719974518,0,-0.766455870434,-0.14224156971,363,1.54479694366,7.7867898941,
2.03803236882,-3.06546449661,0,-1.31578370165,-0.140253676985,364,1.41447401047,7.65349054337,
2.0444086353,-3.10298514366,0,-1.85889712326,-0.138657953157,365,1.27521038055,7.50460290909,
2.05004628102,-3.13968729973,0,-2.39423192947,-0.136663253534,366,1.12752950191,7.34093618393,
2.05490668217,3.10768389702,0,-2.92027759796,-0.134282561476,367,0.972105026245,7.16338396072,
2.05895407597,3.0728225708,0,-3.43557198242,-0.131528684836,368,0.809434533119,6.97271776199,
2.06215460698,3.03897666931,0,-3.93866065503,-0.128406075356,369,0.640134692192,6.76969528198,
2.06447823445,3.00620388985,0,-4.4281471322,-0.124927399043,370,0.464721798897,6.55501270294,
2.06589730183,2.9745593071,0,-4.90265504894,-0.121097968374,371,0.283795535564,6.3293838501,
2.06638653676,2.94409418106,0,-5.36084760054,-0.116901987636,372,0.0978499948978,6.09344339371,
2.06592352788,2.91485714912,0,-5.80141355018,-0.112377515154,373,-0.0925810486078,5.8478512764,
2.06448824803,2.88689351082,0,-6.22307829552,-0.107548400018,374,-0.287011623383,5.59314870834,
2.06206400792,2.86024570465,0,-6.62460218314,-0.102406000914,375,-0.484894633293,5.33000135422,
2.05863507191,2.83495283127,0,-7.00478302602,-0.096956782784,376,-0.685765504837,5.05895423889,
2.05418951909,2.81105184555,0,-7.36244982611,-0.0912103250555,377,-0.889175415039,4.78056144714,
2.04871638218,2.78857660294,0,-7.6964719187,-0.0851762182484,378,-1.09462976456,4.49540328979,
2.04220755497,2.76755809784,0,-8.00576489121,-0.0788659748758,379,-1.30167794228,4.20405197144,
2.03465826909,2.74802446365,0,-8.28929603871,-0.0722853070897,380,-1.50988328457,3.90707159042,
2.02606470982,2.73000073433,0,-8.54608528215,-0.0654636591915,381,-1.71878182888,3.60504102707,
2.01642496983,2.71350955963,0,-8.77520129774,-0.0584056860486,382,-1.92795693874,3.2985291481,
2.00574000279,2.69857025146,0,-8.97578431754,-0.0511288425558,383,-2.13703227043,2.98809838295,