lower angle,upper angle,holding angle,system x,acceleration,ticks (200 tps),lower acceleration (shoulder),upper acceleration (elbow),
1.57079632679,0.0,0,2.25028849343e-15,8.39417418486e-17,1,0.0,0.0,
1.57089312474,-0.000187873840332,0,-0.000598311423062,-2.23183873699e-05,2,0.0193096362054,0.0375630632043,
1.57109101216,-0.000574111938477,0,-0.00178742405523,-4.43562423235e-05,3,0.0395773947239,0.0772192180157,
1.57138808171,-0.00115442276001,0,-0.00356483433708,-6.62958424149e-05,4,0.0594592690468,0.116071499884,
1.57178385655,-0.0019268989563,0,-0.00594305872647,-8.870486451e-05,5,0.0791385173798,0.154534712434,
1.57227738301,-0.00289106369019,0,-0.00889455870924,-0.000110086441258,6,0.098696872592,0.192764878273,
1.57286818425,-0.00404453277588,0,-0.0124393591786,-0.000132214569757,7,0.118117831647,0.230755001307,
1.57355482976,-0.00538682937622,0,-0.0165323953072,-0.000152661161497,8,0.137395173311,0.268458724022,
1.57433731953,-0.00691652297974,0,-0.0211961917114,-0.000173947821076,9,0.156510546803,0.305867522955,
1.5752146999,-0.00863122940063,0,-0.0264332430337,-0.000195327170242,10,0.17543771863,0.342943549156,
1.57618554036,-0.0105290412903,0,-0.0322210066849,-0.000215865430047,11,0.194162219763,0.379614531994,
1.57724888722,-0.0126085281372,0,-0.0385469495322,-0.000235935669667,12,0.212681055069,0.415893822908,
1.57840378682,-0.0148673057556,0,-0.0454135536246,-0.000256098387059,13,0.230960428715,0.451723247766,
1.57964880864,-0.0173025131226,0,-0.0528132817518,-0.000275979152392,14,0.248995676637,0.487070053816,
1.58098252217,-0.0199122428894,0,-0.0607235704277,-0.000295018457695,15,0.266764342785,0.521910309792,
1.58240397374,-0.022693157196,0,-0.0691619013441,-0.00031470889384,16,0.284247100353,0.556211352348,
1.58391077916,-0.0256428718567,0,-0.0780781602032,-0.000332530513368,17,0.301446378231,0.589931607246,
1.58550246159,-0.0287580490112,0,-0.0875073335511,-0.000351656468132,18,0.318323463202,0.623047411442,
1.58717711369,-0.0320358276367,0,-0.0974243205633,-0.000369845238025,19,0.334892183542,0.655544757843,
1.58893282811,-0.0354723930359,0,-0.107819029416,-0.000387657425555,20,0.35110488534,0.687361598015,
1.59076769749,-0.0390648841858,0,-0.118666339516,-0.000404533276914,21,0.366973519325,0.71850168705,
1.5926798145,-0.0428099632263,0,-0.129948629226,-0.000420751778277,22,0.382488161325,0.748933315277,
1.59466774861,-0.0467028617859,0,-0.141688309869,-0.000437805800854,23,0.397609502077,0.778629779816,
1.59672959248,-0.0507407188416,0,-0.153860224706,-0.00045392147127,24,0.412352412939,0.807546138763,
1.59886343876,-0.0549192428589,0,-0.166461728875,-0.000469938210958,25,0.426702201366,0.835694730282,
1.60106642643,-0.0592341423035,0,-0.179455130047,-0.000484549153574,26,0.440637350082,0.863022446632,
1.60333712498,-0.0636820793152,0,-0.192840260679,-0.000499152578075,27,0.454141646624,0.8895226717,
1.60567315022,-0.0682578086853,0,-0.206611933739,-0.000513563225421,28,0.467229247093,0.915181100368,
1.6080725948,-0.0729575157166,0,-0.220759942759,-0.000527592914178,29,0.479879766703,0.939964532852,
1.61053307454,-0.0777769088745,0,-0.235264061387,-0.000540867806672,30,0.492076843977,0.963866353035,
1.61305220524,-0.0827112197876,0,-0.250111557227,-0.000553663864124,31,0.503818511963,0.986845850945,
1.61562760273,-0.0877556800842,0,-0.26528968566,-0.000565988494663,32,0.515097618103,1.00892460346,
1.61825735966,-0.09290599823,0,-0.280795692621,-0.000578206037876,33,0.52590316534,1.03005981445,
1.62093813817,-0.0981574058533,0,-0.29658180158,-0.000588645315826,34,0.536231398582,1.05024826527,
1.62366850773,-0.103504657745,0,-0.312677745073,-0.000600193606104,35,0.546085357666,1.0694770813,
1.62644608418,-0.108943462372,0,-0.32906322854,-0.000610984759058,36,0.555442750454,1.08772301674,
1.62926752965,-0.114468097687,0,-0.345705457429,-0.000620541742232,37,0.564317345619,1.10500144958,
1.63213093678,-0.120074748993,0,-0.362594129378,-0.000629725054144,38,0.572687447071,1.1212939024,
1.6350339214,-0.125757694244,0,-0.379731428517,-0.000638989684719,39,0.580558121204,1.13656306267,
1.63797314564,-0.131511688232,0,-0.397077057112,-0.000646742852251,40,0.587925374508,1.15082788467,
1.640947179,-0.137331962585,0,-0.414653169955,-0.000655325737454,41,0.59479290247,1.16409397125,
1.64395316044,-0.143213748932,0,-0.432429455192,-0.000662715305628,42,0.601138293743,1.17632710934,
1.64698775212,-0.149151802063,0,-0.450365628972,-0.000668669500593,43,0.606985032558,1.18755757809,
1.65004952351,-0.155140399933,0,-0.468498804284,-0.000676008136046,44,0.612319052219,1.19773495197,
1.65313513676,-0.16117477417,0,-0.486781210145,-0.000681565295722,45,0.617129385471,1.20689964294,
1.65624220768,-0.167250156403,0,-0.505200036475,-0.000686645326482,46,0.621446549892,1.21504020691,
1.65936882893,-0.173360824585,0,-0.523774902533,-0.000692455449386,47,0.625241339207,1.22214651108,
1.6625111858,-0.179501533508,0,-0.542448107711,-0.000696115412117,48,0.628527522087,1.22821474075,
1.66566784779,-0.185667991638,0,-0.561234290074,-0.000700321521544,49,0.63130235672,1.23326659203,
1.66883547703,-0.191854476929,0,-0.580100727106,-0.000703307647667,50,0.633573055267,1.23728823662,
1.67201216618,-0.198055744171,0,-0.599059569915,-0.000706746592814,51,0.635338246822,1.24029493332,
1.67519505421,-0.204267501831,0,-0.618073143875,-0.000708781060723,52,0.636598944664,1.24227035046,
1.67838223378,-0.210483551025,0,-0.637168555095,-0.000711826154306,53,0.637357652187,1.24324703217,
1.68157036702,-0.21669960022,0,-0.65629074249,-0.000712817321692,54,0.637621760368,1.24320864677,
1.68475706975,-0.222910404205,0,-0.675434480173,-0.000713614712871,55,0.637389600277,1.24217891693,
1.68794043461,-0.229111194611,0,-0.694604498808,-0.000714588125142,56,0.636666595936,1.2401368618,
1.6911176006,-0.235296726227,0,-0.713778183697,-0.000714718637111,57,0.635451853275,1.23711514473,
1.69428666035,-0.241462230682,0,-0.732960291906,-0.000715025523776,58,0.633763372898,1.23312616348,
1.69744475285,-0.247602939606,0,-0.752120802567,-0.000714214529371,59,0.631602883339,1.22816872597,
1.70058949391,-0.253714084625,0,-0.771247130473,-0.000712932138811,60,0.628960847855,1.2222186327,
1.70371849934,-0.259790897369,0,-0.79032671953,-0.000711184045994,61,0.625849664211,1.21533918381,
1.7068298618,-0.265828609467,0,-0.809364412343,-0.000708176208468,62,0.622290611267,1.20751833916,
1.7099211971,-0.271822452545,0,-0.828347694182,-0.000706132435097,63,0.618265926838,1.19875752926,
1.71299012105,-0.277767658234,0,-0.847264083114,-0.000703637184049,64,0.613794207573,1.18907618523,
1.7160347263,-0.283660411835,0,-0.866103601174,-0.000700772360863,65,0.608881652355,1.17850279808,
1.71905215184,-0.28949546814,0,-0.884843927895,-0.000697077402145,66,0.603525817394,1.16702485085,
1.72204096715,-0.295268535614,0,-0.903499927394,-0.000693935468508,67,0.597736239433,1.1546536684,
1.72499878804,-0.300975799561,0,-0.922044375777,-0.000689780959953,68,0.591528534889,1.1414090395,
1.72792323033,-0.306612014771,0,-0.94047239076,-0.000685443158232,69,0.58489471674,1.12729477882,
1.73081238667,-0.312173843384,0,-0.958766732783,-0.00068046566348,70,0.577851235867,1.11234819889,
1.73366434971,-0.317656517029,0,-0.976932469405,-0.000675675253493,71,0.570405900478,1.09656763077,
1.73647721211,-0.323056221008,0,-0.99495984368,-0.000670523538595,72,0.562555670738,1.07994925976,
1.73924858967,-0.328369140625,0,-1.01282184734,-0.000664366681939,73,0.554312229156,1.06252241135,
1.74197705189,-0.333590507507,0,-1.03054091774,-0.000659045227404,74,0.545689105988,1.0442918539,
1.74466069142,-0.338716983795,0,-1.04809997734,-0.000653087284291,75,0.536689221859,1.02529489994,
1.74729712407,-0.343744277954,0,-1.06547954385,-0.000646405690207,76,0.527304768562,1.00550866127,
1.74988491932,-0.348669528961,0,-1.08267249375,-0.000637931117213,77,0.517569422722,0.984979689121,
1.75242216984,-0.353487968445,0,-1.09968408262,-0.000631194014182,78,0.507464230061,0.963694393635,
1.75490744511,-0.358196258545,0,-1.11651462981,-0.000624470651473,79,0.497018605471,0.941680192947,
1.75733836094,-0.362791061401,0,-1.13313000532,-0.000614034145132,80,0.486223429441,0.918953835964,
1.75971396367,-0.367268562317,0,-1.14955522572,-0.000607001106632,81,0.475090533495,0.895523309708,
1.76203234593,-0.371625423431,0,-1.16577345833,-0.000599324362776,82,0.463623583317,0.871388971806,
1.76429112355,-0.375858306885,0,-1.1817507044,-0.000589916226113,83,0.451834201813,0.846574664116,
1.76648981968,-0.379963874817,0,-1.19752185973,-0.000582301187474,84,0.439731121063,0.821106553078,
1.76862652699,-0.383938789368,0,-1.21307018608,-0.000574067389426,85,0.42730987072,0.794975757599,
1.77069933812,-0.387780189514,0,-1.22837161119,-0.000564207530396,86,0.41459313035,0.768224537373,
1.77270729939,-0.391484260559,0,-1.24345123767,-0.000556023960277,87,0.401559710503,0.740822792053,
1.77464850346,-0.395048141479,0,-1.25828504343,-0.000546955771715,88,0.388247102499,0.712806344032,
1.77652151982,-0.398468971252,0,-1.27286622967,-0.000537634475168,89,0.374646127224,0.68420279026,
1.77832539479,-0.401744365692,0,-1.28719781972,-0.000528427250306,90,0.360764920712,0.655000388622,
1.78005869786,-0.404870510101,0,-1.30128778365,-0.000519513807041,91,0.34662103653,0.625231146812,
1.78171952168,-0.407844543457,0,-1.31511221111,-0.000509719398339,92,0.332191318274,0.594882190228,
1.78330738942,-0.410664558411,0,-1.32868396228,-0.000500398295926,93,0.317506492138,0.563974440098,
1.78481991688,-0.413327217102,0,-1.34196938871,-0.000489837730617,94,0.302567899227,0.532538890839,
1.78625710408,-0.415830135345,0,-1.355005882,-0.000480654851172,95,0.287375956774,0.500573635101,
1.78761656682,-0.418170452118,0,-1.36775247264,-0.000469962302051,96,0.271942555904,0.468082547188,
1.78889782826,-0.420345783234,0,-1.38022941849,-0.000460017300651,97,0.256272375584,0.43508118391,
1.79009993474,-0.422353744507,0,-1.39243983464,-0.000450186199133,98,0.240353509784,0.401583969593,
1.79122097889,-0.424191951752,0,-1.40435258766,-0.000439141875144,99,0.224211901426,0.367587685585,
1.79226000706,-0.425857543945,0,-1.41597817318,-0.000426861917147,100,0.207857131958,0.333149075508,
1.7932165424,-0.427348613739,-0.0427348613739,-1.42732949705,-0.000416344340352,101,0.191283002496,0.298230051994,
1.79408867756,-0.428662776947,0.0,-1.43837545794,-0.000404576764981,102,0.174489557743,0.262844711542,
1.7948911945,-0.42982673645,0,-1.44923553901,-0.000397765092195,103,0.160415932536,0.232720345259,
1.79560692708,-0.430808067322,0,-1.45979405771,-0.000386716699388,104,0.143144473433,0.19634154439,
1.79623539845,-0.431606769562,0,-1.47003452047,-0.000375064721792,105,0.125746771693,0.159678533673,
1.79677613179,-0.43221950531,0,-1.47999188365,-0.00036469324263,106,0.10815513134,0.122598670423,
1.79722817341,-0.432644844055,0,-1.48965457952,-0.000353897007463,107,0.0903577432036,0.0850743204355,
1.79759009282,-0.432880878448,0,-1.49900127787,-0.000342320956461,108,0.0723663270473,0.0471507608891,
1.79786093632,-0.432925224304,0,-1.50803510176,-0.000330859447512,109,0.0541966706514,0.00885319709778,
1.79804022709,-0.432775974274,0,-1.51676892053,-0.000319869500079,110,0.0358566045761,-0.029836460948,
1.79812701146,-0.432431221008,0,-1.5251984835,-0.000308723673086,111,0.0173427909613,-0.0688832998276,
1.79812033574,-0.431890010834,0,-1.5333048195,-0.000296883536003,112,-0.00134553946555,-0.108295582235,
1.79801924626,-0.431149482727,0,-1.54109835219,-0.000285092601698,113,-0.0201968327165,-0.148060947657,
1.79782326619,-0.430208683014,0,-1.54857718389,-0.000273577715731,114,-0.0392174236476,-0.188190728426,
1.79753096501,-0.429065704346,0,-1.55571987925,-0.000261279622595,115,-0.0583826862276,-0.228613555431,
1.79714281956,-0.427718639374,0,-1.56257343726,-0.000250700597004,116,-0.0777034834027,-0.26937815547,
1.7966569225,-0.426166534424,0,-1.56908454514,-0.000238172058145,117,-0.0971774607897,-0.310479670763,
1.79607279698,-0.42440700531,0,-1.57527328034,-0.000226355055179,118,-0.116792976856,-0.351874232292,
1.79538996617,-0.422439098358,0,-1.581137618,-0.000214476013196,119,-0.136551678181,-0.393560051918,
1.79460795323,-0.420261383057,0,-1.58668286539,-0.000202570566494,120,-0.156442299485,-0.435544729233,
1.79372532765,-0.417872428894,0,-1.5918800354,-0.000189853316614,121,-0.176479905844,-0.477835327387,
1.79274208943,-0.415270328522,0,-1.59675886201,-0.00017822254934,122,-0.196637332439,-0.520380616188,
1.79165776173,-0.412454128265,0,-1.60131718706,-0.000165599483888,123,-0.216914355755,-0.563189506531,
1.79047091404,-0.409422874451,0,-1.60551851435,-0.000151873875835,124,-0.237327560782,-0.606267333031,
1.78918154637,-0.406175136566,0,-1.60938509915,-0.000139772032685,125,-0.257845938206,-0.649587035179,
1.78778918187,-0.4027094841,0,-1.61292202175,-0.000127853935667,126,-0.278490543365,-0.69315379858,
1.78629286686,-0.399024486542,0,-1.61611715845,-0.000115497996164,127,-0.299245655537,-0.736956596375,
1.78469260136,-0.395119667053,0,-1.6189778908,-0.000103409021188,128,-0.320094496012,-0.780972480774,
1.78298743168,-0.390993595123,0,-1.62149198118,-9.08779541591e-05,129,-0.341059505939,-0.82522881031,
1.78117688099,-0.386645317078,0,-1.62365691242,-7.82560147869e-05,130,-0.362125694752,-0.869673907757,
1.77926047246,-0.382073402405,0,-1.62547750366,-6.58085736431e-05,131,-0.38327986002,-0.914316356182,
1.77723772923,-0.377277851105,0,-1.62693632206,-5.2731160406e-05,132,-0.404527485371,-0.959157407284,
1.77510817448,-0.372256755829,0,-1.6280454577,-4.00910427352e-05,133,-0.425866007805,-1.00418162346,
1.77287180821,-0.367010116577,0,-1.6288045459,-2.74379477518e-05,134,-0.447280317545,-1.04937231541,
1.77052815358,-0.361536502838,0,-1.6292181635,-1.49504705996e-05,135,-0.468779265881,-1.09473204613,
1.76807625691,-0.355834960938,0,-1.62926617769,-1.73548978469e-06,136,-0.490342915058,-1.14024138451,
1.76551659504,-0.349905490875,0,-1.62896523624,1.08580503047e-05,137,-0.511982917786,-1.18589448929,
1.76284773747,-0.343747138977,0,-1.62827778143,2.47733468783e-05,138,-0.533686220646,-1.2316826582,
1.76007063786,-0.337359428406,0,-1.62724498456,3.7217883633e-05,139,-0.555457353592,-1.27759242058,
1.75718434254,-0.330741405487,0,-1.62584637036,5.03356594219e-05,140,-0.577271878719,-1.32361972332,
1.75418837468,-0.323892593384,0,-1.62407118314,6.38877493414e-05,141,-0.599145114422,-1.36974334717,
1.7510832111,-0.316812992096,0,-1.62193570193,7.68536644935e-05,142,-0.621062576771,-1.41595852375,
1.74786837498,-0.309501647949,0,-1.61943644275,8.99449408078e-05,143,-0.643017172813,-1.46225714684,
1.74454338948,-0.301958560944,0,-1.61655492771,0.000103701005084,144,-0.66499632597,-1.50860965252,
1.74110825459,-0.294183254242,0,-1.61329732004,0.000117169258636,145,-0.68701338768,-1.55502748489,
1.73756297032,-0.286175727844,0,-1.60966224702,0.000130744513487,146,-0.70905405283,-1.60148668289,
1.73390753666,-0.27793598175,0,-1.60564823804,0.000144372793543,147,-0.731094956398,-1.647970438,
1.73014147679,-0.269464015961,0,-1.60123637095,0.00015868135763,148,-0.753147900105,-1.69446110725,
1.72626574437,-0.260758876801,0,-1.59647460264,0.000171264966208,149,-0.775202929974,-1.74095261097,
1.72227938572,-0.251821994781,0,-1.5913040483,0.000185966272943,150,-0.797255456448,-1.78743219376,
1.7181828777,-0.242652416229,0,-1.58575511541,0.000199571946138,151,-0.819284260273,-1.83388853073,
1.71397669713,-0.233251094818,0,-1.57982825226,0.000213162326021,152,-0.841301441193,-1.88028168678,
1.70965989033,-0.223618030548,0,-1.57348657055,0.000228079696072,153,-0.86328125,-1.92661631107,
1.70523388783,-0.213753700256,0,-1.56677255535,0.000241464971276,154,-0.885223388672,-1.97286784649,
1.70069868962,-0.20365858078,0,-1.55967641827,0.00025520552974,155,-0.907105624676,-2.0190012455,
1.69605381886,-0.193333625793,0,-1.55216331914,0.000270198454784,156,-0.928939163685,-2.06503295898,
1.69130022923,-0.182778835297,0,-1.54426554103,0.000284030686319,157,-0.950693845749,-2.11091089249,
1.68643839757,-0.171996116638,0,-1.53596787739,0.000298409355643,158,-0.972375512123,-2.15663337708,
1.6814688007,-0.160984992981,0,-1.52729249416,0.00031199093623,159,-0.993961811066,-2.20215988159,
1.67639143864,-0.149747848511,0,-1.51819899559,0.000327025088821,160,-1.01544797421,-2.2474899292,
1.67120726506,-0.138284683228,0,-1.50871927791,0.000340911521805,161,-1.03681457043,-2.29257249832,
1.66591723362,-0.126597881317,0,-1.49884763602,0.000355003336791,162,-1.05805742741,-2.337413311,
1.66052134434,-0.114687919617,0,-1.48857332629,0.000369478567759,163,-1.07916212082,-2.38195991516,
1.65502055089,-0.102557182312,0,-1.47789040887,0.000384169700961,164,-1.10011208057,-2.42621135712,
1.64941628377,-0.0902066230774,0,-1.46683286227,0.000397625954461,165,-1.12089574337,-2.47011089325,
1.64370901982,-0.0776381492615,0,-1.4553845752,0.000410544998008,166,-1.14149165154,-2.51364946365,
1.63789923588,-0.0648546218872,0,-1.44351429398,0.000425674471293,167,-1.16187953949,-2.55677986145,
1.63198883931,-0.0518569946289,0,-1.43127320502,0.000438967521577,168,-1.18207478523,-2.59950208664,
1.62597878377,-0.0386481285095,0,-1.41864736671,0.000446764916155,169,-1.20202064514,-2.6417517662,
1.61987049977,-0.025230884552,0,-1.40564024985,0.00046025067303,170,-1.22172868252,-2.68352007866,
1.61366446415,-0.011607170105,0,-1.39223523275,0.000474326588089,171,-1.24117040634,-2.72474098206,
1.60736306111,0.0022200490348,0,-1.3784689787,0.000487105078185,172,-1.26032066345,-2.76540493965,
1.60096724431,0.0162474233657,0,-1.36431950319,0.000500596566515,173,-1.27918636799,-2.80548739433,
1.59447844426,0.0304719880223,0,-1.34978831181,0.000512998410082,174,-1.29772508144,-2.84492492676,
1.58789904515,0.0448903888464,0,-1.33490573278,0.00052539866053,175,-1.31592750549,-2.88369274139,
1.58123000065,0.0594990924001,0,-1.31964668064,0.000538618591815,176,-1.33376228809,-2.92175483704,
1.5744741718,0.0742942839861,0,-1.30405161653,0.000550473982671,177,-1.35122418404,-2.95905065536,
1.56763235975,0.0892720744014,0,-1.28808416338,0.000563613971172,178,-1.3682872057,-2.99557256699,
1.56070778152,0.104428231716,0,-1.27179118011,0.000575100104581,179,-1.38492131233,-3.03124523163,
1.55370221386,0.119758464396,0,-1.25516568531,0.00058683240889,180,-1.40111958981,-3.06606149673,
1.54661798949,0.135258123279,0,-1.23821545537,0.00059829020532,181,-1.41685092449,-3.09994697571,
1.53945750842,0.150922521949,0,-1.22095011811,0.000609407707928,182,-1.43210279942,-3.13289427757,
1.53222331131,0.166746661067,0,-1.20337952941,0.000620177234293,183,-1.44684588909,-3.16484594345,
1.52491804312,0.182725325227,0,-1.18551396795,0.000630583920565,184,-1.46106016636,-3.195748806,
1.51754445682,0.198853090405,0,-1.16736439612,0.000640603435951,185,-1.47472405434,-3.22556638718,
1.51010536129,0.215124368668,0,-1.14894125853,0.000650253638875,186,-1.48782634735,-3.25427341461,
1.50260372559,0.231533363461,0,-1.13025760484,0.000659443495836,187,-1.50033247471,-3.28182172775,
1.49504259328,0.248074099422,0,-1.11132642795,0.000668174665224,188,-1.5122345686,-3.30816459656,
1.48742517928,0.264740288258,0,-1.09216212359,0.000676397646655,189,-1.52348911762,-3.33326005936,
1.47975468735,0.281525671482,0,-1.07277915889,0.000684109850826,190,-1.534106493,-3.35709285736,
1.47203449259,0.298423498869,0,-1.05319065379,0.000691359045272,191,-1.54404711723,-3.37959051132,
1.46426800738,0.315427094698,0,-1.03341227331,0.000698055124657,192,-1.55330443382,-3.40074443817,
1.45645878563,0.332529693842,0,-1.01346347054,0.000704064456825,193,-1.56185233593,-3.4205327034,
1.44861041854,0.349724024534,0,-0.99335728956,0.000709613197483,194,-1.56968069077,-3.43889069557,
1.44072660903,0.367002934217,0,-0.973112714439,0.000714491973875,195,-1.57677090168,-3.45580554008,
1.4328110973,0.384359121323,0,-0.952747836798,0.000718732105773,196,-1.58311212063,-3.47125506401,
1.4248676459,0.401785045862,0,-0.932277973966,0.000722431268128,197,-1.58869600296,-3.48521447182,
1.41690018872,0.419273138046,0,-0.911724237687,0.000725378031347,198,-1.59349954128,-3.49764347076,
1.40891257028,0.43681576848,0,-0.891103679014,0.000727730843147,199,-1.59753000736,-3.50855255127,
1.40090885858,0.45440518856,0,-0.870439638695,0.000729255944074,200,-1.60074961185,-3.51789975166,
1.39289298753,0.472033560276,0,-0.849749363316,0.000730175900435,201,-1.60318243504,-3.52569913864,
1.38486899535,0.489692986012,0,-0.829053027211,0.000730383097136,202,-1.60480904579,-3.53190469742,
1.37684086064,0.507375657558,0,-0.808370109998,0.000729903865214,203,-1.60563457012,-3.53655290604,
1.36881266634,0.525073587894,0,-0.787721217211,0.000728695042957,204,-1.60564684868,-3.53960633278,
1.36078849534,0.542778849602,0,-0.767127938775,0.00072672683085,205,-1.60484647751,-3.54108285904,
1.35277231137,0.560483694077,0,-0.74661039396,0.00072404793397,206,-1.60324633121,-3.54099464417,
1.34476816753,0.578180134296,0,-0.726188427049,0.000720670171116,207,-1.6008374691,-3.53931999207,
1.33678004245,0.595860600471,0,-0.705885529682,0.000716461658271,208,-1.59763205051,-3.53610157967,
1.32881189982,0.613517105579,0,-0.685718611665,0.000711657708194,209,-1.59363913536,-3.53133106232,
1.32086759905,0.631142258644,0,-0.665709814995,0.000706072599399,210,-1.5888684988,-3.52505302429,
1.31295101444,0.648728370667,0,-0.645877540819,0.000699837677346,211,-1.58332765102,-3.51725625992,
1.30506594578,0.666268229485,0,-0.626244663245,0.00069279635666,212,-1.57702112198,-3.50798845291,
1.29721604387,0.683754444122,0,-0.606826380981,0.00068521872408,213,-1.56998944283,-3.49727988243,
1.28940497438,0.701180040836,0,-0.587644592305,0.000676849572411,214,-1.56222116947,-3.48514223099,
1.2816363732,0.718538045883,0,-0.568720252788,0.000667760210279,215,-1.55373334885,-3.47161626816,
1.2739136378,0.735821664333,0,-0.550068783252,0.00065812669349,216,-1.5445561409,-3.45674204826,
1.26624007622,0.753024339676,0,-0.531706098864,0.000647931715995,217,-1.53471374512,-3.44055747986,
1.25861908595,0.770139753819,0,-0.513654691977,0.000636942496045,218,-1.52420699596,-3.42309856415,
1.2510537068,0.787161707878,0,-0.495926637229,0.000625528141936,219,-1.51308214664,-3.40442609787,
1.24354706804,0.804084420204,0,-0.478543083104,0.000613367441,220,-1.50133383274,-3.38455820084,
1.23610197107,0.820902168751,0,-0.461515002399,0.000600819660413,221,-1.48903250694,-3.36357975006,
1.22872121731,0.8376095891,0,-0.444858533316,0.000587703067978,222,-1.47615671158,-3.34150028229,
1.22140757839,0.854201257229,0,-0.428588115471,0.000574077314741,223,-1.46273744106,-3.31836652756,
1.21416355769,0.870672404766,0,-0.412718386524,0.000559935087131,224,-1.4488068819,-3.29424524307,
1.206991599,0.887018203735,0,-0.397261307368,0.00054537024143,225,-1.43440365791,-3.26918935776,
1.19989393751,0.903234422207,0,-0.382230189532,0.000530336914881,226,-1.41953146458,-3.24325466156,
1.19287280838,0.919316649437,0,-0.367636049751,0.00051491481108,227,-1.4042365551,-3.21647548676,
1.18593014876,0.935261189938,0,-0.353489885885,0.000499105297292,228,-1.3885320425,-3.18890428543,
1.17906795541,0.951063930988,0,-0.339799211358,0.000483030979736,229,-1.37244343758,-3.16059160233,
1.17228795687,0.966721951962,0,-0.32657884919,0.000466433911448,230,-1.35600459576,-3.13161206245,
1.16559179226,0.982231855392,0,-0.313834451463,0.000449636637266,231,-1.33923947811,-3.10199975967,
1.15898095171,0.997590780258,0,-0.301574115146,0.000432554772873,232,-1.32217252254,-3.07179379463,
1.1524568061,1.01279604435,0,-0.28980458095,0.000415235335957,233,-1.30482912064,-3.04108285904,
1.14602063695,1.02784538269,0,-0.278535302313,0.00039758290227,234,-1.28724181652,-3.00987911224,
1.13967354695,1.0427365303,0,-0.26777011471,0.000379795473472,235,-1.26942563057,-2.97822594643,
1.13341657917,1.05746746063,0,-0.257514214049,0.000361824985968,236,-1.25140154362,-2.94621253014,
1.12725056807,1.07203662395,0,-0.247772425457,0.00034368458084,237,-1.23320937157,-2.91385412216,
1.12117631833,1.08644258976,0,-0.238550282604,0.000325348947107,238,-1.21485233307,-2.88119888306,
1.11519451539,1.10068392754,0,-0.229849697113,0.000306946424964,239,-1.19636380672,-2.84829473495,
1.10930557648,1.11475992203,0,-0.221673325109,0.000288450156667,240,-1.17779517174,-2.81521391869,
1.10351009766,1.12866961956,0,-0.214026557288,0.000269764349228,241,-1.15910482407,-2.78195428848,
1.09780831734,1.1424125433,0,-0.206909679653,0.000251068755867,242,-1.14035558701,-2.7485666275,
1.09220053355,1.15598797798,0,-0.200322049688,0.000232321452091,243,-1.12156200409,-2.71510601044,
1.08668674628,1.16939604282,0,-0.194264230443,0.000213635061778,244,-1.10276174545,-2.68163919449,
1.08126710454,1.18263661861,0,-0.188738567576,0.000194866406048,245,-1.08393025398,-2.6481294632,
1.07594160835,1.19571006298,0,-0.183748703771,0.00017596943604,246,-1.06510794163,-2.61466765404,
1.07070990006,1.20861637592,0,-0.179283175007,0.000157477396196,247,-1.04634571075,-2.58129167557,
1.06557197968,1.22135615349,0,-0.175348759733,0.000138746336038,248,-1.02759063244,-2.54799747467,
1.06052734057,1.23393058777,0,-0.171943977304,0.000120067966151,249,-1.00891971588,-2.51486682892,
1.05557574431,1.24633991718,0,-0.16906426087,0.000101550902441,250,-0.990319907665,-2.48187708855,
1.05071659485,1.25858545303,0,-0.16670706706,8.31239372302e-05,251,-0.971826910973,-2.44911527634,
1.04594941536,1.27066814899,0,-0.164869321598,6.48056471816e-05,252,-0.953441381454,-2.41656494141,
1.0412736098,1.28258955479,0,-0.163551381241,4.64750722525e-05,253,-0.935172379017,-2.38427901268,
1.03668834368,1.2943508625,0,-0.162742478676,2.85237846395e-05,254,-0.917042851448,-2.35228133202,
1.03219314019,1.30595374107,0,-0.16244797293,1.03848762055e-05,255,-0.899048030376,-2.32057189941,
1.02778704564,1.31739974022,0,-0.16265783111,-7.3999729577e-06,256,-0.881232619286,-2.28922080994,
1.02346904675,1.32869100571,0,-0.163367117111,-2.50104971412e-05,257,-0.86359757185,-2.25825428963,
1.01923830906,1.33982908726,0,-0.164569470707,-4.23963491551e-05,258,-0.846147537231,-2.22763776779,
1.0150938789,1.35081624985,0,-0.166263082561,-5.97182005777e-05,259,-0.828873515129,-2.19740819931,
1.01103474299,1.36165428162,0,-0.168439149385,-7.67293882728e-05,260,-0.811819970608,-2.16762804985,
1.00705988804,1.37234568596,0,-0.171096761114,-9.37082238837e-05,261,-0.79498487711,-2.13830447197,
1.00316806237,1.38289284706,0,-0.174226817704,-0.000110365940907,262,-0.778360843658,-2.10943365097,
0.999358014264,1.3932980299,0,-0.177818982519,-0.000126658920506,263,-0.761999189854,-2.08104729652,
0.995628790059,1.40356373787,0,-0.181873956073,-0.000142976344061,264,-0.745848238468,-2.05316114426,
0.991978959241,1.41369271278,0,-0.186381393185,-0.000158928739554,265,-0.729966640472,-2.02578854561,
0.988407210508,1.42368745804,0,-0.19133179414,-0.000174545927508,266,-0.71435290575,-1.99896001816,
0.984912292161,1.43355083466,0,-0.196721067961,-0.000190018661599,267,-0.698993206024,-1.97268950939,
0.981492714086,1.44328570366,0,-0.202538372432,-0.000205108866095,268,-0.683912456036,-1.9469640255,
0.978147105375,1.45289480686,0,-0.208774924633,-0.000219888981694,269,-0.669115900993,-1.92182648182,
0.97487421433,1.4623811245,0,-0.215427619405,-0.000234559560209,270,-0.654585361481,-1.89727532864,
0.971672312417,1.47174787521,0,-0.222482497455,-0.000248737639601,271,-0.640377700329,-1.87334775925,
0.968540207544,1.48099780083,0,-0.229935448684,-0.000262770632277,272,-0.626425862312,-1.8499943018,
0.96547611157,1.4901342392,0,-0.237771933451,-0.000276290715681,273,-0.612825512886,-1.82729697227,
0.962478593984,1.49916052818,0,-0.245987061628,-0.000289638338727,274,-0.599498569965,-1.80523347855,
0.95954616467,1.5080794096,0,-0.254568254923,-0.000302542234256,275,-0.586492419243,-1.78380429745,
0.956677154699,1.51689469814,0,-0.263508565737,-0.000315200902635,276,-0.573803782463,-1.76305663586,
0.953870014348,1.52560925484,0,-0.272794741394,-0.000327392206988,277,-0.561427652836,-1.74295163155,
0.951123193898,1.53422689438,0,-0.282422648319,-0.000339437512598,278,-0.549368798733,-1.72352075577,
0.94843490521,1.54275071621,0,-0.292374659115,-0.000350861228759,279,-0.537669718266,-1.70479011536,
0.945803658166,1.55118441582,0,-0.30264665524,-0.000362139429685,280,-0.526264488697,-1.68673205376,
0.943227664628,1.55953109264,0,-0.313220721412,-0.000372785981394,281,-0.515196144581,-1.66934967041,
0.940705374875,1.56779456139,0,-0.324091831176,-0.000383255108487,282,-0.504475533962,-1.65268850327,
0.938234941163,1.5759781599,0,-0.335242388396,-0.000393103795863,283,-0.494079649448,-1.63672947884,
0.935814932981,1.58408546448,0,-0.346667761682,-0.000402789036019,284,-0.484004318714,-1.62147426605,
0.933443562188,1.59212005138,0,-0.358353677345,-0.000411970768786,285,-0.474297404289,-1.60692870617,
0.931119040647,1.6000854969,0,-0.370285648791,-0.000420641357611,286,-0.464906394482,-1.59311008453,
0.92883987824,1.60798537731,0,-0.382456649578,-0.000429064502034,287,-0.455849438906,-1.58000278473,
0.92660404841,1.61582350731,0,-0.394847648738,-0.000436816954048,288,-0.447169780731,-1.56763339043,
0.92441006104,1.62360334396,0,-0.407449972359,-0.000444261380413,289,-0.438797056675,-1.55596923828,
0.922256187597,1.63132846355,0,-0.420249583695,-0.000451212696491,290,-0.430773168802,-1.54503703117,
0.920140759149,1.63900268078,0,-0.43323574574,-0.000457784286965,291,-0.423091500998,-1.53483653069,
0.918062106767,1.64662945271,0,-0.446394269153,-0.000463856611931,292,-0.415732771158,-1.52535641193,
0.916018442312,1.65421247482,0,-0.45970971015,-0.000469384662445,293,-0.408729702234,-1.51658892632,
0.914008096853,1.66175532341,0,-0.473168292254,-0.000474427018523,294,-0.402063965797,-1.50857639313,
0.912029520669,1.66926193237,0,-0.486761873256,-0.000479167870639,295,-0.39571300149,-1.50129151344,
0.910080925622,1.67673528194,0,-0.500467969648,-0.000483130413673,296,-0.389714449644,-1.49468505383,
0.908160702386,1.68417942524,0,-0.514277219138,-0.000486762020361,297,-0.384030431509,-1.48884630203,
0.906267241636,1.69159793854,0,-0.528175845761,-0.000489906521147,298,-0.378689110279,-1.48370051384,
0.90439887444,1.69899439812,0,-0.542148211788,-0.000492500873373,299,-0.373678177595,-1.47927296162,
0.902553991475,1.70637226105,0,-0.556178802662,-0.000494512457174,300,-0.368968337774,-1.47554540634,
0.90073104302,1.7137349844,0,-0.570253177229,-0.000496028434618,301,-0.364581555128,-1.47253930569,
0.898928479352,1.72108602524,0,-0.584356481347,-0.000497043664543,302,-0.360515624285,-1.47022485733,
0.897144631543,1.72842907906,0,-0.598472408089,-0.000497484797985,303,-0.356749534607,-1.46860408783,
0.895378128686,1.7357673645,0,-0.612587700997,-0.000497457661474,304,-0.353303164244,-1.46766006947,
0.893627301851,1.74310445786,0,-0.626684238919,-0.000496792908424,305,-0.350157320499,-1.46741747856,
0.891890839734,1.75044369698,0,-0.640750202334,-0.000495710091323,306,-0.34728884697,-1.46784031391,
0.890167192617,1.75778830051,0,-0.654766689133,-0.000493962611509,307,-0.344725817442,-1.46890962124,
0.888454929986,1.76514160633,0,-0.668718100791,-0.00049166544705,308,-0.342456281185,-1.47065043449,
0.886752621331,1.77250659466,0,-0.682585730492,-0.000488709056656,309,-0.340453594923,-1.47302961349,
0.88505895535,1.77988684177,0,-0.696357584454,-0.000485329465064,310,-0.338728040457,-1.47603416443,
0.883372680345,1.7872852087,0,-0.710017309013,-0.000481374205527,311,-0.337263762951,-1.47970843315,
0.881692306199,1.79470515251,0,-0.723546763568,-0.000476778609398,312,-0.336058974266,-1.48395693302,
0.88001676003,1.8021491766,0,-0.736930259875,-0.000471631401884,313,-0.335111767054,-1.48879122734,
0.878344730535,1.8096203804,0,-0.750150296187,-0.000465866608049,314,-0.334405899048,-1.49424386024,
0.876675025621,1.81712174416,0,-0.763190760643,-0.000459534552952,315,-0.333933621645,-1.5002617836,
0.8750065128,1.82465589046,0,-0.776033937909,-0.000452577891797,316,-0.333705216646,-1.50685942173,
0.873338119188,1.83222591877,0,-0.788666166577,-0.000445141181177,317,-0.333676218987,-1.51400315762,
0.871668771901,1.83983433247,0,-0.801069199526,-0.000437047931627,318,-0.333863258362,-1.52166461945,
0.869997457662,1.84748351574,0,-0.813224878334,-0.000428327008362,319,-0.334254026413,-1.52984368801,
0.86832316319,1.85517644882,0,-0.825118379586,-0.00041908559516,320,-0.334858626127,-1.53853690624,
0.866644994417,1.86291503906,0,-0.836730077965,-0.000409151656165,321,-0.33563375473,-1.54772722721,
0.864962057271,1.87070167065,0,-0.84804292956,-0.000398618487921,322,-0.336576730013,-1.55737268925,
0.863273576894,1.8785392046,0,-0.859044885546,-0.000387660676611,323,-0.33769980073,-1.56750226021,
0.861578838029,1.88642942905,0,-0.869717928197,-0.00037606834018,324,-0.338948398829,-1.57803618908,
0.859877006212,1.89437437057,0,-0.880042399135,-0.000363782869527,325,-0.340356767178,-1.58897185326,
0.85816742579,1.90237605572,0,-0.890002034715,-0.000350925056579,326,-0.341913104057,-1.60034918785,
0.856449500718,1.91043651104,0,-0.899581273922,-0.000337517123151,327,-0.343571156263,-1.61208617687,
0.854722813764,1.91855740547,0,-0.908765748256,-0.000323605350999,328,-0.345332950354,-1.62416422367,
0.85298676888,1.92674028873,0,-0.917536010877,-0.000309008785421,329,-0.347206354141,-1.63661015034,
0.851240948835,1.93498730659,0,-0.925879217557,-0.000293959863826,330,-0.349155724049,-1.64937806129,
0.849484996,1.94329941273,0,-0.933776574306,-0.000278248391958,331,-0.351192057133,-1.66241693497,
0.847718493142,1.95167827606,0,-0.941211441708,-0.000261951534475,332,-0.353293508291,-1.67576050758,
0.845941321054,1.96012496948,0,-0.948169689118,-0.000245156325655,333,-0.355437338352,-1.68935084343,
0.844153181711,1.9686409235,0,-0.954634735846,-0.000227777977027,334,-0.357623547316,-1.70317208767,
0.842354075113,1.97722685337,0,-0.960591975091,-0.000209885287737,335,-0.359824836254,-1.71720528603,
0.840543703237,1.98588418961,0,-0.966023687593,-0.000191368565829,336,-0.362061351538,-1.73145329952,
0.838722304502,1.99461328983,0,-0.970917333583,-0.000172410149994,337,-0.364273309708,-1.74580955505,
0.836889878907,2.00341510773,0,-0.975257849141,-0.000152921428384,338,-0.366469860077,-1.76035499573,
0.835046545663,2.01229023933,0,-0.979030326578,-0.000132907835283,339,-0.368661701679,-1.77501249313,
0.833192543187,2.02123904228,0,-0.982220648518,-0.000112396824256,340,-0.370797336102,-1.78977656364,
0.831328169503,2.03026199341,0,-0.984815901958,-9.14315342902e-05,341,-0.372891366482,-1.80459547043,
0.829453603425,2.03935933113,0,-0.986799220739,-6.98718200708e-05,342,-0.374922841787,-1.819486022,
0.827569262185,2.04853129387,0,-0.988157984072,-4.78684573238e-05,343,-0.376874685287,-1.83440554142,
0.825675622621,2.0577776432,0,-0.988878251405,-2.53742418849e-05,344,-0.378729999065,-1.84929895401,
0.823773280778,2.06709861755,0,-0.988949861391,-2.52271624147e-06,345,-0.380463689566,-1.86419606209,
0.821863011518,2.07649350166,0,-0.988361789849,2.07167361958e-05,346,-0.382065415382,-1.87900197506,
0.819945053258,2.08596253395,0,-0.987095966594,4.45924167481e-05,347,-0.383586853743,-1.89377129078,
0.818020478883,2.09550476074,0,-0.985145357123,6.87154220827e-05,348,-0.384921550751,-1.90845716,
0.816090063253,2.1051197052,0,-0.982498576425,9.32391887025e-05,349,-0.386080175638,-1.92299282551,
0.814154581228,2.11480665207,0,-0.979142987717,0.000118207166706,350,-0.387105822563,-1.93741571903,
0.812214867273,2.12456488609,0,-0.975066707443,0.000143593890022,351,-0.38794413209,-1.95166265965,
0.810272113481,2.1343934536,0,-0.970263279853,0.00016920750401,352,-0.388561636209,-1.96570730209,
0.808327273526,2.14429092407,0,-0.964720033908,0.000195267256438,353,-0.38895958662,-1.97951745987,
0.806381539502,2.15425658226,0,-0.958430518715,0.000221553619033,354,-0.389154344797,-1.99313604832,
0.804436163106,2.16428899765,0,-0.951386815498,0.000248110210646,355,-0.389077812433,-2.006472826,
0.802492336431,2.17438650131,0,-0.943579064921,0.000275020746787,356,-0.388763457537,-2.01951789856,
0.800551370778,2.18454766273,0,-0.934999976331,0.000302187710988,357,-0.388197779655,-2.03222990036,
0.798614756265,2.19477081299,0,-0.92564451624,0.000329532007779,358,-0.387328565121,-2.04462695122,
0.796683804193,2.20505404472,0,-0.915503772362,0.000357150193934,359,-0.386188626289,-2.05668973923,
0.794760123887,2.21539568901,0,-0.904574375216,0.000384922148364,360,-0.384740263224,-2.06834816933,
0.79284514586,2.2257938385,0,-0.892849137633,0.0004129471994,361,-0.38299831748,-2.07962107658,
0.790940837064,2.23624587059,0,-0.880328473941,0.000440957065794,362,-0.38087105751,-2.09044218063,
0.789048508802,2.24674987793,0,-0.867003087811,0.000469294510824,363,-0.378462284803,-2.10082983971,
0.787170128026,2.25730371475,0,-0.852874090648,0.000497591928897,364,-0.375683814287,-2.11076879501,
0.785307423272,2.26790452003,0,-0.837937458303,0.000526031086691,365,-0.372535943985,-2.12019515038,
0.783462301889,2.27855014801,0,-0.822193230645,0.000554468512218,366,-0.369032174349,-2.12911891937,
0.78163649241,2.28923773766,0,-0.805637606219,0.000583038578998,367,-0.365146696568,-2.13751983643,
0.779832319417,2.29996442795,0,-0.788276497517,0.000611399807946,368,-0.360840886831,-2.14535832405,
0.778051511445,2.31072759628,0,-0.770106689177,0.000639874649283,369,-0.356167078018,-2.15263795853,
0.776296095052,2.32152414322,0,-0.751129467589,0.000668303104172,370,-0.35107088089,-2.15931987762,
0.774568394819,2.33235096931,0,-0.731350991753,0.000696514746125,371,-0.34553951025,-2.16536831856,
0.772870437303,2.34320497513,0,-0.710773086035,0.000724661346012,372,-0.339589983225,-2.17083621025,
0.771204427877,2.35408306122,0,-0.689400618979,0.000752635480755,373,-0.333194434643,-2.17562818527,
0.769572691121,2.36498188972,0,-0.6672404723,0.00078036776268,374,-0.326345950365,-2.17976236343,
0.767977313199,2.37589788437,0,-0.644296434989,0.000807965678709,375,-0.31908133626,-2.18320846558,
0.766420797506,2.38682770729,0,-0.620578952464,0.00083519589782,376,-0.311300456524,-2.18598103523,
0.764905587831,2.39776754379,0,-0.596098084504,0.000862071391055,377,-0.303043037653,-2.18799781799,
0.763433710733,2.40871429443,0,-0.570858346403,0.000888787844744,378,-0.294371068478,-2.18932986259,
0.762007908025,2.41966366768,0,-0.544875471333,0.000914949612967,379,-0.285143405199,-2.18989181519,
0.760630683103,2.43061208725,0,-0.51816217115,0.000940663514327,380,-0.275451898575,-2.18968153,
0.759304300943,2.44155573845,0,-0.490728726775,0.000966014968516,381,-0.26525631547,-2.18870997429,
0.758031384149,2.45249056816,0,-0.462591365116,0.000990794172787,382,-0.254580587149,-2.18695545197,
0.756814436116,2.46341252327,0,-0.433765589027,0.00101502736501,383,-0.243385255337,-2.18439722061,
0.755656198659,2.47431731224,0,-0.404271300614,0.00103855949782,384,-0.231664597988,-2.18102502823,
0.754558996358,2.48520159721,0,-0.374122559145,0.00106157102705,385,-0.219421178102,-2.17684817314,
0.753525451818,2.49606060982,0,-0.343340351138,0.00108386736307,386,-0.206709608436,-2.17181324959,
0.752558485666,2.50689029694,0,-0.311949502142,0.0011052899675,387,-0.19338439405,-2.16591095924,
0.751660422483,2.51768612862,0,-0.279969279264,0.00112603353264,388,-0.179621294141,-2.15919518471,
0.750834063688,2.52844381332,0,-0.247425808014,0.00114585707207,389,-0.165261209011,-2.15157938004,
0.75008197228,2.53915929794,0,-0.214342945685,0.00116484014579,390,-0.150428563356,-2.14310622215,
0.749406890073,2.5498278141,0,-0.180749630577,0.00118280363395,391,-0.135024517775,-2.13374018669,
0.748811439672,2.56044530869,0,-0.146673093808,0.00119980884412,392,-0.11909057945,-2.12349963188,
0.748298184076,2.57100701332,0,-0.112143110609,0.00121576530347,393,-0.102651193738,-2.1123521328,
0.747870043912,2.58150839806,0,-0.0771945749642,0.0012304933793,394,-0.0856311321259,-2.10030913353,
0.747529522577,2.59194517136,0,-0.0418584023299,0.00124413238549,395,-0.0681067854166,-2.08736729622,
0.747279361882,2.60231256485,0,-0.00617127347014,0.00125647942348,396,-0.0500255711377,-2.07348847389,
0.747122065225,2.61260604858,0,0.0298317607671,0.00126759075474,397,-0.0314689055085,-2.05871891975,
0.747060314813,2.62282109261,0,0.0661119202536,0.00127733411327,398,-0.0123452302068,-2.04302144051,
0.747096971669,2.63295316696,0,0.10262679646,0.00128558671663,399,0.00732182152569,-2.02644705772,
0.747234241166,2.6429977417,0,0.139339124352,0.00129252639223,400,0.0274658054113,-2.00892472267,
0.747475043931,2.65295004845,0,0.176201236517,0.00129778714715,401,0.0481508746743,-1.99046266079,
0.747821823755,2.66280555725,0,0.213169412828,0.00130151120611,402,0.0693661719561,-1.97114014626,
0.748277262845,2.67255973816,0,0.250195519897,0.00130353962296,403,0.0910900831223,-1.95084679127,
0.748843685785,2.68220829964,0,0.287234064485,0.00130396707288,404,0.113285675645,-1.92973768711,
0.749523715177,2.69174647331,0,0.324232424491,0.0013025405613,405,0.135998412967,-1.90765273571,
0.750319615999,2.70116972923,0,0.361140337299,0.00129934586919,406,0.159182682633,-1.88468015194,
0.751234130063,2.71047377586,0,0.397901974197,0.0012941713135,407,0.182910010219,-1.86081886292,
0.752269403138,2.71965432167,0,0.434465117529,0.00128717354496,408,0.207047522068,-1.83610868454,
0.753427759805,2.7287068367,0,0.470772412179,0.00127815614732,409,0.231684327126,-1.81051719189,
0.754711584249,2.73762702942,0,0.506764930539,0.00126706668725,410,0.256751716137,-1.78405547142,
0.756123081842,2.74641060829,0,0.542383148769,0.00125388075828,411,0.282308012247,-1.75674545765,
0.757664279142,2.75505375862,0,0.57756953101,0.0012386708508,412,0.308251053095,-1.7286080122,
0.759337619939,2.76355147362,0,0.612253848273,0.00122098524972,413,0.334668248892,-1.69963109493,
0.761145190397,2.77190089226,0,0.646379153908,0.00120129761078,414,0.361506253481,-1.66989016533,
0.763088719049,2.78009772301,0,0.679881117623,0.00117932699405,415,0.388713181019,-1.63936090469,
0.765170351663,2.78813767433,0,0.712689376224,0.00115489576188,416,0.416321754456,-1.60802721977,
0.767391757169,2.79601740837,0,0.744741185222,0.00112825925547,417,0.444286197424,-1.57597529888,
0.769755081334,2.80373334885,0,0.775966326638,0.00109914827153,418,0.472662627697,-1.54318380356,
0.77226187388,2.81128168106,0,0.806295678496,0.00106760761437,419,0.501359701157,-1.50973057747,
0.77491374413,2.81865954399,0,0.835663800047,0.00103376397598,420,0.530381858349,-1.47556829453,
0.777712420621,2.82586336136,0,0.863997466203,0.00099734339448,421,0.559737086296,-1.44077050686,
0.780659333864,2.83289027214,0,0.891228641056,0.00095852648706,422,0.589391291142,-1.40535020828,
0.783755854764,2.83973670006,0,0.917282602365,0.000917082510376,423,0.619307458401,-1.36930131912,
0.787003473439,2.84640026093,0,0.942090282706,0.000873181317109,424,0.649518072605,-1.33275794983,
0.790403262773,2.85287833214,0,0.965582260471,0.000826864316397,425,0.679958045483,-1.29566144943,
0.793956295648,2.85916876793,0,0.987690908319,0.000778168443843,426,0.710604906082,-1.2580987215,
0.797663704553,2.86526894569,0,1.00834282315,0.000726806513594,427,0.741487145424,-1.22001647949,
0.801526562372,2.87117648125,0,1.0274650995,0.000672967668331,428,0.772572875023,-1.18155431747,
0.80554546515,2.8768901825,0,1.04499615428,0.00061696348372,429,0.803790152073,-1.14274263382,
0.809721426168,2.88240790367,0,1.06086245034,0.000558372287596,430,0.835178554058,-1.10355329514,
0.814054743448,2.88772821426,0,1.07499982312,0.000497523620808,431,0.866664350033,-1.06408166885,
0.818546013036,2.89284992218,0,1.087342756,0.000434369362263,432,0.898255288601,-1.02437496185,
0.823195592561,2.89777207375,0,1.09782829476,0.000369001343555,433,0.929922103882,-0.984415650368,
0.828003899255,2.90249371529,0,1.10639206835,0.000301369375862,434,0.961657702923,-0.944357931614,
0.832970992723,2.90701436996,0,1.11297535034,0.000231671806303,435,0.993415057659,-0.904152452946,
0.838096753755,2.91133379936,0,1.11752196671,0.000159998474636,436,1.02514398098,-0.863905310631,
0.843381122747,2.91545200348,0,1.11997687146,8.63890255784e-05,437,1.05687117577,-0.823653697968,
0.84882386128,2.91936898232,0,1.12028569935,1.08676937607e-05,438,1.08854830265,-0.783457279205,
0.854424671331,2.92308568954,0,1.11840291635,-6.62548339969e-05,439,1.12016963959,-0.743338108063,
0.860182956853,2.92660260201,0,1.11428040061,-0.000145069622363,440,1.15166974068,-0.703361392021,
0.866098300615,2.92992043495,0,1.10787095025,-0.000225544282862,441,1.18305957317,-0.66360771656,
0.872169510522,2.93304133415,0,1.09914614865,-0.000307017785812,442,1.21425497532,-0.624158263206,
0.878396050134,2.93596625328,0,1.08806228141,-0.000390028289212,443,1.24531018734,-0.584994077682,
0.884776667753,2.9386973381,0,1.07459213912,-0.00047399425089,444,1.27613198757,-0.546240210533,
0.89131023089,2.94123673439,0,1.05870841508,-0.000558920065834,445,1.30671215057,-0.5079215765,
0.897995368638,2.94358754158,0,1.04039568883,-0.000644387892739,446,1.33702886105,-0.470124721527,
0.904830531278,2.94575190544,0,1.01963103359,-0.000730646679618,447,1.36704647541,-0.432870864868,
0.911814407506,2.94773316383,0,0.996403160947,-0.000817312632661,448,1.39678573608,-0.396262288094,
0.918944970765,2.94953489304,0,0.970709080494,-0.00090408405483,449,1.42611348629,-0.360353827477,
0.926220373311,2.95116090775,0,0.942548659655,-0.00099084456676,450,1.4550806284,-0.325225949287,
0.933638648191,2.95261526108,0,0.911926652991,-0.0010774492009,451,1.48366415501,-0.290869355202,
0.941197411218,2.95390248299,0,0.878857275588,-0.0011635525245,452,1.51176452637,-0.257431507111,
0.948894635835,2.95502710342,0,0.843354485758,-0.00124916306912,453,1.53945159912,-0.224913597107,
0.956727699437,2.95599412918,0,0.805443167178,-0.00133389696191,454,1.56662464142,-0.193420529366,
0.96469421784,2.95680904388,0,0.765154227763,-0.00141754206321,455,1.59331011772,-0.163000106812,
0.972791270414,2.95747733116,0,0.722524331829,-0.00149989592387,456,1.61941492558,-0.133697271347,
0.981016115346,2.95800542831,0,0.677602250532,-0.00158053253988,457,1.64497578144,-0.105616927147,
0.98936583201,2.95839905739,0,0.630432589412,-0.00165959902864,458,1.66993665695,-0.0787352323532,
0.997837142148,2.95866513252,0,0.581078432345,-0.001736445728,459,1.69428122044,-0.0531865358353,
1.00642724434,2.95881009102,0,0.529597480403,-0.00181125991943,460,1.71803152561,-0.0289945602417,
1.01513256232,2.95884108543,0,0.476063468009,-0.00188347894021,461,1.74106407166,-0.00621378421783,
1.02394975821,2.95876574516,0,0.420557440367,-0.0019528459463,462,1.76346349716,0.0150674581528,
1.03287531535,2.95859146118,0,0.363162094926,-0.00201930221769,463,1.78513836861,0.0348614454269,
1.04190583626,2.95832633972,0,0.303971193046,-0.00208245916998,464,1.80609846115,0.0530495643616,
1.05103744666,2.95797801018,0,0.243079256935,-0.00214228965665,465,1.82633721828,0.0696401596069,
1.06026633183,2.95755529404,0,0.180598215219,-0.0021981808603,466,1.84578871727,0.0845499038696,
1.0695888559,2.95706653595,0,0.11663682719,-0.0022502445621,467,1.86450362206,0.0977553129196,
1.07900111476,2.95652031898,0,0.051312007577,-0.00229819432231,468,1.88247561455,0.109244346619,
1.08849917451,2.95592546463,0,-0.015252578398,-0.00234179310212,469,1.89962673187,0.118946790695,
1.09807895223,2.95529150963,0,-0.0829197649108,-0.00238056534616,470,1.91597032547,0.126814484596,
1.10773657362,2.95462727547,0,-0.151558787083,-0.0024147362991,471,1.93153774738,0.132862210274,
1.11746792594,2.95394206047,0,-0.221027799713,-0.00244391683557,472,1.94628751278,0.137041330338,
1.1272689561,2.95324540138,0,-0.291178617324,-0.00246788365796,473,1.96021640301,0.139325737953,
1.13713561098,2.95254683495,0,-0.361859353035,-0.00248650685635,474,1.97334218025,0.13972401619,
1.14706380765,2.95185565948,0,-0.432917370368,-0.0024997602979,475,1.98565948009,0.13820874691,
1.15704967181,2.95118188858,0,-0.504188589259,-0.00250724093188,476,1.99719178677,0.134757876396,
1.16708891193,2.95053505898,0,-0.575508896265,-0.00250894854607,477,2.00786495209,0.129376292229,
1.17717792193,2.94992470741,0,-0.646715078519,-0.00250491420106,478,2.01781392097,0.12207198143,
1.18731249968,2.94936037064,0,-0.717636884303,-0.0024948881685,479,2.02693367004,0.112852692604,
1.19748894969,2.94885182381,0,-0.788100858742,-0.00247876403829,480,2.03531122208,0.101718902588,
1.20770351688,2.94840836525,0,-0.857936364972,-0.00245663432104,481,2.04292869568,0.0886931419373,
1.21795232693,2.94803953171,0,-0.92696588941,-0.00242826367988,482,2.04978585243,0.0737675428391,
1.22823201219,2.94775438309,0,-0.995018651346,-0.00239388563968,483,2.05595493317,0.0570342540741,
1.23853908578,2.94756221771,0,-1.0619172526,-0.00235326880901,484,2.0614323616,0.0384430885315,
1.24887029926,2.94747185707,0,-1.12748973084,-0.00230654706292,485,2.06626176834,0.018089056015,
1.25922213594,2.94749188423,0,-1.19156343341,-0.00225380953415,486,2.07038545609,-0.00403785705566,