lower angle,upper angle,holding angle,system x,acceleration,ticks (200 tps),lower acceleration (shoulder),upper acceleration (elbow),
1.727924378,-0.156684577,0,-1.09770425039,-0.101923821817,1,0.0,0.0,
1.727924378,-0.156684577,0,-1.09770425039,0.0,2,0.0,0.0,
1.727924378,-0.156684577,0,-1.09770425039,0.0,3,0.0,0.0,
1.74841073283,-0.196619689,0,-1.13700237343,-0.00364868754339,4,4.09741735458,7.9873008728,
1.77552846201,-0.249553858769,0,-1.18789901048,-0.00472547513321,5,5.4238114357,10.5874204636,
1.80927613505,-0.315398871434,0,-1.25015313508,-0.00577967130614,6,6.75020980835,13.1701335907,
1.84944632777,-0.393754183781,0,-1.32244235481,-0.00671121059864,7,8.03511810303,15.6730804443,
1.89575055369,-0.484052359593,0,-1.40311194208,-0.0074890473558,8,9.26248550415,18.0627231598,
1.94780591258,-0.585532843602,0,-1.4901613507,-0.00808112402146,9,10.413392067,20.3005275726,
2.00513699778,-0.69725054456,0,-1.58125614461,-0.00845649936384,10,11.4694137573,22.3493003845,
2.06719926127,-0.818115412724,0,-1.67385392395,-0.00859583955208,11,12.4164533615,24.1803741455,
2.13341382273,-0.946967780125,0,-1.76529070272,-0.00848787422614,12,13.2477359772,25.7793617249,
2.20321086176,-1.08265846921,0,-1.85293619759,-0.00813575853122,13,13.9650440216,27.1486473083,
2.27606871852,-1.224130332,0.0,-1.93427309357,-0.00755005658056,14,14.5780639648,28.3061313629,
2.35154441126,-1.37046974851,0.0,-2.00699628654,-0.0067503424156,15,15.1023302078,29.2810173035,
2.42928794154,-1.5209423895,0,-2.06898473423,-0.00575380184036,16,15.5564899445,30.1088218689,
2.5090461088,-1.67499989225,0,-2.11827907365,-0.00457542529222,17,15.960144043,30.826839447,
2.59066203364,-1.83227413846,0,-2.1530492783,-0.00322725761052,18,16.3321838379,31.4710502625,
2.67406275996,-1.99256056501,0,-2.1714965327,-0.0017121822229,19,16.6898441315,32.0745925903,
2.75925257929,-2.15580671979,0,-2.17178732506,-2.69893741147e-05,20,17.0483322144,32.6674575806,
2.84630206355,-2.32209366513,0,-2.15199104551,0.00183732066898,21,17.4208240509,33.2766571045,
2.93533471354,-2.49162763311,0,-2.11000503691,0.00389669845319,22,17.8183517456,33.9272918701,
3.02652219065,-2.664735734,0,-2.04356033352,0.00616658888708,23,18.2500991821,34.6434555054,
3.12007191905,-2.84186690999,0,-1.95024185071,0.00866053009454,24,18.7236270905,35.4496078491,
3.06695822151,-3.02360027982,0,-1.73544699726,0.0199338953031,25,19.2458343506,36.3719329834,