lower angle,upper angle,holding angle,system x,acceleration,ticks (200 tps),lower acceleration (shoulder),upper acceleration (elbow),
2.220196727,-1.345454982,0,-0.866688698713,-0.0712222505979,1,0.0,0.0,
2.220196727,-1.345454982,0,-0.866688698713,0.0,2,0.0,0.0,
2.220196727,-1.345454982,0,-0.866688698713,0.0,3,0.0,0.0,
2.23416614839,-1.37249260254,0,-0.891795068586,-0.00206307472384,4,2.7939286232,5.40754318237,
2.25234651872,-1.40772085496,0,-0.923924634201,-0.00264015278369,5,3.63610124588,7.04582214355,
2.27501392671,-1.45160084076,0,-0.963524905735,-0.00325398026997,6,4.53372621536,8.77640724182,
2.30196571656,-1.50373487778,0,-1.00981667821,-0.00380365037359,7,5.39065074921,10.4274282455,
2.33300972291,-1.56373863526,0,-1.06197476099,-0.00428559810451,8,6.20928764343,12.0016021729,
2.36795854875,-1.63122968979,0,-1.11911369554,-0.00469477153927,9,6.99050378799,13.4994621277,
2.40662384339,-1.7058194191,0,-1.18026217318,-0.00502414666367,10,7.73400592804,14.919757843,
2.44881964036,-1.78712349244,0,-1.24435189819,-0.0052657120661,11,8.44041442871,16.2629928589,
2.4943695099,-1.87476949997,0,-1.31024700044,-0.00541395042638,12,9.11156845093,17.5320968628,
2.54311228105,-1.96841411896,0,-1.37672778049,-0.00546198282679,13,9.75045776367,18.7323684692,
2.59490633317,-2.0677493126,0.0,-1.44249878047,-0.00540357472603,14,10.3611164093,19.8711128235,
2.64963388749,-2.17251186677,0.0,-1.50618399169,-0.00523212803964,15,10.9483232498,20.9573173523,
2.70720529862,-2.28249101945,0,-1.5663246815,-0.00494084669815,16,11.5174722672,22.0014381409,
2.76755857774,-2.39753418274,0,-1.62135460522,-0.00452089814679,17,12.0742902756,23.0150375366,
2.83066129991,-2.51755171128,0,-1.6695963846,-0.00396317657316,18,12.6247320175,24.0107536316,
2.89651108094,-2.6425211937,0,-1.7092553595,-0.00325801193629,19,13.1746826172,25.0020713806,
2.96513462373,-2.77249317475,0,-1.73841623131,-0.00239554209797,20,13.7300834656,26.0036830902,
3.03658771821,-2.90759830781,0,-1.75505924839,-0.0013671870693,21,14.2967634201,27.0313854218,
3.11095762559,-3.04805307694,0,-1.75709914331,-0.000167570262174,22,14.8807678223,28.1026229858,
3.09482222886,-3.19417267151,0,-1.76823402614,-0.00091467718697,23,15.4889144897,29.2370834351,