lower angle,upper angle,holding angle,system x,acceleration,ticks (200 tps),lower acceleration (shoulder),upper acceleration (elbow),
2.085940626,-1.007432301,0,-0.967244958148,-0.0812540345405,1,0.0,0.0,
2.085940626,-1.007432301,0,-0.967244958148,0.0,2,0.0,0.0,
2.085940626,-1.007432301,0,-0.967244958148,0.0,3,0.0,0.0,
2.10197665963,-1.03857215162,0,-0.994888324081,-0.00232206276813,4,3.2072622776,6.22805786133,
2.12290027413,-1.07925065275,0,-1.03024358136,-0.00296981978806,5,4.18480825424,8.13601398468,
2.14888408456,-1.12972481962,0,-1.07353255884,-0.00363618828854,6,5.19711875916,10.0953035355,
2.17967345986,-1.18949397321,0,-1.12379327419,-0.00422172969307,7,6.15832185745,11.9548034668,
2.21500566277,-1.25803740735,0,-1.17996015645,-0.00471774898036,8,7.06719493866,13.7100334167,
2.25461366448,-1.33481629606,0,-1.24089472075,-0.00511813097135,9,7.92259693146,15.357585907,
2.29822280679,-1.41927417035,0,-1.30535207973,-0.0054139416972,10,8.72327899933,16.8941802979,
2.34556224618,-1.51085789914,0,-1.3720084643,-0.00559857190912,11,9.46965408325,18.3199214935,
2.39637210641,-1.6090319943,0,-1.43947402902,-0.00566646392789,12,10.1641559601,19.6387672424,
2.4504139689,-1.7132995915,0,-1.50630750445,-0.00561330016785,13,10.8110208511,20.8582687378,
2.50747897897,-1.82321675535,0.0,-1.57103045995,-0.0054359549028,14,11.4160404205,21.9889736176,
2.56739118371,-1.93840296979,0.0,-1.63211241176,-0.0051300666985,15,11.9860877991,23.0436782837,
2.63001468453,-2.05855019803,0,-1.68798525864,-0.00469250162971,16,12.5287494659,24.036693573,
2.69525172982,-2.18342669721,0,-1.73700489486,-0.00411687146476,17,13.0520238876,24.9834537506,
2.76304557595,-2.31288130994,0,-1.77744590604,-0.00339635342954,18,13.5639715195,25.9000301361,
2.83337857995,-2.44684537168,0,-1.80747499245,-0.00252189289643,19,14.0724105835,26.802904129,
2.90627076897,-2.58533557172,0,-1.82513608512,-0.00148318617722,20,14.5849275589,27.7092094421,
2.98177745614,-2.72845633741,0,-1.82834849787,-0.000269775438552,21,15.1085271835,28.6365184784,
3.05998733315,-2.87640650983,0,-1.81492428787,0.00112733425074,22,15.649892807,29.6036186218,
3.14102151666,-3.02948506589,0,-1.78262101503,0.00271271171087,23,16.2157249451,30.6308364868,
3.05814651376,-3.18810494657,0,-1.76991450759,0.00106702953891,24,16.8133659363,31.7408409119,