lower angle,upper angle,holding angle,system x,acceleration,ticks (200 tps),lower acceleration (shoulder),upper acceleration (elbow),
1.7726764,-0.261297867,0,-1.09182113009,-0.0993156805201,1,0.0,0.0,
1.7726764,-0.261297867,0,-1.09182113009,0.0,2,0.0,0.0,
1.7726764,-0.261297867,0,-1.09182113009,0.0,3,0.0,0.0,
1.79290335541,-0.300720855892,0,-1.12970005589,-0.00344540970473,4,4.0454826355,7.88477325439,
1.81962149506,-0.35286490649,0,-1.17863458389,-0.0044509248635,5,5.34390974045,10.4294147491,
1.85281365281,-0.417610332668,0,-1.23837296283,-0.00543354834073,6,6.63912248611,12.9502506256,
1.89223521119,-0.494482204616,0,-1.30757421387,-0.00629418501457,7,7.88532447815,15.3763160706,
1.93756668931,-0.58285205096,0,-1.38459584486,-0.00700537483319,8,9.06784820557,17.6767959595,
1.98840992814,-0.681927368343,0,-1.4675157257,-0.00754169688635,9,10.1708154678,19.8191299438,
2.04429476624,-0.790771171749,0,-1.55414121861,-0.00787858379076,10,11.1798505783,21.7741184235,
2.10470192795,-0.908344909847,0,-1.64210339514,-0.00800001321049,11,12.0851745605,23.5215854645,
2.1690978325,-1.03357569903,0,-1.72896884537,-0.00790012572354,12,12.8836288452,25.0543117523,
2.23696749573,-1.16542212695,0,-1.81232994835,-0.00758126332075,13,13.5791149139,26.3789234161,
2.30784695511,-1.30293862551,0.0,-1.88987936163,-0.00705258839559,14,14.1818056107,27.5141983032,
2.38134425049,-1.44531600207,0.0,-1.95945238658,-0.00632647423956,15,14.7061548233,28.4874534607,
2.45715325242,-1.59190289706,0,-2.01905506474,-0.00541972410584,16,15.1690273285,29.3305854797,
2.53505270844,-1.74221484393,0,-2.06678718374,-0.00434024303775,17,15.5878009796,30.0766448975,
2.61490719681,-1.89592759341,0,-2.10083518014,-0.00309589376807,18,15.9793272018,30.7577590942,
2.69665663605,-2.05286519259,0,-2.11938216834,-0.00168639420143,19,16.3589859009,31.4036769867,
2.7803105629,-2.21298806399,0,-2.12056103922,-0.00010718728152,20,16.7406234741,32.0418243408,
2.86593954926,-2.37638394564,0,-2.10238844873,0.0016522879139,21,17.1362342834,32.6975021362,
2.95366375809,-2.54325930804,0,-2.06271539265,0.00360707916807,22,17.5560913086,33.394618988,
3.04364674454,-2.71393816203,0,-1.99923207104,0.00577180548202,23,18.0087547302,34.1566314697,
3.13608830338,-2.88886396617,0,-1.90951811614,0.00815650749718,24,18.5015258789,35.0076828003,
3.05196083818,-3.06861273974,0,-1.72262816029,0.0169911336662,25,19.0415229797,35.9742126465,