lower angle,upper angle,holding angle,system x,acceleration,ticks (200 tps),lower acceleration (shoulder),upper acceleration (elbow),
2.488708913,-2.208834963,0,-0.514623139017,-0.0304489304034,1,0.0,0.0,
2.488708913,-2.208834963,0,-0.514623139017,0.0,2,0.0,0.0,
2.488708913,-2.208834963,0,-0.514623139017,0.0,3,0.0,0.0,
2.48332605199,-2.1985150921,0,-0.498874115198,0.000931798500035,4,-1.0765748024,-2.06397867203,
2.47649334432,-2.18536352933,0,-0.478907508746,0.00118131616995,5,-1.36654686928,-2.63032221794,
2.46796986428,-2.16894563482,0,-0.453939710676,0.00147719114948,6,-1.70470631123,-3.28359699249,
2.4577725098,-2.14928659246,0,-0.423984396469,0.0017722495104,7,-2.039488554,-3.93184041977,
2.4458938871,-2.12636796579,0,-0.388973927322,0.00207130662582,8,-2.37575244904,-4.58377552032,
2.43231459674,-2.10014916406,0,-0.348799085227,0.002376819693,9,-2.71589946747,-5.24383640289,
2.41700934586,-2.07057823435,0,-0.303329680173,0.00268997597765,10,-3.06110858917,-5.91429138184,
2.39994775471,-2.03759309844,0,-0.252419060984,0.00301184702623,11,-3.4124019146,-6.59717655182,
2.38109382954,-2.00112071828,0,-0.19590419364,0.00334335789912,12,-3.7708966732,-7.29467868805,
2.36040542987,-1.96107575492,0,-0.133607034723,0.00368539438202,13,-4.1378288269,-8.00926208496,
2.3378332701,-1.91735889212,0.0,-0.0653339543437,0.00403887159322,14,-4.51462268829,-8.74372577667,
2.31331995097,-1.86985464588,0.0,0.00912301726262,0.00440451218467,15,-4.90291023254,-9.50128936768,
2.28679890898,-1.81842963592,0,0.0899856797449,0.00478336926056,16,-5.3045167923,-10.2855796814,
2.25819283691,-1.76292900935,0,0.177487929921,0.00517607809176,17,-5.72160482407,-11.1008300781,
2.22741228309,-1.70317430989,0,0.271874699942,0.00558326758588,18,-6.1565990448,-11.951833725,
2.19435372916,-1.63895924584,0,0.373398247615,0.00600536965855,19,-6.61230564117,-12.8441028595,
2.1588976678,-1.57004620329,0,0.482314002882,0.00644257368825,20,-7.09195137024,-13.7839889526,
2.12090629307,-1.49616147772,0,0.59887328197,0.00689463467788,21,-7.59918546677,-14.7786235809,
2.08022105661,-1.41699071423,0,0.723313847078,0.00736071560548,22,-8.13817024231,-15.8362321854,
2.03666004506,-1.33217384115,0,0.855845635795,0.00783923339284,23,-8.71357822418,-16.9659080505,
1.99001619187,-1.24130173222,0,0.996627850001,0.00832716024659,24,-9.33045959473,-18.1775684357,
1.94005560842,-1.14391239182,0,1.14573490552,0.00881948053051,25,-9.99419689178,-19.4817047119,
1.88651818004,-1.03949327961,0,1.30311153647,0.00930852182009,26,-10.7100391388,-20.8885650635,
1.82912158933,-0.927488641894,0,1.4685003457,0.00978230555626,27,-11.4824800491,-22.4068450928,
1.76757103172,-0.807318525469,0,1.64134276992,0.010223054688,28,-12.3140115738,-24.0412712097,
1.70157963005,-0.67842062012,0,1.82064993968,0.0106053094736,29,-13.2030801773,-25.7885322571,
1.6309033629,-0.540318684733,0,2.00483025894,0.0108934204835,30,-14.1411390305,-27.6313934326,
1.5553962585,-0.39273078934,0,2.1914918343,0.0110400565393,31,-15.1086120605,-29.5310192108,
1.475083172,-0.235715465701,0,2.37728930683,0.0109888087084,32,-16.0712718964,-31.4192276001,
1.39024120537,-0.0698309709193,0,2.55786454971,0.0106798306739,33,-16.9785614014,-33.1959533691,
1.301452696,0.10375897392,0,2.7280438788,0.0100649157605,34,-17.7694072723,-34.7398605347,
1.20958608356,0.283321065748,0,2.88235130624,0.00912611136794,35,-18.3862476349,-35.9366149902,
1.11568027702,0.466782255018,0,3.01571968861,0.00788764476985,36,-18.7949676514,-36.7179946899,
1.02076083389,0.652088088834,0,3.12417579158,0.00641421676574,37,-18.9981422424,-37.0877799988,
0.925676166685,0.837530536496,0,3.20512812327,0.0047875416439,38,-19.0312786102,-37.1150970459,
0.831012785108,-5.26127489105,0,3.25730123962,0.00308549550439,39,-18.9468078613,-36.9022254944,
0.73709815708,-5.07864792839,0,3.28036682963,0.00136407334527,40,-18.7967605591,-36.5508575439,
0.644047915609,-4.89805348412,0,3.27458293101,-0.000342049712018,41,-18.6234741211,-36.1435165405,
0.551826059492,-4.71947439209,0,3.24044995967,-0.00201853840625,42,-18.4574680328,-35.739654541,
0.460293233068,-4.54269440666,0,3.17849769756,-0.00366364878468,43,-18.3193626404,-35.3791122437,
0.36924451557,-4.36736805931,0,3.08912339619,-0.00528519460559,44,-18.2223129272,-35.0878181458,
0.278434693487,-4.19306786553,0,2.97250649683,-0.00689611783003,45,-18.1744937897,-34.8822631836,
0.187593400152,-4.01930935875,0,2.82856180626,-0.00851204682693,46,-18.1807479858,-34.7736816406,
0.0964397784785,-3.84556754128,0,2.65692070734,-0.0101497293502,47,-18.2433490753,-34.7704200745,
0.00468915668287,-3.67127926842,0,2.45696565942,-0.0118238012609,48,-18.362985611,-34.8799247742,
0.0879407528325,-3.49584181801,0,1.90801772725,-0.0324601888261,49,-18.5392608643,-35.1102561951,