lower angle,upper angle,holding angle,system x,acceleration,ticks (200 tps),lower acceleration (shoulder),upper acceleration (elbow),
1.056643887,1.463504497,0,-0.825872465514,-1.38497438417,1,0.0,0.0,
1.056643887,1.463504497,0,-0.825872465514,0.0,2,0.0,0.0,
1.056643887,1.463504497,0,-0.825872465514,0.0,3,0.0,0.0,
1.04942203457,1.47750547066,0,-0.802568494472,0.0390364636964,4,-1.44437682629,-2.80020618439,
1.03996360725,1.49589978907,0,-0.772195806599,0.0508602668224,5,-1.8916990757,-3.6788892746,
1.02808224461,1.51901042465,0,-0.734016547746,0.0639141668516,6,-2.37630081177,-4.62217950821,
1.01384891807,1.54670172561,0,-0.688246710542,0.0766022813417,7,-2.84671401978,-5.53835010529,
0.997323656963,1.57885508616,0,-0.635059265764,0.0889894501479,8,-3.3051276207,-6.43080997467,
0.978563568132,1.6153554209,0,-0.574620867529,0.101099988841,9,-3.75212979317,-7.30026817322,
0.957628427582,1.65608124811,0,-0.507117643182,0.112888343668,10,-4.18717956543,-8.14545249939,
0.934581069784,1.70090441782,0,-0.432762869864,0.124320293252,11,-4.60967683792,-8.96501159668,
0.909485979514,1.7496925034,0,-0.351796581523,0.135333207669,12,-5.01927804947,-9.7580947876,
0.882408230143,1.80231094737,0,-0.264487410584,0.145882630089,13,-5.41588115692,-10.5243034363,
0.853412030773,1.8586261012,0.0,-0.171133252867,0.15593640306,14,-5.79964971542,-11.2637786865,
0.822559519248,1.91850722212,0.0,-0.0720612006443,0.165432959117,15,-6.17099094391,-11.9771251678,
0.789909465747,1.98182928939,0,0.0323714853001,0.174323034309,16,-6.53059339523,-12.6654663086,
0.7555161552,2.04847485203,0,0.141777306125,0.182554105803,17,-6.87933588028,-13.3303585052,
0.719428493218,2.11833632369,0,0.25573612235,0.190080464152,18,-7.21831178665,-13.9737215042,
0.681689067321,2.19131762166,0,0.373794477128,0.196851590324,19,-7.5487818718,-14.5978832245,
0.642333312468,2.26733595509,0,0.495463871106,0.202828160418,20,-7.87217283249,-15.205499649,
0.601388825612,2.34632319588,0,0.62021866249,0.207909611096,21,-8.19003772736,-15.7995243073,
0.558875067668,2.42822754759,0,0.747491679565,0.212037976519,22,-8.50403118134,-16.3831710815,
0.514802797275,2.51301461835,0,0.876672314982,0.215132239085,23,-8.81588172913,-16.959985733,
0.469173951583,2.60066885132,0,1.00710244121,0.217135264176,24,-9.12736225128,-17.5336685181,
0.421981318431,2.69119447846,0,1.13807430867,0.217961997311,25,-9.44028091431,-18.1082191467,
0.373208089309,2.78461760659,0,1.26882889015,0.217521607726,26,-9.75657463074,-18.6880664825,
0.32282851501,2.88098746915,0,1.39855310729,0.215726692701,27,-10.0780477524,-19.2777099609,
0.270806713538,2.98037821431,0,1.52638378089,0.212515284994,28,-10.4067153931,-19.8822593689,
0.217095954852,3.08289188523,0,1.65141071205,0.207789900222,29,-10.7447156906,-20.5072631836,