lower angle,upper angle,holding angle,system x,acceleration,ticks (200 tps),lower acceleration (shoulder),upper acceleration (elbow),
2.085940626,-1.007432301,0,-0.967244958148,-0.176983234844,1,0.0,0.0,
2.085940626,-1.007432301,0,-0.967244958148,0.0,2,0.0,0.0,
2.085940626,-1.007432301,0,-0.967244958148,0.0,3,0.0,0.0,
2.07754935186,-0.991093056679,0,-0.952858190125,0.00263219215859,4,-1.67826449871,-3.26786708832,
2.06660408947,-0.969714969799,0,-0.934272716609,0.00340031126608,5,-2.1890745163,-4.27565860748,
2.05287563476,-0.942888129905,0,-0.910825860891,0.00428960476592,6,-2.74573373795,-5.36544799805,
2.0363222738,-0.910522375658,0,-0.882362947193,0.00520716169404,7,-3.31074786186,-6.47329139709,
2.01687562886,-0.87247944291,0,-0.848643944188,0.00616861178387,8,-3.88945150375,-7.6088180542,
1.99444637868,-0.828581203178,0,-0.809367587588,0.00718504702942,9,-4.48603963852,-8.78000450134,
1.96892977927,-0.778619710759,0,-0.764186244527,0.00826501549323,10,-5.10359621048,-9.99282073975,
1.94020782087,-0.722361017421,0,-0.71271500285,0.00941529441432,11,-5.74478816986,-11.2524814606,
1.90815099749,-0.659548927501,0,-0.65453871508,0.0106415327614,12,-6.41191482544,-12.5634536743,
1.87262221846,-0.589912403777,0,-0.589228276073,0.0119461715316,13,-7.10650491714,-13.9287176132,
1.83348250065,-0.513177026466,0.0,-0.516361095641,0.0133262594126,14,-7.82894420624,-15.3489637375,
1.79060050521,-0.429083962396,0.0,-0.435553495134,0.014778063512,15,-8.57770824432,-16.8210754395,
1.74386647019,-0.337417681173,0,-0.34650638415,0.0162845514859,16,-9.34850788116,-18.3364868164,
1.69321089659,-0.238042194799,0,-0.249070170013,0.0178183466067,17,-10.1332883835,-19.879196167,
1.63862758551,-0.130947608903,0,-0.143313904775,0.0193393420899,18,-10.9193696976,-21.4240493774,
1.58019891057,-0.0162992667707,0,-0.0296098179046,0.0207922907596,19,-11.6890697479,-22.9359550476,
1.51811656031,0.105520288989,0,0.0913041623757,0.0221102510152,20,-12.4204540253,-24.3714637756,
1.45269146237,0.233892838999,0,0.218283937054,0.0232187858532,21,-13.0897073746,-25.683347702,
1.38434287581,0.367983739421,0,0.349816547544,0.024050802509,22,-13.6750249863,-26.8282413483,
1.31356712851,0.506805460497,0,0.484098049879,0.0245529413799,23,-14.1610631943,-27.77551651,
1.2408881453,0.649313728854,0,0.619181434586,0.0246990422433,24,-14.5422029495,-28.5137310028,
1.16680493626,0.79451016669,0,0.753132843377,0.0244915845211,25,-14.823425293,-29.0520839691,
1.09175029073,0.941525738284,0,0.884144044159,0.0239534211654,26,-15.0179824829,-29.4163665771,
1.01606610093,1.0896670032,0,1.01061808697,0.0231234223554,27,-15.144068718,-29.6418304443,
0.939997341965,1.23842994456,0,1.13117980608,0.0220420347044,28,-15.2210893631,-29.7663078308,
0.863698151444,1.38748614077,0,1.24466587352,0.0207479691348,29,-15.2672052383,-29.8250274658,
0.787244823311,1.53665892367,0,1.35007560025,0.0192710453481,30,-15.2981185913,-29.8484306335,
0.710649278496,1.68589584117,0,1.44652716848,0.0176329757742,31,-15.3266057968,-29.8612518311,
0.633872416352,1.83524195437,0,1.53320881494,0.0158464842839,32,-15.3629207611,-29.8831825256,
0.556835797165,1.98482052569,0,1.60932082461,0.0139139543375,33,-15.4149494171,-29.9296798706,
0.479429271554,-4.14836962934,0,1.67404779657,0.0118324249901,34,-15.4890422821,-30.0131855011,
0.401518609856,-3.99772151227,0,1.7265106387,0.00959018973397,35,-15.5900354385,-30.1439418793,
0.32295003209,-3.84613998647,0,1.7657505099,0.00717288750417,36,-15.7217664719,-30.3308563232,
0.243555333947,-3.69330318685,0,1.79070979017,0.00456235537402,37,-15.8872871399,-30.5823574066,
0.16315284047,-3.53884537931,0,1.80024196133,0.00174236410882,38,-16.0891704559,-30.9070205688,
0.0815501478658,-3.38235576864,0,1.79313648097,-0.00129876760087,39,-16.3296432495,-31.3139820099,
0.00145837988988,-3.22337134595,0,1.76691825411,-0.00479214063184,40,-16.611207962,-31.8136997223,