lower angle,upper angle,holding angle,system x,acceleration,ticks (200 tps),lower acceleration (shoulder),upper acceleration (elbow),
1.727924378,-0.156684577,0,-1.09770425039,-0.102520895564,1,0.0,0.0,
1.727924378,-0.156684577,0,-1.09770425039,0.0,2,0.0,0.0,
1.727924378,-0.156684577,0,-1.09770425039,0.0,3,0.0,0.0,
1.74683907755,-0.193553626072,0,-1.13401667242,-0.00339124494528,4,3.78299117088,7.37393712997,
1.77188685664,-0.242443739903,0,-1.18112354992,-0.0043992736302,5,5.00987625122,9.77856826782,
1.80308011302,-0.30329817487,0,-1.23889175394,-0.00539484229037,6,6.23910140991,12.1717796326,
1.8402457548,-0.37578695966,0,-1.30618488735,-0.00628428859475,7,7.43405103683,14.4993438721,
1.88314870127,-0.459445178044,0,-1.38163074399,-0.00704555394894,8,8.58183002472,16.7341384888,
1.93147233256,-0.553647696507,0,-1.46352235489,-0.00764737363204,9,9.6666469574,18.8439407349,
1.98482135066,-0.657604872715,0,-1.54989637637,-0.00806583623814,10,10.672328949,20.796169281,
2.04273226985,-0.770392596257,0,-1.63854166849,-0.00827780427221,11,11.5854101181,22.5635223389,
2.10470059641,-0.891000449192,0,-1.72712263086,-0.00827166814601,12,12.3976631165,24.1289463043,
2.17021563777,-1.01840084745,0,-1.8132827609,-0.00804542320105,13,13.1076507568,25.4886665344,
2.23879245051,-1.15161246015,0.0,-1.89473335698,-0.00760549460281,14,13.7207689285,26.6522827148,
2.31000235804,-1.28975981427,0.0,-1.96932351994,-0.00696477771308,15,14.2480516434,27.6404342651,
2.38349011668,-1.43210428907,0,-2.03507814957,-0.00613969141622,16,14.7041835785,28.4809360504,
2.45898249873,-1.57806414319,0,-2.09017569043,-0.00514452506352,17,15.105635643,29.2049980164,
2.53628876933,-1.72721546842,0,-2.13291555412,-0.00399060777105,18,15.4689426422,29.8441429138,
2.61529639491,-1.87928265287,0,-2.16167409947,-0.00268512640511,19,15.8097400665,30.4281826019,
2.6959634138,-2.03412741376,0,-2.17483498356,-0.00122878204093,20,16.142168045,30.9845409393,
2.77831080683,-2.19173544599,0,-2.1707337529,0.000382908593384,21,16.4787693024,31.5380058289,
2.86241248377,-2.352204978,0,-2.14759501649,0.00216029210261,22,16.8303146362,32.1112289429,
2.94838908442,-2.5157400961,0,-2.10350327323,0.00411644136146,23,17.205909729,32.7254562378,
3.0363974882,-2.68264836026,0,-2.03638175585,0.00626637870975,24,17.6129760742,33.401222229,
3.12662556895,-2.85334247304,0,-1.94404347248,0.00862044174438,25,18.0579452515,34.1597595215,
3.06389311225,-3.02834790899,0,-1.73219660019,0.019777111147,26,18.546546936,35.0236816406,