lower angle,upper angle,holding angle,system x,acceleration,ticks (200 tps),lower acceleration (shoulder),upper acceleration (elbow),
1.459412174,0.471352484,0,-1.07120624403,-0.366758656964,1,0.0,0.0,
1.459412174,0.471352484,0,-1.07120624403,0.0,2,0.0,0.0,
1.459412174,0.471352484,0,-1.07120624403,0.0,3,0.0,0.0,
1.47712285973,0.436856176627,0,-1.1117953009,-0.013893728436,4,3.54217410088,6.89942502975,
1.50067241646,0.39091530062,0,-1.1649526323,-0.0181945883338,5,4.71017980576,9.18854808807,
1.53035123803,0.333034422171,0,-1.23123206147,-0.0226844078132,6,5.93618535995,11.5770235062,
1.56627233483,0.262975122702,0,-1.31014518429,-0.0270063550059,7,7.18500900269,14.0132312775,
1.60854871727,0.180509950888,0,-1.40100493243,-0.0310929023856,8,8.45653152466,16.4953842163,
1.65724952675,0.0855001471165,0,-1.50273169713,-0.0348102260536,9,9.74210357666,19.0055732727,
1.71235187508,-0.0220085122463,0,-1.61371098251,-0.0379748515609,10,11.0232620239,21.5069160461,
1.77369029976,-0.141686055886,0,-1.73167442369,-0.040363082366,11,12.2714881897,23.9426269531,
1.84091432549,-0.272834871042,0,-1.8536525475,-0.0417351625232,12,13.4498748779,26.2392368317,
1.91347463585,-0.414360616433,0,-1.976066261,-0.0418826046005,13,14.5184583664,28.3170261383,
1.99065120675,-0.564826104867,0.0,-2.09495981697,-0.0406764793788,14,15.4429244995,30.1072998047,
2.07162626244,-0.722596261728,0.0,-2.20632254011,-0.0380983590088,15,16.203868866,31.5704612732,
2.15558536507,-0.886035535562,0,-2.3064327151,-0.0342473787659,16,16.8017482758,32.7060508728,
2.24180801369,-1.05368289732,0,-2.39210159912,-0.0293059142255,17,17.2551670074,33.5492477417,
2.32972248055,-1.22436866544,0,-2.46070280822,-0.0234658656582,18,17.5942382813,34.1578598022,
2.41892726876,-1.39724645399,0,-2.51017069895,-0.0169170149162,19,17.8528347015,34.5971717834,
2.50918157555,-1.57178029798,0,-2.53883839424,-0.0098031882308,20,18.0630741119,34.9290122986,
2.60038145043,-1.74769935392,0,-2.54527702317,-0.00220159636563,21,18.2526874542,35.206615448,
2.69253738381,-1.92495021604,0,-2.528165141,0.00585070313996,22,18.4442272186,35.4735183716,
2.78574760415,-2.10365495466,0,-2.48612729896,0.0143720758491,23,18.6555538177,35.7649040222,
2.88017995812,-2.28407940649,0,-2.41764243666,0.0234124118526,24,18.90051651,36.1095275879,
2.97605522133,-2.46661290907,0,-2.32097230129,0.0330452865696,25,19.189743042,36.5322952271,
3.07363231636,-2.65175995611,0,-2.19414079942,0.0433529051661,26,19.5309123993,37.0560874939,
3.10998653116,3.44304647661,0,-1.93649355844,0.0880608222871,27,19.9297332764,37.7039871216,