lower angle,upper angle,holding angle,system x,acceleration,ticks (200 tps),lower acceleration (shoulder),upper acceleration (elbow),
2.354452829,-1.714349745,0,-0.730439672626,-0.0592343100283,1,0.0,0.0,
2.354452829,-1.714349745,0,-0.730439672626,0.0,2,0.0,0.0,
2.354452829,-1.714349745,0,-0.730439672626,0.0,3,0.0,0.0,
2.36568329775,-1.73597764798,0,-0.753436471934,-0.00186484146917,4,2.2460899353,4.32554912567,
2.38029597246,-1.76415157148,0,-0.783003269784,-0.0023975862166,5,2.922539711,5.63493490219,
2.39861510241,-1.799435137,0,-0.819761520068,-0.00298070925451,6,3.66398906708,7.05685472488,
2.42050574267,-1.84156274625,0,-0.863152559117,-0.00351852315302,7,4.37831401825,8.42583274841,
2.44585488283,-1.89030599424,0,-0.912609080886,-0.00401032975588,8,5.07011222839,9.74915218353,
2.47455857241,-1.94544792005,0,-0.967524366212,-0.00445291703803,9,5.74105453491,11.0290880203,
2.50651143038,-2.00676870176,0,-1.02720875285,-0.00483958271517,10,6.39114236832,12.2650842667,
2.54161093676,-2.07404804059,0,-1.09090737359,-0.00516503687319,11,7.02063560486,13.4571800232,
2.57975838625,-2.14707326719,0,-1.15777902705,-0.00542226899121,12,7.63041973114,14.6066627502,
2.62086270296,-2.22564410993,0,-1.2269035177,-0.00560488766079,13,8.22204399109,15.7162208557,
2.66484425509,-2.30958080121,0.0,-1.29727913873,-0.00570610983436,14,8.79765796661,16.7898139954,
2.71163533175,-2.3987288458,0.0,-1.36780955586,-0.00571858090511,15,9.35992145538,17.832611084,
2.76118443453,-2.49296569654,0,-1.43730843976,-0.00563488870693,16,9.9118976593,18.8508796692,
2.81345723116,-2.59220456907,0,-1.50449190638,-0.00544709697414,17,10.4569606781,19.851890564,
2.86843750918,-2.69640111753,0,-1.56797111011,-0.00514670868735,18,10.9987869263,20.8440132141,
2.92612765276,-2.8055562956,0,-1.62625417725,-0.004725373904,19,11.5411949158,21.8365745544,
2.98655007326,-2.91972541639,0,-1.67775236158,-0.00417523787007,20,12.088227272,22.8401069641,
3.04975007021,-3.0390214903,0,-1.72080017687,-0.00349007719036,21,12.6441879272,23.8663597107,
3.11579535448,-3.16362380811,0,-1.75367457988,-0.0026652461044,22,13.2138557434,24.9285888672,