lower angle,upper angle,holding angle,system x,acceleration,ticks (200 tps),lower acceleration (shoulder),upper acceleration (elbow),
1.862180479,-0.471352484,0,-1.07120645486,-0.094788803629,1,0.0,0.0,
1.862180479,-0.471352484,0,-1.07120645486,0.0,2,0.0,0.0,
1.862180479,-0.471352484,0,-1.07120645486,0.0,3,0.0,0.0,
1.8800537662,-0.506165888083,0,-1.1033577937,-0.00284485450368,4,3.57474279404,6.96281051636,
1.90358520312,-0.552057649863,0,-1.14480231477,-0.00366708275241,5,4.70646715164,9.17875289917,
1.93278623385,-0.60897054888,0,-1.19544512879,-0.00448088364295,6,5.84062576294,11.3833780289,
1.96741271777,-0.676431085837,0,-1.25416509606,-0.00519546323792,7,6.92601585388,13.493391037,
2.00717616839,-0.753868486655,0,-1.31967541113,-0.00579613894113,8,7.95370912552,15.4893989563,
2.05174375338,-0.840620901358,0,-1.39050005715,-0.006266249092,9,8.91502571106,17.3532085419,
2.10074592395,-0.935948278678,0,-1.46501258326,-0.00659244508698,10,9.80235290527,19.0690917969,
2.15378881259,-1.03906145312,0,-1.54145513351,-0.00676310259838,11,10.6110696793,20.6272087097,
2.21047521395,-1.14915933825,0,-1.61801525664,-0.00677340820967,12,11.3403759003,22.0251998901,
2.270424612,-1.26546898104,0,-1.69287361562,-0.00662275305521,13,11.9934558868,23.268491745,
2.33328891558,-1.38727798678,0.0,-1.76423521651,-0.00631328436125,14,12.5770320892,24.3693237305,
2.39876724047,-1.51396026827,0.0,-1.83036919926,-0.00585070149813,15,13.1003379822,25.3450241089,
2.46661353869,-1.64499464251,0,-1.88959752479,-0.00523945037353,16,13.5744009018,26.2162399292,
2.53663945956,-1.77996864535,0,-1.94029195737,-0.00448445435545,17,14.0109319687,27.0050773621,
2.60871625705,-1.91858186938,0,-1.98085327943,-0.00358801972548,18,14.4216051102,27.7337989807,
2.68277097506,-2.06064214922,0,-2.00966654623,-0.00254875423969,19,14.8177337646,28.4241294861,
2.75878310962,-2.20606127001,0,-2.02506383126,-0.00136198453649,20,15.20977211,29.0967597961,
2.83677984042,-2.35484972216,0,-2.02528661817,-1.9706533601e-05,21,15.6072025299,29.771446228,
2.91682935519,-2.50711193301,0,-2.00845274791,0.00148899906031,22,16.0184860229,30.4673080444,
2.99903798861,-2.66304817416,0,-1.97255071674,0.00317556649854,23,16.4509487152,31.2031822205,
3.08354306979,-2.82295456148,0,-1.915456959,0.00504989818515,24,16.9110736847,31.9985351563,
3.11267381545,-2.98723044611,0,-1.78832611982,0.011244413069,25,17.4047241211,32.873840332,