lower angle,upper angle,holding angle,system x,acceleration,ticks (200 tps),lower acceleration (shoulder),upper acceleration (elbow),
1.32515609,0.790309276,0,-1.01796725616,-0.420916673269,1,0.0,0.0,
1.32515609,0.790309276,0,-1.01796725616,0.0,2,0.0,0.0,
1.32515609,0.790309276,0,-1.01796725616,0.0,3,0.0,0.0,
1.34104001258,0.759418811217,0,-1.05833935354,-0.0166892015471,4,3.17682099342,6.17819881439,
1.36206280921,0.718467559234,0,-1.11116434033,-0.0218351863832,5,4.20468425751,8.19048213959,
1.38863360617,0.666720237151,0,-1.17743998904,-0.0273926741045,6,5.31451511383,10.3500862122,
1.42091977332,0.603832091704,0,-1.2570378467,-0.0328970621678,7,6.45774078369,12.5786151886,
1.45913588736,0.529371108428,0,-1.34976250498,-0.0383191503232,8,7.64420604706,14.8939847946,
1.50352322791,0.442857589141,0,-1.45522920632,-0.0435813654806,9,8.87892723083,17.3053741455,
1.55431306098,0.343832816497,0,-1.57267825737,-0.0485292482983,10,10.1601552963,19.8090286255,
1.61168515418,0.231941069976,0,-1.70079516591,-0.0529337433454,11,11.4775648117,22.3841896057,
1.67570721839,0.107050742522,0,-1.83751454617,-0.0564836234482,12,12.8087301254,24.9861869812,
1.74626004432,-0.0305997472849,0,-1.97983186377,-0.0587916668368,13,14.1164875031,27.5410671234,
1.8229707453,-0.180265102967,0.0,-2.12376998795,-0.0594561774261,14,15.3496618271,29.9470100403,
1.90517699454,-0.34062400876,0.0,-2.26451209427,-0.0581311206663,15,16.4504795074,32.0890388489,
1.99196803305,-0.509860668763,0,-2.39680342455,-0.0546363806258,16,17.3691654205,33.8676223755,
2.08230674002,-0.685898933991,0,-2.51555794312,-0.0490416176322,17,18.0799655914,35.2304000854,
2.1751850817,-0.866714630708,0,-2.61634486043,-0.0416183971027,18,18.5891017914,36.1878890991,
2.26976191733,-1.05060163556,0,-2.69570370852,-0.0327678061777,19,18.9294834137,36.8033752441,
2.36542689536,-1.23630062161,0,-2.75112221148,-0.0228810127997,20,19.1476230621,37.1666030884,
2.46180522177,-1.42300907193,0,-2.78083953599,-0.0122687414367,21,19.2905979156,37.3688430786,
2.55872475837,-1.61031333028,0,-2.7835965078,-0.00113815586654,22,19.3990058899,37.4884147644,
2.65617167685,-1.79811063825,0,-2.75834549651,0.0104238581644,23,19.5048961639,37.5871810913,
2.75425517295,-1.98653045712,0,-2.70408951919,0.022396293438,24,19.6324005127,37.7119598389,
2.85317074988,-2.17587987004,0,-2.61967256566,0.0348448058457,25,19.7992191315,37.8983764648,
2.95317828391,3.91657766284,0,-2.50368752984,0.0478726594441,26,20.018201828,38.1747436523,
3.05458199714,3.72390135707,0,-2.35442650614,0.0616037610889,27,20.2982006073,38.5653190613,
3.12546915477,3.52859195651,0,-2.10603614449,0.102512131223,28,20.6451072693,39.0932617188,