lower angle,upper angle,holding angle,system x,acceleration,ticks (200 tps),lower acceleration (shoulder),upper acceleration (elbow),
2.130692665,-1.118062055,0,-0.937124772936,-0.0781907959604,1,0.0,0.0,
2.130692665,-1.118062055,0,-0.937124772936,0.0,2,0.0,0.0,
2.130692665,-1.118062055,0,-0.937124772936,0.0,3,0.0,0.0,
2.14485425176,-1.14553359736,0,-0.961720160029,-0.00205205943922,4,2.83235144615,5.49431800842,
2.16333598318,-1.1814270376,0,-0.99324687922,-0.00263031848521,5,3.69646644592,7.17893123627,
2.18634289922,-1.22606805552,0,-1.03203625596,-0.00323620273877,6,4.60153532028,8.92854976654,
2.21366566839,-1.279049909,0,-1.07729166931,-0.00377560663143,7,5.46495056152,10.5969619751,
2.24509782018,-1.33995870341,0,-1.12818796011,-0.00424612909661,8,6.28693389893,12.1827230453,
2.28042954626,-1.40837196101,0,-1.1838133387,-0.00464058129347,9,7.06707334518,13.6839971542,
2.31944626989,-1.48385289896,0,-1.24317929378,-0.00495254402366,10,7.80428218842,15.0979824066,
2.36193198385,-1.56596091975,0,-1.305211037,-0.00517483667504,11,8.49847602844,16.423915863,
2.40767974081,-1.65426591624,0,-1.36878763476,-0.00530361411369,12,9.15109729767,17.6639251709,
2.45649403753,-1.74836210001,0,-1.43271091524,-0.00533244082414,13,9.76484203339,18.8227062225,
2.50820082845,-1.84787801493,0.0,-1.49575221064,-0.00525878128876,14,10.343662262,19.907327652,
2.56264943304,-1.95248750437,0.0,-1.55662423412,-0.00507773064501,15,10.8923549652,20.9266433716,
2.61971635046,-2.06191495646,0,-1.61398759391,-0.0047846965068,16,11.4164867401,21.8910503387,
2.67930859746,-2.17594388712,0,-1.66643964764,-0.00437496774641,17,11.9220056534,22.8119773865,
2.74136418523,-2.2944169401,0,-1.7125075761,-0.00384240739699,18,12.4150762558,23.7016220093,
2.80585116567,-2.41724256266,0,-1.75061882533,-0.00317871003307,19,12.9019174576,24.5728569031,
2.87276906194,-2.54439452875,0,-1.77910707424,-0.00237605629523,20,13.3885793686,25.4390735626,
2.9421455306,-2.67591813792,0,-1.79618975469,-0.00142475520635,21,13.8808908463,26.3142604828,
3.01403683843,-2.81193116892,0,-1.79998858404,-0.00031683036193,22,14.384390831,27.213218689,
3.08852452459,-2.95263150919,0,-1.78854661025,0.000954267250241,23,14.9045095444,28.1518554688,
3.1174637077,-3.09830526102,0,-1.74892584425,0.00330434320498,24,15.4470243454,29.14777565,