lower angle,upper angle,holding angle,system x,acceleration,ticks (200 tps),lower acceleration (shoulder),upper acceleration (elbow),
1.57079632679,0.0,0,1.95025002764e-15,1.2571570536e-16,1,0.0,0.0,
1.5707145744,0.000159106421052,0,0.000432010990824,2.78430196934e-05,2,-0.0163504779339,-0.0318212844431,
1.57054679355,0.000486538861878,0,0.00130637836035,5.63509275119e-05,3,-0.0335561707616,-0.0654864832759,
1.5702945824,0.000978967524134,0,0.00261765201084,8.45073510051e-05,4,-0.0504422262311,-0.0984857305884,
1.56995882886,0.00163470744155,0,0.00436055208792,0.000112322766122,5,-0.0671507120132,-0.13114798069,
1.56953993562,0.00245292554609,0,0.00653362304456,0.000140043343118,6,-0.0837786570191,-0.163643658161,
1.56903844833,0.00343269458972,0,0.00913214204102,0.000167459038569,7,-0.100297451019,-0.195953845978,
1.56845489709,0.00457296706736,0,0.012153521913,0.000194706699729,8,-0.116710275412,-0.228054523468,
1.56778985338,0.00587266124785,0,0.0155943234166,0.000221732475969,9,-0.133008763194,-0.259938836098,
1.56704397133,0.00733053125441,0,0.0194507138606,0.000248510585422,10,-0.149176418781,-0.291574001312,
1.56621803163,0.00894512236118,0,0.0237176790879,0.000274964010088,11,-0.165187940001,-0.322918146849,
1.56531279913,0.010714921169,0,0.0283915078256,0.00030117835105,12,-0.181046515703,-0.353959918022,
1.56432916742,0.0126382289454,0,0.0334669150632,0.000327050884999,13,-0.196726426482,-0.384661704302,
1.56326806412,0.0147132407874,0,0.0389389791913,0.000352605409014,14,-0.212220683694,-0.41500222683,
1.56213043077,0.0169381350279,0,0.0448025588814,0.000377827154769,15,-0.227526545525,-0.444978892803,
1.56091736729,0.0193107631058,0,0.0510519282109,0.000402680604028,16,-0.242612838745,-0.474525511265,
1.55962992466,0.0218290314078,0,0.0576821639092,0.000427215735144,17,-0.257488578558,-0.503654062748,
1.55826930428,0.0244906377047,0,0.0646863948817,0.000451307928897,18,-0.272124111652,-0.532321095467,
1.55683671037,0.0272932089865,0,0.072058621689,0.000475012254716,19,-0.286518752575,-0.560513854027,
1.55533341045,0.0302342455834,0,0.0797925508353,0.000498311056287,20,-0.300660133362,-0.588208019733,
1.55376073258,0.0333111286163,0,0.0878815816438,0.00052118393418,21,-0.314535498619,-0.615376353264,
1.55212003278,0.0365211889148,0,0.0963189033152,0.000543615418134,22,-0.32814013958,-0.642012357712,
1.55041278625,0.0398615151644,0,0.105097206496,0.000565577311838,23,-0.341449201107,-0.668065547943,
1.54864042352,0.0433292910457,0,0.114209301505,0.000587075939278,24,-0.354472786188,-0.693556010723,
1.54680452409,0.0469213798642,0,0.123647618165,0.000608040958426,25,-0.367179661989,-0.718417108059,
1.54490655387,0.0506348386407,0,0.133405552631,0.000628602492974,26,-0.379594475031,-0.742691755295,
1.5429481818,0.0544663704932,0,0.143474857684,0.000648651577505,27,-0.391674041748,-0.766306638718,
1.54093108984,0.0584126748145,0,0.153846913612,0.000668142229646,28,-0.403418570757,-0.789260983467,
1.53885695437,0.0624703727663,0,0.164514337708,0.000687160163645,29,-0.414827346802,-0.811540663242,
1.53672749276,0.0666360706091,0,0.175468637528,0.00070562064049,30,-0.425892204046,-0.833139419556,
1.53454445402,0.0709062442183,0,0.186702083086,0.000723589679118,31,-0.43660774827,-0.854033470154,
1.5323097008,0.0752772390842,0,0.198205098185,0.00074094381726,32,-0.44695097208,-0.874199867249,
1.53002501006,0.0797454863787,0,0.209969656971,0.000757781010089,33,-0.456938683987,-0.893650531769,
1.52769226308,0.0843071788549,0,0.221987657858,0.000774088435462,34,-0.466548442841,-0.91233932972,
1.52531338582,0.0889585614204,0,0.234248857787,0.000789742495474,35,-0.47577676177,-0.930276632309,
1.52289030055,0.0936957076192,0,0.246745462189,0.000804851042678,36,-0.484617143869,-0.94743001461,
1.5204248848,0.0985148772597,0,0.259468551686,0.000819426277903,37,-0.493083059788,-0.963834285736,
1.51791918377,0.103412009776,0,0.272408235879,0.000833364715952,38,-0.501141428947,-0.979427576065,
1.51537518302,0.108383096755,0,0.285555803697,0.000846741898569,39,-0.508800089359,-0.994217514992,
1.51279488678,0.113424099982,0,0.298902352526,0.00085954542438,40,-0.516059398651,-1.00819993019,
1.5101802657,0.118531018496,0,0.312439533342,0.000871785711597,41,-0.522925257683,-1.02138543129,
1.50753344695,0.123699679971,0,0.326156353791,0.000883326046647,42,-0.529363572598,-1.03373098373,
1.50485649059,0.12892588973,0,0.340044255294,0.000894331183333,43,-0.535391509533,-1.04524326324,
1.50215144555,0.134205490351,0,0.354094524281,0.000904775806156,44,-0.541009128094,-1.05592083931,
1.49942039798,0.139534339309,0,0.368297058797,0.000914565524777,45,-0.546210408211,-1.06577181816,
1.49666542659,0.144908204675,0,0.382643210929,0.000923801527702,46,-0.550993800163,-1.07477450371,
1.49388864736,0.150322839618,0,0.397123352371,0.000932413544341,47,-0.5553560853,-1.08292746544,
1.49109216879,0.155773982406,0,0.411728295828,0.000940435079485,48,-0.55929684639,-1.09022939205,
1.48827806959,0.161257371306,0,0.426449802363,0.000947909199499,49,-0.562820136547,-1.09668195248,
1.485448503,0.166768744588,0,0.441277270752,0.000954715853324,50,-0.565913438797,-1.10227584839,
1.48260555516,0.172303855419,0,0.456202030433,0.000960966437488,51,-0.568591892719,-1.10702121258,
1.47975130478,0.177858442068,0,0.471215854734,0.000966670971873,52,-0.570850372314,-1.11092162132,
1.47688792745,0.183428153396,0,0.486308666155,0.000971741792161,53,-0.572675585747,-1.11394119263,
1.47401749442,0.189008787274,0,0.501471677662,0.000976248519634,54,-0.574087023735,-1.11612725258,
1.47114207695,0.194596126676,0,0.516696312934,0.00097884110159,55,-0.575083494186,-1.11747145653,
1.468263791,0.200185894966,0,0.53197339785,0.000982060778646,56,-0.575656950474,-1.11794877052,
1.4653847153,0.205773815513,0,0.547294949405,0.000983082799826,57,-0.575815200806,-1.11758816242,
1.46250687639,0.211355775595,0,0.562652421492,0.000985319909802,58,-0.575568377972,-1.1163932085,
1.45963236044,0.216927558184,0,0.578036808919,0.000987022586812,59,-0.574904441833,-1.11435735226,
1.45676321636,0.222484961152,0,0.593440097386,0.000987892052659,60,-0.573830366135,-1.1114846468,
1.45390152285,0.228023782372,0,0.608853343429,0.000988509969158,61,-0.572339117527,-1.1077684164,
1.45104920963,0.233540102839,0,0.624268493458,0.000988609817847,62,-0.570461690426,-1.10325860977,
1.44820833305,0.239029616117,0,0.639678756997,0.000987320518931,63,-0.568176090717,-1.09790802002,
1.44538086752,0.244488418102,0,0.655074496694,0.000986375234304,64,-0.56549179554,-1.09175944328,
1.44256877998,0.249912440777,0,0.670448551147,0.000984971140716,65,-0.562416672707,-1.08480238914,
1.4397740523,0.255297631025,0,0.685793103878,0.000983067933706,66,-0.558946728706,-1.07703828812,
1.43699853221,0.260640114546,0,0.701102171338,0.000980781707647,67,-0.555105984211,-1.06850004196,
1.43424417178,0.265935927629,0,0.716367704783,0.000977979875315,68,-0.550873935223,-1.05916440487,
1.43151283363,0.271181285381,0,0.7315820782,0.000974688684273,69,-0.546267569065,-1.04906892776,
1.42880641023,0.276372283697,0,0.746738359039,0.000970947082681,70,-0.541286468506,-1.03819978237,
1.42612674932,0.281505078077,0,0.761830239265,0.000966807071569,71,-0.53593057394,-1.02656149864,
1.42347568373,0.286576002836,0,0.776849483941,0.000962137198225,72,-0.530215024948,-1.01418530941,
1.42085498671,0.291581302881,0,0.791790968146,0.000957128779512,73,-0.524135708809,-1.00106060505,
1.41826649109,0.296517282724,0,0.806646904274,0.000951634282954,74,-0.517701148987,-0.987196445465,
1.41571192543,0.301380395889,0,0.821410800906,0.000945722347573,75,-0.510913789272,-0.972620368004,
1.41319297353,0.3061670959,0,0.836077596166,0.000939486682182,76,-0.503792762756,-0.957337021828,
1.41071137885,0.310873746872,0,0.85064158025,0.00093286231051,77,-0.496318936348,-0.941335737705,
1.40826878051,0.315496951342,0,0.865097129844,0.000925900963775,78,-0.488518744707,-0.924637913704,
1.40586689214,0.320033222437,0,0.879437507041,0.000918506326309,79,-0.48037609458,-0.907255470753,
1.40350732307,0.3244792521,0,0.893656865503,0.000910741262333,80,-0.471916407347,-0.889203906059,
1.40119165281,0.328831702471,0,0.907750719469,0.000902688434816,81,-0.463132977486,-0.870487570763,
1.39892149071,0.333087265491,0,0.921713266583,0.000894258750999,82,-0.454034209251,-0.85111117363,
1.39669834177,0.337242722511,0,0.93554079771,0.000885449526398,83,-0.444628596306,-0.831092357635,
1.39452378551,0.341294854879,0,0.949227285213,0.00087588869862,84,-0.434909582138,-0.810423493385,
1.39239934186,0.345240563154,0,0.962766989686,0.000866466010352,85,-0.424889922142,-0.789142906666,
1.39032644133,0.349076777697,0,0.976156596732,0.00085683976062,86,-0.414579004049,-0.767243623734,
1.38830658893,0.35280045867,0,0.989390073898,0.000846831986847,87,-0.40397259593,-0.744736671448,
1.38634114067,0.356408625841,0,1.0024652792,0.000836680463615,88,-0.393088728189,-0.7216334939,
1.38443160156,0.359898269176,0,1.01537581941,0.000826121729389,89,-0.381909549236,-0.697928190231,
1.38257931272,0.363266527653,0,1.02811845396,0.00081535700561,90,-0.370459109545,-0.673655688763,
1.38078558544,0.366510659456,0,1.04068929066,0.000804342553788,91,-0.358745217323,-0.648817777634,
1.37905177573,0.369627773762,0,1.05308505718,0.000790979086459,92,-0.346762955189,-0.623429894447,
1.3773792545,0.372615128756,0,1.06530003004,0.000773726085246,93,-0.334506213665,-0.597471237183,
1.37576919893,0.375470161438,0,1.07733216306,0.000761933564784,94,-0.322010606527,-0.571005821228,
1.37422296504,0.378190070391,0,1.08917703181,0.000749704648474,95,-0.309246063232,-0.543982028961,
1.37274168531,0.380772382021,0,1.1008328162,0.000735294523379,96,-0.296255618334,-0.516460061073,
1.37132668594,0.38321441412,0,1.11229445219,0.000721919320129,97,-0.282997369766,-0.48840457201,
1.36997911433,0.385513752699,0,1.12355887994,0.000709482520607,98,-0.269511520863,-0.45985519886,
1.36870014767,0.387667834759,0,1.13462411897,0.000696887307384,99,-0.255794525146,-0.430820167065,
1.36749097804,0.389674305916,0,1.14548493515,0.000682271214628,100,-0.241836130619,-0.401294380426,
1.36635264854,0.391530781984,0.0391530781984,1.15614115956,0.000669408229749,101,-0.22766405344,-0.371300369501,
1.36528630654,0.393234997988,0.0,1.16658777409,0.000656231768764,102,-0.213270753622,-0.340839415789,
1.36427879433,0.3948122859,0,1.17689636396,0.000647552859521,103,-0.201505124569,-0.315456062555,
1.36334574322,0.396232157946,0,1.18698807608,0.000633918986125,104,-0.186609536409,-0.28398001194,
1.36248782376,0.397493183613,0,1.19686161523,0.000620206029042,105,-0.171586483717,-0.252203702927,
1.36170616845,0.398592829704,0,1.20651605274,0.000606434483615,106,-0.156331032515,-0.219929471612,
1.36100173096,0.399529069662,0,1.21594925196,0.000592529759757,107,-0.140883728862,-0.18725079298,
1.36037552456,0.400299906731,0,1.22515681832,0.000578348547401,108,-0.125242754817,-0.154165685177,
1.35982857744,0.400903135538,0,1.23413668957,0.000564038854938,109,-0.109388232231,-0.120643161237,
1.35936181346,0.401336759329,0,1.24288726088,0.00054962753769,110,-0.0933520495892,-0.0867267549038,
1.35897621612,0.401598781347,0,1.25140506533,0.000535000285629,111,-0.077120244503,-0.0524023845792,
1.35867260496,0.401687413454,0,1.2596889496,0.000520300951319,112,-0.0607239976525,-0.0177213773131,
1.35845194856,0.401600569487,0,1.26773710114,0.000505488245912,113,-0.0441321916878,0.0173644386232,
1.3583151261,0.40133652091,0,1.27554569585,0.000490435746612,114,-0.0273603647947,0.0528127029538,
1.35826304654,0.400893360376,0,1.28311236858,0.000472870925495,115,-0.0104193240404,0.0886328816414,
1.35829641024,0.400269418955,0,1.29043805617,0.000457798025354,116,0.00667182728648,0.124787166715,
1.35841618578,0.399462848902,0,1.29751771324,0.000442416756912,117,0.0239543523639,0.161315694451,
1.3586231331,0.398471981287,0,1.30435039209,0.000425200978883,118,0.0413905531168,0.198172256351,
1.35891802708,0.397295176983,0,1.31093426543,0.000408895457558,119,0.0589805170894,0.235363125801,
1.35930168728,0.395930737257,0,1.31726689378,0.00039327882364,120,0.0767326503992,0.272885650396,
1.35977491836,0.394377052784,0,1.32334508435,0.000375127971747,121,0.0946429669857,0.310735166073,
1.36033833126,0.39263266325,0,1.32916967119,0.00035947032147,122,0.112682126462,0.348876416683,
1.36099277536,0.390695929527,0,1.33473642336,0.000343553285206,123,0.130885645747,0.387343764305,
1.3617389063,0.388565480709,0,1.34004353271,0.000327523625068,124,0.14922568202,0.426095217466,
1.36257745425,0.38623970747,0,1.34509004009,0.000311436848365,125,0.167708948255,0.465152204037,
1.36350905994,0.383717298508,0,1.34987374862,0.000295193324916,126,0.186320051551,0.504481673241,
1.36453440885,0.380996882915,0,1.35439183487,0.000278791498613,127,0.205068171024,0.544086575508,
1.36565418641,0.378076970577,0,1.35864304534,0.000262320360194,128,0.223954096437,0.583976686001,
1.36686897377,0.3749563694,0,1.36262534694,0.000245515203117,129,0.242961376905,0.624123156071,
1.36817942659,0.371633797884,0,1.36633554223,0.000228544589079,130,0.26208537817,0.664515376091,
1.3695860813,0.368108004332,0,1.36977372317,0.000211785197837,131,0.281334906816,0.705159604549,
1.37108956377,0.364377766848,0,1.37293674385,0.000194833324899,132,0.300692975521,0.746049761772,
1.37269044022,0.360441893339,0,1.37582287922,0.000177774504368,133,0.320176154375,0.787175536156,
1.374389262,0.356299251318,0,1.37843002336,0.000160587690355,134,0.339762598276,0.828519582748,
1.37618649105,0.35194888711,0,1.38075641432,0.000143284830107,135,0.359448373318,0.870076239109,
1.37808267871,0.347389638424,0,1.38280025174,0.000125687482612,136,0.379237025976,0.911841511726,
1.38007840613,0.342620462179,0,1.38455714113,0.000108039457611,137,0.399142205715,0.953837394714,
1.38217400114,0.337640523911,0,1.38602776252,9.0433463525e-05,138,0.419117748737,0.995989084244,
1.38437001506,0.332448720932,0,1.38720935051,7.26585061838e-05,139,0.439203053713,1.03835487366,
1.38666682045,0.327044308186,0,1.38809986396,5.47586478135e-05,140,0.459360569715,1.08088302612,
1.38906483451,0.321426421404,0,1.38869740816,3.67430137767e-05,141,0.479606181383,1.12357974052,
1.3915645043,0.315594255924,0,1.38899828335,1.85004319269e-05,142,0.499932557344,1.16643857956,
1.39416615764,0.309547066689,0,1.38900166421,2.07876768701e-07,143,0.520332157612,1.20944142342,
1.39687015215,0.303284108639,0,1.3887057232,-1.81958702227e-05,144,0.540799975395,1.25259232521,
1.39967681567,0.296804755926,0,1.38810788786,-3.67551053074e-05,145,0.561332762241,1.29587602615,
1.4025864164,0.290108412504,0,1.38720698688,-5.53863886752e-05,146,0.581921815872,1.33926904202,
1.40559922258,0.283194601536,0,1.38600016164,-7.419157009e-05,147,0.602563560009,1.3827624321,
1.40871548752,0.276062786579,0,1.3844857549,-9.30989334434e-05,148,0.623252391815,1.42636752129,
1.41193543474,0.268712580204,0,1.38266095122,-0.000112178895701,149,0.643987953663,1.47004294395,
1.41525928775,0.261143475771,0,1.38052447289,-0.000131336799092,150,0.664771020412,1.51381659508,
1.41868715087,0.253355354071,0,1.37807346469,-0.000150670018517,151,0.685572385788,1.55762982368,
1.42221911351,0.24534791708,0,1.37530788781,-0.000170004946429,152,0.706395804882,1.60149097443,
1.42585535447,0.237120896578,0,1.37222439264,-0.000189545634108,153,0.727248430252,1.64540529251,
1.42959590355,0.228674247861,0,1.36882121282,-0.000209194641755,154,0.748108625412,1.68933200836,
1.43344068626,0.220008030534,0,1.3650983761,-0.000228840814533,155,0.768959283829,1.7332444191,
1.4373897324,0.211122259498,0,1.3610531333,-0.000248655834964,156,0.789812028408,1.77716076374,
1.44144308666,0.202016964555,0,1.35668196932,-0.000267451321439,157,0.81067097187,1.82106399536,
1.44560057024,0.192692369223,0,1.35198571705,-0.000286932264305,158,0.831498026848,1.86492264271,
1.44986206392,0.183148771524,0,1.34696221891,-0.000305166480164,159,0.852300405502,1.90872097015,
1.454227374,0.173386618495,0,1.34160955585,-0.000325153377119,160,0.873063802719,1.95243740082,
1.45869623224,0.163406357169,0,1.33592807936,-0.00034512266786,161,0.893772542477,1.996052742,
1.46326838533,0.153208583593,0,1.32991554621,-0.000365227519213,162,0.914431214333,2.03956079483,
1.46794346819,0.142793983221,0,1.32357194707,-0.000385333489175,163,0.935019075871,2.08292722702,
1.4727211679,0.132163271308,0,1.31689511894,-0.000405569466445,164,0.955540537834,2.12614774704,
1.47760102997,0.12131729722,0,1.30988547105,-0.000425781082444,165,0.97597360611,2.16919708252,
1.48258251796,0.110257148743,0,1.30254267255,-0.000446008098436,166,0.996299564838,2.21203517914,
1.48766505072,0.0989839807153,0,1.29486680818,-0.000464920304024,167,1.01650869846,2.25463819504,
1.49284806947,0.0874989777803,0,1.28685675587,-0.000485093995085,168,1.03660488129,2.29700899124,
1.49813088129,0.0758034661412,0,1.27851363547,-0.000505258050394,169,1.05656516552,2.33910608292,
1.50351272623,0.0638990104198,0,1.2698373582,-0.000525425935842,170,1.07637119293,2.38090062141,
1.50899275119,0.0517872199416,0,1.26083010239,-0.000545461429305,171,1.09600806236,2.42236614227,
1.51457009191,0.0394698902965,0,1.25149177633,-0.000565479013894,172,1.11547136307,2.46347308159,
1.52024375747,0.0269489809871,0,1.2418239997,-0.000585419027685,173,1.13473594189,2.50418996811,
1.52601277182,0.0142264794558,0,1.23182745773,-0.000605317528223,174,1.1538066864,2.5445098877,
1.53187598015,0.00130459107459,0,1.22150547549,-0.00062494838159,175,1.17264485359,2.5843873024,
1.53783220152,-0.0118145942688,0,1.21086370825,-0.000644300694861,176,1.19124758244,2.6237885952,
1.54388016375,-0.0251278877258,0,1.19989565843,-0.000664046738343,177,1.20959615707,2.66267871857,
1.55001849035,-0.0386328697205,0,1.18860857481,-0.000683348029128,178,1.22766923904,2.70103311539,
1.55624575826,-0.0523271560669,0,1.17701159941,-0.000699152803713,179,1.24545764923,2.73881554604,
1.56256041216,-0.0662069320679,0,1.16509853459,-0.000718195346167,180,1.26293504238,2.77598762512,
1.56896080921,-0.0802693367004,0,1.15287890639,-0.000736665636378,181,1.28008377552,2.812520504,
1.57544548909,-0.0945110321045,0,1.14034988991,-0.00075530565803,182,1.29688739777,2.84836435318,
1.58201201359,-0.10892868042,0,1.1275397014,-0.000772196472985,183,1.31333708763,2.88351392746,
1.58865912358,-0.123517990112,0,1.11442606781,-0.000790473103756,184,1.32940936089,2.9179110527,
1.59538443486,-0.138275623322,0,1.10103539457,-0.000807158676074,185,1.34508442879,2.95152497292,
1.60218604008,-0.153197288513,0,1.08736594373,-0.000822546172877,186,1.36033987999,2.98431921005,
1.6090620319,-0.168278217316,0,1.07340951268,-0.00083285420293,187,1.37515616417,3.0162525177,
1.6160095493,-0.183514595032,0,1.05920104959,-0.000847872024188,188,1.38952052593,3.04728674889,
1.62302668492,-0.19890165329,0,1.0447323034,-0.000863379191033,189,1.40340721607,3.07739925385,
1.63011057774,-0.214434146881,0,1.03001881169,-0.00087785024567,190,1.4168138504,3.1065568924,
1.63725884358,-0.230107784271,0,1.01507385231,-0.000891356691083,191,1.42969870567,3.1346912384,
1.64446909825,-0.245916843414,0,0.999891421091,-0.0009055083111,192,1.44207143784,3.16181564331,
1.65173895756,-0.261856079102,0,0.984471987788,-0.000919623522804,193,1.45388746262,3.18785715103,
1.65906460682,-0.277919769287,0,0.968854783457,-0.000931406675688,194,1.46515524387,3.21281719208,
1.66644366185,-0.294103145599,0,0.953046634163,-0.000942445835009,195,1.47584164143,3.23663806915,
1.67387326161,-0.310399532318,0,0.937043887028,-0.000949708007407,196,1.48593258858,3.25929498672,
1.68135054509,-0.326803207397,0,0.920855721883,-0.000959220296937,197,1.49541795254,3.28076219559,
1.68887169758,-0.343307971954,0,0.904514929629,-0.000962884054502,198,1.50427925587,3.30102205276,
1.69643433491,-0.359908103943,0,0.888015725344,-0.000972204497811,199,1.51250553131,3.3200302124,
1.70403464238,-0.376596927643,0,0.871384562586,-0.000979967640569,200,1.5200843811,3.33777546883,
1.71166975895,-0.393368244171,0,0.854624371875,-0.000987558210693,201,1.52701187134,3.35423398018,
1.71933586995,-0.41021490097,0,0.837755343677,-0.000993958877811,202,1.53326416016,3.36937999725,
1.72703011433,-0.427130699158,0,0.820780545302,-0.000998759102413,203,1.53885281086,3.38322782516,
1.73474867741,-0.44410943985,0,0.80373278446,-0.00100303390388,204,1.54374420643,3.39571762085,
1.74248869816,-0.461143493652,0,0.786596466628,-0.00100823113812,205,1.54795181751,3.40685892105,
1.75024588505,-0.478226661682,0,0.769419259686,-0.00100713317649,206,1.55146503448,3.41665840149,
1.75801737706,-0.495352268219,0,0.752198207651,-0.00100871576312,207,1.55427825451,3.42508745193,
1.76579888264,-0.512512683868,0,0.734962275664,-0.00100957030486,208,1.55638849735,3.4321372509,
1.77358801762,-0.529701709747,0,0.717700235943,-0.00101108217955,209,1.55779600143,3.43782401085,
1.78138049046,-0.546912193298,0,0.700447365387,-0.0010098590462,210,1.55850720406,3.44214129448,
1.7891729633,-0.564137458801,0,0.683215768336,-0.00100859620046,211,1.55851602554,3.44510555267,
1.79696209828,-0.581370830536,0,0.666017637293,-0.00100662523007,212,1.55782783031,3.44670295715,
1.80474455754,-0.598605632782,0,0.648865257976,-0.0010039345662,213,1.55645442009,3.4469499588,
1.81251604954,-0.615835189819,0,0.631799984059,-0.000998824132035,214,1.5543859005,3.44587850571,
1.82027466694,-0.633052349091,0,0.614784696033,-0.00099588683533,215,1.55165064335,3.44348621368,
1.82801564137,-0.650250911713,0,0.597881404671,-0.000989264115869,216,1.54824101925,3.43977451324,
1.83573658864,-0.66742515564,0,0.581085823395,-0.000982931286266,217,1.54418134689,3.43479824066,
1.84343369404,-0.684567928314,0,0.564418991046,-0.000975379202824,218,1.53946483135,3.42856264114,
1.85110409657,-0.701673030853,0,0.54788531607,-0.000967569569188,219,1.53411865234,3.42109155655,
1.85874493519,-0.718735218048,0,0.531501235522,-0.000957846166602,220,1.5281431675,3.41240596771,
1.86635287205,-0.735747814178,0,0.515279716722,-0.000946979623667,221,1.52156984806,3.4025554657,
1.87392504612,-0.752705574036,0,0.499237307686,-0.000936508241897,222,1.51440763474,3.39155173302,
1.88145811955,-0.769602298737,0,0.483392996105,-0.000924915221576,223,1.50666618347,3.3794260025,
1.88895018498,-0.786433696747,0,0.467746891957,-0.000913331525637,224,1.4983741045,3.36624002457,
1.89639742772,-0.803193569183,0,0.452332176811,-0.000899813667704,225,1.48953378201,3.3520026207,
1.90379841725,-0.819877147675,0,0.437129378345,-0.000886161832354,226,1.48017370701,3.33673238754,
1.91114981572,-0.836479187012,0,0.422169425033,-0.000871993081668,227,1.47031581402,3.32050991058,
1.91844971577,-0.852995872498,0,0.407458607295,-0.000857269019772,228,1.45997571945,3.30334663391,
1.92569573323,-0.86942243576,0,0.393005784407,-0.000842206774456,229,1.44916403294,3.2852833271,
1.93288500706,-0.885754108429,0,0.378833702667,-0.000825819289213,230,1.43791210651,3.26638150215,
1.9400165836,-0.901987075806,0,0.364921455289,-0.000810658499687,231,1.42624592781,3.24665617943,
1.94708712498,-0.918118000031,0,0.351322487526,-0.000792388498266,232,1.41416430473,3.22614383698,
1.95409567753,-0.934142112732,0,0.338005004239,-0.000775969865478,233,1.40170764923,3.20489311218,
1.96103985707,-0.950057029724,0,0.325006211564,-0.000757388545083,234,1.38889014721,3.18295717239,
1.96791870991,-0.96585893631,0,0.312305956334,-0.000739982583641,235,1.37572443485,3.160374403,
1.97472985188,-0.981544494629,0,0.299930416075,-0.000721054798469,236,1.36224842072,3.13715386391,
1.98147185246,-0.997111320496,0,0.287889666406,-0.000701537218612,237,1.3484505415,3.11338424683,
1.98814423481,-1.01255655289,0,0.276161747493,-0.000683301979996,238,1.33439218998,3.08905220032,
1.99474461476,-1.02787733078,0,0.264778346729,-0.000663171074779,239,1.32007062435,3.06422615051,
2.00127203862,-1.04307222366,0,0.25374719003,-0.000641278628882,240,1.30550074577,3.03894376755,
2.00772555272,-1.05813837051,0,0.243060107591,-0.000619988853014,241,1.29070258141,3.01324748993,
2.01410372654,-1.07307386398,0,0.232732928284,-0.000599098421452,242,1.27571356297,2.9871506691,
2.0204065601,-1.08787727356,0,0.222747478699,-0.000579267075487,243,1.26052927971,2.96071386337,
2.02663214604,-1.10254716873,0,0.213137984521,-0.000557450111535,244,1.24517357349,2.93395328522,
2.03278048436,-1.11708164215,0,0.203881341964,-0.000536974764811,245,1.22967100143,2.90690374374,
2.03885109822,-1.13147974014,0,0.194978173661,-0.000516463818683,246,1.21403264999,2.87962031364,
2.04484208027,-1.14574050903,0,0.186467662207,-0.000493680018144,247,1.19828498363,2.85212922096,
2.0507543842,-1.15986251831,0,0.17830680417,-0.00047280161833,248,1.18242192268,2.82443928719,
2.05658657948,-1.17384529114,0,0.170527101454,-0.000450712241795,249,1.16647875309,2.79660463333,
2.06233914296,-1.18768835068,0,0.163109009311,-0.000429756531532,250,1.15047514439,2.7686419487,
2.06801112095,-1.20139122009,0,0.156071198676,-0.000407719709724,251,1.13438808918,2.74057674408,
2.07360251347,-1.21495389938,0,0.1494119753,-0.000385782636461,252,1.11828637123,2.71245908737,
2.07911332051,-1.22837495804,0,0.143115060843,-0.000364788529551,253,1.10214424133,2.68430924416,
2.08454306523,-1.24165582657,0,0.13720625457,-0.000342300867313,254,1.08597421646,2.65612220764,
2.08989222447,-1.2547955513,0,0.131661975777,-0.00032117975745,255,1.0698248148,2.62795829773,
2.09516032139,-1.26779460907,0,0.126498228889,-0.000299131348974,256,1.05366766453,2.59981799126,
2.10034830967,-1.28065299988,0,0.12168926402,-0.000278575858244,257,1.03752326965,2.57173538208,
2.10545523564,-1.2933716774,0,0.117268104091,-0.000256107539317,258,1.02141726017,2.54374074936,
2.11048205296,-1.30595111847,0,0.113213933418,-0.000234845951154,259,1.005387187,2.51585698128,
2.11542876164,-1.31839132309,0,0.109525866391,-0.00021355207885,260,0.989360749722,2.48807954788,
2.12029583851,-1.33069372177,0,0.106204976188,-0.000192288261192,261,0.973414540291,2.46046590805,
2.12508376042,-1.34285831451,0,0.10323850668,-0.000171764309631,262,0.957555115223,2.432980299,
2.12979252736,-1.35488700867,0,0.10064417045,-0.000150214972999,263,0.941747665405,2.40569639206,
2.13442261616,-1.36677980423,0,0.0984093222996,-0.000129393373361,264,0.926039874554,2.37859654427,
2.13897498051,-1.37853813171,0,0.096523317853,-0.000109194590857,265,0.910454392433,2.35171842575,
2.1434496204,-1.39016342163,0,0.0949991615242,-8.82435147091e-05,266,0.894954621792,2.32508325577,
2.14784748951,-1.40165662766,0,0.0938217737389,-6.81657636251e-05,267,0.879566967487,2.29864859581,
2.15216906468,-1.4130191803,0,0.092992387247,-4.80173511137e-05,268,0.864303708076,2.27251958847,
2.1564143459,-1.42425251007,0,0.0925237547191,-2.71309884582e-05,269,0.849145948887,2.24664568901,
2.16058524052,-1.43535757065,0,0.0923779148461,-8.44314461564e-06,270,0.834159493446,2.22104096413,
2.16468174855,-1.44633626938,0,0.0925720932241,1.12412986679e-05,271,0.819306254387,2.19576191902,
2.16870482365,-1.45719003677,0,0.0930960058984,3.03296421636e-05,272,0.804568529129,2.17078018188,
2.17265494267,-1.46792078018,0,0.0939551028613,4.97330350386e-05,273,0.790008425713,2.14612579346,
2.17653258244,-1.47852993011,0,0.0951504510685,6.91942956295e-05,274,0.77559363842,2.12179493904,
2.18033965031,-1.48901891708,0,0.0966492559933,8.67587686441e-05,275,0.761352658272,2.09784078598,
2.18407566945,-1.49938964844,0,0.0984794639338,0.000105940835181,276,0.747277855873,2.07419586182,
2.18774254719,-1.50964450836,0,0.10061667825,0.000123709761219,277,0.733369469643,2.05096721649,
2.19134076039,-1.51978492737,0,0.103062016314,0.00014154264912,278,0.719638764858,2.02805948257,
2.19487126271,-1.52981281281,0,0.105809480326,0.00015864653183,279,0.706074178219,2.00556731224,
2.19833500783,-1.53973007202,0,0.108853070023,0.000175691836874,280,0.692713141441,1.98345279694,
2.20173247258,-1.54953861237,0,0.112197737812,0.000193058720372,281,0.679518342018,1.96176016331,
2.20506508748,-1.55924081802,0,0.115830328829,0.000209675836388,282,0.666534304619,1.94044494629,
2.2083338062,-1.56883859634,0,0.119744719764,0.000225797656174,283,0.653742909431,1.91957187653,
2.21153958241,-1.57833433151,0,0.123938624669,0.000241917852605,284,0.641148328781,1.89908754826,
2.21468336979,-1.58772945404,0,0.128401971615,0.000257133849079,285,0.628738939762,1.87906694412,
2.21776612202,-1.59702682495,0,0.133136157139,0.000272733183336,286,0.616535425186,1.8594506979,
2.22078879277,-1.60622787476,0,0.138131032826,0.000287504224963,287,0.604535758495,1.84028339386,
2.22375233571,-1.61533594131,0,0.143391435734,0.000302537330976,288,0.592751204967,1.82153606415,
2.22665818135,-1.6243519783,0,0.148892777288,0.000314176091923,289,0.581184864044,1.80327689648,
2.22950728337,-1.63327932358,0,0.154639680516,0.000326982102103,290,0.569827854633,1.7854681015,
2.23230059544,-1.64211988449,0,0.160625471746,0.000340568575121,291,0.558647871017,1.76809477806,
2.23503954808,-1.65087604523,0,0.166836602784,0.0003533717137,292,0.547729194164,1.75120210648,
2.23772414128,-1.65954971313,0,0.173287108883,0.000366984335217,293,0.536989867687,1.73477196693,
2.24035675923,-1.66814374924,0,0.179946004741,0.000378835469165,294,0.526497542858,1.7187871933,
2.24293787877,-1.67666006088,0,0.186816698979,0.000390808359388,295,0.516176044941,1.70330047607,
2.24546797673,-1.68510150909,0,0.193909275851,0.00040342306497,296,0.506103932858,1.68829607964,
2.2479494373,-1.69347047806,0,0.201189125955,0.000414069686155,297,0.496254831553,1.67375850677,
2.25038273732,-1.70176887512,0,0.208659180819,0.000424882810419,298,0.486621469259,1.65969824791,
2.25276835362,-1.70999956131,0,0.216328842846,0.000436230724999,299,0.477221101522,1.64613425732,
2.25510867039,-1.71816444397,0,0.224160125603,0.000445417967519,300,0.467998534441,1.6330422163,
2.25740368763,-1.72626686096,0,0.23217544254,0.000455879812566,301,0.459047198296,1.62043988705,
2.2596553127,-1.7343082428,0,0.240343461433,0.000464549308225,302,0.450275659561,1.6083356142,
2.26186402241,-1.74229192734,0,0.248675936991,0.000473892386445,303,0.441748380661,1.59670364857,
2.2640312473,-1.75021982193,0,0.257154616971,0.000482199568841,304,0.433433234692,1.5855743885,
2.26615794102,-1.75809431076,0,0.26577432853,0.000490211125784,305,0.425351917744,1.57494020462,
2.26824505726,-1.76591825485,0,0.274532802102,0.000498090332296,306,0.417455673218,1.5647714138,
2.27029402653,-1.77369403839,0,0.283414559681,0.000505094459253,307,0.40979424119,1.55511868,
2.2723058025,-1.78142356873,0,0.292410688637,0.000511591462412,308,0.402365416288,1.54593324661,
2.27428181569,-1.78910970688,0,0.301508579582,0.000517372482036,309,0.395128190517,1.53726935387,
2.27622206608,-1.79675531387,0,0.310724246203,0.000524041060323,310,0.38811570406,1.52905607224,
2.27812893788,-1.80436182022,0,0.320016225861,0.000528372184413,311,0.381312012672,1.5213419199,
2.28000243107,-1.81193256378,0,0.329402941987,0.000533752004484,312,0.374733656645,1.51411163807,
2.28184397618,-1.8194694519,0,0.338864791849,0.000538017819123,313,0.368327409029,1.50738430023,
2.28365500371,-1.82697486877,0,0.348385078547,0.000541334376956,314,0.362186938524,1.50110924244,
2.28543599049,-1.83445167542,0,0.357968623312,0.000544924836466,315,0.356199532747,1.49533641338,
2.28718836705,-1.84190177917,0,0.367595353904,0.000547372949038,316,0.350433975458,1.49002099037,
2.28891261021,-1.84932756424,0,0.377266597893,0.00054989661283,317,0.344873666763,1.48519444466,
2.29061015049,-1.85673189163,0,0.386967428715,0.00055157196798,318,0.339504569769,1.48081803322,
2.29228194157,-1.86411619186,0,0.396683770087,0.000552446938758,319,0.33433920145,1.47692990303,
2.29392846028,-1.8714838028,0,0.406421360644,0.000553648410287,320,0.329358607531,1.47349774837,
2.29555161397,-1.87883615494,0,0.416147249641,0.000552976400881,321,0.324573665857,1.47049736977,
2.29715140263,-1.88617658615,0,0.425875543504,0.000553106448295,322,0.319973498583,1.4679902792,
2.29872925679,-1.89350605011,0,0.435579439546,0.000551712565207,323,0.315554946661,1.46590292454,
2.30028613011,-1.900826931,0,0.445248987834,0.000549752928663,324,0.311326295137,1.46429049969,
2.3018220226,-1.90814256668,0,0.454896812868,0.000548511192272,325,0.307249069214,1.46308517456,
2.3033388416,-1.91545438766,0,0.464489066209,0.000545345191849,326,0.303375184536,1.46232700348,
2.30483706395,-1.9227643013,0,0.474021216628,0.000541921697914,327,0.299637794495,1.46199381351,
2.30631764332,-1.93007469177,0,0.483481908873,0.000537852646414,328,0.296083033085,1.46206688881,
2.30778105656,-1.93738746643,0,0.492865852928,0.000533482887959,329,0.292679160833,1.46256554127,
2.30922825734,-1.94470453262,0,0.502158618364,0.00052829295776,330,0.28943374753,1.46345806122,
2.31066019932,-1.95202875137,0,0.511350112242,0.000522523584055,331,0.286359757185,1.4647744894,
2.31207688252,-1.95936107635,0,0.520438021593,0.000516628505153,332,0.283372342587,1.4664542675,
2.31348021428,-1.96670389175,0,0.529391938528,0.000509005254993,333,0.280594468117,1.46854400635,
2.31486971776,-1.97405862808,0,0.538219868279,0.000501834474608,334,0.277903676033,1.47097420692,
2.31624634663,-1.98142766953,0,0.54690790121,0.00049387582938,335,0.275365948677,1.47382867336,
2.31761105458,-1.98881244659,0,0.555437514546,0.000484864725798,336,0.27296423912,1.47700512409,
2.31896431843,-1.99621534348,0,0.563802620206,0.000475507540874,337,0.270649164915,1.48052513599,
2.32030661503,-2.00363731384,0,0.571990444623,0.000465424556624,338,0.268469035625,1.48440170288,
2.32163889805,-2.01108026505,0,0.579983697018,0.000454359145404,339,0.266387611628,1.48859083652,
2.32296069066,-2.01854562759,0,0.587787714818,0.000443596389099,340,0.264391630888,1.49309468269,
2.32427342335,-2.02603530884,0,0.595376089366,0.000431333279325,341,0.262528955936,1.49791431427,
2.32557709614,-2.03355026245,0,0.602743137174,0.000418747042918,342,0.260720402002,1.50306415558,
2.32687218586,-2.04109287262,0,0.609880165514,0.00040566095451,343,0.259007513523,1.50845909119,
2.32815869252,-2.04866361618,0,0.616778747268,0.000392101218289,344,0.257373273373,1.51414704323,
2.32943804661,-2.05626392365,0,0.623409582633,0.000376854932521,345,0.255809813738,1.52010297775,
2.33070929448,-2.06389570236,0,0.629785150772,0.000362342060205,346,0.254289656878,1.5263222456,
2.33197338978,-2.07155942917,0,0.635879976957,0.000346382293248,347,0.25282227993,1.53275644779,
2.33323080937,-2.07925653458,0,0.641679917338,0.000329619210698,348,0.251429468393,1.53945028782,
2.3344810764,-2.0869884491,0,0.647186185884,0.000312925556593,349,0.250064194202,1.54634165764,
2.33572466771,-2.09475564957,0,0.652380498478,0.000295193182142,350,0.2487231493,1.55342590809,
2.3369615833,-2.10255908966,0,0.657253796913,0.000276946476707,351,0.247412845492,1.56074953079,
2.3381923,-2.11040019989,0,0.661790361964,0.000257806954261,352,0.246111631393,1.56819200516,
2.33941634099,-2.11827945709,0,0.665986560588,0.000238461456542,353,0.244839906693,1.57583320141,
2.34063418309,-2.1261973381,0,0.669823070937,0.000218018393924,354,0.243556573987,1.58361065388,
2.34184582631,-2.13415527344,0,0.673290762033,0.000197057000065,355,0.242271587253,1.59154975414,
2.34305031697,-2.14215326309,0,0.676391030308,0.000176153771517,356,0.240960106254,1.59958040714,
2.34424860875,-2.15019178391,0,0.679096168836,0.000153699647711,357,0.239634037018,1.60774278641,
2.34543974797,-2.15827131271,0,0.681408262796,0.000131365479172,358,0.238269165158,1.61597430706,
2.34662421147,-2.16639280319,0,0.683307796573,0.00010792348417,359,0.236880928278,1.62430584431,
2.34780152241,-2.17455673218,0,0.68478850526,8.41264714088e-05,360,0.235445797443,1.63270831108,
2.34897120396,-2.182762146,0,0.685840406412,5.97622691598e-05,361,0.233930528164,1.64112472534,
2.35013277928,-2.19100999832,0,0.686457696698,3.5069814365e-05,362,0.232347995043,1.64958930016,
2.3512867252,-2.19930028915,0,0.686617623231,9.08446028227e-06,363,0.230714097619,1.65809512138,
2.35243161122,-2.20763349533,0,0.686326880262,-1.65127243947e-05,364,0.228993833065,1.66657924652,
2.35356743733,-2.21600866318,0,0.685567422674,-4.31295143767e-05,365,0.227166742086,1.67507135868,
2.3546937267,-2.22442626953,0,0.684331006757,-7.02148776182e-05,366,0.225276991725,1.68351721764,
2.35581000248,-2.23288583755,0,0.682607290056,-9.78870083941e-05,367,0.223261967301,1.69193768501,
2.35691578785,-2.24138689041,0,0.680385805031,-0.000126152885309,368,0.221137732267,1.70028066635,
2.3580096523,-2.24992990494,0,0.677671021243,-0.000154163071449,369,0.218842715025,1.70855343342,
2.35909207264,-2.25851345062,0,0.67443675541,-0.000183660408805,370,0.216470465064,1.71672129631,
2.36016161839,-2.26713752747,0,0.670686216664,-0.000212974840313,371,0.213924974203,1.72480666637,
2.3612178127,-2.27580118179,0,0.666407424998,-0.000242968831784,372,0.211235627532,1.7327657938,
2.36225970189,-2.28450393677,0,0.661595594434,-0.000273232939189,373,0.208384171128,1.74059343338,
2.36328680913,-2.29324507713,0,0.656238827845,-0.000304172587389,374,0.205365076661,1.74822127819,
2.3642977039,-2.30202364922,0,0.650338002648,-0.000335060581828,375,0.202179372311,1.7557182312,
2.36529143254,-2.31083846092,0,0.64388702965,-0.00036628205225,376,0.198793321848,1.76299357414,
2.3662675182,-2.31968903542,0,0.636873875732,-0.000398188899085,377,0.19522574544,1.7700959444,
2.36722500721,-2.32857370377,0,0.629292105872,-0.000430467789303,378,0.191451057792,1.77697098255,
2.36816199223,-2.33749175072,0,0.62114840832,-0.000462365245052,379,0.187456518412,1.78360390663,
2.36907847325,-2.34644150734,0,0.612423688064,-0.000495333246606,380,0.183278352022,1.78998351097,
2.36997254292,-2.35542201996,0,0.603124257196,-0.000527915420539,381,0.178831830621,1.79609668255,
2.37084324757,-2.36443138123,0,0.593243612998,-0.000560870965539,382,0.174163907766,1.80189812183,
2.37168963353,-2.37346863747,0,0.582775571434,-0.000594062091652,383,0.169259056449,1.80746090412,
2.37251027028,-2.38253188133,0,0.571719975599,-0.000627396519002,384,0.164093449712,1.81266200542,
2.37330372731,-2.39161944389,0,0.560076738366,-0.000660735766386,385,0.158692717552,1.81754231453,
2.37406857411,-2.40072989464,0,0.547845718851,-0.000694067838927,386,0.15301515162,1.82208645344,
2.37480385701,-2.4098610878,0,0.535021259854,-0.000727733558999,387,0.147046223283,1.82625591755,
2.37550814549,-2.41901135445,0,0.521603666297,-0.000761369899888,388,0.140823319554,1.83005023003,
2.37617953221,-2.42817831039,0,0.507599493339,-0.000794518785187,389,0.134290248156,1.83343040943,
2.37681706349,-2.43736076355,0,0.493003256997,-0.000828093030741,390,0.127491205931,1.83645582199,
2.37741883198,-2.44655585289,0,0.477822267209,-0.000861223824193,391,0.120388016105,1.83904051781,
2.37798340718,-2.45576167107,0,0.462057754756,-0.000894316023629,392,0.112955950201,1.84117996693,
2.3785098354,-2.46497583389,0,0.445706311461,-0.000927598885286,393,0.10522839427,1.84286880493,
2.37899573247,-2.47419643402,0,0.428780754054,-0.000960133302288,394,0.0971900746226,1.84409880638,
2.37943966786,-2.48342061043,0,0.411284405221,-0.000992299546585,395,0.0887932255864,1.8448600769,
2.37984021107,-2.49264621735,0,0.393220225921,-0.00102448925005,396,0.0800825208426,1.84510016441,
2.38019545476,-2.50187039375,0,0.374597972769,-0.00105611425722,397,0.0710780471563,1.84489035606,
2.3805039684,-2.51109099388,0,0.355421529815,-0.00108729477408,398,0.0616740547121,1.84412002563,
2.38076336781,-2.52030491829,0,0.335707197459,-0.00111775868558,399,0.0519575253129,1.84285640717,
2.38097269932,-2.52951002121,0,0.31545474589,-0.00114822073594,400,0.0418727956712,1.84102976322,
2.38113005559,-2.53870344162,0,0.294676120112,-0.00117803465297,401,0.0314425304532,1.83867037296,
2.38123352925,-2.54788208008,0,0.273384420699,-0.00120710427929,402,0.0206537507474,1.83574509621,
2.38128073613,-2.55704307556,0,0.251597775563,-0.00123514072447,403,0.00950300320983,1.83222258091,
2.38127072255,-2.56618356705,0,0.22932038497,-0.00126293518199,404,-0.00201873108745,1.82811522484,
2.38120110432,-2.57530093193,0,0.206571146661,-0.00128965243898,405,-0.0138958794996,1.82344996929,
2.38107045094,-2.58439135551,0,0.183363258962,-0.00131563039763,406,-0.0261726044118,1.81815075874,
2.38087637822,-2.59345269203,0,0.159715759474,-0.00134053338657,407,-0.0387931205332,1.81224763393,
2.38061745564,-2.6024813652,0,0.135643037569,-0.00136461229776,408,-0.0518019646406,1.80573570728,
2.38029129902,-2.61147427559,0,0.111168332185,-0.00138737857984,409,-0.0652026087046,1.79859542847,
2.37989647786,-2.62042856216,0,0.0863059080049,-0.00140933745345,410,-0.0789681598544,1.79081583023,
2.37943108479,-2.62934041023,0,0.0610786682563,-0.00142999593446,411,-0.0931218191981,1.7823830843,
2.37889273564,-2.63820672035,0,0.0355126439463,-0.00144917995246,412,-0.107648029923,1.77328824997,
2.37827999989,-2.6470246315,0,0.0096252085234,-0.00146737507242,413,-0.122557252645,1.76357269287,
2.3775909702,-2.6557905674,0,-0.0165582706667,-0.00148412845944,414,-0.137839227915,1.75319802761,
2.37682326237,-2.66450119019,0,-0.0430079372312,-0.00149919323477,415,-0.153527423739,1.74213635921,
2.37597496907,-2.67315292358,0,-0.0696961527037,-0.00151269502546,416,-0.169598400593,1.73040342331,
2.37504513661,-2.68174314499,0,-0.0966060233371,-0.00152523051091,417,-0.186039477587,1.7180300951,
2.37403090397,-2.69026780128,0,-0.123697310658,-0.00153548958237,418,-0.202862888575,1.70493757725,
2.37293036381,-2.69872355461,0,-0.150939653634,-0.00154402208897,419,-0.220063343644,1.69119894505,
2.37174208561,-2.70710730553,0,-0.178306424502,-0.00155105330878,420,-0.237658157945,1.67675471306,
2.37046416203,-2.71541547775,0,-0.205763606147,-0.0015561042309,421,-0.255599290133,1.66166901588,
2.36909468571,-2.72364497185,0,-0.233278053689,-0.00155924234547,422,-0.273907572031,1.64590060711,
2.36763127247,-2.73179197311,0,-0.260808226683,-0.00156007395743,423,-0.292617201805,1.62943577766,
2.36607296864,-2.73985362053,0,-0.288327090974,-0.00155938391513,424,-0.311668127775,1.6123098135,
2.36441786686,-2.7478260994,0,-0.315793963803,-0.00155641777683,425,-0.33106854558,1.59451639652,
2.36266358296,-2.75570631027,0,-0.343166731622,-0.00155106672292,426,-0.350849241018,1.5760358572,
2.36080868641,-2.76349067688,0,-0.370406797919,-0.00154352959055,427,-0.370960503817,1.55689764023,
2.35885126988,-2.7711763382,0,-0.397474300409,-0.00153372962805,428,-0.391458004713,1.5371286869,
2.35679037968,-2.77875971794,0,-0.424331164547,-0.00152173766858,429,-0.412251979113,1.51668775082,
2.3546231548,-2.78623771667,0,-0.450926487652,-0.0015068997882,430,-0.433373779058,1.49565625191,
2.35234911839,-2.79360723495,0,-0.477225332215,-0.00149006908183,431,-0.454835534096,1.47391736507,
2.34996588627,-2.80086517334,0,-0.503177598383,-0.00147040653512,432,-0.476637929678,1.45159566402,
2.34747250477,-2.80800819397,0,-0.528740495286,-0.00144832890138,433,-0.498714089394,1.42865800858,
2.3448665897,-2.81503391266,0,-0.553865606921,-0.00142350723199,434,-0.521105229855,1.40512919426,
2.34214766423,-2.82193875313,0,-0.57850905147,-0.00139619402785,435,-0.543792247772,1.38099169731,
2.339313821,-2.82872033119,0,-0.602623041835,-0.0013661325352,436,-0.566787958145,1.35631668568,
2.3363636295,-2.83537530899,0,-0.626155708088,-0.00133274701581,437,-0.59005010128,1.33101427555,
2.33329565922,-2.84190130234,0,-0.649059927892,-0.00129711981905,438,-0.613565385342,1.30523061752,
2.33010895649,-2.84829568863,0,-0.671288885113,-0.00125886283662,439,-0.637323260307,1.27891325951,
2.32680256764,-2.85455608368,0,-0.692796003262,-0.00121792551495,440,-0.661356210709,1.2520762682,
2.32337410847,-2.86067986488,0,-0.713522749423,-0.00117315221161,441,-0.685627281666,1.22476553917,
2.31982357899,-2.86666464806,0,-0.733426147503,-0.00112649023728,442,-0.710105478764,1.19697332382,
2.31615002553,-2.87250852585,0,-0.752459253122,-0.00107721436083,443,-0.734782397747,1.1687579155,
2.31235154072,-2.87820887566,0,-0.77056302516,-0.00102460066331,444,-0.759682536125,1.14009571075,
2.30842764775,-2.88376402855,0,-0.787693036074,-0.000969476068315,445,-0.784758985043,1.11105656624,
2.30437786976,-2.8891723156,0,-0.803803818232,-0.000911710589879,446,-0.810002803802,1.08164298534,
2.30020077626,-2.89443159103,0,-0.818839587091,-0.000850856197812,447,-0.835401952267,1.051882267,
2.29589589039,-2.89954066277,0,-0.832756552921,-0.00078753008167,448,-0.860957086086,1.02182626724,
2.29146273533,-2.90449786186,0,-0.845506394059,-0.000721472944441,449,-0.886617600918,0.991461455822,
2.28690083424,-2.90930199623,0,-0.857043615845,-0.000652844420225,450,-0.912410438061,0.960863530636,
2.28220923344,-2.91395187378,0,-0.867319247194,-0.000581448427688,451,-0.938335001469,0.929977238178,
2.27738793294,-2.91844654083,0,-0.876291038811,-0.000507658680304,452,-0.96427744627,0.898951232433,
2.27243645588,-2.92278528214,0,-0.883915326916,-0.000431404149877,453,-0.990319788456,0.867758214474,
2.26735432545,-2.92696738243,0,-0.890147953824,-0.000352654768236,454,-1.01640629768,0.836436271667,
2.26214154164,-2.9309926033,0,-0.894950971785,-0.000271759982327,455,-1.0425183773,0.805012106895,
2.25679858128,-2.93486022949,0,-0.898284643549,-0.000188616258363,456,-1.06866848469,0.773548364639,
2.2513244907,-2.93857049942,0,-0.900109077617,-0.000103223391885,457,-1.09479343891,0.74207341671,
2.24571974675,-2.94212341309,0,-0.900390124241,-1.5898566864e-05,458,-1.12091171741,0.710592627525,
2.23998482625,-2.94551944733,0,-0.89909761999,7.3114882475e-05,459,-1.1469835043,0.679174780846,
2.23412020604,-2.94875884056,0,-0.896199248621,0.000163954257865,460,-1.17300987244,0.647885799408,
2.22812540928,-2.95184230804,0,-0.891661804679,0.000256669868374,461,-1.1989531517,0.616706490517,
2.22200138966,-2.95477080345,0,-0.885462127771,0.00035069336192,462,-1.22480773926,0.585722088814,
2.21574862401,-2.95754575729,0,-0.87757910837,0.00044590835533,463,-1.25054180622,0.554971575737,
2.20936806599,-2.96016812325,0,-0.867990162305,0.000542395876308,464,-1.2761477232,0.524473667145,
2.20286019246,-2.96263957024,0,-0.856677164707,0.000639908179706,465,-1.30158293247,0.494304299355,
2.19622548024,-2.9649617672,0,-0.84362256485,0.000738411616389,466,-1.32686948776,0.46445119381,
2.18946583668,-2.96713709831,0,-0.828823765839,0.000837059748267,467,-1.35195827484,0.435050368309,
2.18258173863,-2.96916723251,0,-0.812264551087,0.000936622390113,468,-1.37685573101,0.406033158302,
2.17557413975,-2.9710547924,0,-0.793941136488,0.00103639668672,469,-1.40150594711,0.377521753311,
2.1684449474,-2.97280263901,0,-0.773858019218,0.00113591143311,470,-1.42589330673,0.349567890167,
2.16119463841,-2.97441363335,0,-0.752013282353,0.00123553516776,471,-1.45003867149,0.322178840637,
2.15382512013,-2.97589039803,0,-0.728411159627,0.00133462530176,472,-1.47387242317,0.295399308205,
2.14633829991,-2.97723698616,0,-0.703071301905,0.00143282707193,473,-1.49743747711,0.26928961277,
2.13873513142,-2.97845625877,0,-0.675997793119,0.00153082638489,474,-1.52063393593,0.243865847588,
2.13101752202,-2.97955226898,0,-0.64721300332,0.00162754293114,475,-1.54353117943,0.219219565392,
2.12318737904,-2.9805290699,0,-0.616740820478,0.00172284701275,476,-1.56602597237,0.195379018784,
2.11524660985,-2.98139071465,0,-0.58460666407,0.00181679117449,477,-1.58817517757,0.172364354134,
2.10719712178,-2.98214197159,0,-0.550844990769,0.0019087853082,478,-1.60989165306,0.150216460228,
2.09904082219,-2.98278689384,0,-0.515484483062,0.00199914818404,479,-1.63123774529,0.129019737244,
2.09078009526,-2.98333096504,0,-0.478573052332,0.0020868069331,480,-1.65213489532,0.108771681786,
2.08241732518,-2.98377847672,0,-0.44014784855,0.00217236104288,481,-1.67258012295,0.0895184278488,
2.07395441929,-2.98413515091,0,-0.400260619552,0.00225499038831,482,-1.69255912304,0.0713337659836,
2.06539423863,-2.98440599442,0,-0.358962346262,0.00233473479898,483,-1.71209180355,0.0541962385178,
2.05673869053,-2.9845969677,0,-0.316311353945,0.00241118095473,484,-1.73111701012,0.0381927490234,
2.04799063603,-2.98471355438,0,-0.272367775995,0.00248408913246,485,-1.74965703487,0.0233218669891,
2.0391524593,-2.98476195335,0,-0.227199174046,0.00255324624717,486,-1.7676589489,0.0096687078476,
2.03022654454,-2.98474788666,0,-0.180869963855,0.00261882202246,487,-1.78515577316,-0.00279176235199,
2.02121575276,-2.9846777916,0,-0.133457059451,0.00268004906584,488,-1.80212390423,-0.0140244960785,
2.01212342183,-2.98455810547,0,-0.0850420411236,0.00273666319486,489,-1.8185352087,-0.0239609479904,
2.00295145909,-2.98439502716,0,-0.0356985497037,0.00278911359779,490,-1.83440864086,-0.0325959920883,