lower angle,upper angle,holding angle,system x,acceleration,ticks (200 tps),lower acceleration (shoulder),upper acceleration (elbow),
1.57079632679,0.0,0,1.95025002764e-15,9.2357976031e-18,1,0.0,0.0,
1.57096035878,-0.000312805175781,0,-0.000954627984824,-4.52082401414e-06,2,0.03272517398,0.0625165477395,
1.57129033009,-0.000946998596191,0,-0.00280747398214,-8.77449786336e-06,3,0.0660204291344,0.126847833395,
1.57178528706,-0.00189924240112,0,-0.00557372448237,-1.31000791226e-05,4,0.0989930331707,0.190404444933,
1.57244427601,-0.00316715240479,0,-0.00925554669331,-1.74359142805e-05,5,0.13182091713,0.253626734018,
1.57326682011,-0.00475025177002,0,-0.0138442566927,-2.17306080224e-05,6,0.164521500468,0.316594541073,
1.57425196568,-0.00664663314819,0,-0.0193355047785,-2.60046969691e-05,7,0.19705016911,0.379285663366,
1.57539923588,-0.00885486602783,0,-0.0257336122474,-3.02992419785e-05,8,0.229429617524,0.441678076982,
1.57670720021,-0.0113735198975,0,-0.0330125160168,-3.44701072368e-05,9,0.26159325242,0.503676056862,
1.57817490498,-0.0141997337341,0,-0.0411808532505,-3.86820676632e-05,10,0.293569266796,0.565311014652,
1.57980187336,-0.0173320770264,0,-0.0502429047818,-4.29142908677e-05,11,0.325304061174,0.62647664547,
1.58158572117,-0.0207681655884,0,-0.0601552013516,-4.69406594735e-05,12,0.356789410114,0.687159359455,
1.58352549473,-0.0245046615601,0,-0.0709328268825,-5.10384479116e-05,13,0.388027518988,0.747330069542,
1.58562071721,-0.0285391807556,0,-0.0825930040039,-5.52177887367e-05,14,0.418967008591,0.806912004948,
1.58786852757,-0.0328688621521,0,-0.0950835005879,-5.91497715031e-05,15,0.449607521296,0.865886092186,
1.59026797215,-0.0374898910522,0,-0.108425806282,-6.3183510886e-05,16,0.479919105768,0.924212932587,
1.59281762044,-0.0423989295959,0,-0.122619671564,-6.72160465868e-05,17,0.509892165661,0.981848359108,
1.59551508824,-0.0475926399231,0,-0.137634430581,-7.11033669244e-05,18,0.539518237114,1.03875792027,
1.59835894505,-0.0530672073364,0,-0.153476239715,-7.5019835669e-05,19,0.568774461746,1.09491300583,
1.60134728352,-0.0588188171387,0,-0.170136011876,-7.88932597216e-05,20,0.597647547722,1.15027236938,
1.60447771946,-0.0648427009583,0,-0.187602427893,-8.27130698851e-05,21,0.626112937927,1.20478892326,
1.60774882237,-0.0711350440979,0,-0.205881445479,-8.65610877139e-05,22,0.654164254665,1.25844454765,
1.61115773121,-0.077691078186,0,-0.224946421819,-9.02829208147e-05,23,0.681785821915,1.31120789051,
1.61470253865,-0.0845060348511,0,-0.244800990116,-9.40219550324e-05,24,0.708980500698,1.36305117607,
1.61838086049,-0.0915756225586,0,-0.265427017539,-9.76751014272e-05,25,0.735707819462,1.41393065453,
1.62219078938,-0.098895072937,0,-0.286827956371,-0.000101344611981,26,0.761964440346,1.4638146162,
1.62612946431,-0.106458187103,0,-0.308996324139,-0.000104978681275,27,0.787749767303,1.51270103455,
1.63019497792,-0.11426115036,0,-0.331922366286,-0.000108566538893,28,0.813043773174,1.56053805351,
1.63438399235,-0.122297763824,0,-0.355583233959,-0.000112046185729,29,0.837845861912,1.60731387138,
1.63869460026,-0.13056230545,0,-0.379994951052,-0.000113915514749,30,0.86212849617,1.6529943943,
1.64312441746,-0.139050483704,0,-0.405138767118,-0.000117331633853,31,0.885905683041,1.6975748539,
1.64767010609,-0.147755622864,0,-0.430997993438,-0.000120669907873,32,0.909149944782,1.74101042747,
1.65232928196,-0.156672000885,0,-0.457573129947,-0.000124010499107,33,0.931848347187,1.78328931332,
1.65709908406,-0.165793895721,0,-0.484849402928,-0.000127282150077,34,0.954013049603,1.82439637184,
1.66197760502,-0.175115585327,0,-0.512842174437,-0.00013062548902,35,0.9756295681,1.86430776119,
1.66696103016,-0.184630393982,0,-0.541519111714,-0.000133817945527,36,0.996698498726,1.90301060677,
1.67204697529,-0.19433259964,0,-0.570880170772,-0.000137010189224,37,1.0171943903,1.94047677517,
1.67723257939,-0.204216003418,0,-0.600916522519,-0.000140161215568,38,1.03711628914,1.97669804096,
1.68251498143,-0.214274406433,0,-0.631619196959,-0.000143270377866,39,1.05647325516,2.01165866852,
1.68789084355,-0.224501132965,0,-0.662970462641,-0.000146296807518,40,1.07524812222,2.04535150528,
1.69335825841,-0.234889984131,0,-0.694991242875,-0.000149420747279,41,1.09343123436,2.07773065567,
1.6989134113,-0.245433807373,0,-0.727654883492,-0.000152420398605,42,1.11104011536,2.10882472992,
1.70455344121,-0.256126880646,0,-0.760945374021,-0.000155345333821,43,1.12805557251,2.13860559464,
1.71027596394,-0.266962051392,0,-0.794880994244,-0.000158355564293,44,1.14446294308,2.1670460701,
1.71607716481,-0.277933120728,0,-0.829421781312,-0.000161179311101,45,1.16027927399,2.19415903091,
1.72195465962,-0.289032459259,0,-0.864592142714,-0.000164116932708,46,1.17551195621,2.21993255615,
1.72790558735,-0.30025434494,0,-0.900375456237,-0.000166976991628,47,1.19012320042,2.24434018135,
1.73392613331,-0.311591148376,0,-0.936750724174,-0.000169739056866,48,1.20412909985,2.26737737656,
1.74001391331,-0.323036193848,0,-0.973728953733,-0.000172552482817,49,1.2175359726,2.28904628754,
1.74616511265,-0.334582805634,0,-1.01127602387,-0.000175206676447,50,1.23032212257,2.30933403969,
1.75237782399,-0.346223831177,0,-1.04942402656,-0.000178010618756,51,1.24250078201,2.32822942734,
1.75864823262,-0.357952594757,0,-1.08813857927,-0.000180654113764,52,1.25407040119,2.34573769569,
1.76497300068,-0.369761943817,0,-1.12740661286,-0.000183236622796,53,1.26501774788,2.36183094978,
1.771349744,-0.381644248962,0,-1.16725117727,-0.000185926679294,54,1.27534461021,2.37650680542,
1.77777512471,-0.39359331131,0,-1.20764609955,-0.000188494606025,55,1.28506529331,2.38979196548,
1.78424580494,-0.405601501465,0,-1.24858434028,-0.000191029621938,56,1.29415118694,2.40163373947,
1.79075892369,-0.41766166687,0,-1.29006722631,-0.000193570865132,57,1.30262768269,2.4120516777,
1.79731161992,-0.429766654968,0,-1.33209593998,-0.000196117626831,58,1.31048464775,2.42104959488,
1.80390007893,-0.441909790039,0,-1.37463553463,-0.000198501317246,59,1.31770503521,2.42860889435,
1.81052143971,-0.454083442688,0,-1.41769342929,-0.000200919619924,60,1.32430994511,2.43472003937,
1.81717284123,-0.466280460358,0,-1.46127054241,-0.000203341834049,61,1.33028817177,2.43938755989,
1.82385094563,-0.478493213654,0,-1.50535927966,-0.000205728985687,62,1.33561754227,2.44258117676,
1.83055241505,-0.490715026855,0,-1.54993933163,-0.000208021353303,63,1.34032487869,2.4443321228,
1.83727438847,-0.502937793732,0,-1.59502410899,-0.000210376285756,64,1.34441280365,2.44462513924,
1.84401400486,-0.515155315399,0,-1.64060160281,-0.000212675192947,65,1.34786009789,2.44345712662,
1.8507669727,-0.527359008789,0,-1.68664740719,-0.00021486020485,66,1.3506667614,2.44081163406,
1.85753138463,-0.539542675018,0,-1.73317888229,-0.00021712621108,67,1.35284340382,2.43668889999,
1.86430294911,-0.551697731018,0,-1.78017168625,-0.000219278630859,68,1.35436964035,2.4310874939,
1.87107928196,-0.563817977905,0,-1.8276285382,-0.000221443732072,69,1.35525655746,2.42401027679,
1.87785704533,-0.575894832611,0,-1.87555440353,-0.00022363199407,70,1.355499506,2.41543650627,
1.88463242451,-0.587921619415,0,-1.92391467671,-0.000225658773689,71,1.35508561134,2.40536022186,
1.89140255848,-0.599890708923,0,-1.97271654111,-0.000227719071937,72,1.35402989388,2.39380550385,
1.89816363255,-0.611794471741,0,-2.02193826902,-0.000229677977546,73,1.35230791569,2.38073158264,
1.90491373936,-0.623625278473,0,-2.07161614208,-0.000231806179288,74,1.34993767738,2.36616444588,
1.91164811055,-0.635375499725,0,-2.12169982537,-0.000233699510065,75,1.34690403938,2.3500752449,
1.91836388508,-0.647037982941,0,-2.17219082028,-0.000235599839673,76,1.3432008028,2.3324713707,
1.92505820195,-0.658604621887,0,-2.22310318979,-0.000237565770104,77,1.33883786201,2.313352108,
1.93172724644,-0.67006778717,0,-2.27441624572,-0.000239435169201,78,1.33378744125,2.29269647598,
1.93836720387,-0.681420326233,0,-2.32610349716,-0.000241180965275,79,1.32806074619,2.27050733566,
1.94497569005,-0.692654132843,0,-2.37819404857,-0.000243062571207,80,1.32165646553,2.24678897858,
1.95154841343,-0.703762054443,0,-2.4306477864,-0.000244757002239,81,1.31458902359,2.2215461731,
1.95808251301,-0.714735507965,0,-2.48348631063,-0.000246552200655,82,1.30680406094,2.1947388649,
1.96457417408,-0.725567340851,0,-2.5366846041,-0.000248230495649,83,1.29832983017,2.16637945175,
1.97102005879,-0.736249923706,0,-2.59023849454,-0.000249889481904,84,1.28916192055,2.13647699356,
1.97741635243,-0.746774673462,0,-2.64414240602,-0.000251522449447,85,1.27928841114,2.10501074791,
1.98375971715,-0.757134914398,0,-2.69838084163,-0.000253083105961,86,1.26869761944,2.07196092606,
1.99004681508,-0.767321586609,0,-2.75296945414,-0.000254716814589,87,1.25740706921,2.03736329079,
1.99627383153,-0.777327537537,0,-2.807885854,-0.000256246050751,88,1.24539637566,2.00119876862,
2.00243695179,-0.78714466095,0,-2.86312055497,-0.000257731006154,89,1.23265850544,1.96343874931,
2.00853283803,-0.796764850616,0,-2.91867868439,-0.00025923987482,90,1.21918809414,1.92408442497,
2.01455815236,-0.806180953979,0,-2.97455376415,-0.000260718518962,91,1.20499062538,1.88316249847,
2.02050812642,-0.815383911133,0,-3.03072260401,-0.000262088956914,92,1.19004833698,1.84063124657,
2.02637989918,-0.824366569519,0,-3.08719410509,-0.000263500943701,93,1.17438530922,1.79653179646,
2.03216965596,-0.833120822906,0,-3.14396221328,-0.000264884595821,94,1.15796375275,1.75081968307,
2.03787358204,-0.841638088226,0,-3.20102772158,-0.000266271984902,95,1.14079153538,1.70350170135,
2.04348786274,-0.849911212921,0,-3.2583740567,-0.00026758203659,96,1.12286007404,1.65457415581,
2.04900868336,-0.857931137085,0,-3.31600971102,-0.000268931734296,97,1.10417079926,1.60404014587,
2.05443270604,-0.86569070816,0,-3.3739335494,-0.000270276078059,98,1.08472728729,1.55189347267,
2.0597551624,-0.873181343079,0,-3.43212226358,-0.000271511707398,99,1.0645045042,1.49812710285,
2.06497223774,-0.880394935608,0,-3.49057493872,-0.000272743086603,100,1.04349839687,1.44272613525,
2.07008107106,-0.887323379517,-0.0887323379517,-3.54931885173,-0.000274101722673,101,1.02173066139,1.3857152462,
2.07507689396,-0.89395904541,0.0,-3.60832150054,-0.000275308139591,102,0.999192595482,1.32709383965,
2.07997258107,-0.900323867798,0,-3.66768146776,-0.000276975084149,103,0.979114770889,1.27300155163,
2.0847466747,-0.906378269196,0,-3.72729446592,-0.000278155412005,104,0.954839646816,1.21083188057,
2.08939679066,-0.912115097046,0,-3.78719295627,-0.000279487220734,105,0.929972231388,1.14738273621,
2.0939181606,-0.917526245117,0,-3.84735448778,-0.000280714277131,106,0.90426915884,1.082234025,
2.0983069698,-0.922603130341,0,-3.907790755,-0.000281995862325,107,0.877771496773,1.01544547081,
2.10255892674,-0.927338600159,0,-3.9684828903,-0.000283189412653,108,0.850448012352,0.946987211704,
2.10667069356,-0.931722640991,0,-4.02947602122,-0.000284593540877,109,0.822317779064,0.87687599659,
2.11063797871,-0.935748577118,0,-4.09074719179,-0.000285890565126,110,0.793410778046,0.805175065994,
2.11445601384,-0.939407348633,0,-4.15229103933,-0.000287162551197,111,0.763670146465,0.73178756237,
2.11812193791,-0.942691326141,0,-4.21413888778,-0.0002885807005,112,0.733123123646,0.656788825989,
2.12163050572,-0.945591926575,0,-4.27626782139,-0.00028989191773,113,0.701755046844,0.580111861229,
2.12497837941,-0.948101043701,0,-4.33870350867,-0.000291322884364,114,0.669581234455,0.501826822758,
2.12816126744,-0.950210571289,0,-4.40144563898,-0.000292752392239,115,0.636585354805,0.421883821487,
2.13117535512,-0.95191192627,0,-4.46451412901,-0.000294274844912,116,0.602757394314,0.340289384127,
2.13401539723,-0.953197002411,0,-4.5278835751,-0.000295678748897,117,0.568099021912,0.257042080164,
2.13667853276,-0.954058170319,0,-4.59159011737,-0.000297251288676,118,0.532632350922,0.172178149223,
2.13916047017,-0.954486370087,0,-4.65564853429,-0.000298892785243,119,0.496322721243,0.085640847683,
2.14145596425,-0.954473495483,0,-4.72003553809,-0.000300425633831,120,0.459165334702,-0.00255605578423,
2.14356215397,-0.954011440277,0,-4.78479511837,-0.00030216372505,121,0.421176254749,-0.0923885703087,
2.14547379414,-0.953092098236,0,-4.84990505509,-0.000303798118444,122,0.382361769676,-0.183855295181,
2.14718707005,-0.951707363129,0,-4.91538355423,-0.00030551741921,123,0.342673391104,-0.277008384466,
2.14869769017,-0.949848175049,0,-4.98124793753,-0.000307317504877,124,0.302130162716,-0.371826589108,
2.15000136296,-0.947506427765,0,-5.04750368207,-0.000309143211491,125,0.260739922523,-0.468291640282,
2.15109427372,-0.944674491882,0,-5.11416365853,-0.000311028969807,126,0.218497246504,-0.566418647766,
2.15197070042,-0.941343307495,0,-5.1812056414,-0.000312811017579,127,0.175367638469,-0.666218757629,
2.15262778203,-0.937505245209,0,-5.24866912411,-0.00031477733455,128,0.131376057863,-0.767683267593,
2.15306027333,-0.93315076828,0,-5.31655107548,-0.000316729510309,129,0.0864857137203,-0.870850563049,
2.15326388279,-0.928272724152,0,-5.38484430253,-0.000318648115597,130,0.0407237932086,-0.975672721863,
2.15323384205,-0.92286157608,0,-5.45355832136,-0.000320611112388,131,-0.00595700740814,-1.08222270012,
2.15296633641,-0.916909217834,0,-5.52271044532,-0.00032265488911,132,-0.0535357892513,-1.19045007229,
2.15245612065,-0.910407066345,0,-5.59228316849,-0.000324616982208,133,-0.102046251297,-1.30041575432,
2.1516984264,-0.903346538544,0,-5.66227136843,-0.000326555167012,134,-0.151494473219,-1.41210782528,
2.15068943898,-0.895719051361,0,-5.73269563979,-0.000328589394439,135,-0.20188190043,-1.52552366257,
2.14942295949,-0.887515544891,0,-5.80351423027,-0.000330428833063,136,-0.253239750862,-1.64070641994,
2.14789517323,-0.878727436066,0,-5.87474484777,-0.000332350889633,137,-0.305576682091,-1.7576559782,
2.14610035817,-0.869345188141,0,-5.94636199093,-0.000334153981053,138,-0.358922421932,-1.8764193058,
2.14403422276,-0.859360218048,0,-6.01836617939,-0.000335959488867,139,-0.413257211447,-1.9969522953,
2.14169104497,-0.848763942719,0,-6.09071507905,-0.000337567479114,140,-0.468649983406,-2.11934423447,
2.13906557957,-0.837545871735,0,-6.16340230746,-0.000339145735162,141,-0.525104820728,-2.2436068058,
2.13615210454,-0.825697422028,0,-6.23638004207,-0.00034050080784,142,-0.582635164261,-2.36973357201,
2.13294585148,-0.813208580017,0,-6.3096433582,-0.000341832889047,143,-0.641268312931,-2.49777531624,
2.12944062153,-0.80006980896,0,-6.38313678756,-0.000342906171024,144,-0.701038837433,-2.62776422501,
2.12563069264,-0.786271095276,0,-6.45682097497,-0.000343795205681,145,-0.761986911297,-2.7597489357,
2.12151034276,-0.771802425385,0,-6.53065248406,-0.000344482193951,146,-0.824134707451,-2.89375543594,
2.11707241932,-0.756653308868,0,-6.60454847727,-0.000344782681404,147,-0.887506365776,-3.02982711792,
2.11231167714,-0.74081325531,0,-6.67847623151,-0.000344930483962,148,-0.952153682709,-3.16800618172,
2.10722144047,-0.724271774292,0,-6.75235650372,-0.000344708551366,149,-1.01810562611,-3.30833959579,
2.10179407994,-0.707017421722,0,-6.82608930063,-0.000344020069022,150,-1.08540797234,-3.45089745522,
2.09602387349,-0.689039230347,0,-6.899617536,-0.000343065243017,151,-1.15410363674,-3.59572076797,
2.08990271489,-0.670324802399,0,-6.97282732408,-0.000341579055956,152,-1.22423529625,-3.74288702011,
2.08342345158,-0.650862693787,0,-7.04561258174,-0.000339597917426,153,-1.29585790634,-3.89245533943,
2.07657845418,-0.630640506744,0,-7.11785852672,-0.000337081235245,154,-1.36900067329,-4.04448127747,
2.06935961644,-0.609645366669,0,-7.18943465639,-0.00033395566985,155,-1.44375014305,-4.19907855988,
2.06175930897,-0.587864398956,0,-7.26021589589,-0.000330246545436,156,-1.52012944221,-4.35629320145,
2.05376799504,-0.565283298492,0,-7.33003090516,-0.000325738007329,157,-1.5982401371,-4.51625442505,
2.0453775684,-0.541888237,0,-7.39873439139,-0.000320551583051,158,-1.67810249329,-4.67903089523,
2.03657849232,-0.517664909363,0,-7.46613463534,-0.000314470658867,159,-1.75979280472,-4.84472846985,
2.02736170689,-0.492598056793,0,-7.53205607204,-0.000307570609862,160,-1.84338712692,-5.01347446442,
2.01771719853,-0.466671466827,0,-7.59629600046,-0.000299724825919,161,-1.92895233631,-5.18537473679,
2.00763447682,-0.439869403839,0,-7.65861850953,-0.000290778386211,162,-2.01655173302,-5.36054706573,
1.99710305134,-0.412174224854,0,-7.7188006896,-0.000280791937983,163,-2.10627698898,-5.53916025162,
1.98611243168,-0.383568286896,0,-7.7766060509,-0.000269702120485,164,-2.1982011795,-5.72132968903,
1.97465022007,-0.354032516479,0,-7.83174553551,-0.000257263470304,165,-2.29240298271,-5.90722465515,
1.96270544926,-0.323548316956,0,-7.88395182798,-0.000243577831784,166,-2.38899064064,-6.09702110291,
1.95026572148,-0.292094707489,0,-7.9329309893,-0.000228520807051,167,-2.48802375793,-6.2908744812,
1.93731768528,-0.259650230408,0,-7.97834989558,-0.000211909571467,168,-2.58961725235,-6.48899650574,
1.92384846608,-0.22619342804,0,-8.01987270922,-0.000192795554038,169,-2.69387483597,-6.69158554077,
1.90984423558,-0.191699981689,0,-8.05715529636,-0.000173107432688,170,-2.80090117455,-6.89886283875,
1.89529021184,-0.156145572662,0,-8.08980545882,-0.000151598375331,171,-2.91079616547,-7.11105871201,
1.88017208973,-0.119504451752,0,-8.1174454357,-0.000128335374607,172,-3.02367854118,-7.32842540741,
1.86447413365,-0.0817499160767,0,-8.13964615407,-0.000103080168097,173,-3.1396586895,-7.55120658875,
1.84818013112,-0.0428524017334,0,-8.15598107486,-7.58445919103e-05,174,-3.25889587402,-7.77971792221,
1.831272916,-0.00278282165527,0,-8.16596610668,-4.63614036484e-05,175,-3.38148641586,-8.01422691345,
1.81373579899,0.038491114974,0,-8.16915181843,-1.47915029069e-05,176,-3.50758981705,-8.25506210327,
1.79554922978,0.0810021907091,0,-8.16498385652,1.9352140181e-05,177,-3.6373591423,-8.50255489349,
1.77669508854,0.124785520136,0,-8.1529585268,5.58343872043e-05,178,-3.77092766762,-8.75704097748,
1.75715382496,0.169877886772,0,-8.13252509759,9.48736283278e-05,179,-3.90845346451,-9.01887893677,
1.73690398137,0.21631796658,0,-8.10307341958,0.000136745744756,180,-4.05010318756,-9.28844928741,
1.71592457692,0.264146238565,0,-8.0640052944,0.000181395233454,181,-4.19602918625,-9.5661277771,
1.69419320027,0.313405275345,0,-8.01467901172,0.00022902412125,182,-4.34642219543,-9.85232067108,
1.67168696324,0.364139318466,0,-7.95443276988,0.00027972565952,183,-4.50140619278,-10.1473760605,
1.64838250081,0.416394680738,0,-7.88258924591,0.000333571919546,184,-4.66115283966,-10.4516887665,
1.6242545406,0.470219224691,0,-7.79840602197,0.000390865139955,185,-4.82580375671,-10.76557827,
1.59927876393,0.52566242218,0,-7.70116308079,0.000451501154917,186,-4.99545669556,-11.0893745422,
1.57342894475,0.582774996758,0,-7.59007325851,0.000515791926784,187,-5.1702003479,-11.4232959747,
1.54668013106,0.641607940197,0,-7.46436748617,0.000583653396613,188,-5.35005331039,-11.7674627304,
1.51900694618,0.702212929726,0,-7.32325077794,0.0006552058372,189,-5.53499031067,-12.1219406128,
1.4903846393,0.764640033245,0,-7.16591096345,0.000730529038007,190,-5.72485256195,-12.4864664078,
1.46078968892,0.828938126564,0,-6.99154526075,0.000809579354115,191,-5.91942119598,-12.8607349396,
1.4302009503,0.895151555538,0,-6.79936335352,0.000892298939707,192,-6.11822652817,-13.2439136505,
1.39860031108,0.963319182396,0,-6.58860421903,0.000978551734383,193,-6.32065391541,-13.6348714828,
1.36597414414,1.03347206116,0,-6.35856290619,0.0010680773928,194,-6.52581453323,-14.0320224762,
1.3323149095,1.10562896729,0,-6.10860386597,0.00116055366774,195,-6.73248291016,-14.4329690933,
1.29762335221,1.1797939539,0,-5.83821280266,0.00125541767671,196,-6.93900871277,-14.8347301483,
1.26191039483,1.25595104694,0,-5.54701675394,0.00135201313228,197,-7.14335203171,-15.2332744598,
1.22519995371,1.33405947685,0,-5.23483751701,0.00144943313528,198,-7.34291124344,-15.6236934662,
1.18753172556,1.41404819489,0,-4.90174036843,0.00154655210132,199,-7.53453588486,-15.9998893738,
1.1489637951,1.49581050873,0,-4.54808134725,0.00164201787943,200,-7.71454143524,-16.3547515869,
1.10957490007,1.57919979095,0,-4.17455440488,0.00173426152497,201,-7.87880134583,-16.6802940369,
1.06946630875,1.66402590275,0,-3.7822320365,0.00182152519829,202,-8.02279281616,-16.9677734375,
1.02876211802,1.75005435944,0,-3.37258279673,0.00190197039802,203,-8.14196777344,-17.2083816528,
0.987607912221,1.83700871468,0,-2.9474645507,0.00197378957706,204,-8.23199748993,-17.393655777,
0.946168259778,1.92457675934,0,-2.50910179535,0.00203528045735,205,-8.28912353516,-17.5164337158,
0.904620842138,2.01241970062,0,-2.05999861984,0.0020851444615,206,-8.31067085266,-17.5714645386,
0.86315085093,2.10018539429,0,-1.60286270107,0.00212243737205,207,-8.29518604279,-17.5559768677,
0.821943000951,2.18752217293,0,-1.14047731224,0.00214680734352,208,-8.2427406311,-17.4701480865,
0.781174556413,2.27409315109,0,-0.675588183539,0.00215842941484,209,-8.15480804443,-17.3169288635,
0.741009132066,2.35958909988,0,-0.210795084355,0.00215798061238,210,-8.03416061401,-17.1017875671,
0.701591686406,2.44373655319,0,0.251543279285,0.00214658117231,211,-7.88450098038,-16.8320045471,
0.663045958677,2.526304245,0,0.709366337124,0.00212561492027,212,-7.71010875702,-16.5159339905,
0.625473157563,2.60710430145,0,1.1609485642,0.00209663745835,213,-7.51545476913,-16.1622467041,
0.588953451314,2.68599081039,0,1.60489603836,0.00206118385335,214,-7.30475473404,-15.7793750763,
0.553546742597,2.76285600662,0,2.04014061146,0.00202077541311,215,-7.08205747604,-15.3749904633,
0.519296363988,2.8376262188,0,2.46590205607,0.00197674453556,216,-6.85075426102,-14.955821991,
0.486230210462,2.91025567055,0,2.88166202163,0.00193030706124,217,-6.6138586998,-14.5275354385,
0.4543647329,2.98072147369,0,3.28711551106,0.00188245365446,218,-6.37362575531,-14.0946674347,
0.42370696465,3.04901909828,0,3.68213790727,0.00183402165395,219,-6.13203716278,-13.6608638763,
0.394256548085,3.11515688896,0,4.06674483686,0.0017856624961,220,-5.89049482346,-13.2288227081,
0.366008118787,-3.10403156281,0,4.44106441702,0.00173789828108,221,-5.65005302429,-12.8005142212,
0.338952020803,-3.0421500206,0,4.80530827607,0.00169111671594,222,-5.41153097153,-12.3773403168,
0.313076213994,-2.98235368729,0,5.15974731979,0.0016455929723,223,-5.17545700073,-11.9602241516,
0.288366989293,-2.92460989952,0,5.50469285398,0.00160151487348,224,-4.94209289551,-11.5496273041,
0.264809922376,-2.86888480186,0,5.84048168365,0.00155900019737,225,-4.71163988113,-11.1457977295,
0.242389873662,-2.8151447773,0,6.16745997009,0.00151809294818,226,-4.48419046402,-10.7486763,
0.221091703573,-2.76335716248,0,6.48597283646,0.00147878808456,227,-4.25978469849,-10.3581600189,
0.20090146462,-2.71349072456,0,6.79636042562,0.00144106255047,228,-4.03818511963,-9.97385597229,
0.18180473248,-2.6655163765,0,7.09894195912,0.00140481910474,229,-3.81946635246,-9.59543037415,
0.163788513341,-2.61940646172,0,7.39402506924,0.00137000407451,230,-3.60334920883,-9.22242546082,
0.146840409436,-2.57513689995,0,7.68188143754,0.00133645025275,231,-3.38969373703,-8.85436820984,
0.130948619046,-2.53268504143,0,7.96276125522,0.00130405828593,232,-3.17843103409,-8.49074172974,
0.116102413335,-2.49203133583,0,8.23687914582,0.00127266284679,233,-2.96928906441,-8.13106536865,
0.10229213635,-2.45315909386,0,8.50441405494,0.00124209827775,234,-2.76211166382,-7.77479457855,
0.0895086089757,-2.41605305672,0,8.76551665546,0.00121223332249,235,-2.55675601959,-7.4214887619,
0.0777436057713,-2.38070130348,0,9.02029277063,0.00118285974089,236,-2.35303735733,-7.07061624527,
0.066989735761,-2.34709358215,0,9.26881735073,0.00115383402247,237,-2.15076446533,-6.72173404694,
0.0572404424336,-2.31522250175,0,9.51112133393,0.00112495207954,238,-1.94987773895,-6.37440538406,
0.0484897653249,-2.28508234024,0,9.7472004287,0.00109605027958,239,-1.75017213821,-6.02822589874,
0.0407322208073,-2.25666904449,0,9.9770130473,0.00106695554111,240,-1.55152058601,-5.68281269073,
0.0339635173467,-2.22998142242,0,10.2004735995,0.00103746350206,241,-1.35375869274,-5.33772182465,
0.0281792441991,-2.20501852036,0,10.4174669738,0.00100743708647,242,-1.15686106682,-4.99268627167,
0.0233763019231,-2.18178224564,0,10.6278337643,0.000976670545249,243,-0.960608422756,-4.64734172821,
0.0195514718678,-2.16027593613,0,10.8313699387,0.00094495690841,244,-0.764963984489,-4.30142402649,
0.0167026082661,-2.14050292969,0,11.027855572,0.000912222344071,245,-0.569771766663,-3.95460677147,
0.0148274461415,-2.12246990204,0,11.2170025775,0.000878150366183,246,-0.375048816204,-3.60672831535,
0.0139245549825,-2.10618257523,0,11.3985141416,0.000842700462185,247,-0.180562674999,-3.2574903965,
0.0139927426961,-2.09164905548,0,11.5720385162,0.000805617396846,248,0.0136270970106,-2.90672659874,
0.0150310556081,-2.07887840271,0,11.7371846239,0.000766718779828,249,0.20766466856,-2.55424880981,
0.0170391360906,-2.06787919998,0,11.8935427551,0.000725918270123,250,0.401596993208,-2.19989681244,
0.0200162688878,-2.05866146088,0,12.0406497956,0.000682967796629,251,0.595429360867,-1.8435549736,
0.0239629308369,-2.05123615265,0,12.1780121964,0.000637726041062,252,0.789341986179,-1.48503255844,
0.0288790027287,-2.04561471939,0,12.3050898045,0.000589976645124,253,0.983233451843,-1.12428951263,
0.0347651998189,-2.04180908203,0,12.4213119663,0.000539578037453,254,1.17723560333,-0.761195063591,
0.0416216413167,-2.03983020782,0,12.5260776855,0.000486389253849,255,1.37128221989,-0.39574098587,
0.0494489232686,-2.03969144821,0,12.6187263191,0.000430133571519,256,1.56548333168,-0.0278160572052,
0.0582478801396,-2.04140424728,0,12.6985873247,0.00037076421901,257,1.75981521606,0.342597007751,
0.0680193463948,-2.04498195648,0,12.7649295698,0.000308001411848,258,1.95429039001,0.715548753738,
0.0787634412434,-2.05043697357,0,12.8169887166,0.000241690231692,259,2.14886212349,1.09102320671,
0.0904812375691,-2.05778169632,0,12.8539741975,0.000171708876704,260,2.34359240532,1.46905517578,
0.103173450628,-2.067029953,0,12.8750363226,9.77829601169e-05,261,2.53849101067,1.84966111183,
0.116840676465,-2.07819366455,0,12.8793114833,1.98478260444e-05,262,2.73349070549,2.2327747345,
0.131483630338,-2.09128570557,0,12.8658893461,-6.23134356252e-05,263,2.92863082886,2.61845469475,
0.147102312246,-2.10631847382,0,12.8338233162,-0.000148869158458,264,3.12380933762,3.00660657883,
0.163697437444,-2.12330436707,0,12.7821406573,-0.000239940692985,265,3.31912970543,3.39729738235,
0.181269840398,-2.14225625992,0,12.7098315087,-0.000335700320909,266,3.5145304203,3.79042935371,
0.199819401899,-2.16318559647,0,12.6158651321,-0.000436245044912,267,3.71003079414,4.18600940704,
0.219346598783,-2.18610477448,0,12.4991773648,-0.000541729988524,268,3.90558385849,4.58400201797,
0.239851907888,-2.21102619171,0,12.3586797719,-0.000652267831738,269,4.10119581223,4.9843454361,
0.261335448423,-2.23795986176,0,12.1932903373,-0.000767828735794,270,4.29686689377,5.38699102402,
0.283797935643,-2.26691913605,0,12.0018735106,-0.000888661223624,271,4.49267435074,5.79197311401,
0.307239607969,-2.29791355133,0,11.7833260032,-0.00101461525608,272,4.68855762482,6.19914102554,
0.331661061445,-2.33095479012,0,11.5365139288,-0.00114583328745,273,4.88450574875,6.60845470428,
0.357062772908,-2.36605262756,0,11.2603258543,-0.00128221076866,274,5.0806145668,7.01986551285,
0.383445338407,-2.40321707726,0,10.9536543615,-0.00142372958905,275,5.27681589127,7.43321180344,
0.410809592405,-2.44245743752,0,10.6154156823,-0.00157027960406,276,5.4731836319,7.84839677811,
0.43915589253,-2.48378133774,0,10.2445656304,-0.00172167705551,277,5.66963481903,8.26519584656,
0.468484954038,-2.5271961689,0,9.84009536485,-0.0018777571389,278,5.86623239517,8.68343734741,
0.498796776929,-2.57270717621,0,9.4010595477,-0.00203822559582,279,6.06281375885,9.10272026062,
0.530091003576,-2.62031769753,0,8.92658625749,-0.00220274163944,280,6.25935459137,9.52268791199,
0.562366561094,-2.6700284481,0,8.41589620429,-0.00237087525086,281,6.45566511154,9.94280433655,
0.595621184507,-2.72183680534,0,7.8683232024,-0.00254210123864,282,6.65153980255,10.3623828888,
0.62985147635,-2.77573561668,0,7.2833422581,-0.00271576418004,283,6.84672927856,10.7805757523,
0.665051297345,-2.83171248436,0,6.66059116432,-0.00289110781787,284,7.04069137573,11.1962242126,
0.701212004819,-2.88974738121,0,5.99991532388,-0.00306716905552,285,7.23293781281,11.6079711914,
0.738320962587,-2.94981193542,0,5.30139281466,-0.0032428671232,286,7.42263936996,12.0139846802,
0.776361123719,-3.01186704636,0,4.56537964265,-0.00341691239718,287,7.60895013809,12.4121513367,
0.815309123197,-3.07585954666,0,3.7925664243,-0.00358775118578,288,7.79057312012,12.7997255325,
0.855133549371,3.14146590233,0,2.98403007384,-0.00375358997643,289,7.96593999863,13.1733570099,
0.895794347921,3.07382750511,0,2.14127165256,-0.00391245810951,290,8.13327980042,13.5291595459,
0.937239901223,3.00452327728,0,1.26629114765,-0.00406204317369,291,8.29029560089,13.8623600006,
0.979405478635,2.93369436264,0,0.36164693329,-0.00419975035919,292,8.43435955048,14.1674289703,
1.02221073309,2.8615128994,0,-0.569507154389,-0.00432281568102,293,8.56236553192,14.438035965,
1.06555850903,2.78818631172,0,-1.52338350666,-0.00442829717912,294,8.67091464996,14.667093277,
1.10933257739,2.71396112442,0,-2.49553418769,-0.00451312939081,295,8.75619983673,14.8469142914,
1.15339650313,2.63912391663,0,-3.48087018085,-0.00457433543932,296,8.81421470642,14.9693851471,
1.19759444992,2.56400108337,0,-4.47372046932,-0.00460920568119,297,8.84102916718,15.0264530182,
1.24175162713,2.48895812035,0,-5.4679088315,-0.00461392048079,298,8.83287143707,15.0105133057,
1.28567655484,2.41439294815,0,-6.45690524601,-0.00458982023134,299,8.78639984131,14.9149265289,
1.32916551928,2.34072875977,0,-7.43400718256,-0.00453461489772,300,8.69916534424,14.7346839905,
1.37200711767,2.2684032917,0,-8.39254834794,-0.00444847147021,301,8.56963253021,14.4668312073,
1.41398875515,2.19785714149,0,-9.32612461199,-0.0043326071674,302,8.39755821228,14.1108551025,
1.45490232209,2.1295208931,0,-10.2288013523,-0.00411317683282,303,8.18385505676,13.6687355042,
1.49455041538,2.06380319595,0,-11.0952954556,-0.00394830019412,304,7.93065929413,13.1448345184,
1.53275093908,2.00108146667,0,-11.921094629,-0.00376286400567,305,7.64103460312,12.5455102921,
1.56934069825,1.94169414043,0,-12.7025272599,-0.00356069816603,306,7.31876850128,11.8785018921,
1.60417731205,1.88593673706,0,-13.4367653107,-0.00334564646576,307,6.96799564362,11.152338028,
1.63713915745,1.83406174183,0,-14.1217637822,-0.00312127693155,308,6.59292030334,10.3756990433,
1.66812403599,1.78628003597,0,-14.7561640189,-0.00289071698134,309,6.19755411148,9.55690956116,
1.69704993168,1.74276435375,0,-15.3392120767,-0.00265672216055,310,5.78552722931,8.70357990265,
1.72384817997,1.70365428925,0,-15.8705657397,-0.00242116851313,311,5.35999441147,7.82238101959,
1.74846489827,1.66906118393,0,-16.3502213278,-0.00218559855641,312,4.92357301712,6.91886758804,
1.7708557407,1.63907396793,0,-16.7783507251,-0.00195081229137,313,4.47836112976,5.99763441086,
1.7909849445,1.61376392841,0,-17.1552110422,-0.00171719809808,314,4.02598333359,5.06214904785,
1.80882246892,1.59318852425,0,-17.4810388745,-0.00148466244074,315,3.56760072708,4.1151714325,
1.82434256474,1.57739591599,0,-17.7559700373,-0.00125274609625,316,3.10404825211,3.15859150887,
1.83752139012,1.56642735004,0,-17.9799605,-0.00102062960882,317,2.63587117195,2.19376087189,
1.84833844105,1.56031954288,0,-18.1527671242,-0.000787405728389,318,2.16341924667,1.22155809402,
1.85677321354,1.55910670757,0,-18.2738677549,-0.000551803095581,319,1.68690156937,0.242573142052,
1.8628052036,1.56282091141,0,-18.3424396814,-0.000312452228339,320,1.20648097992,-0.742827653885,
1.86641724507,1.57149171829,0,-18.3573908215,-6.81257294286e-05,321,0.722320854664,-1.7342069149,
1.86759026448,1.58514726162,0,-18.317273415,0.000182797089087,322,0.234691590071,-2.73116874695,
1.86631091038,1.60381150246,0,-18.2203926066,0.000441442087207,323,-0.255968540907,-3.73294377327,
1.86256583134,1.62750267982,0,-18.0647390274,0.000709242322053,324,-0.748975515366,-4.73834133148,
1.85634930531,1.65622937679,0,-17.8481180612,0.000987041865876,325,-1.2432718277,-5.74553918839,
1.8476627628,1.68998777866,0,-17.5681777364,0.00127555767134,326,-1.73731327057,-6.75194168091,
1.8365176479,1.72875523567,0,-17.22251299,0.0015750287362,327,-2.22904253006,-7.75387620926,
1.82293970982,1.77248477936,0,-16.8088006334,0.00188508696427,328,-2.71568655968,-8.74642753601,
1.80697138707,1.82109749317,0,-16.3249432639,0.00220470152073,329,-3.19367456436,-9.72318077087,
1.78867896,1.87447440624,0,-15.7692949877,0.00253181483776,330,-3.65863347054,-10.676202774,
1.76815302769,1.9324491024,0,-15.140828729,0.00286360732727,331,-4.10529232025,-11.5959529877,
1.74551613728,1.99479997158,0,-14.4394071808,0.00319602482925,332,-4.52765130997,-12.4714183807,
1.7209213535,2.06124544144,0,-13.6659489771,0.00352425411124,333,-4.91912508011,-13.2905826569,
1.69455845753,2.13144135475,0,-12.8226628792,0.00384242003842,334,-5.27288532257,-14.0408859253,
1.66664870183,2.20498275757,0,-11.9131204589,0.00414431157579,335,-5.5823135376,-14.7102079391,
1.6374438564,2.28141093254,0,-10.9423034923,0.00442350295813,336,-5.84146165848,-15.2878170013,
1.60721762578,2.36022591591,0,-9.91648883456,0.0046740933006,337,-6.04570579529,-15.7653608322,
1.57625992695,2.44090127945,0,-8.84308601817,0.00489092199039,338,-6.19195747375,-16.1376533508,
1.54486689071,2.5229036808,0,-7.73033294472,0.00507021453277,339,-6.27912378311,-16.4031238556,
1.5133296969,2.60570907593,0,-6.58696736942,0.00520969354996,340,-6.3079624176,-16.5638656616,
1.48192739586,2.68882083893,0,-5.42186981561,0.0053087085242,341,-6.28097581863,-16.625164032,
1.45092020283,2.77178049088,0,-4.24376500969,0.00536796969395,342,-6.20193576813,-16.5947570801,
1.42054480413,2.8541765213,0,-3.06095354057,0.0053894094438,343,-6.07554292679,-16.4820327759,
1.39101237158,2.9356482029,0,-1.88112610017,0.00537580704042,344,-5.906914711,-16.2970943451,
1.36250794033,3.01588511467,0,-0.711255546063,0.00533043329794,345,-5.70127296448,-16.0500564575,
1.33519150416,3.09462451935,0,0.44245160255,0.00525678015637,346,-5.46362686157,-15.7505378723,
1.30920036236,-3.11153745651,0,1.57456323689,0.00515837619533,347,-5.1985206604,-15.4071912766,
1.28465060989,-3.03641057014,0,2.68037953741,0.00503855829647,348,-4.910197258,-15.0277557373,
1.26164086262,-2.96332883835,0,3.75585366292,0.00490030166655,349,-4.60215568542,-14.6186704636,
1.24025364319,-2.89241242409,0,4.79755358553,0.00474640752816,350,-4.27760648727,-14.1854553223,
1.22055809299,-2.82375979424,0,5.80255695367,0.00457919839793,351,-3.93922948837,-13.7326126099,
1.20261161129,-2.7574505806,0,6.7683963241,0.00440074689581,352,-3.58939218521,-13.2638301849,
1.18646146456,-2.69354987144,0,7.69298038893,0.00421276707417,353,-3.23009848595,-12.7820272446,
1.17214645545,-2.63211131096,0,8.5745290264,0.00401667666593,354,-2.86305522919,-12.2895154953,
1.15969722072,-2.57317876816,0,9.411531845,0.00381370468972,355,-2.4898815155,-11.7881984711,
1.14913781086,-2.51678919792,0,10.2026872089,0.00360480243618,356,-2.11189675331,-11.2795181274,
1.14048586885,-2.46297359467,0,10.9468735638,0.00339079025745,357,-1.73040390015,-10.7646770477,
1.13375334541,-2.41175818443,0,11.6431181127,0.00317234606149,358,-1.3465064764,-10.2445840836,
1.12894673745,-2.36316466331,0,12.2905822668,0.00295008149288,359,-0.961319684982,-9.72007846832,