lower angle,upper angle,holding angle,system x,acceleration,ticks (200 tps),lower acceleration (shoulder),upper acceleration (elbow),
1.504164214,0.366151594,0,-1.08299113158,-0.307695156277,1,0.0,0.0,
1.504164214,0.366151594,0,-1.08299113158,0.0,2,0.0,0.0,
1.504164214,0.366151594,0,-1.08299113158,0.0,3,0.0,0.0,
1.49955970909,0.375158645587,0,-1.0729054183,0.00286520088786,4,-0.92090266943,-1.80141341686,
1.49343639588,0.387178169938,0,-1.05966950307,0.00375999349267,5,-1.22466659546,-2.40391206741,
1.48576629044,0.402245391535,0,-1.04309754515,0.0047074636722,6,-1.53402853012,-3.01345896721,
1.47656455332,0.420333233105,0,-1.02320340513,0.00565079872826,7,-1.84036028385,-3.61759209633,
1.4658457327,0.441414140539,0,-0.999986535303,0.00659426454349,8,-2.14378452301,-4.21622085571,
1.45362576725,0.465457037466,0,-0.973441789492,0.00753919281015,9,-2.44402384758,-4.80863857269,
1.43992316978,0.492425434666,0,-0.943565368752,0.00848514019487,10,-2.74056148529,-5.39375782013,
1.42475992696,0.52227596231,0,-0.910359636299,0.00943020198772,11,-3.03270673752,-5.97021770477,
1.40816138194,0.554958321529,0,-0.873832990849,0.0103729629839,12,-3.31978678703,-6.53661966324,
1.39015682296,0.590414561706,0,-0.834004888582,0.0113100896895,13,-3.6010093689,-7.09143209457,
1.37077921139,0.628579162436,0.0,-0.79090470491,0.0122387980053,14,-3.87564468384,-7.63315486908,
1.35006536053,0.669378929215,0.0,-0.744575030369,0.0131553115931,15,-4.14291572571,-8.16023540497,
1.32805582391,0.712733172255,0,-0.695072890401,0.0140555802129,16,-4.40208673477,-8.67118453979,
1.30479451524,0.758554332333,0,-0.642469917369,0.0149354267914,17,-4.65247011185,-9.16464042664,
1.28032838808,0.806748919563,0,-0.586854530599,0.0157899568883,18,-4.893471241,-9.63937568665,
1.25470678018,0.857218198853,0,-0.528328954979,0.0166155820934,19,-5.12460422516,-10.0943965912,
1.22798102604,0.909859680014,0,-0.46701278081,0.0174072012175,20,-5.34546613693,-10.5288887024,
1.20020347343,0.964568160849,0,-0.403037567297,0.0181612094154,21,-5.55586624146,-10.9423904419,
1.17142703639,1.0212376941,0,-0.336551294503,0.0188732632566,22,-5.75568532944,-11.3346691132,
1.1417042564,1.07976260074,0,-0.26771288029,0.0195399926565,23,-5.94499158859,-11.7058134079,
1.11108651267,1.14003898986,0,-0.196690511595,0.0201587177706,24,-6.12402963638,-12.0561962128,
1.07962339626,1.20196642764,0,-0.123662094014,0.020727052168,25,-6.29313755035,-12.3864746094,
1.04736208425,1.265448891,0,-0.0488125340387,0.0212428873094,26,-6.45282030106,-12.6975574493,
1.0143469523,1.33039554246,0,0.0276672545481,0.0217044859919,27,-6.60362529755,-12.9904823303,
0.980618769988,1.39672245868,0,0.105581874377,0.0221105627166,28,-6.74627256393,-13.2665910721,
0.946214611396,1.46435227283,0,0.184733789751,0.0224605715418,29,-6.88151073456,-13.527256012,
0.911167437896,1.53321554549,0,0.26492231102,0.0227534107743,30,-7.01016712189,-13.7740430832,
0.875506038532,1.60325064548,0,0.345944636375,0.0229888912953,31,-7.13304042816,-14.0084609985,
0.839254791602,1.6744040478,0,0.427596791018,0.0231664730505,32,-7.25103092194,-14.2321872711,
0.802433903083,1.74663045295,0,0.509670968327,0.0232850732622,33,-7.36501979828,-14.4468326569,
0.765058810577,1.81989242919,0,0.591960984272,0.0233451687612,34,-7.47587347031,-14.6540298462,
0.72714101778,1.89416100867,0,0.674253094203,0.0233444534029,35,-7.58447027206,-14.8554191589,
0.688687438831,1.96941485293,0,0.756332740603,0.0232830178573,36,-7.69166564941,-15.0525512695,
0.649700994357,2.04564084895,0,0.837977443613,0.0231585158562,37,-7.79828548431,-15.2470359802,
0.610180432662,2.12283279784,0,0.918960183195,0.022969650579,38,-7.90514945984,-15.4403381348,
0.570120389327,2.200993203,0,0.999043507767,0.0227135208684,39,-8.01308917999,-15.6340618134,
0.52951210247,2.2801306475,0,1.07797967693,0.0223871102001,40,-8.12278079987,-15.829583168,
0.488342757091,2.36026193984,0,1.15550888765,0.0219834525963,41,-8.23502731323,-16.0284023285,
0.446596021518,2.4414110411,0,1.23135716675,0.0215053398753,42,-8.35055828094,-16.2320556641,
0.404252285823,2.52360870727,0,1.30523469766,0.020945076605,43,-8.47001552582,-16.4418830872,
0.361288423404,2.60689451583,0,1.37683376022,0.0202971955304,44,-8.59409999847,-16.6595478058,
0.317678089008,2.69131424315,0,1.44583015974,0.0195581685766,45,-8.72341632843,-16.8864517212,
0.273392433986,2.7769224871,0,1.51187871805,0.0187180313107,46,-8.85857200623,-17.1242618561,
0.228399033412,2.86378219016,0,1.57461852602,0.0177792824498,47,-9.00022697449,-17.3746738434,
0.18266200529,2.95196535476,0,1.63367276071,0.0167336564372,48,-9.14899921417,-17.6395072937,
0.136143202647,3.0415530432,0,1.68864897355,0.0155773147082,49,-9.30545520782,-17.9205780029,
0.0888000677674,3.13263800033,0,1.73914529681,0.0143070912019,50,-9.47040939331,-18.2201423645,