lower angle,upper angle,holding angle,system x,acceleration,ticks (200 tps),lower acceleration (shoulder),upper acceleration (elbow),
2.085940626,-1.007432301,0,-0.967244958148,-0.0593875499467,1,0.0,0.0,
2.085940626,-1.007432301,0,-0.967244958148,0.0,2,0.0,0.0,
2.085940626,-1.007432301,0,-0.967244958148,0.0,3,0.0,0.0,
2.08243483493,-1.00058889942,0,-0.961323623955,0.000363550214485,4,-0.701158940792,-1.36868166924,
2.07794322215,-0.991782065884,0,-0.953897365517,0.000455942045759,5,-0.898324012756,-1.7613697052,
2.07237816278,-0.980857218087,0,-0.944726218866,0.000563065425017,6,-1.11301481724,-2.18497467041,
2.06573766146,-0.967807460979,0,-0.933801399975,0.000670727374416,7,-1.32810497284,-2.60996055603,
2.05801238727,-0.952613227472,0,-0.921090690777,0.00078036506305,8,-1.54506242275,-3.0388610363,
2.04918766815,-0.935245220021,0,-0.906546117029,0.000892946922045,9,-1.764955163,-3.47362518311,
2.03924593005,-0.915668558732,0,-0.890110922421,0.00100900983829,10,-1.98836457729,-3.91536164284,
2.0281668869,-0.893843170658,0,-0.87171980713,0.00112908167091,11,-2.21583104134,-4.36512041092,
2.0159278107,-0.869724262908,0,-0.851299681827,0.00125363375997,12,-2.44784593582,-4.82383823395,
2.0025035185,-0.843262214616,0,-0.828770116649,0.00138312354256,13,-2.68489933014,-5.29248666763,
1.98786612276,-0.814402152255,0.0,-0.80404272669,0.00151804027798,14,-2.92753052711,-5.77211380005,
1.97198535923,-0.783084560588,0.0,-0.777022079358,0.00165881295378,15,-3.17621970177,-6.26364707947,
1.9548284975,-0.749245066598,0,-0.74760602143,0.00180585468899,16,-3.43145632744,-6.76806259155,
1.93636044536,-0.712814797119,0,-0.715685503991,0.00195958939728,17,-3.69371724129,-7.28625583649,
1.91654415104,-0.673721123889,0,-0.681146037416,0.00212035079819,18,-3.96339154243,-7.81898736954,
1.89534081194,-0.631887931779,0,-0.643869486715,0.00228835725828,19,-4.24082660675,-8.36694049835,
1.87271056745,-0.587237138704,0,-0.603735481436,0.00246375300733,20,-4.52624130249,-8.93052959442,
1.84861319933,-0.539689977125,0,-0.56062438691,0.00264649359983,21,-4.81970787048,-9.5098772049,
1.82300904069,-0.489169080213,0,-0.51441899645,0.00283642700048,22,-5.12111616135,-10.104724884,
1.7958604363,-0.435600717023,0,-0.465012371741,0.00303292276619,23,-5.43004989624,-10.7143030167,
1.76713332209,-0.3789187264,0,-0.412308905028,0.00323528479013,24,-5.74582052231,-11.3371610641,
1.73679932628,-0.319067914441,0,-0.356234770291,0.00344217607054,25,-6.06726741791,-11.9710674286,
1.70483794484,-0.256008882478,0,-0.296742381356,0.00365198617164,26,-6.39282417297,-12.6128520966,
1.67123943243,-0.189723510698,0,-0.23382041339,0.00386248840387,27,-6.72033452988,-13.2582883835,
1.63600733552,-0.120220084146,0,-0.167501585781,0.00407097089522,28,-7.04714202881,-13.9020786285,
1.59916168127,-0.047539312795,0,-0.097873742743,0.00427406696889,29,-7.36996841431,-14.5377731323,
1.56074049744,0.0282423902003,0,-0.0250845620885,0.00446809091173,30,-7.68516540527,-15.158115387,
1.52080240521,0.107007782504,0,0.050651055062,0.00464892007645,31,-7.98869132996,-15.7551279068,
1.47942569527,0.188600342318,0,0.129052753974,0.00481253338919,32,-8.27652359009,-16.3207931519,
1.43670841727,0.272825162455,0,0.209769034644,0.00495457030958,33,-8.54476547241,-16.8474693298,
1.39276459489,0.359454672381,0,0.292395268916,0.00507175276243,34,-8.79017829895,-17.3286094666,
1.34772088799,0.44823650603,0,0.376476619559,0.00516100081503,35,-9.01027011871,-17.7593002319,
1.3017109302,0.538904588267,0,0.46152383346,0.00522023785596,36,-9.20362186432,-18.1366996765,
1.25486942801,0.631189148471,0,0.547037925344,0.00524884972638,37,-9.37000179291,-18.4602127075,
1.20732703481,0.724829475924,0,0.632511824043,0.00524634165102,38,-9.51027774811,-18.731470108,
1.15920516524,0.819581310794,0,0.717459218343,0.00521396674757,39,-9.62623310089,-18.9539337158,
1.11061271701,0.915225546404,0,0.801413451329,0.00515295330683,40,-9.72040653229,-19.1324901581,
1.06164326939,1.01157180552,0,0.883944728814,0.00506555668607,41,-9.79584693909,-19.2730121613,
1.01237466607,1.10846153979,0,0.964651527201,0.00495351686895,42,-9.85575008392,-19.3817443848,
0.962867763375,1.20576731448,0,1.04317733191,0.00481955717009,43,-9.90339756012,-19.4650039673,
0.913168218468,1.30339209323,0,1.11919346496,0.00466546900067,44,-9.9419593811,-19.5288543701,
0.863307144974,1.40126697306,0,1.19240050975,0.00449302386703,45,-9.97426128387,-19.5788784027,
0.813302543496,1.49934784655,0,1.26252523469,0.00430380828623,46,-10.0030221939,-19.6201210022,
0.763160255288,1.59761349444,0,1.32931533754,0.00409911931791,47,-10.0305356979,-19.6571006775,
0.712876584862,1.69606200938,0,1.3925259919,0.00387940809317,48,-10.0588617325,-19.693687439,
0.662438180779,1.79470865016,0,1.45192487445,0.00364544474147,49,-10.0898151398,-19.7333335876,
0.611824300622,1.8935832191,0,1.50727828767,0.00339714103159,50,-10.1249351501,-19.7789516449,
0.561007407044,1.99272863154,0,1.55834778016,0.00313420697026,51,-10.1655626297,-19.8331680298,
0.509953883027,2.09219948535,0,1.60488578144,0.00285608204706,52,-10.2129163742,-19.8982772827,
0.458625223969,-4.09112509008,0,1.64662978458,0.00256185138851,53,-10.2679977417,-19.9763145447,
0.406977799271,-3.9907999825,0,1.68330037421,0.00225047770385,54,-10.3317546844,-20.069234848,
0.354964998101,-3.88992722745,0,1.71459120805,0.00192030540979,55,-10.4048862457,-20.1788234711,
0.302535918091,-3.78841455694,0,1.74017539836,0.00157007970647,56,-10.4882278442,-20.3069152832,
0.249636676644,-3.68616064306,0,1.75969963941,0.00119817732034,57,-10.5823068619,-20.4552688599,
0.196210887765,-3.58305485959,0,1.77278548454,0.00080305602749,58,-10.6876783371,-20.625705719,
0.142199662064,-3.478977282,0,1.77903455674,0.000383480638608,59,-10.8048791885,-20.8202552795,
0.0875408915029,-3.37379606481,0,1.77803348011,-6.14315292161e-05,60,-10.9344921112,-21.0410995483,
0.0321696070181,-3.26736815687,0,1.76936184786,-0.000532135000683,61,-11.0770540237,-21.2906303406,
0.0239820214762,-3.15953715558,0,1.74808280101,-0.00130578024874,62,-11.2332735062,-21.5714092255,