lower angle,upper angle,holding angle,system x,acceleration,ticks (200 tps),lower acceleration (shoulder),upper acceleration (elbow),
2.130692665,-1.118062055,0,-0.937124772936,-0.0568459588749,1,0.0,0.0,
2.130692665,-1.118062055,0,-0.937124772936,0.0,2,0.0,0.0,
2.130692665,-1.118062055,0,-0.937124772936,0.0,3,0.0,0.0,
2.12735846709,-1.11155802596,0,-0.931458275062,0.000343707867987,4,-0.666840195656,-1.30080699921,
2.12310605543,-1.1032241362,0,-0.924385065599,0.000429029041167,5,-0.850483775139,-1.6667804718,
2.11784327729,-1.09289680075,0,-0.915662519865,0.000529062246004,6,-1.05255818367,-2.06547212601,
2.11157001229,-1.08057270039,0,-0.905287169677,0.00062930636067,7,-1.25465714931,-2.46482801437,
2.10427842895,-1.06623527993,0,-0.893231430509,0.000731220379165,8,-1.45832335949,-2.86749720573,
2.09595531272,-1.04985827047,0,-0.879451988527,0.000835762111399,9,-1.66463279724,-3.2754201889,
2.08658478828,-1.03140998472,0,-0.863898996811,0.000943326181061,10,-1.87411880493,-3.68968248367,
2.07614836888,-1.01085396696,0,-0.846513641331,0.00105445302446,11,-2.08730268478,-4.11124038696,
2.06462530466,-0.988149276265,0,-0.827230557151,0.00116954235029,12,-2.30463719368,-4.54098653793,
2.05199236842,-0.963250151166,0,-0.805977124788,0.00128903327375,13,-2.52662181854,-4.97988700867,
2.03822378488,-0.936105838307,0.0,-0.782673574145,0.00141336381274,14,-2.75375747681,-5.42894554138,
2.0232913089,-0.906660726556,0.0,-0.757233337582,0.00154294012073,15,-2.98655247688,-5.88913345337,
2.00716388645,-0.874853885063,0,-0.729561680914,0.00167825546586,16,-3.22555327415,-6.36149978638,
1.98980796756,-0.840619450697,0,-0.699557565166,0.00181969521656,17,-3.47126936913,-6.84705352783,
1.97118746163,-0.80388662804,0,-0.667113525356,0.00196765060973,18,-3.72420978546,-7.34677648544,
1.95126381936,-0.764579689392,0,-0.632117093837,0.00212242648141,19,-3.98485994339,-7.8616361618,
1.92999636056,-0.722618973144,0,-0.594450344499,0.00228434786908,20,-4.25365352631,-8.39245605469,
1.90734252753,-0.677921181806,0,-0.553992176288,0.00245361567754,21,-4.53096532822,-8.93993759155,
1.88325857045,-0.630400633701,0,-0.51062116975,0.00263024053636,22,-4.81702518463,-9.50455284119,
1.8577004415,-0.579971051105,0,-0.464218544016,0.00281406644586,23,-5.11190509796,-10.0864534378,
1.83062455477,-0.526547348388,0,-0.414669895098,0.00300481897816,24,-5.4155087471,-10.6853733063,
1.80198947014,-0.470048701652,0,-0.361871727526,0.00320184894521,25,-5.72741174698,-11.3004970551,
1.77175769629,-0.410401916393,0,-0.305738414351,0.00340406982706,26,-6.04681825638,-11.9302310944,
1.73989791097,-0.347546315082,0,-0.246206828605,0.00361012339742,27,-6.37249326706,-12.5721492767,
1.70638755383,-0.281438565143,0,-0.183246120791,0.00381803737037,28,-6.70269727707,-13.2227621078,
1.67121583642,-0.212058579811,0,-0.116867340409,0.00402527596526,29,-7.03506422043,-13.8773956299,
1.63438705029,-0.139415836223,0,-0.0471346273885,0.00422862132929,30,-7.36659812927,-14.530134201,
1.59592324914,-0.0635557531201,0,0.0258317595047,0.0044246637668,31,-7.69370985031,-15.1738500595,
1.55586731853,0.0154358984149,0,0.101838002864,0.00460896186724,32,-8.01225566864,-15.8003778458,
1.51428401889,0.0974291206516,0,0.180622296498,0.0047773810615,33,-8.31785106659,-16.4009647369,
1.47126079025,0.182250106446,0,0.261842348186,0.00492484331902,34,-8.60596370697,-16.9667110443,
1.42690575542,0.269682848564,0,0.345092737653,0.00504789858929,35,-8.8724489212,-17.4893531799,
1.381344561,0.359477603546,0,0.429902463074,0.00514239633275,36,-9.11382102966,-17.9619731903,
1.33471483411,0.451359593979,0,0.515761942103,0.00520598693438,37,-9.32762813568,-18.3796310425,
1.2871607584,0.545041406266,0,0.602130434758,0.00523678892918,38,-9.51260852814,-18.7397956848,
1.23882598104,0.640236222855,0,0.688459746397,0.00523435405755,39,-9.66883945465,-19.0425262451,
1.18984753313,0.736669147126,0,0.774214906798,0.00519949363782,40,-9.7976474762,-19.2903327942,
1.14035112085,0.83408805143,0,0.858880138336,0.00513335202312,41,-9.90130615234,-19.4876289368,
1.09044689359,0.932269775978,0,0.941980684599,0.00503843620381,42,-9.98289775848,-19.6403007507,
1.04022819223,1.03102513563,0,1.02307479116,0.00491668350353,43,-10.0458526611,-19.7551040649,
0.989769880195,1.13019963514,0,1.10176921545,0.00477114524673,44,-10.0938167572,-19.8389911652,
0.939129058738,1.22967358839,0,1.17770949665,0.00460412680027,45,-10.1303195953,-19.8988800049,
0.888346616645,1.32935878049,0,1.25057662378,0.00441775071928,46,-10.1586732864,-19.9411430359,
0.837447826285,1.42919656049,0,1.32008579502,0.00421413236251,47,-10.1819820404,-19.9717178345,
0.78644425096,1.52915450346,0,1.38597742989,0.00399477726785,48,-10.2029285431,-19.9957523346,
0.735336129088,1.6292225958,0,1.44800613388,0.00376052441922,49,-10.2238473892,-20.0177726746,
0.684113447089,1.72940965902,0,1.50594052611,0.00351227275655,50,-10.2467985153,-20.0416412354,
0.632756654639,1.82974263441,0,1.55955455406,0.00325031193345,51,-10.2735834122,-20.0708122253,
0.581239644904,1.93026205312,0,1.6086154915,0.00297425519036,52,-10.3057022095,-20.1080932617,
0.529529158492,-4.25216463793,0,1.65288882286,0.00268398503157,53,-10.3444108963,-20.156036377,
0.477586213965,-4.15110186327,0,1.69212379572,0.00237844162413,54,-10.3909406662,-20.2168960571,
0.425367180724,-4.04966071833,0,1.72605242238,0.00205674483104,55,-10.4461774826,-20.292591095,
0.372824255843,-3.94775704134,0,1.75438287762,0.00171736560128,56,-10.5110177994,-20.3851623535,
0.319905702491,-3.8452983259,0,1.77680118738,0.00135895804352,57,-10.5861539841,-20.4962348938,
0.266557161231,-3.7421830057,0,1.79296391474,0.000979745282849,58,-10.6722507477,-20.6276569366,
0.212720815558,-3.63829997767,0,1.80250372097,0.000578274659713,59,-10.7698526382,-20.7812919617,
0.1583367032,-3.53352884043,0,1.80502906644,0.00015307767666,60,-10.8795089722,-20.9590606689,
0.103342477698,-3.4277389406,0,1.80013064451,-0.000296923232334,61,-11.0016374588,-21.1629486084,
0.0476726931525,-3.3207879423,0,1.78738944524,-0.000772315870888,62,-11.1367969513,-21.3953132629,
0.0087402421045,-3.21252111185,0,1.75988121631,-0.00166741723282,63,-11.2855873108,-21.6586952209,