lower angle,upper angle,holding angle,system x,acceleration,ticks (200 tps),lower acceleration (shoulder),upper acceleration (elbow),
1.190899988,1.118062055,0,-0.937124733427,-0.568573991375,1,0.0,0.0,
1.190899988,1.118062055,0,-0.937124733427,0.0,2,0.0,0.0,
1.190899988,1.118062055,0,-0.937124733427,0.0,3,0.0,0.0,
1.18727523816,1.12512896469,0,-0.926924111884,0.00618675703925,4,-0.724950790405,-1.41338348389,
1.18245139189,1.13457251739,0,-0.913487049351,0.00814844869103,5,-0.964771032333,-1.88871383667,
1.17635596573,1.1465164258,0,-0.896529611746,0.0102767024804,6,-1.21908926964,-2.38878917694,
1.16901185114,1.16091803301,0,-0.876109751893,0.0123734628699,7,-1.46882939339,-2.88033437729,
1.16043798376,1.17774079207,0,-0.852266239304,0.0144464347697,8,-1.71478438377,-3.36457252502,
1.15065191436,1.1969500168,0,-0.825029531426,0.0165004208616,9,-1.95722961426,-3.84187626839,
1.13967269782,1.21850794394,0,-0.794433330535,0.0185335526162,10,-2.19586610794,-4.31162548065,
1.12752108026,1.24237318177,0,-0.760515234268,0.0205431058383,11,-2.43035340309,-4.77310466766,
1.11421952147,1.26850090016,0,-0.723318541671,0.0225257292246,12,-2.6603512764,-5.22561836243,
1.09979197878,1.29684307266,0,-0.682891881352,0.024478784376,13,-2.88555860519,-5.66852855682,
1.08426368732,1.32734895337,0.0,-0.639289693898,0.0263991881526,14,-3.10571885109,-6.10129547119,
1.06766106683,1.35996537495,0.0,-0.592573296957,0.0282818298393,15,-3.32060313225,-6.52342987061,
1.05001128215,1.39463738192,0,-0.542809750551,0.0301233577732,16,-3.5300450325,-6.93457603455,
1.03134213883,1.43130878199,0,-0.490073628299,0.0319178242235,17,-3.73394036293,-7.33448696136,
1.01168154675,1.46992245901,0,-0.434443876859,0.0336647689099,18,-3.93224239349,-7.7229757309,
0.99105769891,1.51042107333,0,-0.37600862166,0.0353584524149,19,-4.12491607666,-8.09999656677,
0.969498520081,1.55274725545,0,-0.314861425995,0.036995069314,20,-4.31200408936,-8.46555328369,
0.947031368796,1.5968445598,0,-0.25110238226,0.0385704978731,21,-4.49361801147,-8.81982040405,
0.923682858531,1.64265773285,0,-0.184838010847,0.0400811051809,22,-4.6699180603,-9.16304206848,
0.899478514974,1.69013319004,0,-0.116180386974,0.0415243897089,23,-4.84109640121,-9.49552726746,
0.874442776029,1.73921940316,0,-0.0452488746309,0.0428944149355,24,-5.00740861893,-9.81773471832,
0.84859852988,1.78986731757,0,0.0278319422118,0.0441901951456,25,-5.16913700104,-10.1301364899,
0.821967055385,1.8420310973,0,0.102930172712,0.0454042501308,26,-5.32660913467,-10.4333438873,
0.794567694251,1.89566782702,0,0.179909326038,0.0465358048035,27,-5.48022413254,-10.7279949188,
0.766417940442,1.95073816765,0,0.258625304804,0.0475802714997,28,-5.63032054901,-11.0147628784,
0.737533022945,2.00720671404,0,0.33892803405,0.0485339270484,29,-5.77738714218,-11.294462204,
0.707925965373,2.06504193533,0,0.42066037274,0.0493924316421,30,-5.92184400558,-11.5678672791,
0.677607496564,2.12421671141,0,0.503656900999,0.0501509625148,31,-6.06415843964,-11.8358325958,
0.646585841958,2.18470851172,0,0.58774422276,0.0508039163245,32,-6.20483827591,-12.099272728,
0.614866634194,2.24649885882,0,0.672741362091,0.0513480196298,33,-6.34436845779,-12.3590545654,
0.582453211133,2.30957452048,0,0.758455168118,0.0517754074256,34,-6.48326158524,-12.6161899567,
0.549345990007,2.37392703284,0,0.844683693666,0.0520682092335,35,-6.62204837799,-12.8716287613,
0.515543003862,2.43955305804,0,0.931211770022,0.0522434811146,36,-6.76124095917,-13.1263847351,
0.481039484326,2.50645462263,0,1.01781196724,0.0522813659774,37,-6.90138673782,-13.3815383911,
0.445828338449,2.57463840235,0,1.10424212599,0.0521732071669,38,-7.04295396805,-13.6381034851,
0.409899552648,2.64411798704,0,1.19024531508,0.0519096610578,39,-7.1865234375,-13.8973083496,
0.373240848367,2.71491137732,0,1.27554847431,0.051480525701,40,-7.33255529404,-14.1601886749,
0.335837026422,2.78704420317,0,1.35986256378,0.0508786718668,41,-7.48162841797,-14.42811203,
0.29767074186,2.86054710139,0,1.44288120376,0.0500931016351,42,-7.63417482376,-14.7022361755,
0.258721788709,2.93545833815,0,1.52428215636,0.0491137754163,43,-7.79077863693,-14.9839944839,
0.218967219178,3.0118233322,0,1.60372753725,0.047927479408,44,-7.9519572258,-15.2748603821,
0.178381701295,3.08969501246,0,1.68086425709,0.0465290006494,45,-8.11821937561,-15.5763111115,