lower angle,upper angle,holding angle,system x,acceleration,ticks (200 tps),lower acceleration (shoulder),upper acceleration (elbow),
0.877635763,2.007839739,0,-0.605948703522,-3.14371440019,1,0.0,0.0,
0.877635763,2.007839739,0,-0.605948703522,0.0,2,0.0,0.0,
0.877635763,2.007839739,0,-0.605948703522,0.0,3,0.0,0.0,
0.874978064533,2.01296491889,0,-0.59492003528,0.0570258580089,4,-0.531540036201,-1.02503669262,
0.871440667632,2.01982141999,0,-0.580287432189,0.0755781247726,5,-0.707480251789,-1.37130188942,
0.866929212558,2.02857580004,0,-0.561638754391,0.0962226370576,6,-0.90229254961,-1.75087881088,
0.861461668249,2.03919432653,0,-0.539049837969,0.116427823779,7,-1.09351158142,-2.12370991707,
0.85504794025,2.0516576652,0,-0.512561992012,0.136366055099,8,-1.28274989128,-2.49267601967,
0.847695090781,2.06595126507,0,-0.482204660849,0.156121424645,9,-1.47057628632,-2.85873222351,
0.839410048883,2.08206045595,0,-0.448007535336,0.175676420556,10,-1.65701770782,-3.22185730934,
0.830200151514,2.09996941653,0,-0.410003318811,0.194972263865,11,-1.84199273586,-3.58181357384,
0.820073355894,2.11966099558,0,-0.368229414327,0.213728957655,12,-2.02537608147,-3.93835020065,
0.809037872563,2.14111722974,0,-0.322726770514,0.23258190834,13,-2.20711946487,-4.29128837585,
0.797102124403,2.16431924668,0.0,-0.273540193527,0.250834514095,14,-2.38717675209,-4.6404542923,
0.784274765264,2.18924765257,0.0,-0.220719540547,0.268884836529,15,-2.56550788879,-4.98574542999,
0.770564527224,2.21588249472,0,-0.164319472171,0.286797452152,16,-2.74209070206,-5.32704544067,
0.755980038057,2.24420368639,0,-0.104399545209,0.303701323214,17,-2.91694951057,-5.6643371582,
0.740529880832,2.274191111,0,-0.0410254080052,0.320892163703,18,-3.09009170532,-5.9975976944,
0.724222199033,2.30582496492,0,0.0257323190675,0.337701708982,19,-3.26161050797,-6.32690143585,
0.707064838122,2.339085668,0,0.0957964225814,0.35409054933,20,-3.43155550957,-6.65229654312,
0.689065189074,2.37395450441,0,0.169082691902,0.369975721774,21,-3.60002923012,-6.97394275665,
0.670229882906,2.41041356293,0,0.24550058498,0.385425842507,22,-3.76717042923,-7.29201602936,
0.650564999293,2.44844606486,0,0.324951100513,0.400345290082,23,-3.93310403824,-7.60672855377,
0.630075708936,2.4880364832,0,0.407327497507,0.414704446586,24,-4.09800195694,-7.91834259033,
0.608766213964,2.52917087046,0,0.492514406178,0.428454183471,25,-4.26205539703,-8.22717189789,
0.586639837335,2.57183712689,0,0.580386454311,0.441498143588,26,-4.42545843124,-8.53357315063,
0.563698605607,2.61602508989,0,0.67080893062,0.453888981877,27,-4.58844232559,-8.83794593811,
0.539943651269,2.66172659365,0,0.76363516411,0.465525425676,28,-4.75121879578,-9.14071369171,
0.515374497484,2.70893639294,0,0.858708273667,0.476339267405,29,-4.91407346725,-9.44239711761,
0.489989683937,2.75765150753,0,0.95585785557,0.486273693005,30,-5.07724046707,-9.74350643158,
0.463786081384,2.80787193743,0,1.05490134518,0.495312688074,31,-5.24102544785,-10.0446357727,
0.43675936849,2.8596011397,0,1.15564201104,0.503372390352,32,-5.4056763649,-10.3464031219,
0.408903405975,2.91284573046,0,1.25786944251,0.510387944454,33,-5.57154655457,-10.6495513916,
0.380210862468,2.96761602131,0,1.36135761387,0.516183753934,34,-5.73890018463,-10.9547548294,
0.350672648262,3.02392643658,0,1.465865821,0.52077443139,35,-5.90807437897,-11.2628440857,