lower angle,upper angle,holding angle,system x,acceleration,ticks (200 tps),lower acceleration (shoulder),upper acceleration (elbow),
2.354452829,-1.714349745,0,-0.730439672626,-0.0418385436088,1,0.0,0.0,
2.354452829,-1.714349745,0,-0.730439672626,0.0,2,0.0,0.0,
2.354452829,-1.714349745,0,-0.730439672626,0.0,3,0.0,0.0,
2.35187180865,-1.70934387499,0,-0.725241596212,0.000297730858227,4,-0.516204357147,-1.00117456913,
2.34865109775,-1.70306143367,0,-0.718857212931,0.000365676541176,5,-0.644142687321,-1.25648915768,
2.34468846222,-1.69531839543,0,-0.711028595578,0.000448394091374,6,-0.792528152466,-1.54860961437,
2.33999174007,-1.68612702393,0,-0.701772069729,0.000530175924624,7,-0.939346075058,-1.83827769756,
2.33455974342,-1.67548404091,0,-0.691078308316,0.000612490777556,8,-1.0864020586,-2.12860155106,
2.32838686847,-1.66337800228,0,-0.67892649497,0.000695996338488,9,-1.23457896709,-2.42121458054,
2.32146565535,-1.64979408511,0,-0.665290047432,0.000781020864227,10,-1.38424813747,-2.71679496765,
2.3137875005,-1.63471516051,0,-0.650139083439,0.000867757992552,11,-1.5356388092,-3.01579785347,
2.30534250581,-1.6181217266,0,-0.633439412178,0.000956452342499,12,-1.68900918961,-3.31870698929,
2.29611954757,-1.59999184885,0,-0.615153348484,0.00104730404438,13,-1.84460496902,-3.62600135803,
2.28610611254,-1.58030098506,0.0,-0.595238952054,0.00114055633885,14,-2.00270366669,-3.93820643425,
2.27528829419,-1.55902175435,0.0,-0.573650838318,0.00123640308402,15,-2.16358613968,-4.25588512421,
2.26365059161,-1.5361238403,0,-0.550338842957,0.00133512422754,16,-2.32756686211,-4.57963228226,
2.25117589825,-1.5115738047,0,-0.525248642066,0.00143695279282,17,-2.49497079849,-4.91006994247,
2.23784528219,-1.48533460327,0,-0.498321616402,0.00154213669881,18,-2.66616344452,-5.2479186058,
2.22363796377,-1.45736554095,0,-0.469494970563,0.00165091801741,19,-2.84151124954,-5.59390211105,
2.20853104734,-1.42762186953,0,-0.438700926643,0.00176358013851,20,-3.02144265175,-5.94884347916,
2.19249948406,-1.39605477282,0,-0.405866639825,0.00188041173853,21,-3.20638108253,-6.31355333328,
2.17551581108,-1.36261051723,0,-0.370915194621,0.00200164712004,22,-3.39681315422,-6.68900489807,
2.15755010688,-1.32723048159,0,-0.333765473763,0.00212752640942,23,-3.59323787689,-7.07619428635,
2.1385696336,-1.28985071012,0,-0.294330879603,0.00225835888831,24,-3.79620933533,-7.4761724472,
2.11853873276,-1.25040161439,0,-0.252519980242,0.00239442551498,25,-4.00631523132,-7.89007377625,
2.09741873586,-1.20880752631,0,-0.208238079095,0.00253591750996,26,-4.22415876389,-8.31912326813,
2.07516757691,-1.16498625108,0,-0.161385996718,0.00268308837286,27,-4.45041370392,-8.7646150589,
2.05173997128,-1.11884909698,0,-0.111862792857,0.0028360371431,28,-4.68573522568,-9.22783279419,
2.02708704316,-1.07030057737,0,-0.059564451581,0.00299494049566,29,-4.9308347702,-9.7101764679,
2.00115654909,-1.01923841068,0,-0.00438773662588,0.00315974732693,30,-5.18639326096,-10.2129869461,
1.97389272892,-0.965553580011,0,0.0537697329297,0.003330414246,31,-5.45309829712,-10.7376012802,
1.94523678267,-0.909131167615,0,0.115005774436,0.00350667213915,32,-5.73157930374,-11.2852334976,
1.91512743675,-0.84985118934,0,0.179408429649,0.00368798054634,33,-6.02232170105,-11.8568620682,
1.88350165927,-0.787590382779,0,0.247052884898,0.00387359261719,34,-6.32568645477,-12.4531803131,
1.85029570305,-0.722224293435,0,0.317995676187,0.00406243857362,35,-6.64180707932,-13.0743913651,
1.81544731104,-0.653631327832,0,0.392264339522,0.00425285773247,36,-6.97038650513,-13.7199478149,
1.77889780247,-0.581697343076,0,0.46985049635,0.00444278846985,37,-7.3107047081,-14.388338089,
1.74059591734,-0.506322382177,0,0.550692597117,0.00462920010157,38,-7.66131830215,-15.0767831802,
1.7005011841,-0.42742836305,0,0.634668886834,0.00480863663294,39,-8.02002620697,-15.7808570862,
1.65858904564,-0.344968794072,0,0.721580328455,0.00497663527602,40,-8.38365745544,-16.4942417145,
1.61485670054,-0.258940218175,0,0.81113486256,0.00512793856049,41,-8.74785614014,-17.2083873749,
1.56932834828,-0.169392345632,0,0.902934441773,0.00525644456824,42,-9.10724258423,-17.9125728607,
1.52206001722,-0.0764384252673,0,0.996471670522,0.00535585065414,43,-9.45541954041,-18.5941314697,
1.47314314091,0.0197386758679,0,1.0911238124,0.00541961942728,44,-9.78533744812,-19.2391357422,
1.42270449841,0.118885280406,0,1.18617039482,0.00544214769778,45,-10.0898590088,-19.8333683014,
1.37090329373,0.220683457171,0,1.28080960109,0.00541877236235,46,-10.3625612259,-20.3640594482,
1.31792412245,0.324765207087,0,1.37418773561,0.00534652899364,47,-10.598320961,-20.8210430145,
1.26396642172,0.430731775081,0,1.46544508971,0.00522505284886,48,-10.7941656113,-21.1983127594,
1.20923254931,0.53817892245,0,1.55374482832,0.0050556725509,49,-10.9494934082,-21.4945297241,
1.15391645872,0.646716834819,0,1.63831800671,0.00484210659313,50,-11.0660610199,-21.7129840851,
1.09819314921,0.755993844783,0,1.71847307926,0.00458911852824,51,-11.1475629807,-21.8608474731,
1.04221234762,0.865705968654,0,1.79362217522,0.00430248025975,52,-11.1990785599,-21.9479446411,
0.986095289823,0.975605489528,0,1.86327058166,0.00398752356806,53,-11.2263660431,-21.9854450226,
0.929933290121,1.08550191096,0,1.92701974281,0.00364975131219,54,-11.2353487015,-21.9847946167,
0.873790244695,1.19525814227,0,1.9845475622,0.00329354575748,55,-11.2315721512,-21.9568023682,
0.817704538938,1.30478644541,0,2.03559519885,0.00292252669998,56,-11.2200737,-21.911157608,
0.761693338987,1.41404080561,0,2.07994637851,0.0025391308424,57,-11.2051744461,-21.8563041687,
0.705754856702,-4.76017570325,0,2.11742538289,0.00214568042196,58,-11.1906137466,-21.7992229462,
0.649872521993,-4.6514737589,0,2.14786402274,0.00174260635353,59,-11.1793889999,-21.7457733154,
0.594017247793,-4.54299712011,0,2.17110305358,0.00133042127544,60,-11.1739635468,-21.7006835938,
0.538150171873,-4.43468499013,0,2.18697426264,0.000908611521563,61,-11.1763086319,-21.66771698,
0.482224087354,-4.32646131345,0,2.19529671809,0.00047644866935,62,-11.1881494522,-21.6500797272,
0.426185469266,-4.21823596784,0,2.19586026888,3.22622139028e-05,63,-11.2106752396,-21.6503562927,
0.369975666639,-4.10990905591,0.0,2.18842832294,-0.000425460825794,64,-11.2449264526,-21.6707077026,
0.313532094594,-4.00137018987,0.0,2.17272586636,-0.000898919426586,65,-11.2917203903,-21.713142395,
0.256788711187,-3.892499922,0,2.14844170005,-0.00139018597712,66,-11.3517036438,-21.7794361115,
0.199678163167,-3.78317069837,0,2.11522408289,-0.00190158137919,67,-11.4252433777,-21.8713359833,
0.142130593893,-3.67324542829,0,2.07268934271,-0.00243492835552,68,-11.5126934052,-21.9906253815,
0.0840754314628,-3.56257819959,0,2.0204260444,-0.00299181920058,69,-11.6142539978,-22.1391830444,
0.0254418655601,-3.45101165601,0,1.95800374744,-0.00357334502507,70,-11.7300882339,-22.3191337585,
0.0338425830636,-3.33837747403,0,1.81553190145,-0.00815569715344,71,-11.8603382111,-22.5327644348,