lower angle,upper angle,holding angle,system x,acceleration,ticks (200 tps),lower acceleration (shoulder),upper acceleration (elbow),
0.877635763,2.007839739,0,-0.605948703522,-5.98877147746,1,0.0,0.0,
0.877635763,2.007839739,0,-0.605948703522,0.0,2,0.0,0.0,
0.877635763,2.007839739,0,-0.605948703522,0.0,3,0.0,0.0,
0.872464751798,2.01778868367,0,-0.58446121606,0.211100739802,4,-1.03420460224,-1.98979318142,
0.86568806504,2.03087515352,0,-0.556369516734,0.275510623532,5,-1.35534250736,-2.61730289459,
0.857120794217,2.04742511702,0,-0.520870390257,0.347546078866,6,-1.71346449852,-3.31001186371,
0.846805400188,2.06735789371,0,-0.478149733507,0.416965290029,7,-2.06309723854,-3.98658895493,
0.834769052427,2.0906191912,0,-0.428331263743,0.485211194254,8,-2.40729928017,-4.65231323242,
0.821033866118,2.11716294256,0,-0.371523407882,0.552234476411,9,-2.74708032608,-5.30882835388,
0.805622004877,2.14694187013,0,-0.30784359208,0.617741371359,10,-3.08243298531,-5.95589256287,
0.788556651186,2.17990605501,0,-0.237425555376,0.682014691919,11,-3.41315531731,-6.59298801422,
0.769861550044,2.21600371567,0,-0.160420321417,0.744942044758,12,-3.73912858963,-7.21973180771,
0.749560565661,2.25518220631,0,-0.0769976277659,0.805497448413,13,-4.06033802032,-7.83594751358,
0.727677197169,2.29738876191,0.0,0.0126529529691,0.864034912789,14,-4.37684822083,-8.44162750244,
0.704233990024,2.34257185427,0.0,0.108320863326,0.920280484121,15,-4.68885564804,-9.03700637817,
0.67925216348,2.39068201152,0,0.209772593786,0.974404397307,16,-4.99662780762,-9.62250328064,
0.652750954936,2.44167289106,0,0.316750905172,1.02611064605,17,-5.30055046082,-10.1987314224,
0.624747351717,2.49550232259,0,0.428972123968,1.07474392468,18,-5.60108852386,-10.76653862,
0.595255390714,2.55213326183,0,0.54612544468,1.12021379022,19,-5.89881896973,-11.3269615173,
0.564285979579,2.61153519121,0,0.667869907593,1.16217183822,20,-6.19437646866,-11.8812580109,
0.531846360277,2.67368459669,0,0.793833050379,1.20065811236,21,-6.48849534988,-12.4308862686,
0.497939781259,2.73856633869,0,0.923608680391,1.23532042032,22,-6.78196334839,-12.9774894714,
0.462565288852,2.80617451636,0,1.05675452236,1.26585891827,23,-7.07563972473,-13.5229406357,
0.425717220615,2.87651395765,0,1.19279130986,1.29173516435,24,-7.3704419136,-14.0693387985,
0.387385056327,2.94960093466,0,1.3312007398,1.3128195993,25,-7.66737270355,-14.6190338135,
0.347553119968,3.02546447483,0,1.47142460957,1.32832582613,26,-7.96744346619,-15.1745405197,