lower angle,upper angle,holding angle,system x,acceleration,ticks (200 tps),lower acceleration (shoulder),upper acceleration (elbow),
1.727924378,-0.156684577,0,-1.09770425039,-0.261042503781,1,0.0,0.0,
1.727924378,-0.156684577,0,-1.09770425039,0.0,2,0.0,0.0,
1.727924378,-0.156684577,0,-1.09770425039,0.0,3,0.0,0.0,
1.72168529999,-0.144485217054,0,-1.08583894005,0.00282126886047,4,-1.24781966209,-2.43987965584,
1.71343319711,-0.128300485667,0,-1.07033932477,0.00368521253884,5,-1.65042996407,-3.23696422577,
1.70312537194,-0.108072604519,0,-1.05093609521,0.00460531154197,6,-2.06158304214,-4.04560995102,
1.6907591758,-0.0837924028753,0,-1.02758070192,0.0055430545589,7,-2.47327113152,-4.85610103607,
1.67632888757,-0.0554469372152,0,-1.00019707136,0.00649880007283,8,-2.88610768318,-5.6691865921,
1.65982920804,-0.0230252291082,0,-0.968695701248,0.00747544409262,9,-3.30001139641,-6.48448228836,
1.64125753321,0.0134779666544,0,-0.932983768392,0.00847425200195,10,-3.71444272995,-7.30084896088,
1.62061593809,0.054058611858,0,-0.892973434378,0.00949377938794,11,-4.12846565247,-8.11640644073,
1.59791305789,0.0986995105626,0,-0.848587821208,0.0105315054477,12,-4.54076910019,-8.92854499817,
1.57316595443,0.147366643417,0,-0.79976851651,0.0115830044206,13,-4.94967460632,-9.73391056061,
1.54640206822,0.200005442369,0.0,-0.746484383608,0.0126418042096,14,-5.35309743881,-10.5283641815,
1.51766079792,0.256537378299,0.0,-0.688737920906,0.0136998672314,15,-5.74864578247,-11.3071451187,
1.48699507245,0.316857308614,0,-0.626575736062,0.0147468205512,16,-6.13362693787,-12.0649013519,
1.45447164901,0.380832255352,0,-0.560090909591,0.0157715458805,17,-6.50525808334,-12.7960834503,
1.42017126211,0.448301613796,0,-0.489430557368,0.0167613557322,18,-6.86074304581,-13.4951343536,
1.38418769964,0.519078612793,0,-0.414796120341,0.0177032898501,19,-7.19749259949,-14.1568851471,
1.34662562736,0.59295469569,0,-0.336442402174,0.0185847116556,20,-7.51330184937,-14.7768983841,
1.30759808549,0.669704437721,0,-0.25467411243,0.01939378741,21,-7.8064956665,-15.3518381119,
1.26722309121,0.74909216212,0,-0.1698389215,0.0201202422836,22,-8.07609462738,-15.8796329498,
1.22562012204,0.830879092682,0,-0.0823204179669,0.0207557600731,23,-8.32179260254,-16.3596687317,
1.18290618189,0.914830267894,0,0.00747582413823,0.0212950412071,24,-8.54407596588,-16.7927093506,
1.13919308909,1.00072127627,0,0.0991239769789,0.0217333244289,25,-8.74401187897,-17.1808166504,
1.09458407887,1.0883428459,0,0.192197459481,0.0220703741985,26,-8.92329311371,-17.5271644592,
1.04917225369,1.17750626849,0,0.286264381638,0.0223050018754,27,-9.08392524719,-17.8356056213,
1.00303903349,1.26804429339,0,0.380902748776,0.0224364808247,28,-9.2282781601,-18.1107273102,
0.956253023229,1.35981458472,0,0.475699307006,0.0224728889264,29,-9.35890197754,-18.35729599,
0.908870668493,1.45269852923,0,0.57024931616,0.022413239613,30,-9.47824382782,-18.5801200867,
0.860935480676,1.54660123633,0,0.664164277452,0.0222611537274,31,-9.58888053894,-18.7840156555,
0.812478931032,1.64145118045,0,0.75706413401,0.0220195802379,32,-9.69320011139,-18.9735546112,
0.763521523557,1.73719805526,0,0.848574484038,0.0216892440721,33,-9.79344463348,-19.1530456543,
0.714072735391,1.83381193923,0,0.938327949608,0.0212715303937,34,-9.89177894592,-19.3265323639,
0.66413238772,1.93128138827,0,1.02595638625,0.0207668803445,35,-9.99014568329,-19.4977416992,
0.613691122614,2.02961236285,0,1.11108756337,0.0201740743307,36,-10.0903863907,-19.6701507568,
0.562731416307,2.12882667826,0,1.1933390649,0.0194907489301,37,-10.1941299438,-19.8469696045,
0.51122811564,2.22896200465,0,1.27231212121,0.0187129450269,38,-10.3029432297,-20.0312347412,
0.459148557268,2.330069602,0,1.34759293676,0.0178371764788,39,-10.4182443619,-20.2258663177,
0.40645411738,2.43221575068,0,1.41873882802,0.0168566995665,40,-10.5413217545,-20.4336357117,
0.353100211702,2.53547912883,0,1.48528278975,0.0157655391104,41,-10.6733407974,-20.6573143005,
0.299035937868,2.63995415019,0,1.54672901592,0.0145567666596,42,-10.8154935837,-20.8997650146,
0.244205982767,2.74574834155,0,1.60255144977,0.0132237157193,43,-10.9687337875,-21.1637992859,
0.188549668871,2.85298496531,0,1.6521983216,0.0117599517853,44,-11.1341514587,-21.4525051117,
0.132001073442,2.96180397319,0,1.69509696303,0.0101610028193,45,-11.3127307892,-21.7691688538,
0.074488790117,-3.21082276059,0,1.73066153924,0.00842331188576,46,-11.5056552887,-22.1174545288,
0.0159344983918,-3.0983461733,0,1.75830242606,0.00654628849266,47,-11.7142124176,-22.5012741089,