lower angle,upper angle,holding angle,system x,acceleration,ticks (200 tps),lower acceleration (shoulder),upper acceleration (elbow),
1.190899988,1.118062055,0,-0.937124733427,-0.6727855886,1,0.0,0.0,
1.190899988,1.118062055,0,-0.937124733427,0.0,2,0.0,0.0,
1.190899988,1.118062055,0,-0.937124733427,0.0,3,0.0,0.0,
1.18610884558,1.12739399754,0,-0.923605277447,0.00970114981406,4,-0.958230257034,-1.8663918972,
1.17976705201,1.13979073826,0,-0.905861679792,0.0127303543128,5,-1.26836299896,-2.47935628891,
1.17178077932,1.15541189004,0,-0.8835209227,0.0160260550803,6,-1.59726321697,-3.12424612045,
1.16218508903,1.17419148449,0,-0.856669205245,0.0192568919363,7,-1.91915297508,-3.75594711304,
1.15101045865,1.19607014794,0,-0.825368870408,0.0224443475164,8,-2.23494911194,-4.37577724457,
1.13828653965,1.2209892704,0,-0.789676192632,0.0255903553432,9,-2.54481840134,-4.98388767242,
1.12404519815,1.24888533939,0,-0.749652570389,0.0286908967714,10,-2.84831690788,-5.5793056488,
1.10832102347,1.27968916882,0,-0.705368505852,0.0317396132693,11,-3.14490032196,-6.16089010239,
1.09115117538,1.31332629014,0,-0.656905271352,0.0347266004139,12,-3.43405413628,-6.72758483887,
1.07257476944,1.34971805502,0,-0.604354583523,0.0376492092769,13,-3.71538805962,-7.27855491638,
1.05263263482,1.38878223885,0.0,-0.547820119049,0.0404970512021,14,-3.98855924606,-7.81308221817,
1.03136662144,1.43043414343,0.0,-0.487416364544,0.0432614147364,15,-4.25336122513,-8.33068275452,
1.00881906349,1.47458777417,0,-0.423269163373,0.0458906782443,16,-4.50969934464,-8.83109092712,
0.985032473986,1.5211565255,0,-0.355516628425,0.0484617582942,17,-4.75754261017,-9.31416606903,
0.960048784797,1.57005438794,0,-0.284307478532,0.050925593419,18,-4.9969959259,-9.78006076813,
0.933909018819,1.62119690169,0,-0.209802379562,0.0532753020261,19,-5.2282538414,-10.2290649414,
0.906652619426,1.67450205077,0,-0.132171961072,0.055502664252,20,-5.45161437988,-10.6616573334,
0.878317137544,1.72989121664,0,-0.0515980745073,0.0575993949727,21,-5.66746997833,-11.0785369873,
0.848937948529,1.7872897147,0,0.0317260906589,0.0595576185527,22,-5.87626457214,-11.4804973602,
0.818547268693,1.84662822474,0,0.117599056418,0.0613701561339,23,-6.07859992981,-11.8685665131,
0.787174572532,1.90784243334,0,0.205807586414,0.063031001025,24,-6.2750582695,-12.2438097,
0.754845847671,1.97087434519,0,0.296128138041,0.0645310254912,25,-6.46631145477,-12.6074352264,
0.721583475654,2.03567246188,0,0.388326183838,0.0658541112817,26,-6.65308237076,-12.9607620239,
0.687406202142,2.10219225872,0,0.48215430679,0.0669986763974,27,-6.83613395691,-13.3052024841,
0.652328570668,2.17039648283,0,0.577354076805,0.0679673436297,28,-7.01624679565,-13.6421794891,
0.616361220662,2.24025562991,0,0.673651866442,0.0687420984089,29,-7.19425058365,-13.9732570648,
0.579510410611,2.31174806345,0,0.770760120587,0.0693118061313,30,-7.3709936142,-14.3000278473,
0.541778345887,2.38486055125,0,0.868373237441,0.0696618899544,31,-7.54730510712,-14.6241035461,
0.503163119142,2.45958749045,0,0.966167565601,0.0697727094016,32,-7.72399950027,-14.9471416473,
0.463658352677,2.5359332918,0,1.06379907225,0.0696474674379,33,-7.90199422836,-15.2710189819,
0.423253317659,2.61391047228,0,1.16090339033,0.0692624824296,34,-8.08209514618,-15.5974369049,
0.381933589761,2.69354144324,0,1.25709095586,0.068598937237,35,-8.26510906219,-15.9282827377,
0.339680214707,2.77485815276,0,1.35195004173,0.0676417227044,36,-8.45193099976,-16.2656211853,
0.296470304315,2.85790363539,0,1.44504424301,0.0663747254065,37,-8.64333820343,-16.611492157,
0.252276440446,2.94273141611,0,1.53591480611,0.0647774835268,38,-8.84020709991,-16.9681053162,
0.20706703264,3.02940717924,0,1.62408065864,0.0628404400072,39,-9.04341125488,-17.3378868103,
0.16080607969,3.11800924528,0,1.70904117417,0.0605462793392,40,-9.25384998322,-17.7233543396,