lower angle,upper angle,holding angle,system x,acceleration,ticks (200 tps),lower acceleration (shoulder),upper acceleration (elbow),
1.81742844,-0.366151594,0,-1.08299119293,-0.22863948916,1,0.0,0.0,
1.81742844,-0.366151594,0,-1.08299119293,0.0,2,0.0,0.0,
1.81742844,-0.366151594,0,-1.08299119293,0.0,3,0.0,0.0,
1.8114343734,-0.354434500823,0,-1.0721135586,0.00229620643215,4,-1.19881701469,-2.3434252739,
1.80353962831,-0.338953230904,0,-1.05797968243,0.00298345233905,5,-1.57895720005,-3.09626984596,
1.79368160121,-0.319610353934,0,-1.04029587941,0.00373223865739,6,-1.97162139416,-3.86860561371,
1.78184929132,-0.296380177515,0,-1.0190028347,0.00449381118595,7,-2.36648869514,-4.64608764648,
1.76802577465,-0.269227646666,0,-0.994008662689,0.00527470915229,8,-2.76474761963,-5.43058824539,
1.75219111904,-0.238112904506,0,-0.965201131304,0.00607931631359,9,-3.16699504852,-6.22307300568,
1.73432497695,-0.20299559124,0,-0.932457856518,0.00690963527865,10,-3.57332277298,-7.02364444733,
1.71440836802,-0.16383812614,0,-0.895652577078,0.00776648558838,11,-3.98345279694,-7.83174228668,
1.69242547467,-0.120609410482,0,-0.854659978888,0.00864968810836,12,-4.39675521851,-8.64607810974,
1.66836574688,-0.0732888508607,0,-0.809363272574,0.00955743433972,13,-4.81217670441,-9.46455287933,
1.64222635343,-0.0218712020685,0.0,-0.759662435673,0.0104862705389,14,-5.22817277908,-10.2840938568,
1.61401478961,0.0336283218096,0.0,-0.705483719296,0.0114305367295,15,-5.6426897049,-11.1006164551,
1.58375124648,0.0931689511965,0,-0.646787015285,0.0123831562898,16,-6.053170681,-11.9090118408,
1.55147144213,0.156679547949,0,-0.583580894169,0.0133339400273,17,-6.4565205574,-12.7031822205,
1.51722827568,0.224054611845,0,-0.515927799483,0.0142712394852,18,-6.84930181503,-13.4762802124,
1.48109290018,0.295152283831,0,-0.44395243414,0.0151825343142,19,-7.2278585434,-14.2210197449,
1.44315508022,0.369793809576,0,-0.367848397556,0.0160530006317,20,-7.58847856522,-14.9300479889,
1.40352156773,0.447766758127,0,-0.287879003388,0.0168679143038,21,-7.92774343491,-15.596572876,
1.36231350913,0.528829671068,0,-0.204372218067,0.0176135771484,22,-8.2427778244,-16.2148017883,
1.31966274991,0.612719811125,0,-0.11771633304,0.0182771970892,23,-8.53144931793,-16.7805023193,
1.27570685759,0.699162579698,0,-0.0283469225283,0.0188490684529,24,-8.79259204865,-17.2912483215,
1.23058429375,0.787881113214,0,0.0632650655175,0.0193212317188,25,-9.0260477066,-17.7466239929,
1.18442925825,0.878606296701,0,0.156628107935,0.0196900364756,26,-9.23264408112,-18.1481609344,
1.13736775532,0.971084929628,0,0.251240398686,0.0199530222781,27,-9.41404438019,-18.4990139008,
1.08951374903,1.06508634202,0,0.346606273474,0.0201114942773,28,-9.57261943817,-18.8037147522,
1.04096743479,1.16040644757,0,0.442240367008,0.0201674767541,29,-9.71116733551,-19.0676651001,
0.99181363001,1.25687167756,0,0.537670716215,0.0201238190703,30,-9.83274269104,-19.2967605591,
0.942121237661,1.35433766953,0,0.632451737101,0.0199863694627,31,-9.94053077698,-19.4970779419,
0.891943544294,1.45269057862,0,0.726156132427,0.0197585817227,32,-10.03764534,-19.6745738983,
0.84131905451,1.5518454086,0,0.818373447099,0.0194444144877,33,-10.1270618439,-19.8350219727,
0.79027268305,1.65174243562,0,0.908711155218,0.0190475592068,34,-10.2115049362,-19.9835586548,
0.738815993215,1.75234696977,0,0.996790485416,0.0185709146461,35,-10.2935991287,-20.1251602173,
0.686949700262,1.85364625566,0,1.0822331297,0.0180145119382,36,-10.375585556,-20.2641716003,
0.6346636714,1.95564720742,0,1.16466533777,0.0173792604964,37,-10.4595861435,-20.4046554565,
0.581938117887,2.05837557427,0,1.24370705502,0.0166640021168,38,-10.5475482941,-20.5501708984,
0.52874514475,2.16187307946,0,1.31896546881,0.0158658949201,39,-10.6411037445,-20.7041244507,
0.475048869993,2.26619718186,0,1.3900312736,0.0149815799721,40,-10.7418518066,-20.8696060181,
0.42080649748,2.37142059915,0,1.45647061658,0.0140058954884,41,-10.8511276245,-21.0495414734,
0.365969032194,2.47762987725,0,1.517822851,0.0129330722654,42,-10.970249176,-21.2468299866,
0.310481280233,2.58492586724,0,1.57359875698,0.0117571845392,43,-11.1003913879,-21.4643592834,
0.254283398534,2.69342396371,0,1.62327561709,0.010471043139,44,-11.2425441742,-21.7049789429,
0.197310060407,-3.47993042357,0,1.66630374603,0.00906918223341,45,-11.3977546692,-21.9718055725,
0.139490813161,-3.36861851104,0,1.70210936746,0.00754657687512,46,-11.567070961,-22.2681388855,
0.0807500781073,-3.25566079505,0,1.73010411093,0.00590005932399,47,-11.7515211105,-22.5975646973,
0.0210060776724,-3.14087273963,0,1.74969466362,0.00412729043057,48,-11.9523410797,-22.9639911652,