lower angle,upper angle,holding angle,system x,acceleration,ticks (200 tps),lower acceleration (shoulder),upper acceleration (elbow),
2.175444687,-1.230559399,0,-0.90367150976,-0.0568568537681,1,0.0,0.0,
2.175444687,-1.230559399,0,-0.90367150976,0.0,2,0.0,0.0,
2.175444687,-1.230559399,0,-0.90367150976,0.0,3,0.0,0.0,
2.17116381203,-1.22222566663,0,-0.896251063,0.000466860522619,4,-0.856176316738,-1.66674888134,
2.16568115003,-1.21150817687,0,-0.88690428464,0.000588049883517,5,-1.09653520584,-2.14350318909,
2.15886651187,-1.19817406835,0,-0.875293808501,0.000730461762748,6,-1.36293315887,-2.66683197021,
2.15071787148,-1.18221511843,0,-0.861404909028,0.00087379543923,7,-1.62973701954,-3.19180679321,
2.14122117518,-1.16360198485,0,-0.845187094514,0.00102030385075,8,-1.89935350418,-3.72265458107,
2.13035435437,-1.14229053037,0,-0.826567274726,0.00117140725988,9,-2.17338562012,-4.26233053207,
2.11809054225,-1.11822736787,0,-0.80545845801,0.00132798022951,10,-2.45279335976,-4.81269168854,
2.10439869224,-1.09135088848,0,-0.781761696267,0.00149077472664,11,-2.73841309547,-5.3753786087,
2.0892435035,-1.06159113871,0,-0.755366025386,0.00166054636687,12,-3.03109669685,-5.95205497742,
2.07258509307,-1.02886936592,0,-0.726147292119,0.00183812207215,13,-3.33175969124,-6.5445022583,
2.05437896608,-0.99309777247,0.0,-0.693969287003,0.00202426511181,14,-3.64132666588,-7.15451145172,
2.03457575499,-0.954178919664,0.0,-0.658684200964,0.00221970030331,15,-3.9607732296,-7.78402042389,
2.01312127172,-0.912006010881,0,-0.620132636391,0.0024251602616,16,-4.29106283188,-8.43489837646,
1.98995638846,-0.866462578646,0,-0.578144773993,0.00264129874246,17,-4.63318490982,-9.10907554626,
1.96501728355,-0.817423184982,0,-0.532541172942,0.00286871631089,18,-4.98807621002,-9.80837249756,
1.93823608219,-0.76475422608,0,-0.483137968599,0.00310769871236,19,-5.35656070709,-10.5344009399,
1.90954154193,-0.70831572043,0,-0.429748542284,0.00335841511611,20,-5.73930215836,-11.2884521484,
1.87886046826,-0.647963871828,0,-0.372190436218,0.00362060342328,21,-6.13669681549,-12.0712738037,
1.84611969649,-0.583555450311,0,-0.310290807326,0.00389366114928,22,-6.54873228073,-12.8827838898,
1.81124928056,-0.514953305593,0,-0.243901359858,0.00417603986241,23,-6.97478532791,-13.7217788696,
1.77418639719,-0.442034354082,0,-0.172910606883,0.00446521588798,24,-7.41343259811,-14.5854110718,
1.73488002478,-0.364699592462,0,-0.0972560542647,0.00475850812611,25,-7.86228847504,-15.4688892365,
1.69329803645,-0.282887091509,0,-0.0169509083826,0.00505095193703,26,-8.31758880615,-16.364780426,
1.64943411409,-0.196585943571,0,0.0678957098367,0.00533653659137,27,-8.77419662476,-17.2628974915,
1.6033151394,-0.105851580969,0,0.157060489242,0.00560806823412,28,-9.22541713715,-18.1499862671,
1.55500855505,-0.0108188890131,0,0.250178300031,0.00585662962012,29,-9.66320228577,-19.0101299286,
1.50462606012,0.0882888532964,0,0.346740814619,0.00607321360421,30,-10.0786361694,-19.8256072998,
1.45232477247,0.191158602366,0,0.446091237767,0.00624847834327,31,-10.462635994,-20.5784893036,
1.39830257951,0.297396133074,0,0.547443467535,0.00637430721676,32,-10.8070573807,-21.2525157928,
1.34278842269,0.406545946726,0,0.649909062742,0.00644424575959,33,-11.1056833267,-21.8353691101,
1.28602787315,0.518118093142,0,0.752548896314,0.00645512255355,34,-11.3551645279,-22.3202362061,
1.2282676345,0.631620595583,0,0.854409590608,0.00640604058366,35,-11.5552692413,-22.7066078186,
1.16973968803,0.74658877624,0,0.954578067431,0.00629951011575,36,-11.7089252472,-22.9999275208,
1.11065050422,0.862607429156,0,1.05220800606,0.00613973948297,37,-11.8212852478,-23.210269928,
1.05117269813,0.979327390322,0,1.14654049025,0.00593228905819,38,-11.899096489,-23.3506851196,
0.991441929928,1.09647149814,0,1.23691132911,0.00568307962071,39,-11.9497289658,-23.4355316162,
0.93155750095,1.21383209003,0,1.32275270225,0.00539815978136,40,-11.9804582596,-23.4788761139,
0.871585572353,1.33126706851,0,1.40357025347,0.00508185848005,41,-11.9979791641,-23.4937782288,
0.811562026134,1.44869251026,0,1.47893767286,0.00473908491623,42,-12.0082836151,-23.4918022156,
0.751497710338,1.56607217563,0,1.54847911514,0.00437264673136,43,-12.0164861679,-23.4826698303,
0.691381896129,1.68341130985,0,1.61185077204,0.00398461414957,44,-12.0267677307,-23.4745941162,
0.631186688534,1.80074925197,0,1.66872027157,0.00357572522428,45,-12.0426645279,-23.4743175507,
0.570869649044,-4.36503343808,0,1.71876251291,0.00314641499708,46,-12.0670795441,-23.4873046875,
0.510376418224,-4.2474766277,0,1.76163932007,0.00269584936681,47,-12.102312088,-23.5181770325,
0.449643219104,-4.12965636479,0,1.79698723896,0.00222244421374,48,-12.150390625,-23.5708732605,
0.388598168483,-4.01144676434,0,1.82441293628,0.00172432362752,49,-12.2127828598,-23.6488018036,
0.327163065067,-3.89270668255,0,1.84348322261,0.00119898262909,50,-12.290892601,-23.7550106049,
0.265253747097,-3.77327924,0,1.85372248248,0.000643752215842,51,-12.3858098984,-23.8926067352,
0.202782476536,-3.65299349057,0,1.85461069839,5.58422821563e-05,52,-12.4983158112,-24.0644416809,
0.139656627765,-3.53166179883,0,1.84559299718,-0.000566936465711,53,-12.62936306,-24.2738304138,
0.0757807141454,-3.40908007847,0,1.82608760162,-0.00122627464662,54,-12.7795257568,-24.5241146088,
0.0110548382909,-3.28502421605,0,1.79550457992,-0.00192268423435,55,-12.9497079849,-24.8191452026,
0.0546263808101,-3.15924887883,0,1.74314587313,-0.00329163062107,56,-13.1410007477,-25.1634101868,