lower angle,upper angle,holding angle,system x,acceleration,ticks (200 tps),lower acceleration (shoulder),upper acceleration (elbow),
1.593668276,0.156684577,0,-1.09770423217,-0.606416964431,1,0.0,0.0,
1.593668276,0.156684577,0,-1.09770423217,0.0,2,0.0,0.0,
1.593668276,0.156684577,0,-1.09770423217,0.0,3,0.0,0.0,
1.57007889778,0.202729831916,0,-1.04834438133,0.0272527782006,4,-4.71809434891,-9.20945739746,
1.53891054683,0.263695030939,0,-0.982965830392,0.0360930872039,5,-6.23417568207,-12.193985939,
1.50019457333,0.339417591226,0,-0.900545640572,0.0454953174545,6,-7.74416255951,-15.1463222504,
1.45422428243,0.429331004155,0,-0.801188394623,0.0548384951237,7,-9.19567775726,-17.9857139587,
1.40140956037,0.532628118527,0,-0.685310764478,0.0639497284106,8,-10.5654010773,-20.6640205383,
1.34228774302,0.648243426812,0,-0.553795315231,0.072572092403,9,-11.8278102875,-23.1295204163,
1.27750679247,0.774888395798,0,-0.408063086528,0.080408514529,10,-12.960729599,-25.337474823,
1.20778133862,0.91113787843,0,-0.250041221162,0.0871788005567,11,-13.9507446289,-27.2604560852,
1.13383253806,1.055548131,0,-0.0820492064186,0.0926678101785,12,-14.7964935303,-28.8946208954,
1.0563291847,1.20677250577,0,0.0933514260516,0.0967183511917,13,-15.508439064,-30.259349823,
0.975841575789,1.36365181161,0.0,0.273502884281,0.0993309463635,14,-16.1062164307,-31.3919563293,
0.892817431617,1.52526074601,0.0,0.455751872318,0.100480480663,15,-16.6143779755,-32.3394699097,
0.807574206519,1.6909245844,0,0.637491138705,0.100193099605,16,-17.0589847565,-33.1517601013,
0.720304781127,1.86020642472,0,0.816162214322,0.0984921774273,17,-17.4649658203,-33.8766708374,
0.631089621711,2.0328870411,0,0.989205830508,0.0953514774235,18,-17.8548908234,-34.5576629639,
0.539910131621,2.20894044591,0,1.15400301553,0.0907991755468,19,-18.2485523224,-35.2335777283,
0.44666200273,2.38851660444,0,1.3077957829,0.084730433004,20,-18.6631412506,-35.9394378662,
0.351168566871,2.57192534162,0,1.44762377696,0.0770316986207,21,-19.1132221222,-36.7076148987,
0.253189974952,2.75963586522,0,1.57029270105,0.0675706318311,22,-19.6114025116,-37.5698623657,
0.152430468726,2.95228165342,0,1.67240472316,0.0562404070489,23,-20.1689739227,-38.5591583252,
0.0485359966039,3.15067905141,0,1.75047000012,0.0429903736166,24,-20.7976150513,-39.712272644,