lower angle,upper angle,holding angle,system x,acceleration,ticks (200 tps),lower acceleration (shoulder),upper acceleration (elbow),
0.877635763,2.007839739,0,-0.605948703522,-30.072150396,1,0.0,0.0,
0.877635763,2.007839739,0,-0.605948703522,0.0,2,0.0,0.0,
0.877635763,2.007839739,0,-0.605948703522,0.0,3,0.0,0.0,
0.864924939323,2.03225975265,0,-0.55309328209,2.54625889213,4,-2.54219913483,-4.88406419754,
0.848471797045,2.06394885448,0,-0.484824451262,3.25883526468,5,-3.29070281982,-6.33795261383,
0.827847075622,2.10365380315,0,-0.399321504373,4.04571797854,6,-4.12509059906,-7.94125366211,
0.803200752448,2.15108038453,0,-0.297319798927,4.78490128795,7,-4.92951440811,-9.48576545715,
0.774646253298,2.20599533585,0,-0.17946582269,5.47534497041,8,-5.71128749847,-10.9836845398,
0.74228215308,2.26818865505,0,-0.0464385002018,6.12479216728,9,-6.47338438034,-12.4396705627,
0.706202135395,2.33745688168,0,0.100980092405,6.7280133215,10,-7.21678876877,-13.8550357819,
0.666493297528,2.41360691157,0,0.261884025978,7.27988446188,11,-7.94281196594,-15.2318592072,
0.623232559274,2.49646463958,0,0.435230242813,7.77559940706,12,-8.65349388123,-16.573928833,
0.576482669424,2.58588361708,0,0.619828133493,8.19980959211,13,-9.35168743134,-17.8867893219,
0.526288495372,2.68175417153,0.0,0.814328586695,8.56525928352,14,-10.0409450531,-19.177822113,
0.472674147199,2.78401213852,0.0,1.01721193162,8.85158348698,15,-10.7254390717,-20.4560890198,
0.415639982532,2.89264792172,0,1.22677962193,9.06407142279,16,-11.4099216461,-21.7325325012,
0.355159745525,3.00771576134,0,1.44114903452,9.19254222811,17,-12.0997438431,-23.0199775696,
0.291176841568,3.1293453571,0,1.65825559299,9.22773763279,18,-12.8009471893,-24.3334770203,