lower angle,upper angle,holding angle,system x,acceleration,ticks (200 tps),lower acceleration (shoulder),upper acceleration (elbow),
1.996436564,-0.790309276,0,-1.01796723654,-0.296545722919,1,0.0,0.0,
1.996436564,-0.790309276,0,-1.01796723654,0.0,2,0.0,0.0,
1.996436564,-0.790309276,0,-1.01796723654,0.0,3,0.0,0.0,
1.97659691398,-0.751661322579,0,-0.983496703053,0.0100398539911,4,-3.96806001663,-7.72983217239,
1.95028914672,-0.700282621697,0,-0.937736056955,0.0133273306016,5,-5.26185703278,-10.2763061523,
1.91695730922,-0.635167132631,0,-0.878774546756,0.0171709509532,6,-6.66698503494,-13.0242500305,
1.8763386437,-0.555777992621,0,-0.805603345549,0.0213079679562,7,-8.12485122681,-15.8799180984,
1.82811186996,-0.461472715751,0,-0.717002757337,0.0257996987253,8,-9.6472234726,-18.8645572662,
1.77194832054,-0.351598854676,0,-0.611717811308,0.030656460805,9,-11.2356643677,-21.9803066254,
1.70758852151,-0.225642766372,0,-0.488709876948,0.0358151205948,10,-12.8764095306,-25.1995677948,
1.63494622496,-0.0834354418669,0,-0.347498533618,0.0411122345662,11,-14.5348501205,-28.4534645081,
1.55423885372,0.0745896440592,0,-0.188600903442,0.0462586633939,12,-16.1502475739,-31.6214981079,
1.46610423711,0.247164879426,0,-0.0139475823241,0.0508425361277,13,-17.6383476257,-34.5365333557,
1.37162884858,0.432131205186,0.0,0.172946799812,0.0544033370233,14,-18.9091472626,-37.0196685791,
1.27222129491,0.626685414895,0.0,0.367272416795,0.0565630857563,15,-19.8979091644,-38.9416122437,
1.16935190347,0.827892695054,0,0.56362951553,0.0571507462008,16,-20.5920314789,-40.2754974365,
1.06428691533,1.03321090756,0,0.756800934807,0.0562201938383,17,-21.0323524475,-41.0997772217,
0.957936851056,1.24078813611,0,0.942245720891,0.053968160766,18,-21.2900714874,-41.5528335571,
0.850839582951,1.44949832974,0,1.11619323381,0.0506191904876,19,-21.4399547577,-41.7800369263,
0.743218986066,1.65882388173,0,1.27550618808,0.046357526308,20,-21.5449199677,-41.9034576416,
0.635061828168,1.86870733319,0,1.41742843691,0.0412946676027,21,-21.6525249481,-42.0153121948,
0.526184050115,2.07942381917,0,1.53933694108,0.0354690325962,22,-21.7971057892,-42.1825256348,
0.41627785352,2.29149881421,0,1.63851858813,0.028854983871,23,-22.0033950806,-42.4549179077,
0.30494805959,-3.77753290118,0,1.71200591726,0.0213784850441,24,-22.2890129089,-42.8719787598,
0.19173404363,-3.56039937915,0,1.75649656392,0.012942183514,25,-22.6670036316,-43.4696044922,
0.0761254706696,-3.33920487346,0,1.76842181537,0.00346888350827,26,-23.1474838257,-44.2843284607,
0.0424409231826,-3.11265477122,0,1.75706515839,-0.00330331239602,27,-23.7411079407,-45.35887146,