lower angle,upper angle,holding angle,system x,acceleration,ticks (200 tps),lower acceleration (shoulder),upper acceleration (elbow),
1.459412174,0.471352484,0,-1.07120624403,-0.756127969094,1,0.0,0.0,
1.459412174,0.471352484,0,-1.07120624403,0.0,2,0.0,0.0,
1.459412174,0.471352484,0,-1.07120624403,0.0,3,0.0,0.0,
1.43713689193,0.514804016722,0,-1.02007882543,0.0360737062748,4,-4.45524072647,-8.69064903259,
1.4079187528,0.571914862764,0,-0.95295412121,0.047342859719,5,-5.84404325485,-11.4229450226,
1.371798122,0.642504211438,0,-0.869009920011,0.0591957091825,6,-7.22491168976,-14.1193380356,
1.32915829278,0.725825633776,0,-0.768766111401,0.0706797288268,7,-8.52925872803,-16.6667003632,
1.28045463718,0.820979621184,0,-0.65298175073,0.0816246301547,8,-9.74265861511,-19.0343914032,
1.22620205738,0.926941867841,0,-0.522723257711,0.0918150526315,9,-10.853181839,-21.197429657,
1.16695483185,1.04260596253,0,-0.379394865095,0.101013938223,10,-11.8529052734,-23.1392631531,
1.10327439166,1.16684612252,0,-0.224699682056,0.109010215601,11,-12.7403898239,-24.856054306,
1.0356944666,1.29858645417,0,-0.0605751898893,0.115639070466,12,-13.5211353302,-26.3576183319,
0.964691595806,1.43685748793,0,0.110886916072,0.120787335119,13,-14.2065496445,-27.6652545929,
0.890664593949,1.58083691813,0.0,0.287501561639,0.124401274748,14,-14.8121643066,-28.8083667755,
0.8139236138,1.72987106062,0.0,0.467030089485,0.126436293196,15,-15.3557395935,-29.8206825256,
0.734687165989,1.8834810517,0,0.647192554516,0.126866222449,16,-15.855588913,-30.737165451,
0.653084711804,2.04135873534,0,0.825654265376,0.125644234102,17,-16.3295669556,-31.5920066833,
0.569162087216,2.203358557,0,0.999991679895,0.122695114489,18,-16.7943725586,-32.4177627563,
0.482889549507,2.36948826529,0,1.16764069683,0.11797006277,19,-17.2652225494,-33.2451248169,
0.394168572201,2.53990211703,0,1.32585476622,0.111314489971,20,-17.7558307648,-34.1035118103,
0.302839832081,2.71489968516,0,1.47166887397,0.102574099286,21,-18.2784633636,-35.0220108032,
0.208688215985,2.89493003107,0,1.60190963361,0.0916036337492,22,-18.8442573547,-36.0305747986,
0.111443238034,3.08060493685,0,1.71325758779,0.0783042822559,23,-19.4643249512,-37.1618270874,
0.0107705161707,3.27272191263,0,1.80236116811,0.0626526741436,24,-20.1515693665,-38.4531745911,