lower angle,upper angle,holding angle,system x,acceleration,ticks (200 tps),lower acceleration (shoulder),upper acceleration (elbow),
1.235652028,1.007432301,0,-0.967245059178,-1.37386091516,1,0.0,0.0,
1.235652028,1.007432301,0,-0.967245059178,0.0,2,0.0,0.0,
1.235652028,1.007432301,0,-0.967245059178,0.0,3,0.0,0.0,
1.21721307968,1.04329991753,0,-0.916841635006,0.0715191621583,4,-3.68789410591,-7.1737165451,
1.19323875976,1.09003412391,0,-0.85141880713,0.0927999490122,5,-4.79509401321,-9.34726715088,
1.16355507669,1.14787862118,0,-0.769937927369,0.115542498971,6,-5.93717193604,-11.5697059631,
1.12849038688,1.21619186218,0,-0.673156097447,0.137202267999,7,-7.01365613937,-13.6639766693,
1.08838169125,1.29430379386,0,-0.561902200256,0.157669266815,8,-8.02281665802,-15.6243829727,
1.04356989113,1.38152991648,0,-0.437128295513,0.176774268544,9,-8.96385765076,-17.4479904175,
0.99439732579,1.47717835422,0,-0.299950385568,0.194249701009,10,-9.83649349213,-19.1333465576,
0.941195426857,1.58057465072,0,-0.151647460075,0.209934634439,11,-10.6428899765,-20.6838760376,
0.88427111355,1.69108780141,0,0.00635518367088,0.223577945432,12,-11.3879404068,-22.1082801819,
0.823895601904,1.80815293308,0,0.172497912387,0.235022096509,13,-12.0787734985,-23.419719696,
0.760295657789,1.9312874269,0.0,0.345100622605,0.244087921314,14,-12.724275589,-24.6347141266,
0.693648217594,2.06010349508,0.0,0.522359929131,0.250589658826,15,-13.3344259262,-25.7721557617,
0.624076841747,2.1943150353,0,0.702345953226,0.254366889313,16,-13.9198884964,-26.8524589539,
0.551651178276,2.3337428164,0,0.882980890416,0.255202972401,17,-14.4914627075,-27.8968753815,
0.476387618458,2.47831602807,0,1.06201892153,0.252879551399,18,-15.0598211288,-28.9273033142,
0.398250697529,2.62807710882,0,1.23702267868,0.24710649527,19,-15.6353445053,-29.9663257599,
0.317155240452,2.78318651433,0,1.40535125815,0.237599576208,20,-16.2279853821,-31.0375366211,
0.232967554009,2.94393022771,0,1.5641706089,0.224107380429,21,-16.8474998474,-32.1661453247,
0.145503459847,3.11073191877,0,1.71049372591,0.206417791613,22,-17.5039749146,-33.3798599243,