lower angle,upper angle,holding angle,system x,acceleration,ticks (200 tps),lower acceleration (shoulder),upper acceleration (elbow),
1.146147966,1.230559399,0,-0.903671626319,-0.0856186823495,1,0.0,0.0,
1.146147966,1.230559399,0,-0.903671626319,0.0,2,0.0,0.0,
1.146147966,1.230559399,0,-0.903671626319,0.0,3,0.0,0.0,
1.1538064476,1.21573071705,0,-0.926440129508,-0.00215707976512,4,1.53170204163,2.96575737,
1.16376185379,1.19643216359,0,-0.955913528743,-0.00279224553325,5,1.9910941124,3.85967922211,
1.17625737152,1.17222504841,0,-0.992892652028,-0.0035032541292,6,2.49911761284,4.84148216248,
1.19132065735,1.14304595219,0,-1.03736638264,-0.00421317250621,7,3.01267337799,5.8359746933,
1.20900607071,1.10878138768,0,-1.08938500209,-0.00492782836607,8,3.53724122047,6.85307598114,
1.22939038238,1.06927876698,0,-1.14905023937,-0.00565210359276,9,4.07696962357,7.90071153641,
1.25256419143,1.02435593831,0,-1.21645328623,-0.00638492337653,10,4.63499307632,8.98496627808,
1.27863430938,0.973800232282,0,-1.29168349129,-0.00712621762063,11,5.21430253983,10.1117420197,
1.30772185287,0.917368938795,0,-1.37479442419,-0.00787256378404,12,5.81794261932,11.2870159149,
1.339964151,0.854789783827,0,-1.46580702952,-0.00862088035596,13,6.44899225235,12.5168113708,
1.3755118843,0.785763313642,0.0,-1.56466502995,-0.00936382980048,14,7.11028528214,13.8066444397,
1.41452765426,0.709967186323,0.0,-1.67120871813,-0.0100916092433,15,7.80415964127,15.1610374451,
1.45718073806,0.627067139021,0,-1.78513075302,-0.0107902508855,16,8.53188514709,16.5823898315,
1.50363707504,0.536735107771,0,-1.90590603569,-0.0114391489164,17,9.29297161102,18.0695400238,
1.55404686889,0.438676407209,0,-2.03273492468,-0.0120122748179,18,10.0840492249,19.6156711578,
1.60852122268,0.332672645918,0,-2.16443836168,-0.0124729831186,19,10.897608757,21.2057094574,
1.66710782013,0.218635132185,0,-2.29940870768,-0.0127821402732,20,11.7206859589,22.8137531281,
1.72975659332,0.0966673396738,0,-2.4355181916,-0.0128897518007,21,12.5338554382,24.4011287689,
1.79629015884,-0.0328726269094,0,-2.57013349466,-0.0127479636966,22,13.3116188049,25.9170837402,
1.86638569793,-0.169337222704,0,-2.70019030206,-0.0123159953791,23,14.0248203278,27.3034820557,
1.93957972488,-0.311798999437,0,-2.8223724621,-0.0115700702667,24,14.6453905106,28.5044326782,
2.01530766449,-0.459124992022,0,-2.93339834529,-0.0105134200829,25,15.1527967453,29.4785728455,
2.09296345672,-0.610098788866,0,-3.03027098598,-0.00917302422548,26,15.5389356613,30.2091388702,
2.17197060547,-0.763557860979,0,-3.11050663637,-0.00759747006401,27,15.8097372055,30.7069568634,
2.25183987579,-0.918505141863,0,-3.172238704,-0.00584526377864,28,15.9823322296,31.004940033,
2.33219647369,-1.07416648639,0,-3.21416681974,-0.00397000112745,29,16.0800056458,31.1480960846,
2.41278862915,-1.23000473751,0,-3.23546592263,-0.0020166873081,30,16.1270847321,31.1834964752,
2.49347281418,-1.38569445384,0,-3.2356273972,-1.52888007144e-05,31,16.1456127167,31.1537761688,
2.5741980072,-1.54108733905,0,-3.21434301392,0.00201521002156,32,16.1538982391,31.0942764282,
2.65498614273,-1.69617290271,0,-3.17139210297,0.00406652659429,33,16.1664199829,31.0327644348,
2.73591256103,-1.85104722751,0,-3.10652249804,0.00614164129624,34,16.1941299438,30.9904613495,
2.81709408722,4.27729873883,0,-3.01940250073,0.00824808314696,35,16.2451820374,30.9834537506,
2.89867615661,4.12225585209,0,-2.90955731355,0.0103992082262,36,16.3254852295,31.0242004395,
2.98082566223,3.96672063099,0,-2.77635117859,0.0126105848176,37,16.4391345978,31.1228656769,
3.06372189483,3.81036072003,0,-2.61897136223,0.014898781088,38,16.5887260437,31.2881355286,
3.13563448626,3.65280060994,0,-2.40584436519,0.0201758593563,39,16.7756443024,31.5284767151,