lower angle,upper angle,holding angle,system x,acceleration,ticks (200 tps),lower acceleration (shoulder),upper acceleration (elbow),
2.085940626,-1.007432301,0,-0.967244958148,-0.0431894493645,1,0.0,0.0,
2.085940626,-1.007432301,0,-0.967244958148,0.0,2,0.0,0.0,
2.085940626,-1.007432301,0,-0.967244958148,0.0,3,0.0,0.0,
2.09464862618,-1.02432854886,0,-0.982358773422,-0.000674845981943,4,1.74160456657,3.37928104401,
2.10611751351,-1.04660208936,0,-1.00202381895,-0.00087805471471,5,2.29373884201,4.45470666885,
2.12047746453,-1.07446559186,0,-1.02651855211,-0.00109369226085,6,2.87207770348,5.57278728485,
2.1376407412,-1.10774930234,0,-1.05552119637,-0.00129495924358,7,3.43274569511,6.6569108963,
2.15752055917,-1.14628203626,0,-1.08869218034,-0.00148106104944,8,3.97609424591,7.7067565918,
2.18002774987,-1.18988450284,0,-1.12566829112,-0.0016509429048,9,4.50161457062,8.7208814621,
2.20506646905,-1.23836453672,0,-1.16603923164,-0.00180250211228,10,5.0080242157,9.69645500183,
2.23253562722,-1.29151566739,0,-1.20936848576,-0.00193456394054,11,5.49411725998,10.6308860779,
2.2623288897,-1.34912379499,0,-1.25516504319,-0.00204470505041,12,5.95909309387,11.5223617554,
2.29433896813,-1.41096862073,0,-1.30292051606,-0.00213214836635,13,6.40260076523,12.3699474335,
2.32845952782,-1.4768303227,0.0,-1.35209941411,-0.00219568292232,14,6.82478094101,13.1736221313,
2.36458661828,-1.546494801,0.0,-1.40213219429,-0.00223378650229,15,7.22618818283,13.9342336655,
2.40262105737,-1.6197536778,0,-1.45243749991,-0.00224589741027,16,7.60783815384,14.6534481049,
2.44247129235,-1.69641240354,0,-1.50241511965,-0.00223124836791,17,7.97110557556,15.3336782455,
2.48405387673,-1.77629216428,0,-1.55144240816,-0.00218880297235,18,8.31772994995,15.9780244827,
2.52729537759,-1.85923035856,0,-1.59888639699,-0.00211809763352,19,8.64965343475,16.5900554657,
2.57213332925,-1.9450863194,0,-1.6440887887,-0.00201800668653,20,8.96907997131,17.1738204956,
2.61851671014,-2.03373988386,0,-1.68637157741,-0.00188764921614,21,9.27829933167,17.7336120605,
2.66640641961,-2.12509425397,0,-1.72502785388,-0.00172573564654,22,9.57976341248,18.2741012573,
2.71577527795,-2.21907695051,0,-1.75931627398,-0.00153072882786,23,9.875831604,18.7999992371,
2.76660898003,-2.31563933606,0,-1.78846439563,-0.00130124153939,24,10.1689300537,19.3162689209,
2.81890466485,-2.41475852247,0,-1.81165295488,-0.0010351824711,25,10.4614429474,19.8279685974,
2.87266900811,-2.51643737073,0,-1.82800926884,-0.000730170584203,26,10.7555246353,20.3402442932,
2.92792156014,-2.62070639844,0,-1.83662142335,-0.000384455898971,27,11.0533218384,20.8585014343,
2.98469045434,-2.72762234922,0,-1.83652989977,4.08567293625e-06,28,11.3568525314,21.3883399963,
3.04301383767,-2.83727200742,0,-1.82673935437,0.000437052304873,29,11.6679258347,21.9355697632,
3.10293796334,-2.94977458234,0,-1.80623064458,0.000915505873605,30,11.9884557724,22.5065402985,
3.11866477853,-3.06528218503,0,-1.75563886413,0.00225839113244,31,12.3203763962,23.1080245972,