lower angle,upper angle,holding angle,system x,acceleration,ticks (200 tps),lower acceleration (shoulder),upper acceleration (elbow),
1.056643887,1.463504497,0,-0.825872465514,-0.528357703462,1,0.0,0.0,
1.056643887,1.463504497,0,-0.825872465514,0.0,2,0.0,0.0,
1.056643887,1.463504497,0,-0.825872465514,0.0,3,0.0,0.0,
1.05751697584,1.46184224267,0,-0.828781732181,-0.00186038810036,4,0.174609139562,0.332384586334,
1.05855266614,1.45989102502,0,-0.832295911633,-0.00224691097738,5,0.207127079368,0.390267133713,
1.05978385969,1.45759028573,0,-0.83653128152,-0.00270764781642,6,0.246248736978,0.460171222687,
1.06120769544,1.45494479317,0,-0.841476582515,-0.00316121966873,7,0.284755945206,0.529097497463,
1.06282321973,1.45195597787,0,-0.847127877507,-0.00361204046696,8,0.323090910912,0.597761929035,
1.0646309094,1.44862288613,0,-0.85348710633,-0.00406397884575,9,0.361507207155,0.666596114635,
1.06663076444,1.44494456429,0,-0.860551877926,-0.00451428336434,10,0.400045633316,0.735688686371,
1.06882469221,1.440919105,0,-0.868334495865,-0.00497227440584,11,0.438753336668,0.805118322372,
1.07121269269,1.43654460091,0,-0.876829728881,-0.00542684149023,12,0.477631598711,0.874889016151,
1.07379667325,1.43181914467,0,-0.886050016077,-0.00588923559742,13,0.516726374626,0.945060253143,
1.07657663389,1.42674082894,0.0,-0.895990189259,-0.00634821308105,14,0.556035041809,1.01566529274,
1.07955448194,1.42130726952,0.0,-0.906661305743,-0.00681408764366,15,0.595579266548,1.08673226833,
1.08273164793,1.4155156054,0,-0.918068557759,-0.00728301729738,16,0.635390877724,1.15830767155,
1.08610908552,1.40936345238,0,-0.930214205487,-0.00775334998502,17,0.675491154194,1.23043477535,
1.08968822523,1.40284794945,0,-0.943103457731,-0.00822692464896,18,0.715874493122,1.30312180519,
1.09347145124,1.39596575875,0,-0.956748972046,-0.00870847899945,19,0.756594598293,1.37645530701,
1.09745971723,1.38871306557,0,-0.971148453592,-0.0091881762601,20,0.797666370869,1.45046305656,
1.10165540739,1.38108748574,0,-0.986317609525,-0.00967818549408,21,0.839104413986,1.52516281605,
1.10605995222,1.37308425088,0,-1.00225550109,-0.0101673480953,22,0.880944550037,1.60063445568,
1.11067573591,1.36470002312,0,-1.018974744,-0.0106649270992,23,0.923197925091,1.67690742016,
1.11550561948,1.35592955727,0,-1.03648630862,-0.0111692219174,24,0.965903520584,1.75403475761,
1.12055055662,1.34676951546,0,-1.0547890905,-0.0116730196642,25,1.00906896591,1.83204841614,
1.12581436201,1.33721417565,0,-1.07390144118,-0.0121877616794,26,1.05273866653,1.91102600098,
1.131298943,1.3272592463,0,-1.09382805273,-0.0127054965385,27,1.0969376564,1.99101138115,
1.13700763746,1.31689900536,0,-1.11458252957,-0.0132317204851,28,1.14169847965,2.07205867767,
1.14294282957,1.3061277308,0,-1.13616910521,-0.0137604018949,29,1.18704295158,2.15422773361,
1.14910785718,1.29494017739,0,-1.15860266184,-0.0142984680944,30,1.23299872875,2.23756837845,
1.15550558134,1.28332919259,0,-1.18188682683,-0.014838407556,31,1.27961671352,2.3221642971,
1.16214029356,1.27128905434,0,-1.2060438124,-0.0153925198237,32,1.32690095901,2.40803337097,
1.16901485486,1.2588126101,0,-1.23107672853,-0.0159486084995,33,1.37491929531,2.49530267715,
1.17613307996,1.2458927073,0,-1.2569977018,-0.0165125241606,34,1.42368876934,2.58400058746,
1.18349926038,1.23252171654,0,-1.28382162202,-0.0170856287878,35,1.47323560715,2.67420053482,
1.19111721082,1.21869200844,0,-1.31155827678,-0.0176643708322,36,1.52361488342,2.76599264145,
1.19899169965,1.20439452309,0,-1.34022153138,-0.0182521485043,37,1.57488453388,2.85945892334,
1.20712701841,1.18962115426,0,-1.36982335087,-0.0188474880017,38,1.62705945969,2.95466947556,
1.21552793546,1.17436284203,0,-1.40037659943,-0.0194507996621,39,1.68019771576,3.05170726776,
1.22419969602,1.15860957284,0,-1.43189496988,-0.0200632065524,40,1.73433363438,3.15066719055,
1.23314706846,1.14235180993,0,-1.46438834234,-0.0206809370787,41,1.78950476646,3.25160551071,
1.24237577482,1.12557858605,0,-1.49787039352,-0.0213076474388,42,1.84580266476,3.35468196869,
1.25189201398,1.10827893395,0,-1.53235891027,-0.0219456860033,43,1.9032394886,3.45995855331,
1.261701508,1.09044140954,0,-1.56786413712,-0.0225882945646,44,1.96187162399,3.56750583649,
1.27180997892,1.07205409188,0,-1.60439347663,-0.0232311852258,45,2.02175927162,3.67747855186,
1.28222505613,1.05310458321,0,-1.64197134299,-0.0238952307655,46,2.0829744339,3.78996801376,
1.29295246168,1.03357905526,0,-1.68059558422,-0.0245579706419,47,2.1455476284,3.90507364273,
1.30400030179,1.01346463341,0,-1.7202913342,-0.0252372058425,48,2.20956373215,4.02292013168,
1.31537572904,0.992746535727,0,-1.76106497722,-0.025920165529,49,2.27507734299,4.14364528656,
1.32708589597,0.971409980246,0,-1.80292113431,-0.0266045871705,50,2.34214544296,4.26734256744,
1.33914033933,0.949439708182,0,-1.84588629606,-0.0273058404675,51,2.41082882881,4.39413881302,
1.35154621168,0.926819030234,0,-1.88995381639,-0.0280027152351,52,2.48120737076,4.52416229248,
1.36431257291,0.903531733938,0,-1.93513718841,-0.0287080389274,53,2.55333757401,4.6575422287,
1.37744895978,0.879560176321,0,-1.98144706978,-0.0294199323851,54,2.62728762627,4.79441165924,
1.3909644322,0.854885760733,0,-2.0288824196,-0.0301309377717,55,2.70312857628,4.93487024307,
1.40486852689,0.829490844198,0,-2.0774483772,-0.0308464857143,56,2.78092384338,5.07907056808,
1.41917173429,0.803355876395,0,-2.12714966942,-0.0315645755128,57,2.86072325706,5.22710418701,
1.43388502164,0.77646083016,0,-2.17799094582,-0.0322843421247,58,2.94262099266,5.37911701202,
1.4490179257,0.748785201498,0,-2.22995515454,-0.0329930560739,59,3.02664113045,5.53518867493,
1.46458189054,0.72030848641,0,-2.28304235819,-0.0337011385413,60,3.11286830902,5.69544219971,
1.48058788343,0.691009227225,0,-2.33723881166,-0.0344008563324,61,3.20131039619,5.85991001129,
1.49704782529,0.660866443106,0,-2.39253877388,-0.0350976230935,62,3.29204583168,6.02870750427,
1.51397268339,0.629857722708,0,-2.44891428622,-0.0357758019601,63,3.3850774765,6.20186471939,
1.53137437864,0.597961608359,0.0,-2.50634667939,-0.0364417707583,64,3.48043560982,6.37938404083,
1.54926483198,0.565156165549,0.0,-2.56480915646,-0.0370895928941,65,3.57813119888,6.56126689911,
1.56765453382,0.531419459769,0,-2.62425187735,-0.0377067465794,66,3.67810511589,6.74746799469,
1.58655588193,0.496730987021,0,-2.68464634195,-0.0383058303915,67,3.780346632,6.93786048889,
1.60597936674,0.461070243307,0,-2.74593464477,-0.0388679198048,68,3.88482761383,7.13236093521,
1.62593595548,0.424417678305,0,-2.80806077953,-0.0393943631587,69,3.99141335487,7.33072328568,
1.64643470808,0.386755172201,0,-2.87094476006,-0.0398710919148,70,4.09997940063,7.53269672394,
1.66748611494,0.348066989371,0,-2.93452565267,-0.0403099547046,71,4.2104101181,7.73795795441,
1.68909780546,0.308337871023,0,-2.9987022263,-0.0406846936007,72,4.32246589661,7.94607019424,
1.71127645536,0.267556373068,0,-3.06337063316,-0.0409924040119,73,4.43595600128,8.15656852722,
1.73402826353,0.225713435599,0,-3.12842321398,-0.0412326760356,74,4.55057811737,8.36885643005,
1.75735752149,0.182803813406,0,-3.19373857382,-0.0413959321624,75,4.66600894928,8.58225250244,
1.7812661366,0.138825599142,0,-3.25917376352,-0.0414680705846,76,4.78191900253,8.79605293274,
1.80575410886,0.0937807001555,0,-3.32457243289,-0.041440598308,77,4.89789247513,9.00936222076,
1.83082000776,0.0476762690032,0,-3.38977799521,-0.0413141799546,78,5.01345252991,9.22129631042,
1.85646001859,0.000524226614258,0,-3.45462073732,-0.0410802668649,79,5.12820482254,9.4308719635,
1.88266651197,-0.0476587377107,0,-3.51890183777,-0.0407214012823,80,5.24160814285,9.63709068298,
1.90943090482,-0.0968506894624,0,-3.58243044762,-0.0402399125454,81,5.35319280624,9.83889961243,
1.93674127622,-0.147024448923,0,-3.64499692331,-0.039626755562,82,5.46246671677,10.0352592468,
1.96458427473,-0.198147114328,0,-3.70639901881,-0.0388850378687,83,5.56894350052,10.2251520157,
1.99294321104,-0.250182922891,0,-3.76640643436,-0.0379970282924,84,5.67216873169,10.4076766968,
2.02179996534,-0.303088959268,0,-3.82480676536,-0.0369753921007,85,5.77179670334,10.5819330215,
2.05113546415,-0.356821831278,0,-3.88137795965,-0.0358139104533,86,5.86746501923,10.7472085953,
2.08092777296,-0.411332901529,0,-3.93589266293,-0.0345076348501,87,5.95889282227,10.9028844833,
2.11115495725,-0.466572102121,0,-3.98813277142,-0.0330648162479,88,6.0459356308,11.0485210419,
2.14179508253,-0.522487457803,0,-4.0378928626,-0.0314922278296,89,6.12848472595,11.1838665009,
2.1728252606,-0.579027947,0,-4.08495556313,-0.0297816407166,90,6.20655536652,11.3088026047,
2.20422403379,-0.636140640787,0,-4.12913392663,-0.027953793516,91,6.2802028656,11.4233798981,
2.23596899076,-0.693775471262,0,-4.17022070624,-0.0259950116449,92,6.34960842133,11.5278024673,
2.26804153486,-0.751883801035,0,-4.20804794332,-0.0239300954924,93,6.41501760483,11.6224822998,
2.30042211576,-0.810418423227,0,-4.24243511901,-0.021751749352,94,6.47670555115,11.707868576,
2.333094521,-0.869336899332,0,-4.27321732742,-0.019469877118,95,6.53504562378,11.7845363617,
2.3660434918,-0.928598221353,0,-4.30023669445,-0.0170878640949,96,6.59042024612,11.853143692,
2.39925710721,-0.98816567283,0,-4.32335098525,-0.01461674443,97,6.64326047897,11.9144420624,
2.43272392316,-1.04800682884,0,-4.34240350668,-0.012047219159,98,6.69402503967,11.9691791534,
2.46643631025,-1.1080926023,0,-4.35726016191,-0.00938258960232,99,6.74315834045,12.0180606842,
2.50038854642,-1.16839724403,0,-4.36778853296,-0.00664812909292,100,6.79109525681,12.0619106293,
2.53457729383,-1.22889977317,0,-4.37385356751,-0.00382928540954,101,6.83833456039,12.1014699936,
2.56899969144,-1.28958206993,0,-4.37530859091,-0.000918543500601,102,6.88521575928,12.1374597549,
2.60365716978,-1.35043006759,0,-4.37202222252,0.00207443137881,103,6.93223524094,12.1705780029,
2.63855258985,-1.41143232208,0,-4.36385729498,0.00515347290867,104,6.97977542877,12.2014713287,
2.67368976636,-1.47258144241,0,-4.35065877712,0.00832950218869,105,7.0281791687,12.2308006287,
2.70907585187,-1.53387170654,0,-4.33228364618,0.0115951116777,106,7.07785844803,12.2590866089,
2.74471704526,-1.59530120712,0,-4.30855433444,0.0149722060062,107,7.12905311584,12.2869319916,
2.78062383695,-1.65686994415,0,-4.27930802221,0.0184512844538,108,7.18216466904,12.3148212433,
2.81680671735,4.56460470338,0,-4.2443577851,0.0220473171343,109,7.23736286163,12.3432035446,
2.8532776074,4.50274747986,0,-4.20350630967,0.0257680094197,110,7.29493808746,12.3725147247,
2.89004890485,4.44073695321,0,-4.15653786936,0.0296241189893,111,7.35508871078,12.4032087326,
2.92713443799,4.37856454033,0,-4.10322537519,0.0336229305748,112,7.41796541214,12.4356021881,
2.96454851194,4.31621975083,0,-4.04332341929,0.0377750592386,113,7.48369693756,12.4700908661,
3.00230590864,4.25369090218,0.0,-3.97657173234,0.0420891288159,114,7.55239677429,12.5069656372,
3.04042141004,4.19096368928,0.0,-3.9026869437,0.0465792655693,115,7.62405252457,12.546585083,
3.07891027494,4.12802333016,0,-3.82137550137,0.0512531926062,116,7.69873380661,12.5892763138,
3.11778728528,4.06485313553,0,-3.73232398358,0.0561248752813,117,7.77631998062,12.6352968216,
3.1261199915,4.00143450875,0,-3.51209648251,0.138781422328,118,7.85670042038,12.6849594116,