lower angle,upper angle,holding angle,system x,acceleration,ticks (200 tps),lower acceleration (shoulder),upper acceleration (elbow),
1.190899988,1.118062055,0,-0.937124733427,-0.394782749971,1,0.0,0.0,
1.190899988,1.118062055,0,-0.937124733427,0.0,2,0.0,0.0,
1.190899988,1.118062055,0,-0.937124733427,0.0,3,0.0,0.0,
1.19194092352,1.11606839884,0,-0.940191735944,-0.00129164544197,4,0.208166971803,0.398649990559,
1.19321217138,1.11365321864,0,-0.944012982007,-0.00160914572993,5,0.254198610783,0.483119606972,
1.1947432955,1.11076120127,0,-0.948680596264,-0.00196532725243,6,0.306214541197,0.578321933746,
1.19653238851,1.10739663828,0,-0.954191393338,-0.00232011857759,7,0.357839643955,0.672979950905,
1.19857945043,1.103558576,0,-0.960541609153,-0.00267325082469,8,0.40940657258,0.767603754997,
1.20088495809,1.0992455839,0,-0.967730567462,-0.00302604715081,9,0.461121290922,0.862560391426,
1.203450342,1.09445527781,0,-0.9757637949,-0.00338115801079,10,0.513119995594,0.95806735754,
1.20627750951,1.0891847967,0,-0.984649922473,-0.00373988323334,11,0.565390467644,1.05414128304,
1.2093674143,1.08343032587,0,-0.994383813035,-0.00409615414719,12,0.618005156517,1.1508872509,
1.21272244055,1.07718852747,0,-1.00497711771,-0.00445746592488,13,0.670979678631,1.24833607674,
1.21634401876,1.0704555868,0.0,-1.01642954027,-0.00481862586949,14,0.724352657795,1.34658932686,
1.22023500997,1.06322721232,0.0,-1.0287538469,-0.00518507544503,15,0.778155386448,1.44568800926,
1.22439732153,1.05549863566,0,-1.04195077221,-0.00555181108083,16,0.832447648048,1.54574275017,
1.22883333761,1.04726461161,0,-1.05602401614,-0.00591912386625,17,0.887246906757,1.6467871666,
1.23354639608,1.03851989497,0,-1.07098721511,-0.00629297273894,18,0.942601442337,1.74892687798,
1.23853935796,1.02925876368,0,-1.08684689185,-0.00666684151353,19,0.99856364727,1.85222911835,
1.24381508428,1.01947501887,0,-1.10360742222,-0.0070448398825,20,1.05514144897,1.95675432682,
1.2493769129,1.00916198481,0,-1.12127606668,-0.00742578192331,21,1.11241328716,2.06262540817,
1.25522913534,0.998312508949,0,-1.13986807828,-0.00781317391368,22,1.17041575909,2.16991591454,
1.26137508947,0.986918961891,0,-1.15938624921,-0.00820170809292,23,1.22918057442,2.27868008614,
1.26781858999,0.974973714241,0,-1.17983807637,-0.00859333783425,24,1.28876185417,2.38903474808,
1.2745648821,0.962468659767,0,-1.20124414092,-0.00899343546893,25,1.34920704365,2.50107145309,
1.28161730367,0.949394261726,0,-1.2235980623,-0.00939090817134,26,1.41057419777,2.61487913132,
1.28898205358,0.935741460212,0,-1.24692585984,-0.00979927043738,27,1.47290849686,2.7305624485,
1.29666342336,0.921500718483,0,-1.27123034162,-0.0102087821711,28,1.53624784946,2.84820556641,
1.30466665823,0.906661069282,0,-1.29651800598,-0.0106208961049,29,1.60065972805,2.96791172028,
1.31299748022,0.891212022194,0,-1.32280181107,-0.0110384245742,30,1.6662042141,3.08981180191,
1.32166208822,0.875142133125,0,-1.35009515237,-0.0114613713705,31,1.73293089867,3.2139787674,
1.33066668112,0.858439481147,0,-1.3784085202,-0.0118888113441,32,1.8008916378,3.34053945541,
1.34001698095,0.841091668495,0,-1.40774405111,-0.0123170912896,33,1.87014377117,3.46959686279,
1.34972061712,0.823085343727,0,-1.43811980927,-0.0127528956315,34,1.94076085091,3.60126781464,
1.35978474218,0.804407155403,0,-1.46954739368,-0.013193507368,35,2.0127851963,3.73568058014,
1.37021603185,0.785042798408,0,-1.50202754753,-0.0136341165385,36,2.08629393578,3.87291884422,
1.38102259237,0.764977490791,0,-1.53557341864,-0.0140774442098,37,2.16132593155,4.01310443878,
1.39221205312,0.744195973762,0,-1.57018905394,-0.0145252513219,38,2.23796582222,4.15637111664,
1.40379347402,0.722682034858,0,-1.60588862608,-0.0149784941643,39,2.31624317169,4.30280542374,
1.41577448446,0.700419938453,0,-1.64267022129,-0.0154309393238,40,2.39622402191,4.452501297,
1.42816414434,0.677392041572,0,-1.68053740328,-0.0158846101003,41,2.47797560692,4.60557508469,
1.44097151357,0.653581654915,0,-1.71949561111,-0.0163408731839,42,2.56154465675,4.76214170456,
1.4542061289,0.628970658668,0,-1.75954666955,-0.0167975978453,43,2.64697742462,4.92227458954,
1.46787752706,0.603540933021,0,-1.80068951426,-0.0172530407582,44,2.73431754112,5.08603000641,
1.48199524481,0.577273881324,0,-1.84291772828,-0.0177066808616,45,2.82358551025,5.25348186493,
1.49656929571,0.550150906929,0,-1.88622697866,-0.0181584548026,46,2.91482806206,5.42468166351,
1.51160921652,0.522152936348,0,-1.93060143509,-0.0186032718655,47,3.00804233551,5.59962511063,
1.52712502081,0.493261849769,0,-1.97603124048,-0.0190441240347,48,3.1032602787,5.7783498764,
1.543127199,0.463458573707,0,-2.02250334074,-0.0194792510704,49,3.20045661926,5.96079540253,
1.559624811,0.432724511512,0,-2.06998543194,-0.0199010277629,50,3.29959845543,6.1469078064,
1.57662739355,0.40104202021,0,-2.1184502771,-0.0203113589829,51,3.40066576004,6.3366060257,
1.59414496023,0.368394410499,0,-2.16787555219,-0.0207120935537,52,3.50357079506,6.52971458435,
1.61218561727,0.33476499308,0,-2.21821068146,-0.0210917991004,53,3.60823583603,6.72605037689,
1.63075794775,0.300138986,0,-2.26941391855,-0.0214520516638,54,3.71453905106,6.92536735535,
1.64986910421,0.264503037819,0,-2.32142718319,-0.0217897555032,55,3.82234811783,7.12736940384,
1.66952576238,0.227845704445,0,-2.37418946321,-0.022101551036,56,3.93146109581,7.33166456223,
1.68973364431,0.190157449135,0,-2.427630941,-0.0223841491838,57,4.04170703888,7.53784275055,
1.71049704153,0.151431596168,0,-2.481671885,-0.0226333661906,58,4.1528301239,7.74540138245,
1.73181881506,0.111664330848,0,-2.53622259182,-0.0228450969286,59,4.26453638077,7.95373296738,
1.75370087225,0.0708546995007,0,-2.59118908438,-0.0230174852559,60,4.3765411377,8.16223144531,
1.77614225942,0.0290055631482,0,-2.64645520692,-0.0231409998662,61,4.48851585388,8.37019252777,
1.79914154607,-0.0138768793262,0,-2.7019089433,-0.0232177438662,62,4.60005426407,8.57684135437,
1.82269444067,-0.0577821375049,0,-2.75741907776,-0.0232385815563,63,4.71079540253,8.78137588501,
1.84679522115,-0.102694952599,0.0,-2.81285524264,-0.0232057882418,64,4.8203368187,8.98296928406,
1.87143530447,-0.148597204796,0.0,-2.86806158896,-0.0231069517048,65,4.92826747894,9.18078231812,
1.89660467703,-0.195464575402,0,-2.92289180305,-0.0229476434319,66,5.03421115875,9.373960495,
1.92229237158,-0.243270838372,0,-2.9771931932,-0.022724570685,67,5.1377363205,9.56165409088,
1.94848312933,-0.291984045616,0,-3.03078793784,-0.0224271583251,68,5.23846578598,9.74311637878,
1.97516216833,-0.341569388024,0,-3.08351551865,-0.0220626116597,69,5.33611869812,9.91761779785,
2.00231232244,-0.391989672295,0,-3.1351973447,-0.0216234070427,70,5.43040990829,10.0845594406,
2.02991594869,-0.443203413597,0,-3.18567005582,-0.0211156688851,71,5.52104711533,10.2433786392,
2.05795349676,-0.495169127098,0,-3.23474734737,-0.0205303281727,72,5.60789012909,10.3936862946,
2.08640589315,-0.547841990105,0,-3.28226588573,-0.0198767796564,73,5.69088315964,10.5352039337,
2.11525358755,-0.601177656761,0,-3.32805488741,-0.019151883813,74,5.76992225647,10.6677789688,
2.14447702963,-0.655131304375,0,-3.37194721559,-0.0183572087383,75,5.845058918,10.7914123535,
2.17405666906,-0.709659063927,0,-3.4137724676,-0.0174912566805,76,5.91641426086,10.9061965942,
2.20397486288,-0.764717066399,0,-3.45338328756,-0.0165639467158,77,5.98409080505,11.0123348236,
2.23421444494,-0.820264303795,0,-3.49062445138,-0.0155718725231,78,6.04835414886,11.1101703644,
2.26475920278,-0.876261198632,0,-3.52534568195,-0.0145171184001,79,6.10942077637,11.2001266479,
2.29559483129,-0.93267055761,0,-3.55740655361,-0.0134038178531,80,6.16760206223,11.282664299,
2.32670845586,-0.989458525292,0,-3.58666590812,-0.0122316732654,81,6.22322750092,11.3583602905,
2.35808910925,-1.04659363042,0,-3.61299107789,-0.0110024499881,82,6.2766494751,11.4277820587,
2.38972725469,-1.10404726278,0,-3.63624974825,-0.00972010352909,83,6.32818412781,11.4915294647,
2.42161621649,-1.16179414999,0,-3.65632072201,-0.00838558441154,84,6.37830686569,11.5502662659,
2.45374979574,-1.21981283437,0,-3.67306707176,-0.00699593963973,85,6.42724943161,11.6045913696,
2.4861246546,-1.27808424245,0,-3.68636553141,-0.00555486507342,86,6.47550964355,11.6551246643,
2.51873840887,-1.33659240018,0,-3.696083475,-0.00405876826945,87,6.52336978912,11.7025051117,
2.55159153539,-1.39532419454,0,-3.70209642046,-0.00251113321889,88,6.57118701935,11.7472600937,
2.58468498785,-1.45426985036,0,-3.70426298124,-0.00090471846765,89,6.61934614182,11.7899913788,
2.61802258093,-1.51342149984,0,-3.70245149359,0.000756381402768,90,6.66812467575,11.8312282562,
2.65160860616,-1.5727743746,0,-3.69651250159,0.00247948664655,91,6.71781158447,11.8714618683,
2.68544926244,-1.63232561361,0,-3.68629547526,0.00426511341765,92,6.76875305176,11.9111976624,
2.71955170232,-1.69207521688,0,-3.67163553748,0.00611924922023,93,6.82117414474,11.9508666992,
2.75392450887,-1.75202461492,0,-3.6523628348,0.00804398318339,94,6.87526607513,11.9908752441,
2.78857769567,-1.81217786085,0,-3.62829585218,0.0100438210326,95,6.9313454628,12.0316352844,
2.82352175314,-1.8725406767,0,-3.59923824055,0.0121253227277,96,6.98950958252,12.0735311508,
2.85876812536,-1.93312021505,0,-3.5649828045,0.0142931855476,97,7.04996871948,12.1169204712,
2.89432825643,-1.99392553579,0,-3.52530326706,0.0165550406199,98,7.11282730103,12.162112236,
2.9302154978,4.22821787585,0,-3.47996654691,0.0189081737526,99,7.17824029922,12.2094573975,
2.96644272405,4.16692665804,0,-3.42871754235,0.021372180665,100,7.24621772766,12.2592983246,
3.00302233297,4.10537294138,0,-3.3712871238,0.0239471891186,101,7.31676483154,12.3118267059,
3.03996815283,4.04354075182,0,-3.307393385,0.0266403466378,102,7.38991260529,12.3675136566,
3.07729162771,3.9814138769,0,-3.23673483738,0.0294588046765,103,7.46556806564,12.4265060425,
3.11500515539,3.91897371996,0,-3.15900052653,0.0324064140262,104,7.54359722137,12.4891662598,
3.13006560406,3.85620073069,0,-2.99455298441,0.0685469907617,105,7.62381792068,12.5557880402,