lower angle,upper angle,holding angle,system x,acceleration,ticks (200 tps),lower acceleration (shoulder),upper acceleration (elbow),
1.28040405,0.898280405,0,-0.994163060389,-0.339083103915,1,0.0,0.0,
1.28040405,0.898280405,0,-0.994163060389,0.0,2,0.0,0.0,
1.28040405,0.898280405,0,-0.994163060389,0.0,3,0.0,0.0,
1.28157087053,0.896039270356,0,-0.997358716815,-0.00108954544053,4,0.233293995261,0.448182523251,
1.28302283967,0.893266462281,0,-1.00140344094,-0.00137896177322,5,0.290460258722,0.554591238499,
1.284787614,0.889914773896,0,-1.00639802006,-0.00170265441794,6,0.352911293507,0.670293152332,
1.28686328615,0.88598611255,0,-1.01232911627,-0.00202176874431,7,0.415117621422,0.785755991936,
1.28924985612,0.881479047731,0,-1.01918990325,-0.00233848557819,8,0.47737622261,0.90139490366,
1.29194970811,0.876391195253,0,-1.02699566938,-0.00266035429928,9,0.539897918701,1.01758372784,
1.29496331895,0.870718740419,0,-1.03573427961,-0.00297806450015,10,0.602759063244,1.13447284698,
1.29829354966,0.864457868531,0,-1.04541983081,-0.00330060332179,11,0.666032552719,1.2521674633,
1.3019423076,0.857604288057,0,-1.05605362356,-0.00362352173438,12,0.729757249355,1.37076044083,
1.30591197694,0.850152276948,0,-1.0676357938,-0.00394640513081,13,0.793989419937,1.49035954475,
1.31020589555,0.842097066835,0.0,-1.08018102608,-0.00427428694853,14,0.858764588833,1.61104035378,
1.31482692445,0.83343293567,0.0,-1.09369429657,-0.00460381990853,15,0.924147844315,1.73290014267,
1.31977744783,0.824152730897,0,-1.10816863851,-0.00493099517582,16,0.990183889866,1.85605406761,
1.32506223405,0.814249776796,0,-1.12362547941,-0.00526540184932,17,1.05692028999,1.98058176041,
1.33068414415,0.803716443971,0,-1.14006032159,-0.00559832898001,18,1.12442016602,2.10660290718,
1.33664794648,0.792545579866,0,-1.15749173879,-0.00593748205244,19,1.19273304939,2.23421430588,
1.34295745576,0.780728124574,0,-1.17591864865,-0.00627624175495,20,1.2619073391,2.36350107193,
1.34961744035,0.76825501819,0,-1.19535012246,-0.00661812332149,21,1.33201611042,2.49461007118,
1.35663314546,0.755117200807,0,-1.21580003748,-0.00696466405338,22,1.40309906006,2.62761473656,
1.36400933946,0.741303705171,0,-1.23726761927,-0.00731098206659,23,1.47523260117,2.76266050339,
1.37175126756,0.726804994539,0,-1.25976314296,-0.00766059406219,24,1.54844892025,2.89980316162,
1.37986512864,0.711609147981,0,-1.28329612332,-0.00801336421128,25,1.62280368805,3.03918027878,
1.38835712159,0.695704721406,0,-1.30787730575,-0.00836983989289,26,1.69839978218,3.18093037605,
1.39723344529,0.679078840211,0,-1.33350985452,-0.00872745022907,27,1.77524352074,3.32510852814,
1.40650029863,0.661720060304,0,-1.36020230415,-0.00908796804961,28,1.85341453552,3.47185015678,
1.41616531099,0.643613599733,0,-1.38796301475,-0.00945110537132,29,1.93297207355,3.62127137184,
1.42623515809,0.624746583894,0,-1.41679672962,-0.00981598489217,30,2.01396942139,3.7734670639,
1.4367169925,0.605104230836,0,-1.44670325973,-0.0101808146031,31,2.09645080566,3.92852473259,
1.44761939729,0.58467128177,0,-1.47769503513,-0.0105498387359,32,2.18047904968,4.08655929565,
1.45894952501,0.563433431581,0,-1.50977045927,-0.0109182364426,33,2.26608371735,4.24762153625,
1.47071643556,0.541374467805,0,-1.54293912605,-0.0112898565562,34,2.3533244133,4.41183280945,
1.48292728151,0.518478654817,0,-1.57718828939,-0.0116571849574,35,2.44223833084,4.57922458649,
1.49559112275,0.494729780153,0,-1.61252275909,-0.0120261209149,36,2.5328373909,4.7498664856,
1.50871701921,0.470111154512,0,-1.6489424063,-0.0123948890957,37,2.62516593933,4.92378234863,
1.5223130771,0.444606565431,0,-1.68643519925,-0.012759653053,38,2.71923065186,5.10101079941,
1.5363878795,0.41819932361,0,-1.72498919819,-0.0131203298835,39,2.81502962112,5.28151941299,
1.55095048631,0.390872739747,0,-1.76459463441,-0.0134775773738,40,2.91256451607,5.46532058716,
1.56600900377,0.362612031892,0,-1.80523602191,-0.0138296103939,41,3.01179838181,5.65230464935,
1.58157201494,0.333400510743,0,-1.84689020097,-0.0141737389686,42,3.11268496513,5.84239196777,
1.59764762605,0.303223871187,0,-1.8895357544,-0.0145105584485,43,3.2151863575,6.03546905518,
1.6142434665,0.272067808107,0,-1.93314101837,-0.0148360988755,44,3.31919288635,6.23133468628,
1.63136621202,0.239919446901,0,-1.97766514764,-0.0151479571167,45,3.42462253571,6.42977714539,
1.64902206147,0.206767820314,0,-2.02306599677,-0.0154456692185,46,3.53133249283,6.63052177429,
1.66721769059,0.172602437928,0,-2.06930420028,-0.0157299724925,47,3.63918232918,6.83325004578,
1.68595691407,0.137415193513,0,-2.11631241371,-0.0159913408642,48,3.74797868729,7.03757190704,
1.70524402345,0.101200841859,0,-2.16403774662,-0.0162347134135,49,3.85750603676,7.24304485321,
1.72508092607,0.0639565219434,0,-2.21240485544,-0.0164523115474,50,3.96752762794,7.44917488098,
1.74546905244,0.0256803264172,0,-2.26133146564,-0.0166415710132,51,4.07778692245,7.65540409088,
1.76640840257,-0.013623930022,0,-2.31074134458,-0.0168046389991,52,4.18797826767,7.86112642288,
1.78789611543,-0.0539510021655,0,-2.36052519551,-0.0169307569892,53,4.29777622223,8.06568908691,
1.80992980684,-0.0952918301074,0,-2.41059320353,-0.0170262934918,54,4.40688991547,8.2684211731,
1.83250375474,-0.13763258557,0,-2.46083441315,-0.0170842091737,55,4.51493930817,8.46856784821,
1.85561032975,-0.180958009764,0,-2.51111698517,-0.0170972124686,56,4.62156629562,8.66542053223,
1.87924142564,-0.225247598693,0,-2.56132554242,-0.0170708000167,57,4.72643709183,8.85823059082,
1.90338655198,-0.27047703366,0,-2.61133142395,-0.017000794977,58,4.82920694351,9.04628753662,
1.92803283418,-0.316619611785,0,-2.66098590788,-0.0168802559553,59,4.92954778671,9.22890663147,
1.95316739763,-0.363644338652,0,-2.71015907794,-0.0167155814613,60,5.02716875076,9.40544700623,
1.97877498353,-0.411518789336,0,-2.75869723517,-0.0164990627851,61,5.12179660797,9.57533740997,
2.00483985627,-0.460206724211,0,-2.80645859747,-0.0162343038222,62,5.21321582794,9.73809051514,
2.03134437288,-0.50967094998,0,-2.85328228976,-0.0159144947749,63,5.30128526688,9.89331626892,
2.05827184404,-0.559871889159,0.0,-2.89902967359,-0.0155449728996,64,5.3858127594,10.0407047272,
2.08560414995,-0.610769487426,0.0,-2.94354725237,-0.0151260561805,65,5.46680879593,10.1800804138,
2.11332364763,-0.662323213622,0,-2.98668914833,-0.0146577015184,66,5.54425096512,10.3113632202,
2.1414126941,-0.714493013427,0,-3.0283070043,-0.0141392710342,67,5.61814641953,10.4345569611,
2.16985412324,-0.767238832518,0,-3.06825815419,-0.0135722969203,68,5.68864107132,10.5498123169,
2.19863124574,-0.820522523925,0,-3.10639592577,-0.0129557270661,69,5.75589179993,10.6573486328,
2.22772927964,-0.87430641751,0,-3.14259256864,-0.0122958072279,70,5.82001972198,10.7574415207,
2.25713391984,-0.928555704161,0,-3.17671109816,-0.0115894399043,71,5.88134717941,10.8505048752,
2.28683229173,-0.983237005278,0,-3.20862279645,-0.0108393796146,72,5.94006967545,10.9369249344,
2.31681247438,-1.03831932645,0,-3.23819694997,-0.0100450260911,73,5.99650716782,11.0172300339,
2.34706493104,-1.09377548794,0,-3.26530789373,-0.00920794795085,74,6.05096578598,11.0918922424,
2.37758155549,-1.14957878689,0,-3.289840996,-0.00833210870499,75,6.10373592377,11.161441803,
2.40835471833,-1.20570728879,0,-3.31166139059,-0.00741053046668,76,6.1551566124,11.2264575958,
2.43938012803,-1.26214096646,0,-3.33065547786,-0.0064504430278,77,6.20557928085,11.2874698639,
2.47065396989,-1.3188617001,0,-3.34670182969,-0.00544918865137,78,6.25526666641,11.344997406,
2.50217433656,-1.37585613827,0,-3.35967043572,-0.00440385650876,79,6.30462789536,11.3996133804,
2.53394122804,-1.43311116795,0,-3.36944314554,-0.0033184802795,80,6.35384750366,11.4518060684,
2.56595512117,-1.49061725239,0,-3.37588402936,-0.00218702644532,81,6.40334367752,11.502081871,
2.59821887697,-1.5483679543,0,-3.37885769664,-0.00100968353428,82,6.45332765579,11.5509185791,
2.63073678697,-1.60635755162,0,-3.37823045761,0.000212962152155,83,6.50412511826,11.5987939835,
2.66351361955,-1.66458389859,0,-3.37384875807,0.00148762945115,84,6.55595779419,11.6461086273,
2.69655605043,-1.72304604153,0,-3.36556069291,0.00281376856334,85,6.60906076431,11.6932907104,
2.729871709,-1.78174541096,0,-3.35320199337,0.00419554308628,86,6.66370248795,11.740773201,
2.76346870149,-1.84068510632,0,-3.33659536549,0.00563728088112,87,6.72005414963,11.7888469696,
2.79735656465,-1.8998701344,0,-3.31555572716,0.00714168482819,88,6.77823448181,11.8379306793,
2.83154578889,-1.95930717091,0,-3.28988697129,0.00871246359707,89,6.83849287033,11.8883295059,
2.86604686464,-2.01900456052,0,-3.25937577583,0.0103555141205,90,6.90092420578,11.9404125214,
2.90087123597,-2.07897183995,0,-3.22379965412,0.0120740218107,91,6.9655957222,11.994430542,
2.93603082383,-2.13922045331,0,-3.1829210963,0.0138730349084,92,7.03259849548,12.0507268906,
2.97153659547,-2.19976351361,0,-3.13648197495,0.015759456006,93,7.10197734833,12.1096591949,
3.00740142549,4.02257015605,0,-3.0842216651,0.0177339071139,94,7.17371225357,12.1714048386,
3.04363628114,3.961393856,0,-3.02585577889,0.0198049596436,95,7.24773073196,12.2363033295,
3.08025212968,3.89987566371,0,-2.96109117253,0.0219750907913,96,7.32398986816,12.3047161102,
3.11725898469,3.83799698253,0,-2.88962344452,0.0242483775379,97,7.40226078033,12.3768482208,
3.12851797059,3.77573730846,0,-2.72980611982,0.0542215662312,98,7.48248958588,12.4530754089,