lower angle,upper angle,holding angle,system x,acceleration,ticks (200 tps),lower acceleration (shoulder),upper acceleration (elbow),
1.906932502,-0.577018784,0,-1.05645462398,-0.0677709514654,1,0.0,0.0,
1.906932502,-0.577018784,0,-1.05645462398,0.0,2,0.0,0.0,
1.906932502,-0.577018784,0,-1.05645462398,0.0,3,0.0,0.0,
1.90848460695,-0.580014275028,0,-1.05935085854,-0.000185786947063,4,0.31039249897,0.599061846733,
1.91061749956,-0.58411984296,0,-1.06338111158,-0.000258529794663,5,0.426552563906,0.821075201035,
1.9133450081,-0.589355991794,0,-1.06859786121,-0.000334637920044,6,0.545505464077,1.04730176926,
1.91666331789,-0.595716522647,0,-1.07498180854,-0.000409507036421,7,0.663644611835,1.27210092545,
1.92056956789,-0.603196190311,0,-1.08251854506,-0.000483450905544,8,0.781244635582,1.49589753151,
1.92506137392,-0.611790226413,0,-1.09119536114,-0.000556578511512,9,0.898415565491,1.71885895729,
1.93013682863,-0.621494816257,0,-1.10099876799,-0.000628839673154,10,1.01512098312,1.94088125229,
1.93579354784,-0.632304237796,0,-1.11191785786,-0.000700398585285,11,1.13131773472,2.16187024117,
1.94202819368,-0.644212768985,0,-1.12392906454,-0.000770446449481,12,1.24695932865,2.38171243668,
1.94883838197,-0.657213734104,0,-1.13702306872,-0.00083989555458,13,1.36197400093,2.60025072098,
1.95621982118,-0.671300457431,0.0,-1.15116679185,-0.000907222095754,14,1.47630655766,2.81736421585,
1.96416917345,-0.686464832737,0.0,-1.16634367817,-0.000973485060598,15,1.58987665176,3.03289532661,
1.97268214723,-0.70269827695,0,-1.18252676979,-0.00103801851766,16,1.70262551308,3.24670624733,
1.98175445101,-0.719991730167,0,-1.19968965946,-0.00110085723345,17,1.81448125839,3.45863199234,
1.99138131639,-0.738334225132,0,-1.21780809904,-0.001162139498,18,1.9253911972,3.66854715347,
2.00155749819,-0.757715271427,0,-1.23684803064,-0.00122123685555,19,2.03526210785,3.87624597549,
2.01227775118,-0.778122948124,0,-1.25678048812,-0.00127847286258,20,2.14401531219,4.08158302307,
2.02353539964,-0.799544857456,0,-1.27756062844,-0.0013328073273,21,2.25159406662,4.28441858292,
2.03532472154,-0.821967647983,0,-1.29915699239,-0.00138514912443,22,2.35792326927,4.48457288742,
2.04763951799,-0.845376537754,0,-1.3215375186,-0.00143514639476,23,2.46293926239,4.68190383911,
2.06047215959,-0.86975769849,0,-1.34464728732,-0.00148188585061,24,2.56657218933,4.87624263763,
2.07381549379,-0.895094440891,0,-1.36844849264,-0.00152621138879,25,2.66875529289,5.06745433807,
2.08766236803,-0.921371029331,0,-1.39289628486,-0.00156765970621,26,2.76942706108,5.25539255142,
2.10200515291,-0.948570774509,0,-1.41794281566,-0.00160603935271,27,2.86856150627,5.43997526169,
2.11683526537,-0.976675556614,0,-1.44353439195,-0.00164097503544,28,2.96609330177,5.6210436821,
2.13214507601,-1.00566725583,0,-1.46962519334,-0.00167297265566,29,3.0619931221,5.79850196838,
2.14792600176,-1.03552822919,0,-1.49615440639,-0.00170106713401,30,3.15623378754,5.97230434418,
2.16416945955,-1.0662394032,0,-1.52306561855,-0.00172553580253,31,3.24879479408,6.14234161377,
2.18086734316,-1.09778170438,0,-1.55030488172,-0.00174655674233,32,3.33966493607,6.30858612061,
2.1980110695,-1.13013605924,0,-1.5778106533,-0.00176361713124,33,3.42884969711,6.47100257874,
2.21559253236,-1.16328291745,0,-1.60552589563,-0.0017770309331,34,3.51634573936,6.62957191467,
2.23360314867,-1.19720368238,0,-1.63338166489,-0.00178601907419,35,3.60218691826,6.78431510925,
2.25203433534,-1.23187928052,0,-1.66130872218,-0.00179055232948,36,3.68640160561,6.93522548676,
2.27087893984,-1.26729016156,0,-1.68925145079,-0.00179153806576,37,3.76902985573,7.08237981796,
2.29012933275,-1.30341820569,0,-1.71714005317,-0.00178804082488,38,3.8501265049,7.22581481934,
2.30977740785,-1.34024529309,0,-1.74489739406,-0.00177961159826,39,3.9297413826,7.36562347412,
2.32981648943,-1.37775330396,0,-1.77245721749,-0.00176693263364,40,4.00794219971,7.50187587738,
2.35023942491,-1.41592602582,0,-1.79973750223,-0.00174898745495,41,4.08481407166,7.6347026825,
2.3710409691,-1.45474581571,0,-1.82667682925,-0.00172710746159,42,4.16043949127,7.76422119141,
2.39221492311,-1.49419741483,0,-1.85319138619,-0.00169985360715,43,4.23490667343,7.8905711174,
2.4137555649,-1.5342655644,0,-1.87919854319,-0.00166728279462,44,4.30833625793,8.01389312744,
2.43565907976,-1.57493595929,0,-1.90462487535,-0.00163002300924,45,4.38081026077,8.13435173035,
2.45792022249,-1.61619477124,0,-1.9293787856,-0.00158689625841,46,4.45243597031,8.25211906433,
2.48053565523,-1.65803007932,0,-1.9533736742,-0.00153820892544,47,4.52333784103,8.36738586426,
2.50350299379,-1.70043043943,0,-1.97652461048,-0.00148408101861,48,4.5936293602,8.48030471802,
2.52681937715,-1.74338393064,0,-1.99873999114,-0.00142409053432,49,4.66343402863,8.59109115601,
2.55048242113,-1.78688196988,0,-2.01991516725,-0.00135739054882,50,4.73286819458,8.69991874695,
2.57449164888,-1.83091502042,0,-2.03995892523,-0.00128484201501,51,4.80207300186,8.80705547333,
2.59884610674,-1.87547640653,0,-2.05876088051,-0.00120522899158,52,4.87115573883,8.91264915466,
2.62354579469,-1.92055897565,0,-2.07621426713,-0.0011187753843,53,4.94019508362,9.01687812805,
2.64859166643,-1.96615748258,0,-2.09220676901,-0.00102512380317,54,5.00942182541,9.12006378174,
2.67398467561,-2.0122666821,0,-2.10662024231,-0.000923900679815,55,5.0788230896,9.2223033905,
2.69972625276,-2.05888419004,0,-2.11932466143,-0.000814343394191,56,5.14861154556,9.32390594482,
2.72581878206,-2.10600714536,0,-2.13019179348,-0.000696569611848,57,5.21885108948,9.42504882813,
2.75226560137,-2.15363459439,0,-2.1390867589,-0.000570152053615,58,5.28962278366,9.52595329285,
2.77906909486,-2.20176653714,0,-2.14586021232,-0.000434163625664,59,5.36106443405,9.62685775757,
2.80623355409,-2.25040392728,0,-2.15036466219,-0.000288723435138,60,5.43323659897,9.7279586792,
2.83376279375,-2.29954867215,0,-2.15244098559,-0.000133085919296,61,5.5062251091,9.82954978943,
2.8616615822,-2.3492050633,0,-2.15192243445,3.32372794051e-05,62,5.58007955551,9.93179702759,
2.88993373415,-2.39937691541,0,-2.14863364824,0.000210793545695,63,5.65483045578,10.0349473953,
2.9185844948,-2.45007090421,0.0,-2.14239345187,0.000399960149263,64,5.73054027557,10.1392822266,
2.94761863252,-2.50129275174,0.0,-2.13301620902,0.000601021754096,65,5.80722522736,10.2450332642,
2.9770409157,-2.55305199475,0,-2.1203036207,0.000814790587709,66,5.88486194611,10.3524103165,
3.00685611269,-2.60535721631,0,-2.10405691649,0.00104129556161,67,5.96344518661,10.4617137909,
3.03706851503,-2.65821986051,0,-2.08406810963,0.00128112775223,68,6.04296255112,10.5731830597,
3.0676828911,-2.71165232511,0,-2.06012859165,0.00153432670326,69,6.12337446213,10.6871643066,
3.09870305559,-2.76566796155,0,-2.03202662056,0.00180108945672,70,6.2045583725,10.803850174,
3.13013330003,-2.82028250547,0,-1.99955024891,0.00208143492013,71,6.28649520874,10.9235744476,
3.12120929856,-2.87551216931,0,-1.90621388654,0.00598195483398,72,6.36909723282,11.0466928482,