lower angle,upper angle,holding angle,system x,acceleration,ticks (200 tps),lower acceleration (shoulder),upper acceleration (elbow),
1.57079632679,0.0,0,2.17527887699e-15,2.04146885751e-17,1,0.0,0.0,
1.5709594051,-0.000312805175781,0,-0.00103089808802,-9.67480726003e-06,2,0.0325633324683,0.0625589936972,
1.57128889958,-0.000948905944824,0,-0.00305155499349,-1.89634824182e-05,3,0.0658700615168,0.12716473639,
1.57178242604,-0.00190305709839,0,-0.00605713000263,-2.82066731821e-05,4,0.0987762212753,0.1908878088,
1.57243998448,-0.00317430496216,0,-0.0100621402628,-3.75860696488e-05,5,0.131516084075,0.254227846861,
1.57326062123,-0.0047607421875,0,-0.015061740048,-4.69199484872e-05,6,0.164066076279,0.317250460386,
1.57424290577,-0.00666046142578,0,-0.0210341387556,-5.60492878819e-05,7,0.196449354291,0.379964023829,
1.57538588444,-0.00887203216553,0,-0.0279672179245,-6.50648603379e-05,8,0.228617787361,0.442294299603,
1.57668860356,-0.0113930702209,0,-0.0358633681437,-7.41027000973e-05,9,0.260573327541,0.504232645035,
1.57815010945,-0.0142216682434,0,-0.044717706299,-8.30947244632e-05,10,0.292265504599,0.56568056345,
1.57976849476,-0.0173544883728,0,-0.0545132324899,-9.19272324852e-05,11,0.323700547218,0.626617133617,
1.58154280583,-0.0207896232605,0,-0.0652450250777,-0.00010071351702,12,0.354835927486,0.68699991703,
1.5834711353,-0.0245232582092,0,-0.0769032973872,-0.00010940792874,13,0.385651051998,0.746745347977,
1.58555157582,-0.028552532196,0,-0.0894637148519,-0.00011787393902,14,0.416120350361,0.805838465691,
1.58778269688,-0.0328736305237,0,-0.102933365787,-0.000126406425964,15,0.446238130331,0.864235401154,
1.59016259114,-0.037483215332,0,-0.117295102242,-0.000134777875598,16,0.475970745087,0.921879768372,
1.5926888744,-0.0423765182495,0,-0.132536573001,-0.000143033443136,17,0.505300283432,0.978723406792,
1.59536011616,-0.047550201416,0,-0.148657475128,-0.000151286084159,18,0.534215211868,1.03474199772,
1.5981734554,-0.0529999732971,0,-0.165621163748,-0.0001591948168,19,0.562685608864,1.08988857269,
1.60112698475,-0.0587205886841,0,-0.183439322249,-0.000167213126363,20,0.590706884861,1.14412641525,
1.60421832005,-0.0647072792053,0,-0.202099377535,-0.000175113465462,21,0.618249058723,1.19741225243,
1.60744460026,-0.0709562301636,0,-0.221557249486,-0.00018259996815,22,0.645299017429,1.24971389771,
1.61080391804,-0.0774612426758,0,-0.241838928605,-0.000190330513888,23,0.671859741211,1.30100882053,
1.61429341237,-0.0842170715332,0,-0.262921955263,-0.000197850132203,24,0.697890460491,1.35124373436,
1.61791069905,-0.0912194252014,0,-0.284786211614,-0.000205180976265,25,0.723381996155,1.40040397644,
1.62165196339,-0.0984616279602,0,-0.307397001985,-0.000212186196424,26,0.748337090015,1.44845068455,
1.62551577488,-0.105938434601,0,-0.330782389411,-0.000219454740728,27,0.77272772789,1.49535775185,
1.62949831883,-0.11364364624,0,-0.354900252392,-0.000226326362156,28,0.796552121639,1.54110825062,
1.63359768788,-0.12157201767,0,-0.379761539872,-0.000233302310995,29,0.819791018963,1.58566117287,
1.6378095905,-0.129717350006,0,-0.405307054318,-0.000239722708289,30,0.842442214489,1.62899875641,
1.64213211934,-0.138072490692,0,-0.431576532699,-0.000246515820119,31,0.86448687315,1.67110490799,
1.64656193654,-0.146632671356,0,-0.458522664441,-0.000252865107056,32,0.885943293571,1.71196126938,
1.65109570424,-0.155390262604,0,-0.486141514452,-0.000259177402874,33,0.90675085783,1.75153303146,
1.65573056141,-0.164339065552,0,-0.514424207006,-0.00026540634606,34,0.926953196526,1.78981184959,
1.66046317021,-0.173472881317,0,-0.54334488139,-0.000271392575386,35,0.946518063545,1.82678699493,
1.66529019276,-0.18278503418,0,-0.572884825265,-0.000277203190236,36,0.965454995632,1.86243748665,
1.67020876805,-0.192268848419,0,-0.603042095249,-0.000282995337543,37,0.983742833138,1.89674532413,
1.67521555821,-0.201917648315,0,-0.633797773536,-0.000288610154426,38,1.00137341022,1.92970597744,
1.68030770222,-0.211723804474,0,-0.665164139976,-0.000294340205927,39,1.01837444305,1.96130526066,
1.68548138539,-0.221681594849,0,-0.697090779165,-0.000299597200166,40,1.03472137451,1.99153590202,
1.69073326985,-0.231783390045,0,-0.729572938955,-0.000304808966506,41,1.05039703846,2.02036905289,
1.69606049458,-0.242022514343,0,-0.762608148913,-0.000309997828195,42,1.06542384624,2.04783058167,
1.70145924489,-0.252391815186,0,-0.796167416753,-0.00031491484107,43,1.07977974415,2.07387971878,
1.70692665974,-0.262884616852,0,-0.830248084641,-0.000319806855075,44,1.09347951412,2.09852957726,
1.71245892445,-0.273493289948,0,-0.864828212449,-0.000324492941823,45,1.10651755333,2.12177848816,
1.71805365483,-0.28421163559,0,-0.899914530871,-0.000329242147568,46,1.11890530586,2.14361548424,
1.72370655934,-0.295031547546,0,-0.935475358834,-0.000333694146427,47,1.130615592,2.16403770447,
1.7294152538,-0.305946826935,0,-0.971517238136,-0.000338207317869,48,1.14166688919,2.1830394268,
1.73517544667,-0.31694984436,0,-1.00800119716,-0.000342354861989,49,1.15205538273,2.20061302185,
1.74098427693,-0.328033924103,0,-1.04492408438,-0.000346472853712,50,1.16178369522,2.21677350998,
1.74683840672,-0.33919095993,0,-1.08228745032,-0.000350605396151,51,1.17084574699,2.23150515556,
1.75273449818,-0.350415229797,0,-1.12005695786,-0.000354415720077,52,1.17925667763,2.24482345581,
1.75866969029,-0.361698627472,0,-1.15825071446,-0.000358395943932,53,1.1870123148,2.25671887398,
1.76464016835,-0.373034954071,0,-1.1968248079,-0.000361964098418,54,1.19411623478,2.26720046997,
1.77064307133,-0.384416103363,0,-1.23579721621,-0.000365700747974,55,1.20057487488,2.27624845505,
1.77667506138,-0.395835399628,0,-1.27514777211,-0.000369248308513,56,1.20637691021,2.28389692307,
1.78273280064,-0.407286167145,0,-1.31485632257,-0.000372606737629,57,1.21152758598,2.29011058807,
1.78881295125,-0.41876077652,0,-1.35491696864,-0.000375909782265,58,1.21603691578,2.29492402077,
1.79491217534,-0.430252075195,0,-1.39531667999,-0.000376149254758,59,1.21990799904,2.29831457138,
1.80102808873,-0.441753864288,0,-1.43606129069,-0.000379358894493,60,1.22314333916,2.30031847954,
1.80715687672,-0.453258037567,0,-1.47713540938,-0.000382425831339,61,1.22573745251,2.30090141296,
1.81329520146,-0.464758396149,0,-1.51851185328,-0.000385239768509,62,1.22769546509,2.30009031296,
1.81944020192,-0.476247787476,0,-1.56019415523,-0.000388086591366,63,1.22902655602,2.2978887558,
1.82558901707,-0.487719535828,0,-1.60217875039,-0.000390900205732,64,1.22974288464,2.29429006577,
1.83173783223,-0.49916601181,0,-1.64444337914,-0.000393506341692,65,1.22982263565,2.28930616379,
1.8378842632,-0.510580539703,0,-1.68700098055,-0.000396233144848,66,1.22928273678,2.28292298317,
1.84402497212,-0.521956443787,0,-1.72983171207,-0.000398775210526,67,1.22812044621,2.27516412735,
1.85015662114,-0.533286571503,0,-1.77292290151,-0.000398496623591,68,1.22634458542,2.26603460312,
1.85627634923,-0.544563770294,0,-1.81627830302,-0.000400938933636,69,1.22395372391,2.25551795959,
1.86238129536,-0.555782318115,0,-1.85988067667,-0.000403221981132,70,1.2209635973,2.24364209175,
1.86846812169,-0.566934108734,0,-1.9037316785,-0.000405520350945,71,1.21735191345,2.23039340973,
1.87453349034,-0.578012943268,0,-1.94780509507,-0.000407576289626,72,1.21312880516,2.2157702446,
1.88057501713,-0.589011669159,0,-1.99212132164,-0.000409820774005,73,1.20830345154,2.19979476929,
1.88658936421,-0.599924087524,0,-2.03665444766,-0.000411825682665,74,1.20289170742,2.18248414993,
1.89257367054,-0.610743045807,0,-2.08140890796,-0.000413871602274,75,1.19685781002,2.16378879547,
1.89852507512,-0.621461868286,0,-2.12638229856,-0.000415895341242,76,1.1902359724,2.14375472069,
1.90443976323,-0.632073402405,0,-2.17154714872,-0.000417665017979,77,1.18300437927,2.12237381935,
1.91031582753,-0.642571926117,0,-2.2169197948,-0.000419585737102,78,1.17519426346,2.09965801239,
1.91614993016,-0.652949810028,0,-2.26249621228,-0.000421469222889,79,1.1667650938,2.07557320595,
1.92193873326,-0.663200855255,0,-2.30825189577,-0.000423126093513,80,1.15776646137,2.05018591881,
1.92767937581,-0.673317909241,0,-2.35419249052,-0.00042483515643,81,1.14815139771,2.02343130112,
1.93336899678,-0.683294773102,0,-2.40031006653,-0.000426470856144,82,1.13794004917,1.99534630775,
1.93900473515,-0.693124294281,0,-2.44661075209,-0.000428162826733,83,1.12715446949,1.96593403816,
1.9445837299,-0.702800273895,0,-2.49308717182,-0.000429786998537,84,1.11576974392,1.93519735336,
1.95010264317,-0.712316036224,0,-2.53972328905,-0.000431262858867,85,1.10378074646,1.90312290192,
1.95555861393,-0.721664428711,0,-2.58652616728,-0.000432804061011,86,1.09121274948,1.86972606182,
1.96094878117,-0.730839252472,0,-2.6334894732,-0.000434286681567,87,1.07805097103,1.83500695229,
1.96627028386,-0.739834308624,0,-2.68060725182,-0.000435714138555,88,1.06428527832,1.79896020889,
1.97151978413,-0.748642444611,0,-2.72787185337,-0.000437070880143,89,1.04992628098,1.7615878582,
1.97669489781,-0.757256984711,0,-2.7753006833,-0.000438587691343,90,1.03497898579,1.72289693356,
1.98179181019,-0.765671253204,0,-2.82286438015,-0.000439833457216,91,1.01942884922,1.68288111687,
1.9868081371,-0.773879051208,0,-2.87057437359,-0.000441182484676,92,1.00327956676,1.64155602455,
1.9917410175,-0.781873703003,0,-2.91843360102,-0.000442561460137,93,0.98654037714,1.59890270233,
1.99658711354,-0.78964805603,0,-2.96643662074,-0.000443890153039,94,0.969202101231,1.55494093895,
2.00134308735,-0.797196388245,0,-3.01455818752,-0.000444985447423,95,0.95126080513,1.50965499878,
2.0060070316,-0.804511547089,0,-3.06284063572,-0.000446472173521,96,0.932715177536,1.46305644512,
2.01057465474,-0.811587333679,0,-3.11123540409,-0.000447509956978,97,0.913561165333,1.41514396667,
2.01504357258,-0.818417072296,0,-3.15976349789,-0.000448741815525,98,0.893818557262,1.36591053009,
2.01941092412,-0.824993610382,0,-3.2084376005,-0.000450090982294,99,0.87345212698,1.31536531448,
2.02367337147,-0.831311225891,0,-3.25723519713,-0.000451231939749,100,0.852480709553,1.26348936558,
2.02782805363,-0.837362766266,-0.0837362766266,-3.30617008212,-0.000452500478715,101,0.830897331238,1.21030819416,
2.0318711559,-0.843142032623,0.0,-3.35521227597,-0.00045349179449,102,0.808698177338,1.15581321716,
2.03581698338,-0.848672866821,0,-3.40449299881,-0.000455696526485,103,0.789132237434,1.10617733002,
2.03964455525,-0.85391664505,0,-3.45388653881,-0.000456738807677,104,0.765543520451,1.04876899719,
2.04335244099,-0.858868598938,0,-3.50342145015,-0.000458045113556,105,0.741543710232,0.990399897099,
2.04693682591,-0.863521575928,0,-3.55308364241,-0.000459221067076,106,0.716856002808,0.930625915527,
2.05039437214,-0.867869377136,0,-3.60286158557,-0.000460290369579,107,0.691542446613,0.869515240192,
2.05372221867,-0.871904850006,0,-3.65277310443,-0.00046152450152,108,0.665590524673,0.80708026886,
2.05691750447,-0.875621318817,0,-3.70282984889,-0.000462866358157,109,0.639018654823,0.743346571922,
2.05997641484,-0.879012584686,0,-3.7530067842,-0.000463976711808,110,0.611791670322,0.678248167038,
2.06289608876,-0.882071971893,0,-3.80331674183,-0.000465205715842,111,0.583933055401,0.611841440201,
2.06567318837,-0.884792327881,0,-3.85376456297,-0.00046647947441,112,0.555427670479,0.544102549553,
2.06830437581,-0.887167453766,0,-3.90434222835,-0.000467679071368,113,0.526275336742,0.475050657988,
2.07078679005,-0.889190673828,0,-3.95506419384,-0.000469012330579,114,0.496463239193,0.404632180929,
2.07311709324,-0.890855312347,0,-4.00593020222,-0.000470343164554,115,0.466009348631,0.332913935184,
2.07529147069,-0.892154693604,0,-4.05692530916,-0.000471535926227,116,0.43488317728,0.259827315807,
2.07730706135,-0.893081665039,0,-4.10807217737,-0.000472938156982,117,0.403096854687,0.185411810875,
2.07916005055,-0.893630027771,0,-4.15935008206,-0.000474148808541,118,0.370639324188,0.109657049179,
2.08084757725,-0.893792629242,0,-4.21078253804,-0.000475576829516,119,0.337491422892,0.0325374901295,
2.08236582676,-0.893562793732,0,-4.26235634737,-0.000476882858906,120,0.30368694663,-0.0459231138229,
2.08371193806,-0.892934322357,0,-4.31408226627,-0.000478288346523,121,0.269191920757,-0.125719815493,
2.08488209645,-0.891899585724,0,-4.36596120599,-0.000479702227838,122,0.233993396163,-0.206920877099,
2.08587248723,-0.890452384949,0,-4.41797410315,-0.000480939813485,123,0.198113396764,-0.289443731308,
2.08667977253,-0.888585567474,0,-4.47013074723,-0.000482267763512,124,0.161507770419,-0.373380899429,
2.08730109135,-0.886292457581,0,-4.52244949691,-0.000483765638406,125,0.124208398163,-0.458664953709,
2.08773167531,-0.883565425873,0,-4.57490158549,-0.000484997358715,126,0.0861629396677,-0.545381247997,
2.08796914021,-0.880398273468,0,-4.62751387541,-0.000486477601639,127,0.047417704016,-0.633441090584,
2.08800871769,-0.876783370972,0,-4.68025752549,-0.000487691088495,128,0.00791147723794,-0.722954571247,
2.0878470699,-0.872714042664,0,-4.73313555552,-0.00048893252471,129,-0.0323369279504,-0.813868761063,
2.08748038212,-0.868183135986,0,-4.78614233118,-0.000490121922161,130,-0.0733316391706,-0.906197011471,
2.08690483967,-0.863183498383,0,-4.83927188602,-0.000491256088365,131,-0.115099042654,-0.999974966049,
2.08611662785,-0.857707500458,0,-4.89252466172,-0.00049239168523,132,-0.157644182444,-1.09518265724,
2.08511145512,-0.851747989655,0,-4.94587848554,-0.000493324882047,133,-0.200974732637,-1.19187116623,
2.08388598362,-0.845297813416,0,-4.99934106403,-0.000494329425028,134,-0.245132401586,-1.29006385803,
2.08243544499,-0.838349342346,0,-5.05288034667,-0.000495037591421,135,-0.290074378252,-1.38970243931,
2.08075650136,-0.830894947052,0,-5.10650930282,-0.000495865652739,136,-0.335856169462,-1.49087095261,
2.07884390751,-0.822926998138,0,-5.16017859069,-0.000496237503617,137,-0.382489562035,-1.5935767889,
2.0766943256,-0.814437866211,0,-5.2138990339,-0.000496709351498,138,-0.429974973202,-1.69783210754,
2.07430251042,-0.805419921875,0,-5.26761867673,-0.000496700845413,139,-0.478352278471,-1.80366241932,
2.07166417042,-0.795864105225,0,-5.32133557716,-0.00049667433779,140,-0.527618288994,-1.91110134125,
2.06877501408,-0.78576374054,0,-5.37501150643,-0.000496294354565,141,-0.577810645103,-2.02015924454,
2.06563074986,-0.775109291077,0,-5.42864814932,-0.000495929962637,142,-0.62893217802,-2.13085842133,
2.06222565571,-0.763893127441,0,-5.48217089084,-0.000494875748392,143,-0.681001126766,-2.243237257,
2.05855544011,-0.752106666565,0,-5.53556324311,-0.000493669080938,144,-0.734052360058,-2.3573307991,
2.05461485783,-0.739740848541,0,-5.58878229788,-0.000492065710546,145,-0.788115859032,-2.47316765785,
2.05039866368,-0.726787090302,0,-5.64177544333,-0.000489975784532,146,-0.843199253082,-2.59078359604,
2.04590208928,-0.713235855103,0,-5.69451689255,-0.000487647511944,147,-0.899343907833,-2.71022820473,
2.04111941258,-0.699078083038,0,-5.74693948837,-0.000484698294912,148,-0.956567585468,-2.83153867722,
2.03604491154,-0.684304714203,0,-5.7989725849,-0.000481095926706,149,-1.0148986578,-2.95474100113,
2.03067286412,-0.668905258179,0,-5.85056310501,-0.000477002781462,150,-1.07437241077,-3.07990121841,
2.0249980251,-0.652870178223,0,-5.90165574729,-0.000472398415597,151,-1.13501489162,-3.20706892014,
2.01901371876,-0.636188983917,0,-5.95215787911,-0.000466937568086,152,-1.19686281681,-3.33627843857,
2.01271374623,-0.618850708008,0,-6.00199525206,-0.0004607903169,153,-1.25997495651,-3.46763181686,
2.00609190861,-0.600845336914,0,-6.05107457246,-0.000453780507412,154,-1.32433331013,-3.60113143921,
1.99914200703,-0.582160949707,0,-6.0993261209,-0.00044612610213,155,-1.39002561569,-3.73688006401,
1.99185688893,-0.562786579132,0,-6.14662856386,-0.000437349892483,156,-1.45707070827,-3.87493515015,
1.98422892491,-0.542709827423,0,-6.19286015985,-0.000427223723482,157,-1.52551841736,-4.01538705826,
1.97625191609,-0.521918773651,0,-6.237933999,-0.000416523839585,158,-1.59541094303,-4.15828275681,
1.96791823308,-0.500400066376,0,-6.28173025706,-0.000404716886168,159,-1.66679251194,-4.30373334885,
1.95921976964,-0.478141307831,0,-6.32409161954,-0.00039145629178,160,-1.73970413208,-4.45180463791,
1.95014889637,-0.455128669739,0,-6.36489130731,-0.00037702420637,161,-1.81420278549,-4.6026058197,
1.94069703023,-0.431347846985,0,-6.40396977293,-0.000361117862665,162,-1.89034867287,-4.75622606277,
1.93085606495,-0.406784534454,0,-6.44117566865,-0.00034381301764,163,-1.96818709373,-4.91277742386,
1.92061741749,-0.381422996521,0,-6.47635477475,-0.000325083120272,164,-2.04779458046,-5.07236862183,
1.9099715511,-0.355247497559,0,-6.50931135326,-0.000304544254598,165,-2.12919449806,-5.2351140976,
1.89890940587,-0.328242301941,0,-6.53985669513,-0.000282261950047,166,-2.21247124672,-5.40113830566,
1.88742096821,-0.30039024353,0,-6.56778137736,-0.000258044535825,167,-2.29769921303,-5.5705742836,
1.87549622456,-0.271672725677,0,-6.59288755928,-0.000231999050813,168,-2.38492584229,-5.74354457855,
1.86312563817,-0.242072582245,0,-6.61496160578,-0.000203979519608,169,-2.47422790527,-5.92022514343,
1.8502972881,-0.211569309235,0,-6.633747128,-0.000173590896947,170,-2.56568980217,-6.10074615479,
1.83700068394,-0.18014383316,0,-6.64900397208,-0.000140983228736,171,-2.65935325623,-6.2852563858,
1.8232243816,-0.14777469635,0,-6.66048324099,-0.000106075733099,172,-2.75533080101,-6.47393703461,
1.80895598332,-0.114440917969,0,-6.66788323605,-6.83805090399e-05,173,-2.85371232033,-6.66697311401,
1.79418356816,-0.0801191329956,0,-6.67094210536,-2.82657758763e-05,174,-2.95454192162,-6.86451530457,
1.77889426152,-0.0447864532471,0,-6.669344323,1.47644298044e-05,175,-3.05791735649,-7.06675815582,
1.76307471196,-0.00841808319092,0,-6.6627728145,6.07243939664e-05,176,-3.16393494606,-7.27389240265,
1.74671204487,0.0290116313845,0,-6.65092592386,0.000109471619409,177,-3.27265977859,-7.48610639572,
1.72979147831,0.0675283446908,0,-6.63342106999,0.000161753836015,178,-3.38420653343,-7.70359420776,
1.71229870717,0.107159711421,0,-6.60990744984,0.000217277423093,179,-3.49863290787,-7.92654275894,
1.69421894948,0.147933930159,0,-6.58001066882,0.000276260355394,180,-3.61602497101,-8.1551361084,
1.67553742329,0.189879998565,0,-6.54335293434,0.000338734021501,181,-3.73644733429,-8.38953399658,
1.65623791615,0.233027935028,0,-6.49950637669,0.0004051611311,182,-3.85997843742,-8.62993240356,
1.63630516926,0.277408212423,0,-6.44806765404,0.000475315017628,183,-3.98665809631,-8.87643623352,
1.615723447,0.323051810265,0,-6.38860904432,0.000549420927591,184,-4.11651706696,-9.12913131714,
1.59447653691,0.369990199804,0,-6.320678614,0.000627699162505,185,-4.24957275391,-9.38812065125,
1.57254822651,0.418254554272,0,-6.24380616577,0.000710324696482,186,-4.38579750061,-9.65336513519,
1.54992343398,0.467875957489,0,-6.15754571463,0.000797071013267,187,-4.52513408661,-9.92480754852,
1.52658718551,0.518884539604,0,-6.06142929155,0.00088814108837,188,-4.66746139526,-10.2022857666,
1.50252523372,0.571308910847,0,-5.95498211927,0.000983597730618,189,-4.81262397766,-10.4854831696,
1.47772469471,0.625175476074,0,-5.83773704909,0.00108337053289,190,-4.96035909653,-10.773982048,
1.45217455278,0.680507421494,0,-5.70924058231,0.00118733323814,191,-5.11030626297,-11.067111969,
1.42586597899,0.737323880196,0,-5.56905581685,0.00129533271354,192,-5.26201820374,-11.3640823364,
1.39879319171,0.795638144016,0,-5.41677202506,0.00140712682995,193,-5.41488647461,-11.6636924744,
1.37095426122,0.855456471443,0,-5.25202095632,0.00152232320995,194,-5.56814622879,-11.9645671844,
1.34235204855,0.916775822639,0,-5.07448511213,0.00164045265098,195,-5.72083473206,-12.2648582458,
1.31299515168,0.979582369328,0,-4.88391697601,0.00176086869949,196,-5.87179756165,-12.5623455048,
1.28289924661,1.04384851456,0,-4.68015406734,0.0018827850941,197,-6.0196390152,-12.8543615341,
1.2520879964,1.10953164101,0,-4.46314147953,0.00200520833243,198,-6.16273021698,-13.1378116608,
1.22059460084,1.1765704155,0,-4.23294736192,0.00212700187613,199,-6.29920482635,-13.4090538025,
1.18846242229,1.24488413334,0,-3.9897843172,0.00224683040523,200,-6.42698574066,-13.6640834808,
1.15574635664,1.31436991692,0,-3.73402954485,0.00236317137085,201,-6.54380226135,-13.8985595703,
1.12251289288,1.38490200043,0,-3.46622807973,0.00247447752095,202,-6.64730548859,-14.107878685,
1.0888403813,1.4563318491,0,-3.1871085908,0.00257904738576,203,-6.73513793945,-14.2875356674,
1.05481834809,1.52848982811,0,-2.89758349508,0.00267518866107,204,-6.8050699234,-14.4331760406,
1.02054615418,1.6011865139,0,-2.59872612624,0.00276141184188,205,-6.85509490967,-14.5409460068,
0.986131087938,1.67421746254,0,-2.29175925737,0.00283633505684,206,-6.88369321823,-14.6078290939,
0.951685742536,1.74736821651,0,-1.97802204234,0.0028988860596,207,-6.88974618912,-14.6317844391,
0.917325095334,1.82041954994,0,-1.65892868583,0.00294836897638,208,-6.87282133102,-14.6119384766,
0.883162991205,1.89315497875,0,-1.33592549267,0.00298448857035,209,-6.8330950737,-14.5487155914,
0.849309162298,1.96536540985,0,-1.01044044346,0.00300741330991,210,-6.77140235901,-14.4436836243,
0.815867022672,2.03685522079,0,-0.683856726594,0.00301755779236,211,-6.68904924393,-14.2994995117,
0.782930866876,2.10744595528,0,-0.357460849686,0.00301581566432,212,-6.58782911301,-14.1196670532,
0.750584439435,2.17698025703,0,-0.0324215205003,0.00300327516809,213,-6.46985244751,-13.9082612991,
0.71890075604,2.24532151222,0,0.290224985151,0.00298115993201,214,-6.33727264404,-13.6696252823,
0.687941149869,2.31235575676,0,0.609591741077,0.00295084850046,215,-6.19242477417,-13.4081554413,
0.657756225267,2.37799048424,0,0.924934551341,0.00291366241623,216,-6.03743934631,-13.1281223297,
0.628386572995,2.44215202332,0,1.23564996692,0.00287089988981,217,-5.8743481636,-12.8334169388,
0.599863545099,2.50478506088,0,1.54126574107,0.00282377501449,218,-5.70498752594,-12.5276489258,
0.572210506597,2.56584954262,0,1.84142799671,0.00277337904427,219,-5.53096246719,-12.2138576508,
0.545444087186,2.6253182888,0,2.13588557701,0.00272066299027,220,-5.35360813141,-11.8946723938,
0.519575075307,2.68317556381,0,2.42447798459,0.00266646501625,221,-5.17409849167,-11.5722961426,
0.494609550634,2.73941421509,0,2.70711978959,0.00261147819208,222,-4.99335336685,-11.2484798431,
0.470550254979,2.79403376579,0,2.98378295166,0.00255623282065,223,-4.8120880127,-10.924618721,
0.447396473089,2.84703946114,0,3.25449302306,0.00250122396486,224,-4.63098335266,-10.6018238068,
0.425145343938,2.89844107628,0,3.51931354394,0.00244680246354,225,-4.45040225983,-10.2808818817,
0.403792814412,2.94825005531,0,3.77833056592,0.00239317626595,226,-4.27066612244,-9.96236133575,
0.383332804837,2.99648118019,0,4.03165816472,0.00234059033764,227,-4.09211540222,-9.64670181274,
0.363759354749,3.04314923286,0,4.27941477477,0.00228911269151,228,-3.91481113434,-9.33406257629,
0.34506531159,3.0882704258,0,4.52173114157,0.00223884349165,229,-3.7389087677,-9.02463340759,
0.327243522802,3.13186001778,0,4.75873339356,0.00218973858659,230,-3.56445217133,-8.71834945679,
0.310286955037,-3.10925126076,0,4.99054844766,0.00214180719014,231,-3.39141988754,-8.41520118713,
0.294188217321,-3.0686776638,0,5.21729541932,0.00209497684937,232,-3.21981287003,-8.11502361298,
0.278940276304,-3.02959084511,0,5.43907845851,0.00204910913854,233,-3.04962992668,-7.81768035889,
0.264536813894,-2.99197721481,0,5.65599338882,0.00200412677153,234,-2.88074421883,-7.52293872833,
0.25097127358,-2.95582556725,0,5.86811258941,0.00195981354991,235,-2.71314501762,-7.23059082031,
0.238237694898,-2.92112445831,0,6.0754991486,0.00191608263902,236,-2.54676270485,-6.94041633606,
0.22633059422,-2.88786482811,0,6.2781895665,0.00187268995826,237,-2.38146400452,-6.6521282196,
0.21524448792,-2.85603833199,0,6.47620181497,0.00182946352979,238,-2.21725106239,-6.3655128479,
0.204974965253,-2.82563757896,0,6.66953588786,0.00178623729253,239,-2.05392694473,-6.08027887344,
0.195517377057,-2.79665732384,0,6.85816027081,0.00174272008662,240,-1.89150333405,-5.79621505737,
0.186867908635,-2.7690923214,0,7.04203037421,0.00169821995741,241,-1.72991132736,-5.5130739212,
0.179022983709,-2.74293971062,0,7.22106747927,0.00165357814196,242,-1.56898534298,-5.23061227798,
0.171979145208,-2.71819710732,0,7.39517192052,0.00160801650933,243,-1.40875697136,-4.94861793518,
0.165733770528,-2.69486308098,0,7.56422241418,0.00156133525237,244,-1.24906897545,-4.66687679291,
0.160284356275,-2.67293763161,0,7.72806800642,0.00151325996661,245,-1.08989560604,-4.38520479202,
0.155628399053,-2.65242099762,0,7.88653691085,0.00146359833284,246,-0.931191980839,-4.10338592529,
0.151763991514,-2.63331484795,0,8.03942887194,0.00141208743743,247,-0.772897601128,-3.82129144669,
0.148689107099,-2.61562156677,0,8.18651677089,0.00135847835456,248,-0.614971756935,-3.53872013092,
0.146402792135,-2.59934401512,0,8.32755620333,0.00130261289983,249,-0.457272589207,-3.2555437088,
0.144903377691,-2.58448624611,0,8.46226681449,0.00124415840913,250,-0.299877226353,-2.97162175179,
0.144189790883,-2.57105207443,0,8.59035423327,0.00118298545949,251,-0.142722994089,-2.68686437607,
0.144261316457,-2.55904650688,0,8.71149459469,0.00111882165329,252,0.0142749994993,-2.40112328529,
0.145116881528,-2.54847502708,0,8.82533604098,0.00105140856081,253,0.171120509505,-2.11433339119,
0.146755770841,-2.53934288025,0,8.93151097853,0.000980600661454,254,0.327794283628,-1.8264477253,
0.149177626767,-2.53165626526,0,9.02962396593,0.000906140833431,255,0.484364300966,-1.5373506546,
0.152381495633,-2.52542114258,0,9.11925679247,0.000827818921299,256,0.640792131424,-1.24705088139,
0.156367496648,-2.52064394951,0,9.19997351086,0.000745471083076,257,0.797166585922,-0.955441117287,
0.161134318509,-2.51733112335,0,9.27130673088,0.000658806972108,258,0.953399181366,-0.662560105324,
0.166681961217,-2.51548933983,0,9.33277579452,0.000567704073322,259,1.10952663422,-0.368390440941,
0.173009709516,-2.51512479782,0,9.38387951411,0.000471972837106,260,1.26555037498,-0.0729182958603,
0.180116967359,-2.51624393463,0,9.42409506604,0.00037141341145,261,1.42146706581,0.22384250164,
0.188002900281,-2.51885294914,0,9.45288092249,0.0002658531139,262,1.57717716694,0.521822214127,
0.196666435399,-2.52295804024,0,9.4696748736,0.000155100977215,263,1.73274147511,0.821032106876,
0.206107215085,-2.52856516838,0,9.47390408984,3.90589520191e-05,264,1.88816559315,1.12141931057,
0.216323808828,-2.53567957878,0,9.46497846373,-8.24324972377e-05,265,2.04333257675,1.4229054451,
0.227314786115,-2.54430627823,0,9.44229417796,-0.000209499966599,266,2.1982216835,1.72537696362,
0.239078716436,-2.55445027351,0,9.40523206653,-0.000342285168604,267,2.35282158852,2.02880430222,
0.25161393086,-2.56611514091,0,9.35317331596,-0.00048078482537,268,2.50708770752,2.33304429054,
0.264918402829,-2.57930517197,0,9.28547633515,-0.000625209191792,269,2.66093683243,2.63801765442,
0.278989986577,-2.59402275085,0,9.20150940768,-0.000775466904823,270,2.81437039375,2.94356608391,
0.29382594029,-2.61027026176,0,9.10062860639,-0.000931671010673,271,2.96725821495,3.24956274033,
0.309423760572,-2.62804937363,0,8.98219271203,-0.00109379635955,272,3.11962556839,3.55586886406,
0.325779871145,-2.64736032486,0,8.84556672171,-0.00126178541275,273,3.27128744125,3.86227011681,
0.342891172567,-2.66820311546,0,8.6901191868,-0.00143560535123,274,3.42233538628,4.16864585876,
0.360753254094,-2.69057631493,0,8.51523005116,-0.001615150873,275,3.57252144814,4.47471284866,
0.379361943403,-2.71447706223,0,8.32030101142,-0.00180022108721,276,3.7218272686,4.78025913239,
0.398712591329,-2.73990178108,0,8.10474763694,-0.00199068787024,277,3.87024211884,5.08509159088,
0.418799356618,-2.76684522629,0,7.86801181119,-0.00218630817896,278,4.01748895645,5.38883018494,
0.439616398015,-2.7953004837,0,7.60956977446,-0.00238675231024,279,4.16356611252,5.6911854744,
0.461157159009,-2.82525873184,0,7.32893643981,-0.0025916874358,280,4.30830335617,5.99182748795,
0.483413771787,-2.85670924187,0,7.02566931721,-0.00280070798295,281,4.45152330399,6.29030990601,
0.506378010907,-2.88963913918,0,6.69937788039,-0.00301333383937,282,4.59305620193,6.58619022369,
0.530040697255,-2.92403268814,0,6.34973472628,-0.00322898258647,283,4.73273849487,6.87895536423,
0.554390863576,-2.95987153053,0,5.97647843562,-0.00344704440504,284,4.87027835846,7.16801118851,
0.579416469732,-2.997133255,0,5.57943461291,-0.0036667157801,285,5.00537872314,7.45265007019,
0.605104104677,-3.03579282761,0,5.15850642708,-0.00388728048883,286,5.13781642914,7.73220348358,
0.631438211599,-3.07581949234,0,4.71371252796,-0.00410767185651,287,5.26713943481,8.00571537018,
0.658401147523,-3.11717891693,0,4.2451717078,-0.0043269651473,288,5.39289903641,8.27223682404,
0.685973004499,3.12335515022,0,3.75313868642,-0.00454390532372,289,5.51471185684,8.53067398071,
0.7141303579,3.07945919037,0,3.2380087289,-0.00475719213244,290,5.63183832169,8.77967071533,
0.742847518125,3.03437185287,0,2.70031985688,-0.00496551151496,291,5.74382543564,9.01791286469,
0.772094384828,2.98815584183,0,2.14079396545,-0.00516716369631,292,5.84978532791,9.2437171936,
0.801836744943,2.94088220596,0,1.56033072495,-0.00536050619832,293,5.94891214371,9.45526599884,
0.83203597466,2.8926320076,0,0.960026488923,-0.00554372322943,294,6.04030990601,9.65060424805,
0.862647847333,2.84349751472,0,0.341192854628,-0.00571482723281,295,6.12285375595,9.82744884491,
0.893622712293,2.79358363152,0,-0.294633004302,-0.0058717347967,296,6.1954665184,9.98341941833,
0.924904123941,2.74300742149,0,-0.945684622244,-0.00601232860598,297,6.25679588318,10.1158733368,
0.95642937819,2.69190073013,0,-1.60995388447,-0.00613436039645,298,6.30558204651,10.2220106125,
0.988128141561,2.6404094696,0,-2.28519272075,-0.00623564647315,299,6.34028053284,10.298869133,
1.01992310683,2.58869576454,0,-2.96891308026,-0.00631395419527,300,6.35953521729,10.3434104919,
1.05172927777,2.53693628311,0,-3.65840574293,-0.00636724624532,301,6.36177110672,10.3525733948,
1.08345405857,2.48532295227,0,-4.35075088133,-0.006393575961,302,6.34549045563,10.3233146667,
1.11499802867,2.43406224251,0,-5.04284947721,-0.00639128546713,303,6.30932044983,10.2528038025,
1.14625544945,2.3833732605,0,-5.73146136814,-0.00635907319421,304,6.25199174881,10.1384210587,
1.1771147112,2.33348679543,0,-6.41323661117,-0.00629592555875,305,6.17234706879,9.97792053223,
1.20746009151,2.28464174271,0,-7.08477828935,-0.00620140902989,306,6.06953907013,9.76953983307,
1.2371726195,2.2370839119,0,-7.74267900251,-0.00607542513672,307,5.94294214249,9.51211261749,
1.26613234083,2.19106078148,0,-8.38359503329,-0.00591856596301,308,5.7923541069,9.20510578156,
1.29421927134,2.14681959152,0,-9.00428023438,-0.00573172837454,309,5.61774969101,8.84865951538,
1.32131555776,2.10460352898,0,-9.60164164937,-0.00551633226311,310,5.41959142685,8.44361591339,
1.34730689327,2.06464767456,0,-10.1727787854,-0.00527415296681,311,5.19856023788,7.99146842957,
1.37208421628,2.02717757225,0,-10.7150095028,-0.00500720719239,312,4.95571804047,7.49432754517,
1.39554469387,1.99240505695,0,-11.2258903108,-0.00471769483629,313,4.69231081009,6.9547700882,
1.41759270529,1.96052694321,0,-11.7032186647,-0.00440784728761,314,4.40978240967,6.37580490112,
1.43814072112,1.93172419071,0,-12.1450279939,-0.00407984055756,315,4.10974931717,5.76068162918,
1.4571096013,1.90616071224,0,-12.5495712646,-0.00373570290038,316,3.79388928413,5.11283493042,
1.47442864726,1.88398218155,0,-12.9152977782,-0.00337724684522,317,3.46389436722,4.4357881546,
1.49003595213,1.86531734467,0,-13.2408258187,-0.00300601448219,318,3.12152600288,3.73303818703,
1.5038780729,1.85027742386,0,-13.5249109075,-0.00262331286817,319,2.76846981049,3.00802946091,
1.51590968023,1.83895671368,0,-13.7664111175,-0.00223006794427,320,2.40635037422,2.26414179802,
1.52609377454,1.83143377304,0,-13.9642627575,-0.00182700290127,321,2.03683710098,1.50462961197,
1.53440140287,1.82777011395,0,-14.1174590156,-0.00141464281683,322,1.66153430939,0.732736229897,
1.54081148381,1.82801198959,0,-14.225024616,-0.000993278499135,323,1.28202116489,-0.0483783483505,
1.54531117442,1.83218944073,0,-14.2860133963,-0.000563178968468,324,0.89993929863,-0.835499286652,
1.5478960863,1.84031605721,0,-14.2995065077,-0.000124597023514,325,0.516983151436,-1.62534701824,
1.54857071216,1.85238862038,0,-14.2646204848,0.000322141055115,326,0.134924978018,-2.41454267502,
1.54734884115,1.86838543415,0,-14.1805266854,0.000776529055385,327,-0.244374483824,-3.19942593575,
1.54425454053,1.88826608658,0,-14.0464816745,0.00123778010687,328,-0.61886048317,-3.97618699074,
1.53932280938,1.91196894646,0,-13.8618685438,0.00170472570713,329,-0.986348032951,-4.74067974091,
1.53260040382,1.93941068649,0,-13.6262403253,0.00217579581628,330,-1.34448635578,-5.488489151,
1.5241466547,1.97048437595,0,-13.3393764428,0.00264890122704,331,-1.69076013565,-6.21492528915,
1.51403419773,2.00505876541,0,-13.0013387393,0.00312143343699,332,-2.02250909805,-6.91510057449,
1.50234899769,2.04297685623,0,-12.6125261429,0.00359027483046,333,-2.3370654583,-7.58397865295,
1.48919074337,2.08405733109,0,-12.1737225771,0.00405188036573,334,-2.63168954849,-8.21650981903,
1.47467243026,2.12809443474,0,-11.6861417214,0.00450227722655,335,-2.90371346474,-8.80788040161,
1.45891930262,2.17485928535,0,-11.1514540046,0.004937244046,336,-3.15069127083,-9.35355854034,
1.44206751982,2.22410416603,0,-10.5717847305,0.00535258626419,337,-3.37043642998,-9.84960651398,
1.42426262895,2.27556419373,0,-9.94971956457,0.00574405118551,338,-3.5610730648,-10.2927284241,
1.40565683047,2.32896304131,0,-9.28825596509,0.00610783630659,339,-3.72126817703,-10.6805753708,
1.38640683989,2.38401699066,0,-8.59076243635,0.00644051658284,340,-3.85011696815,-11.0117015839,
1.36667136947,2.44044041634,0,-7.86090898756,0.00673930767972,341,-3.94722080231,-11.2856407166,
1.34660834173,2.49794983864,0,-7.1025953699,0.00700208522905,342,-4.01274204254,-11.5028915405,
1.32637298206,2.55626869202,0,-6.31987229421,0.00722746092847,343,-4.04721164703,-11.6648082733,
1.30611522595,2.61513090134,0,-5.51685817277,0.0074140021202,344,-4.0516834259,-11.7735357285,
1.28597869078,2.67428398132,0,-4.69767012922,0.00756326280045,345,-4.02745103836,-11.8317518234,
1.26609908144,2.73349094391,0,-3.86635823837,0.00767517622955,346,-3.97605276108,-11.8425559998,
1.24660353462,2.79253196716,0,-3.02684979807,0.00775083458351,347,-3.89922881126,-11.8093528748,
1.22761045496,2.85120415688,0,-2.18291974015,0.00779164106256,348,-3.79873013496,-11.7355823517,
1.20922876994,2.90932226181,0,-1.33814854497,0.00779939050538,349,-3.67644190788,-11.6247653961,
1.19155870477,2.96671772003,0,-0.49591421812,0.00777595222934,350,-3.53410792351,-11.4802303314,
1.17469175259,3.02323794365,0,0.340620298712,0.00772331219685,351,-3.37347745895,-11.3051605225,
1.15871127049,3.07874488831,0,1.16850210456,0.00764340638161,352,-3.19616603851,-11.1025066376,
1.14369256894,3.13311457634,0,1.98499467006,0.00753823958614,353,-3.00379920006,-10.875005722,
1.12970383564,-3.09695076942,0,2.78754783454,0.00740952909805,354,-2.79779076576,-10.6250963211,
1.116806523,-3.045181036,0,3.57380878644,0.0072590964693,355,-2.57950305939,-10.3549623489,
1.1050556759,-2.99485325813,0,4.34157963546,0.00708836976143,356,-2.35020136833,-10.0665569305,
1.09450091521,-2.94605016708,0,5.08881787595,0.00689878813261,357,-2.11097168922,-9.76155281067,
1.08518619935,-2.89884710312,0,5.81361443011,0.00669158036468,358,-1.86295962334,-9.44150924683,
1.07715006272,-2.85331273079,0,6.51418085445,0.00646786567853,359,-1.60723423958,-9.10780143738,
1.07042689721,-2.80950927734,0,7.18884031108,0.00622867045505,360,-1.34463405609,-8.76153564453,
1.0650461475,-2.76749420166,0,7.8360035213,0.0059748043177,361,-1.0761578083,-8.40385150909,
1.06103320519,-2.72731995583,0,8.45416787377,0.00570706602192,362,-0.802589178085,-8.03563499451,
1.05840940873,-2.68903470039,0,9.04190552336,0.0054261463736,363,-0.524757027626,-7.65776252747,
1.0571925799,-2.65268349648,0,9.5978432568,0.00513255021785,364,-0.243360757828,-7.27096271515,
1.05739636818,-2.61830663681,0,10.1206895939,0.00482703053844,365,0.040757805109,-6.87606143951,
1.0590315024,-2.58594179153,0,10.6092000157,0.00451002515925,366,0.327021032572,-6.47365093231,
1.06210507552,-2.55562281609,0,11.0621986582,0.00418216435014,367,0.61472004652,-6.06442022324,
1.06662102143,-2.52738046646,0,11.4785689012,0.00384399619993,368,0.903192639351,-5.64904737473,
1.07258026401,-2.50124239922,0,11.8572564671,0.00349609623212,369,1.19184839725,-5.22813796997,
1.07998104493,-2.4772336483,0,12.1972655789,0.00313900492502,370,1.48016083241,-4.80227994919,