lower angle,upper angle,holding angle,system x,acceleration,ticks (200 tps),lower acceleration (shoulder),upper acceleration (elbow),
1.57079632679,0.0,0,2.17527887699e-15,7.81350230383e-17,1,0.0,0.0,
1.57082541386,-5.67436218262e-05,0,-0.00016939640042,-6.0845860411e-06,2,0.0058199679479,0.0113363554701,
1.57088549534,-0.000173568725586,0,-0.000525128840525,-1.27772844346e-05,3,0.0119722615927,0.0233744960278,
1.57097561757,-0.000349521636963,0,-0.00104783772724,-1.87746276562e-05,4,0.0179909430444,0.0351532325149,
1.57109530369,-0.000583648681641,0,-0.00173510309846,-2.46849664971e-05,5,0.0239508897066,0.0468055382371,
1.57124455372,-0.000875473022461,0,-0.00259418476871,-3.0855970518e-05,6,0.0298674292862,0.058385796845,
1.57142336766,-0.00122499465942,0,-0.00362508267805,-3.70268774091e-05,7,0.0357485599816,0.0699053704739,
1.57163126866,-0.00163173675537,0,-0.0048181169329,-4.28497361759e-05,8,0.0415900945663,0.0813424885273,
1.57186825673,-0.00209522247314,0,-0.00618054721969,-4.89334721438e-05,9,0.0473884940147,0.0926945358515,
1.57213385502,-0.00261497497559,0,-0.00770269351745,-5.46694507184e-05,10,0.0531286485493,0.103944808245,
1.57242806355,-0.00319051742554,0,-0.00939181534234,-6.06660789773e-05,11,0.0588151365519,0.115085795522,
1.57274992863,-0.00382089614868,0,-0.0112285526964,-6.59672868572e-05,12,0.0644349083304,0.126118674874,
1.57309992711,-0.00450611114502,0,-0.0132298446286,-7.1876734815e-05,13,0.0699924752116,0.13701441884,
1.57347758214,-0.00524473190308,0,-0.0154005302787,-7.7959927881e-05,14,0.0754812657833,0.147777944803,
1.57388194005,-0.00603675842285,0,-0.0177067295678,-8.28261596685e-05,15,0.0808895155787,0.15839868784,
1.57431300084,-0.00688123703003,0,-0.0201629610552,-8.82136821083e-05,16,0.0862261801958,0.168859422207,
1.57477028767,-0.00777673721313,0,-0.0227740632776,-9.37750379174e-05,17,0.0914667546749,0.179158270359,
1.57525332371,-0.00872325897217,0,-0.0255230951367,-9.87278694997e-05,18,0.0966280847788,0.189285337925,
1.57576210896,-0.00971937179565,0,-0.0284318341142,-0.000104462741951,19,0.101694248617,0.199236422777,
1.5762952129,-0.0107645988464,0,-0.031456719495,-0.000108633071336,20,0.106663495302,0.208982855082,
1.57685311238,-0.0118570327759,0,-0.034643727255,-0.000114454389815,21,0.111531257629,0.218536764383,
1.57743437687,-0.012996673584,0,-0.0379420365104,-0.000118450609156,22,0.116293020546,0.227902293205,
1.57803900639,-0.0141816139221,0,-0.0413806830527,-0.000123489534598,23,0.120945490897,0.237028837204,
1.57866652409,-0.0154113769531,0,-0.0449499837667,-0.000128180637552,24,0.125487878919,0.245942056179,
1.5793159763,-0.0166845321655,0,-0.048637835435,-0.000132437025572,25,0.129911139607,0.254641234875,
1.57998736302,-0.018000125885,0,-0.052458753007,-0.000137214590615,26,0.134220570326,0.263093948364,
1.58067925374,-0.0193567276001,0,-0.0563836936199,-0.00014094910216,27,0.138397559524,0.271297574043,
1.58139164845,-0.0207529067993,0,-0.0604344308839,-0.000145465468768,28,0.142456501722,0.279254347086,
1.58212311665,-0.0221877098083,0,-0.0645746621252,-0.00014867808736,29,0.146377682686,0.286957979202,
1.58287413518,-0.0236597061157,0,-0.0688430985051,-0.000153280802456,30,0.150171101093,0.29440253973,
1.58364327351,-0.02516746521,0,-0.0732106961967,-0.000156840471389,31,0.153829276562,0.301563799381,
1.58443005482,-0.0267100334167,0,-0.0776750289628,-0.000160312968256,32,0.157347619534,0.308465749025,
1.58523352543,-0.0282855033875,0,-0.082231250548,-0.000163611396731,33,0.160726428032,0.315071702003,
1.58605368535,-0.0298924446106,0,-0.0869011308647,-0.000167691482378,34,0.163957774639,0.321398019791,
1.58688862721,-0.0315294265747,0,-0.0916386881712,-0.00017012040264,35,0.167044773698,0.327433347702,
1.58773882786,-0.0331954956055,0,-0.0964753701946,-0.000173678535192,36,0.169987007976,0.333186328411,
1.58860237996,-0.0348882675171,0,-0.101379713589,-0.000176106773736,37,0.172773301601,0.338627755642,
1.58947976033,-0.0366072654724,0,-0.106375905656,-0.000179403470692,38,0.175406128168,0.343767523766,
1.59036906163,-0.0383501052856,0,-0.111432483427,-0.000181570266704,39,0.177887320518,0.348587095737,
1.59126980702,-0.0401158332825,0,-0.11654701895,-0.000183648755993,40,0.1802059412,0.35309779644,
1.5921819965,-0.0419020652771,0,-0.121755794947,-0.000187031150209,41,0.18236990273,0.357298284769,
1.59310372273,-0.0437083244324,0,-0.12699831604,-0.000188241370321,42,0.184376507998,0.361181259155,
1.5940349857,-0.0455317497253,0,-0.132318122307,-0.000191014929048,43,0.186222627759,0.364732503891,
1.5949743549,-0.0473718643188,0,-0.137671655959,-0.00019222445753,44,0.187901452184,0.367960870266,
1.5959213535,-0.0492258071899,0,-0.143085520281,-0.00019438431436,45,0.189419686794,0.370860427618,
1.59687550465,-0.0510931015015,0,-0.148550028115,-0.000196200981075,46,0.190765455365,0.373433351517,
1.59783490101,-0.0529713630676,0,-0.154033721512,-0.000196888286227,47,0.191951081157,0.375665962696,
1.59880001942,-0.054859161377,0,-0.159575297248,-0.000198964621217,48,0.192971944809,0.377570509911,
1.59976895253,-0.056755065918,0,-0.165128784053,-0.000199390607442,49,0.193814978004,0.379139274359,
1.60074170033,-0.0586566925049,0,-0.170730458408,-0.000201119133631,50,0.19449621439,0.380366027355,
1.60171635548,-0.0605630874634,0,-0.176327095482,-0.000200936716984,51,0.195016101003,0.381258666515,
1.60269339482,-0.0624723434448,0,-0.181964646036,-0.00020240405976,52,0.195364162326,0.381812155247,
1.60367091099,-0.0643825531006,0,-0.187604401377,-0.00020248165406,53,0.195546403527,0.382033228874,
1.604648904,-0.066291809082,0,-0.193275378716,-0.000203601093804,54,0.195554107428,0.381903469563,
1.60562594334,-0.0681991577148,0,-0.198941290896,-0.000203417765734,55,0.195391923189,0.381442219019,
1.60660107533,-0.0701022148132,0,-0.204604551411,-0.000203320814275,56,0.195065408945,0.380638033152,
1.60757382313,-0.0719995498657,0,-0.210269991626,-0.000203397089349,57,0.194568321109,0.379495084286,
1.60854370991,-0.0738897323608,0,-0.21594244243,-0.000203647168899,58,0.193903490901,0.378013372421,
1.60950882832,-0.07577085495,0,-0.221583206868,-0.000202508014388,59,0.193075090647,0.376199811697,
1.61046917836,-0.0776410102844,0,-0.227221300995,-0.000202410581761,60,0.192080184817,0.374045729637,
1.61142380635,-0.0794987678528,0,-0.232844630315,-0.000201878933552,61,0.190922126174,0.371555238962,
1.61237175862,-0.0813426971436,0,-0.238441102413,-0.000200913222567,62,0.189596444368,0.368737995625,
1.61331255833,-0.0831704139709,0,-0.244030059624,-0.000200641833369,63,0.188105493784,0.365588605404,
1.61424477498,-0.0849809646606,0,-0.24957523258,-0.000199068393816,64,0.186455518007,0.362115830183,
1.61516793171,-0.086772441864,0,-0.255088711647,-0.000197929028066,65,0.184643119574,0.358307957649,
1.61608155171,-0.0885434150696,0,-0.260575332762,-0.000196963006751,66,0.182676270604,0.354181110859,
1.61698420445,-0.0902919769287,0,-0.266013339808,-0.000195216238586,67,0.180545866489,0.349733948708,
1.6178754131,-0.0920171737671,0,-0.271400318783,-0.000193382507828,68,0.178256243467,0.344964921474,
1.61875422398,-0.0937161445618,0,-0.276745944555,-0.000191896446458,69,0.175815418363,0.339885056019,
1.6196206371,-0.0953888893127,0,-0.282050219786,-0.000190410577884,70,0.17322473228,0.334493339062,
1.6204727451,-0.0970330238342,0,-0.2872817277,-0.000187796926344,71,0.17047971487,0.328796267509,
1.62131102482,-0.0986466407776,0,-0.292486400194,-0.000186831941247,72,0.167592659593,0.322806954384,
1.62213356892,-0.100229263306,0,-0.297603817881,-0.000183698215984,73,0.164553657174,0.316506713629,
1.62294037739,-0.10177898407,0,-0.302662994206,-0.000181605925736,74,0.161369085312,0.309916704893,
1.62373049656,-0.103293895721,0,-0.307659104872,-0.00017934074745,75,0.158036515117,0.303029060364,
1.6245034496,-0.104773521423,0,-0.312582492024,-0.000176728913336,76,0.154569000006,0.295854449272,
1.62525828282,-0.10621547699,0,-0.317435584576,-0.000174204124264,77,0.150976106524,0.288406014442,
1.62599451939,-0.107618808746,0,-0.32221597706,-0.000171593216,78,0.147232696414,0.280684143305,
1.62671120564,-0.108982086182,0,-0.326911600118,-0.000168548779546,79,0.143359318376,0.272676944733,
1.62740834157,-0.110304355621,0,-0.331536964621,-0.000166025461227,80,0.139359161258,0.264412641525,
1.62808449666,-0.111583709717,0,-0.336070338807,-0.000162721190493,81,0.135232999921,0.255883336067,
1.62873919407,-0.112819194794,0,-0.340509321673,-0.000159331762816,82,0.130975753069,0.247094482183,
1.62937243382,-0.114009380341,0,-0.344875673419,-0.000156723563563,83,0.126599743962,0.238067746162,
1.62998278538,-0.115153312683,0,-0.349133169259,-0.000152815257773,84,0.122099146247,0.228785008192,
1.63057024876,-0.11624956131,0,-0.353303570069,-0.000149683932082,85,0.117493979633,0.219269886613,
1.63113387028,-0.117297172546,0,-0.35736756568,-0.000145863473349,86,0.112768813968,0.209511756897,
1.63167364995,-0.118295192719,0,-0.361339667994,-0.000142564140735,87,0.107937067747,0.199538871646,
1.63218863408,-0.119241714478,0,-0.365215064237,-0.000139091898602,88,0.103002727032,0.189340382814,
1.63267834584,-0.120136260986,0,-0.36898410879,-0.000135273728198,89,0.0979503691196,0.178929314017,
1.63314230839,-0.120977878571,0,-0.37264440444,-0.000131369429731,90,0.0928124189377,0.168308526278,
1.63358052174,-0.121765136719,0,-0.376217709423,-0.00012824630493,91,0.0875704064965,0.157489180565,
1.63399155537,-0.122497558594,0,-0.379660563252,-0.000123563389868,92,0.0822338014841,0.146464794874,
1.63437540928,-0.123174190521,0,-0.382987477767,-0.000119401421933,93,0.0768090188503,0.135260209441,
1.63473208348,-0.123793125153,0,-0.386227457091,-0.000116280365863,94,0.0712907090783,0.123873449862,
1.63506062428,-0.124354839325,0,-0.389339456517,-0.000111648269445,95,0.0656995102763,0.112310998142,
1.63536055485,-0.124857902527,0,-0.392328326687,-0.000107229781345,96,0.0600210763514,0.100578919053,
1.6356318752,-0.125301361084,0,-0.395208577208,-0.000103332149067,97,0.0542648844421,0.0886866599321,
1.63587410847,-0.125684261322,0,-0.397977810821,-9.93485457064e-05,98,0.0484405457973,0.0766364634037,
1.63608677784,-0.126006603241,0,-0.400619137259,-9.47589995166e-05,99,0.0425404049456,0.0644392371178,
1.63626988331,-0.126266956329,0,-0.403154311175,-9.09500637482e-05,100,0.0365742146969,0.0521007850766,
1.6364224712,-0.126465320587,-0.0126465320587,-0.405549536299,-8.59285184737e-05,101,0.0305435024202,0.0396333448589,
1.63654454152,-0.126600265503,0.0,-0.407826566357,-8.1687515037e-05,102,0.0244555491954,0.0270364303142,
1.6366418163,-0.126682758331,0,-0.410021610285,-7.87455534131e-05,103,0.019428761676,0.0164978131652,
1.63670809666,-0.12670135498,0,-0.41208882558,-7.41590405591e-05,104,0.013222374022,0.00365224853158,
1.63674290577,-0.126654624939,0,-0.414033059013,-6.97466022059e-05,105,0.00697800284252,-0.00929009355605,
1.63674624363,-0.126543045044,0,-0.415847076098,-6.50748002172e-05,106,0.00068198191002,-0.0223329588771,
1.63671811024,-0.126365661621,0,-0.417545381028,-6.0923388292e-05,107,-0.00564840529114,-0.035457547754,
1.63665802876,-0.12612247467,0,-0.419111078874,-5.61659292268e-05,108,-0.0120248906314,-0.048681601882,
1.63656552235,-0.125812530518,0,-0.420541766824,-5.13223407116e-05,109,-0.018438924104,-0.0619796551764,
1.63644154469,-0.125435829163,0,-0.421871264853,-4.76920499119e-05,110,-0.0248855929822,-0.0753513872623,
1.63628466527,-0.124991893768,0,-0.423056110414,-4.25027417347e-05,111,-0.0313528999686,-0.0887861028314,
1.63609536091,-0.124480247498,0,-0.424120462897,-3.81801437907e-05,112,-0.0378481075168,-0.102275021374,
1.63587363163,-0.123901367188,0,-0.42505708102,-3.3597855248e-05,113,-0.0443628579378,-0.115803621709,
1.63561900059,-0.123254299164,0,-0.425863557264,-2.89292733686e-05,114,-0.0509028099477,-0.129386842251,
1.63533194462,-0.122539520264,0,-0.426549554631,-2.4607377801e-05,115,-0.0574477352202,-0.1430028826,
1.63501151005,-0.121756076813,0,-0.427095756194,-1.95926320476e-05,116,-0.0640040636063,-0.156648516655,
1.63465865056,-0.120904922485,0,-0.427521482418,-1.52709896127e-05,117,-0.0705678090453,-0.170309066772,
1.63427336613,-0.11998462677,0,-0.427848478477,-1.17294087271e-05,118,-0.0771353542805,-0.183975636959,
1.63385470311,-0.118996620178,0,-0.428021182139,-6.19485676523e-06,119,-0.083705201745,-0.197658747435,
1.63340313832,-0.117939949036,0,-0.428070995478,-1.78677991909e-06,120,-0.0902677923441,-0.211336538196,
1.6329191486,-0.116814613342,0,-0.428014825252,2.01478170748e-06,121,-0.0968171581626,-0.225012004375,
1.63240225712,-0.115621566772,0,-0.427821259344,6.94300386094e-06,122,-0.103364750743,-0.238671138883,
1.63185294072,-0.114359855652,0,-0.427521700583,1.07447601748e-05,123,-0.109887912869,-0.252301752567,
1.63127119938,-0.113030433655,0,-0.427101643942,1.50667297797e-05,124,-0.116402208805,-0.265903115273,
1.63065655629,-0.111632823944,0,-0.426551418585,1.9735517274e-05,125,-0.122898459435,-0.279482334852,
1.63000948826,-0.110167980194,0,-0.425873426064,2.43180987982e-05,126,-0.129362329841,-0.293008506298,
1.62933047215,-0.108635425568,0,-0.425091818965,2.80343178626e-05,127,-0.135804027319,-0.306481182575,
1.62861950795,-0.107036113739,0,-0.424192084743,3.22710051713e-05,128,-0.142209663987,-0.319901227951,
1.62787659565,-0.105369567871,0,-0.423181461077,3.62480454467e-05,129,-0.148579075933,-0.333260089159,
1.62710221211,-0.103636741638,0,-0.422062346573,4.01389865229e-05,130,-0.154919937253,-0.346554040909,
1.62629588048,-0.101838111877,0,-0.420810556985,4.48972736212e-05,131,-0.161210536957,-0.359771966934,
1.62545903126,-0.0999736785889,0,-0.419476825453,4.78358897128e-05,132,-0.167453750968,-0.372894436121,
1.6245907108,-0.0980439186096,0,-0.418020047787,5.22486998132e-05,133,-0.17365565896,-0.385940045118,
1.62369139592,-0.0960493087769,0,-0.416449868594,5.63140466599e-05,134,-0.179809615016,-0.398879349232,
1.6227620403,-0.0939908027649,0,-0.414785599569,5.96880967901e-05,135,-0.185905575752,-0.411727964878,
1.6218021671,-0.0918684005737,0,-0.41301029933,6.36697046798e-05,136,-0.191947996616,-0.424469172955,
1.62081272999,-0.0896830558777,0,-0.411143278906,6.69586941517e-05,137,-0.197933405638,-0.437104016542,
1.61979325215,-0.0874352455139,0,-0.409160338218,7.11155478558e-05,138,-0.203849703074,-0.449602484703,
1.61874468724,-0.0851249694824,0,-0.407095296276,7.40594737917e-05,139,-0.209710255265,-0.461979568005,
1.61766703526,-0.0827541351318,0,-0.404919107912,7.80450119985e-05,140,-0.215497195721,-0.474233269691,
1.61656124989,-0.080322265625,0,-0.402672848871,8.05573779835e-05,141,-0.221215710044,-0.486351668835,
1.61542685429,-0.0778307914734,0,-0.4003178,8.44582718299e-05,142,-0.22686290741,-0.498326987028,
1.61426480214,-0.075279712677,0,-0.39788778229,8.71462335805e-05,143,-0.232427373528,-0.51014983654,
1.61307509343,-0.0726709365845,0,-0.395353740492,9.08760329774e-05,144,-0.237914055586,-0.521817743778,
1.61185868184,-0.0700039863586,0,-0.39275675362,9.31326135071e-05,145,-0.243322879076,-0.533340096474,
1.61061509053,-0.0672807693481,0,-0.390050833506,9.70383262909e-05,146,-0.248649150133,-0.544685125351,
1.60934575001,-0.064501285553,0,-0.38728673208,9.9124081829e-05,147,-0.253888130188,-0.555877745152,
1.60805066029,-0.0616669654846,0,-0.384442643594,0.000101991814029,148,-0.259042590857,-0.566892266273,
1.6067302982,-0.0587782859802,0,-0.381528204684,0.000104513856095,149,-0.264101803303,-0.577730596066,
1.60538466374,-0.0558362007141,0,-0.378528861795,0.000107557789807,150,-0.269072443247,-0.588390648365,
1.60401518742,-0.0528416633606,0,-0.375480856442,0.000109302061527,151,-0.273941755295,-0.598854005337,
1.60262139241,-0.0497961044312,0,-0.372345441809,0.000112435771741,152,-0.278726816177,-0.609141230583,
1.60120423237,-0.0467000007629,0,-0.369149184495,0.000114616769076,153,-0.283399045467,-0.619224727154,
1.59976466099,-0.0435543060303,0,-0.365911394636,0.0001161048986,154,-0.287979632616,-0.629126787186,
1.59830220143,-0.0403604507446,0,-0.362593318417,0.000118983035965,155,-0.292455732822,-0.638812303543,
1.59681828419,-0.0371189117432,0,-0.359238458508,0.000120301041815,156,-0.296827971935,-0.648296117783,
1.59531243245,-0.0338311195374,0,-0.355808056861,0.000123008618757,157,-0.301094919443,-0.657577037811,
1.59378655354,-0.0304980278015,0,-0.352355294232,0.000123809452288,158,-0.305257767439,-0.666636347771,
1.5922396938,-0.02712059021,0,-0.348831732145,0.000126347212564,159,-0.309304267168,-0.675478994846,
1.59067376057,-0.023699760437,0,-0.345290552409,0.000126977449361,160,-0.313249140978,-0.684118032455,
1.58908827702,-0.0202369689941,0,-0.341692990491,0.000128998205704,161,-0.317077636719,-0.69253641367,
1.58748419682,-0.0167336463928,0,-0.338051093111,0.000130586830207,162,-0.320793032646,-0.700731217861,
1.58586247365,-0.0131902694702,0,-0.334391427084,0.000131222890789,163,-0.324397832155,-0.70869243145,
1.58422263066,-0.00960779190063,0,-0.33068248317,0.000132988727238,164,-0.327883183956,-0.716430783272,
1.58256657521,-0.00598812103271,0,-0.326962924674,0.000133368411951,165,-0.331256717443,-0.723937511444,
1.58089383046,-0.00233221054077,0,-0.323201240694,0.000134877842759,166,-0.334511309862,-0.731221318245,
1.57920582692,0.00135940138716,0,-0.319440000237,0.000134860905971,167,-0.337656795979,-0.738263726234,
1.57750256459,0.00508478889242,0,-0.315649828398,0.000135897127975,168,-0.340673416853,-0.745077848434,
1.57578452031,0.00884304661304,0,-0.311833825208,0.000136822211019,169,-0.343578994274,-0.751651883125,
1.57405264775,0.0126329921186,0,-0.308007810798,0.000137180042758,170,-0.346359461546,-0.757989168167,
1.57230742375,0.0164534468204,0,-0.304170724286,0.000137575827758,171,-0.349027991295,-0.764091253281,
1.57054949142,0.0203032363206,0,-0.300327474423,0.000137795747231,172,-0.351568102837,-0.769957780838,
1.56877953635,0.0241811703891,0,-0.296484237596,0.000137794155867,173,-0.353991121054,-0.775587379932,
1.56699804828,0.0280859973282,0,-0.292639296397,0.000137854171042,174,-0.356297701597,-0.780965685844,
1.56520565885,0.0320165492594,0,-0.288797249652,0.000137749208056,175,-0.358477979898,-0.786110162735,
1.56340292288,0.0359716527164,0,-0.284959882394,0.000137580379327,176,-0.360547363758,-0.791021347046,
1.56159044901,0.0399501211941,0,-0.281130691061,0.000137282366119,177,-0.362495005131,-0.795693397522,
1.5597688547,0.0439507365227,0,-0.277313003873,0.000136859414339,178,-0.364318996668,-0.800123333931,
1.55793876859,0.0479723066092,0,-0.273510942204,0.000136298111449,179,-0.366017311811,-0.804313659668,
1.55610073085,0.0520136728883,0,-0.269725994842,0.000135683535023,180,-0.367607742548,-0.808273732662,
1.55425533379,0.0560736581683,0,-0.265961218959,0.000134959399723,181,-0.369079381227,-0.811997056007,
1.5524031772,0.0601510778069,0,-0.262219822449,0.000134120292258,182,-0.37043172121,-0.815484523773,
1.55054482731,0.0642447546124,0,-0.258503935598,0.000133204801626,183,-0.371669888496,-0.818735778332,
1.54868090066,0.068353548646,0,-0.254818040576,0.000132128692784,184,-0.372785806656,-0.821758508682,
1.54681195977,0.0724762901664,0,-0.251164247792,0.000130976942423,185,-0.373788118362,-0.824549913406,
1.5449385597,0.0766118839383,0,-0.247545535899,0.000129718430758,186,-0.374680131674,-0.827118039131,
1.54306126299,0.0807591453195,0,-0.243963788167,0.000128392441463,187,-0.375459462404,-0.829451799393,
1.5411806489,0.0849169790745,0,-0.240422842071,0.000126928921352,188,-0.376123011112,-0.831568717957,
1.53929724643,0.0890843048692,0,-0.236924975996,0.000125383746413,189,-0.376680523157,-0.833464741707,
1.53741159762,0.0932600274682,0,-0.233472704332,0.000123748460894,190,-0.377130568027,-0.835145354271,
1.53552426497,0.0974430441856,0,-0.230069155055,0.000122001087835,191,-0.377467185259,-0.836605787277,
1.53363575886,0.101632364094,0,-0.226717303351,0.000120147078245,192,-0.377702087164,-0.83786380291,
1.53174660082,0.105826877058,0,-0.223418709367,0.00011823716789,193,-0.377832084894,-0.838901817799,
1.52985727141,0.110025569797,0,-0.220174951215,0.000116270726773,194,-0.377865374088,-0.839737772942,
1.52796831826,0.114227466285,0,-0.216990551244,0.000114142222115,195,-0.377790480852,-0.840379595757,
1.52608021075,0.118431568146,0,-0.213866916879,0.000111963241147,196,-0.377621769905,-0.840822815895,
1.52419344435,0.122636906803,0,-0.210806833015,0.000109684455541,197,-0.377353131771,-0.841067790985,
1.52230847354,0.12684251368,0,-0.207811631372,0.000107357856711,198,-0.37699469924,-0.841123104095,
1.52042575652,0.131047457457,0,-0.204883341563,0.000104958358598,199,-0.376542836428,-0.840986609459,
1.51854575897,0.135250836611,0,-0.202024709578,0.000102460637965,200,-0.376000016928,-0.840676903725,
1.51666890556,0.139451801777,0,-0.199237819992,9.98881775727e-05,201,-0.375370770693,-0.840194046497,
1.51479562471,0.143649488688,0,-0.196524663328,9.72423201632e-05,202,-0.37465646863,-0.839537084103,
1.51292634482,0.147843018174,0,-0.193887004283,9.45356386142e-05,203,-0.373856157064,-0.838709652424,
1.5110614645,0.152031630278,0,-0.191327359464,9.17388244312e-05,204,-0.372976183891,-0.837720751762,
1.50920138607,0.156214490533,0,-0.18884724773,8.88872601161e-05,205,-0.372015416622,-0.836571574211,
1.50734648208,0.160390838981,0,-0.186448262137,8.59790214087e-05,206,-0.370981514454,-0.835270702839,
1.50549710641,0.164559960365,0,-0.184132013818,8.30131536622e-05,207,-0.369875639677,-0.833824038506,
1.5036535869,0.168721154332,0,-0.18189941669,8.00145454732e-05,208,-0.368703067303,-0.832236349583,
1.50181631098,0.172873690724,0,-0.179753043797,7.69237252245e-05,209,-0.367453843355,-0.830507934093,
1.49998558412,0.177016928792,0,-0.177693921219,7.37961863407e-05,210,-0.366145342588,-0.828649044037,
1.49816168944,0.181150332093,0,-0.175723863539,7.06035567395e-05,211,-0.364777415991,-0.826676487923,
1.49634495477,0.185273215175,0,-0.173844011637,6.73702004409e-05,212,-0.363346993923,-0.824578523636,
1.49453563342,0.189385041595,0,-0.172055126294,6.41096296352e-05,213,-0.361864447594,-0.82236790657,
1.49273405323,0.193485230207,0,-0.170359927504,6.07516383989e-05,214,-0.360317230225,-0.820036053658,
1.49094040791,0.197573289275,0,-0.168757744977,5.74174279916e-05,215,-0.358729153872,-0.817610383034,
1.48915492842,0.201648771763,0,-0.167249902679,5.40361017827e-05,216,-0.357096135616,-0.815099298954,
1.48737786064,0.205711185932,0,-0.165837575712,5.06126807504e-05,217,-0.355412900448,-0.81248497963,
1.48560937593,0.209760174155,0,-0.164521333078,4.71690244845e-05,218,-0.353695780039,-0.809796869755,
1.48384972761,0.213795244694,0,-0.163302613941,4.36738210977e-05,219,-0.351930528879,-0.807016253471,
1.48209907214,0.217816099524,0,-0.162182361731,4.01448735675e-05,220,-0.350130438805,-0.804170906544,
1.48035749147,0.221822500229,0,-0.161159788609,3.66442055238e-05,221,-0.348314106464,-0.801274895668,
1.47862517933,0.225814044476,0,-0.160235580055,3.31190263205e-05,222,-0.346462219954,-0.798306822777,
1.47690232942,0.22979041934,0,-0.159411771032,2.95209751716e-05,223,-0.344570487738,-0.795274078846,
1.47518897156,0.23375146091,0,-0.158686858792,2.59767891268e-05,224,-0.342671662569,-0.792207360268,
1.47348521749,0.237696990371,0,-0.158062009018,2.23909327051e-05,225,-0.340750604868,-0.789110541344,
1.47179116408,0.24162684381,0,-0.157538085817,1.87741616355e-05,226,-0.338810414076,-0.785971522331,
1.47010687838,0.245540842414,0,-0.157114677546,1.51722087956e-05,227,-0.336859196424,-0.78280043602,
1.46843244235,0.249438822269,0,-0.156792123306,1.1558161568e-05,228,-0.334887444973,-0.779598116875,
1.46676784853,0.253320783377,0,-0.15657007904,7.95650195926e-06,229,-0.332919955254,-0.77639234066,
1.46511305968,0.257186710835,0,-0.15644692633,4.41288320059e-06,230,-0.330956667662,-0.773188114166,
1.46346820245,0.261036515236,0,-0.156425701649,7.60529524915e-07,231,-0.328972190619,-0.769959270954,
1.46183316509,0.264870256186,0,-0.15650328288,-2.77989320574e-06,232,-0.327006012201,-0.766748130322,
1.46020799229,0.268687993288,0,-0.156682059709,-6.40588630966e-06,233,-0.325035274029,-0.763548314571,
1.45859260956,0.272489756346,0,-0.156959774573,-9.95093008944e-06,234,-0.323075532913,-0.760350227356,
1.45698694984,0.27627569437,0,-0.157336225172,-1.3488668942e-05,235,-0.321132749319,-0.757188677788,
1.45539091627,0.280045986176,0,-0.15781060747,-1.69975417644e-05,236,-0.319208562374,-0.754056751728,
1.45380448649,0.283800661564,0,-0.158382500626,-2.0491242329e-05,237,-0.317286431789,-0.75093960762,
1.45222754131,0.287540048361,0,-0.159052550724,-2.40080683248e-05,238,-0.315390735865,-0.747879803181,
1.4506599317,0.291264414787,0,-0.159819459111,-2.7478314037e-05,239,-0.313522458076,-0.744865894318,
1.44910151611,0.29497385025,0,-0.160679506952,-3.08152030293e-05,240,-0.311682641506,-0.741891860962,
1.44755220512,0.298668801785,0,-0.161636172691,-3.42767205474e-05,241,-0.309864044189,-0.738986611366,
1.44601173798,0.302349537611,0,-0.162684228827,-3.75498537013e-05,242,-0.308092921972,-0.736152410507,
1.44448007742,0.306016355753,0,-0.163826747716,-4.09338983921e-05,243,-0.306334197521,-0.733359873295,
1.44295691053,0.309669673443,0,-0.165058902972,-4.41450079431e-05,244,-0.304633527994,-0.73067009449,
1.44144210319,0.313309937716,0,-0.166382592913,-4.74240987931e-05,245,-0.302959352732,-0.72804838419,
1.43993549148,0.316937476397,0,-0.16779688126,-5.06695990219e-05,246,-0.301325023174,-0.725501954556,
1.43843674759,0.320552766323,0,-0.169297309237,-5.37552078466e-05,247,-0.299747318029,-0.723059058189,
1.4369456778,0.32415625453,0,-0.170883677232,-5.68337036051e-05,248,-0.29821395874,-0.720700263977,
1.43546205858,0.327748477459,0,-0.172556073871,-5.99153266199e-05,249,-0.296724170446,-0.718444049358,
1.43398557703,0.331330031157,0,-0.174312340491,-6.29195641353e-05,250,-0.295297861099,-0.716309547424,
1.43251597981,0.334901362658,0,-0.176150179861,-6.58414735484e-05,251,-0.29391849041,-0.714269518852,
1.4310529391,0.338463187218,0,-0.178068687491,-6.87309123354e-05,252,-0.292605519295,-0.712355792522,
1.42959623138,0.34201592207,0,-0.180066160725,-7.15592105537e-05,253,-0.291338950396,-0.710544705391,
1.42814546923,0.345560342073,0,-0.182140490658,-7.43120336432e-05,254,-0.290149748325,-0.708883404732,
1.42670038442,0.349097043276,0,-0.184291071068,-7.70431131989e-05,255,-0.289015829563,-0.707337498665,
1.42526067893,0.352626621723,0,-0.186516248809,-7.97149048131e-05,256,-0.287943154573,-0.705914497375,
1.42382590572,0.356149822474,0,-0.188811375304,-8.22201146431e-05,257,-0.286952793598,-0.704642772675,
1.42239576677,0.359667420387,0,-0.191177454922,-8.47612655918e-05,258,-0.286026746035,-0.703516483307,
1.42096990446,0.363180011511,0,-0.193610739941,-8.71681229107e-05,259,-0.285170704126,-0.702521920204,
1.41954799096,0.366688430309,0,-0.196112069197,-8.96048895143e-05,260,-0.284381061792,-0.701676547527,
1.41812962393,0.370193362236,0,-0.198677455129,-9.18884425003e-05,261,-0.283670395613,-0.700984418392,
1.41671437124,0.373695611954,0,-0.201303639462,-9.40651914964e-05,262,-0.283049374819,-0.700456500053,
1.41530189017,0.37719604373,0,-0.203991366723,-9.62684998134e-05,263,-0.282497644424,-0.700083613396,
1.41389180819,0.38069537282,0,-0.206738119997,-9.83742724628e-05,264,-0.282015234232,-0.699862241745,
1.41248366336,0.384194463491,0,-0.20954047057,-0.00010036465167,265,-0.281632304192,-0.699821352959,
1.41107703845,0.387694209814,0,-0.212396986486,-0.000102303790685,266,-0.281325489283,-0.699947476387,
1.40967150132,0.391195416451,0,-0.215304383694,-0.0001041238508,267,-0.28110653162,-0.700239241123,
1.40826663474,0.394698947668,0,-0.218260776421,-0.000105877357864,268,-0.280976057053,-0.700712800026,
1.40686200658,0.398205757141,0,-0.221265077071,-0.000107592246598,269,-0.280929267406,-0.701363027096,
1.40545719961,0.401716649532,0,-0.224314502477,-0.00010920749176,270,-0.280963987112,-0.702178120613,
1.40405173699,0.405232548714,0,-0.227405952721,-0.000110711661088,271,-0.281091600657,-0.703175187111,
1.40264520148,0.408754348755,0,-0.230537955272,-0.000112162917002,272,-0.281307935715,-0.704367637634,
1.40123708645,0.412283092737,0,-0.233708121118,-0.000113528799361,273,-0.281621605158,-0.705746889114,
1.39982691506,0.415819644928,0,-0.236912447593,-0.000114750155929,274,-0.282032757998,-0.707311332226,
1.39841431479,0.419364929199,0,-0.240151433039,-0.000115990269899,275,-0.282520413399,-0.709057569504,
1.39699882368,0.422919839621,0,-0.243422016911,-0.000117120907248,276,-0.283099740744,-0.710985541344,
1.39557989041,0.426485419273,0,-0.246720223443,-0.000118109067324,277,-0.283788740635,-0.713119506836,
1.39415709774,0.43006259203,0,-0.250044969214,-0.000119058509947,278,-0.284558027983,-0.71542942524,
1.39272993902,0.43365240097,0,-0.25339381275,-0.00011992006342,279,-0.285434037447,-0.717960596085,
1.39129795233,0.437255650759,0,-0.256762343362,-0.000120623963245,280,-0.28639549017,-0.720655441284,
1.38986069063,0.440873503685,0,-0.260151924272,-0.000121376819969,281,-0.287453085184,-0.723563373089,
1.38841764728,0.444506794214,0,-0.263557013558,-0.000121931248797,282,-0.288610160351,-0.726658463478,
1.38696837524,0.448156535625,0,-0.266976758892,-0.000122455019635,283,-0.289855659008,-0.729951679707,
1.38551235298,0.451823741198,0,-0.270407713456,-0.000122855461585,284,-0.291203886271,-0.733442008495,
1.38404914836,0.455509334803,0,-0.273848204145,-0.000123196002528,285,-0.292641729116,-0.737116098404,
1.38257829944,0.45921421051,0,-0.277295077266,-0.000123423144048,286,-0.294168293476,-0.740977942944,
1.38109931449,0.462939411402,0,-0.280746323247,-0.000123578817792,287,-0.295799016953,-0.745052874088,
1.37961173157,0.466686069965,0,-0.284202259635,-0.00012374581224,288,-0.29751804471,-0.749316811562,
1.37811502914,0.470454871655,0,-0.28765457957,-0.000123615419704,289,-0.299339443445,-0.753769636154,
1.37660880486,0.47424697876,0,-0.291106073253,-0.000123584869424,290,-0.301245868206,-0.758420705795,
1.37509258191,0.478063285351,0,-0.294553011422,-0.000123420907072,291,-0.303245335817,-0.763262927532,
1.37356585363,0.481904774904,0,-0.297991932596,-0.000123132461347,292,-0.305345475674,-0.768298864365,
1.37202820281,0.485772401094,0,-0.301422013099,-0.000122814955268,293,-0.307530403137,-0.773524522781,
1.3704791824,0.489667028189,0,-0.304840080139,-0.000122383741845,294,-0.309803307056,-0.77892100811,
1.36891833047,0.493589639664,0,-0.308244174071,-0.000121882509621,295,-0.31216982007,-0.784521818161,
1.36734521488,0.497541129589,0,-0.311632043497,-0.000121300636077,296,-0.314624458551,-0.790297925472,
1.3657593439,0.501522481441,0,-0.315000671937,-0.000120610822824,297,-0.317170977592,-0.796271800995,
1.3641603748,0.505534529686,0,-0.318349989034,-0.000119918513765,298,-0.319796264172,-0.802406191826,
1.36254783074,0.509578168392,0,-0.321676158748,-0.000119009480242,299,-0.322510421276,-0.80873131752,
1.36092126469,0.51365429163,0,-0.324976357355,-0.000116561525563,300,-0.325311720371,-0.815231919289,
1.35928025941,0.517763853073,0,-0.328249635738,-0.000115609559369,301,-0.328200340271,-0.821909427643,
1.35762444238,0.521907687187,0,-0.331494830926,-0.000114616767719,302,-0.331161618233,-0.828752696514,
1.35595341126,0.526086449623,0,-0.334707146856,-0.000113454721455,303,-0.334208548069,-0.835769593716,
1.35426676373,0.530301272869,0,-0.337888684685,-0.000112366897518,304,-0.337329387665,-0.84294962883,
1.35256406764,0.534552752972,0,-0.341032730429,-0.000111042001618,305,-0.340539485216,-0.850298047066,
1.35084501008,0.538841724396,0,-0.344140098568,-0.000109745905559,306,-0.343812346458,-0.857805669308,
1.34910918871,0.543169081211,0,-0.347209377693,-0.000108399952331,307,-0.347162604332,-0.865461945534,
1.34735621611,0.547535538673,0,-0.350237064468,-0.000106930289734,308,-0.350589990616,-0.873284101486,
1.34558577935,0.551941752434,0,-0.353221330829,-0.00010539607664,309,-0.354087531567,-0.881253480911,
1.34379750589,0.556388616562,0,-0.356161728548,-0.000103845986818,310,-0.357651233673,-0.889366686344,
1.34199111263,0.560876786709,0,-0.359057407095,-0.00010226586658,311,-0.361278951168,-0.897622287273,
1.34016619722,0.565406858921,0,-0.361902567882,-0.000100480977118,312,-0.364982873201,-0.906020760536,
1.33832253615,0.569979548454,0,-0.364699218518,-9.87670235051e-05,313,-0.368734359741,-0.9145373106,
1.33645972709,0.574595689774,0,-0.367444950155,-9.69680207243e-05,314,-0.372560203075,-0.923218786716,
1.33457756142,0.579255700111,0,-0.370137950926,-9.51050581049e-05,315,-0.376432836056,-0.93200802803,
1.33267574111,0.583960294724,0,-0.372777617254,-9.32207913877e-05,316,-0.380363732576,-0.94091796875,
1.33075393836,0.588710129261,0,-0.375361453313,-9.12484164684e-05,317,-0.384359717369,-0.949958384037,
1.32881191472,0.593505680561,0,-0.377887427884,-8.92043400198e-05,318,-0.38840675354,-0.959121525288,
1.32684943179,0.598347663879,0,-0.380356896198,-8.72081389094e-05,319,-0.392496466637,-0.968389809132,
1.32486623625,0.603236377239,0,-0.382764723481,-8.50303498225e-05,320,-0.396637827158,-0.97775042057,
1.32286214928,0.608172476292,0,-0.385113391938,-8.29405516306e-05,321,-0.400819718838,-0.987223923206,
1.32083690266,0.613156497478,0,-0.387400619686,-8.07702062541e-05,322,-0.405049622059,-0.996795356274,
1.31879030267,0.618188798428,0,-0.38962408632,-7.85179835421e-05,323,-0.409322559834,-1.0064702034,
1.31672217051,0.623269855976,0,-0.391783651419,-7.62608843317e-05,324,-0.413626641035,-1.0162088871,
1.31463231246,0.628400146961,0,-0.393878643694,-7.39800137871e-05,325,-0.417966783047,-1.02604627609,
1.3125205795,0.633579850197,0,-0.395905654997,-7.15788066169e-05,326,-0.422347307205,-1.03595817089,
1.31038676302,0.638809740543,0,-0.397867686656,-6.92836060339e-05,327,-0.426758319139,-1.04595732689,
1.30823077361,0.644089818001,0,-0.399760766481,-6.68482297015e-05,328,-0.43119981885,-1.05601680279,
1.30605246226,0.649420619011,0,-0.401586477909,-6.44687634185e-05,329,-0.435662865639,-1.06614840031,
1.30385167996,0.654802203178,0,-0.403339646226,-6.19066781468e-05,330,-0.44015032053,-1.07633161545,
1.30162842671,0.660235106945,0,-0.405026818689,-5.95758468616e-05,331,-0.444649338722,-1.08656787872,
1.29938252369,0.665719389915,0,-0.406641771966,-5.70252975493e-05,332,-0.449179321527,-1.09685087204,
1.29711397091,0.671255290508,0,-0.408186797794,-5.45557052439e-05,333,-0.453712493181,-1.10717868805,
1.29482261936,0.676843047142,0,-0.409659152301,-5.19892149732e-05,334,-0.458267837763,-1.11754751205,
1.29250843922,0.682482838631,0,-0.411059235055,-4.94368985875e-05,335,-0.462843894958,-1.12797379494,
1.2901713709,0.688174903393,0,-0.412387251927,-4.68919426683e-05,336,-0.467413216829,-1.13840544224,
1.2878114442,0.693919181824,0,-0.413642209387,-4.43101756533e-05,337,-0.471988469362,-1.14886260033,
1.28542862932,0.699715852737,0,-0.414824426398,-4.17414899218e-05,338,-0.476565510035,-1.15934109688,
1.28302286665,0.705565094948,0,-0.415933196545,-3.91479750625e-05,339,-0.481151610613,-1.16984474659,
1.28059421579,0.711466908455,0,-0.416969277078,-3.65812414363e-05,340,-0.485729426146,-1.18036305904,
1.27814267675,0.717421233654,0,-0.417930584021,-3.39409628647e-05,341,-0.490301638842,-1.19086706638,
1.27566827933,0.72342813015,0,-0.418817660496,-3.13198967924e-05,342,-0.494878172874,-1.20137500763,
1.27317111293,0.729487597942,0,-0.419632175669,-2.87577930458e-05,343,-0.499428659678,-1.21189749241,
1.27065120737,0.735599577427,0,-0.420372962307,-2.61545129269e-05,344,-0.503980100155,-1.22239589691,
1.26810865203,0.741764008999,0,-0.421040808635,-2.35790883145e-05,345,-0.508511960506,-1.23288917542,
1.26554362575,0.74798065424,0,-0.421636973495,-2.10481429387e-05,346,-0.513005971909,-1.24332845211,
1.26295609871,0.754249513149,0,-0.422159061111,-1.84326562694e-05,347,-0.517508387566,-1.25377941132,
1.26034624974,0.760570406914,0,-0.422609098725,-1.58887776127e-05,348,-0.521973371506,-1.26418054104,
1.25771407882,0.766943275928,0,-0.422984809846,-1.32645537201e-05,349,-0.526430785656,-1.27457475662,
1.25505985419,0.77336782217,0,-0.423289483362,-1.07564743269e-05,350,-0.530845403671,-1.28490936756,
1.25238372485,0.779843866825,0,-0.423524071231,-8.28204172396e-06,351,-0.535231530666,-1.29520702362,
1.2496857504,0.78637111187,0,-0.423684933405,-5.67913994925e-06,352,-0.539594709873,-1.30545771122,
1.24696610967,0.79294937849,0,-0.423773958349,-3.14294727079e-06,353,-0.543924033642,-1.3156607151,
1.24422507087,0.799578428268,0,-0.423795120544,-7.47107491345e-07,354,-0.5482006073,-1.32580733299,
1.24146281282,0.806257903576,0,-0.423747807924,1.67030784289e-06,355,-0.552452683449,-1.33589839935,
1.23867945472,0.812987625599,0,-0.423631854886,4.09353630431e-06,356,-0.556671500206,-1.34593844414,
1.2358752648,0.819767057896,0,-0.423447114811,6.52190955302e-06,357,-0.560842394829,-1.35588800907,
1.23305042187,0.826595842838,0,-0.423192914887,8.97400208398e-06,358,-0.564969539642,-1.36577343941,
1.23020522396,0.833473801613,0,-0.422874841674,1.12288324605e-05,359,-0.569040238857,-1.37557864189,
1.22733984987,0.840400397778,0,-0.422489758203,1.35943680988e-05,360,-0.573075592518,-1.38531947136,
1.22445456783,0.847375154495,0,-0.422038226034,1.59400316659e-05,361,-0.577050983906,-1.39495968819,
1.22154964606,0.854397892952,0,-0.421524754487,1.81264882198e-05,362,-0.580982208252,-1.40453898907,
1.21862535278,0.861468017101,0,-0.420948247133,2.03516198094e-05,363,-0.584859490395,-1.41402053833,
1.21568189661,0.868585050106,0,-0.420307254442,2.26278907613e-05,364,-0.588690936565,-1.42340350151,
1.21271969477,0.875748515129,0,-0.419607042029,2.4718245117e-05,365,-0.592443823814,-1.43269395828,
1.20973889629,0.882957875729,0,-0.418843399727,2.69571725852e-05,366,-0.596155762672,-1.44187200069,
1.20673985878,0.890212833881,0,-0.418021969469,2.89969274668e-05,367,-0.599803447723,-1.45098626614,
1.20372288028,0.897512614727,0,-0.417140152046,3.11284039424e-05,368,-0.60339063406,-1.4599635601,
1.20068843762,0.904856801033,0,-0.416205767994,3.29837802656e-05,369,-0.606887936592,-1.46882176399,
1.19763665,0.912244796753,0,-0.415212789565,3.5047123787e-05,370,-0.61036002636,-1.47760283947,
1.19456784526,0.919676184654,0,-0.414164201629,3.70095300674e-05,371,-0.613761484623,-1.48626685143,
1.19148244063,0.927150130272,0,-0.413060367988,3.89591019495e-05,372,-0.617081642151,-1.49480724335,
1.18838079373,0.934666275978,0,-0.411905928536,4.07448757043e-05,373,-0.620324194431,-1.50322532654,
1.18526323239,0.942223846912,0,-0.410699121461,4.25928083495e-05,374,-0.623513817787,-1.51151776314,
1.18213005463,0.949822366238,0,-0.40944108585,4.44005009229e-05,375,-0.626632928848,-1.51972329617,
1.17898161809,0.957461237907,0,-0.408133280908,4.61566956425e-05,376,-0.62969148159,-1.52778244019,
1.17581833998,0.965139806271,0,-0.406778253321,4.78229663067e-05,377,-0.632654964924,-1.53570771217,
1.17264057795,0.972857415676,0,-0.405376637321,4.94667579706e-05,378,-0.635550260544,-1.54352855682,
1.16944868962,0.980613470078,0,-0.403929805876,5.10621344129e-05,379,-0.638378441334,-1.55121541023,
1.16624306242,0.988407254219,0,-0.402438522672,5.26305395221e-05,380,-0.641120314598,-1.5587477684,
1.16302408377,0.99623811245,0,-0.400904287213,5.41460060875e-05,381,-0.643797755241,-1.56617319584,
1.15979208151,1.00410544872,0,-0.399327461614,5.56486784392e-05,382,-0.646396577358,-1.57346618176,
1.15654750268,1.01200854778,0,-0.397710601328,5.70611295127e-05,383,-0.648914813995,-1.5806157589,
1.15329064528,1.01994681358,0,-0.396053088303,5.84953653186e-05,384,-0.651368618011,-1.58764946461,
1.15002198617,1.02791941166,0,-0.394356858695,5.98612549927e-05,385,-0.653727650642,-1.59452772141,
1.14674197237,1.03592574596,0,-0.392625874088,6.10873128525e-05,386,-0.65600758791,-1.60126852989,
1.1434508125,1.04396522045,0,-0.390856675556,6.24354085701e-05,387,-0.658230423927,-1.60789680481,
1.14014910261,1.05203711987,0,-0.389056282823,6.35357640469e-05,388,-0.660349488258,-1.61437106133,
1.13683714072,1.06014049053,0,-0.387219532099,6.48183308384e-05,389,-0.662403225899,-1.62070417404,
1.13351528446,1.06827509403,0,-0.385351929738,6.59065836533e-05,390,-0.664373457432,-1.62691044807,
1.13018398086,1.07643973827,0,-0.383449945368,6.71193848002e-05,391,-0.66626906395,-1.63296437263,
1.12684361736,1.08463418484,0,-0.381519917548,6.81084886952e-05,392,-0.668074429035,-1.63889074326,
1.12349461118,1.09285748005,0,-0.379560293209,6.91518391821e-05,393,-0.669803202152,-1.64467954636,
1.12013734976,1.10110914707,0,-0.377574407828,7.007795804e-05,394,-0.671457052231,-1.65033173561,
1.11677225033,1.10938835144,0,-0.375562123795,7.1008931189e-05,395,-0.673020541668,-1.655834198,
1.11339978973,1.11769425869,0,-0.373525102061,7.18813087193e-05,396,-0.674502313137,-1.661195755,
1.11002023617,1.12602639198,0,-0.371462973939,7.27666068082e-05,397,-0.675912618637,-1.66643893719,
1.10663397709,1.13438403606,0,-0.369376088959,7.36396165849e-05,398,-0.677253246307,-1.67153763771,
1.10324154893,1.14276647568,0,-0.367269252507,7.43429491743e-05,399,-0.678490698338,-1.67647910118,
1.09984324972,1.15117287636,0,-0.365138661974,7.51805639753e-05,400,-0.679657638073,-1.68130302429,
1.09643952648,1.15960288048,0,-0.362990619809,7.57956359145e-05,401,-0.680744349957,-1.68598151207,
1.09303070704,1.16805553436,0,-0.360820780072,7.65641003508e-05,402,-0.681768655777,-1.69054532051,
1.08961726824,1.17653024197,0,-0.358633452723,7.71805230682e-05,403,-0.682691276073,-1.69494509697,
1.08619959752,1.18502640724,0,-0.35643023489,7.77406605775e-05,404,-0.683539807796,-1.69922041893,
1.08277799288,1.19354319572,0,-0.354207283801,7.84363791294e-05,405,-0.684320926666,-1.70337426662,
1.07935299078,1.20208013058,0,-0.351971942886,7.88708607498e-05,406,-0.685004234314,-1.7073751688,
1.07592482964,1.21063649654,0,-0.349719957944,7.94574180246e-05,407,-0.685634434223,-1.71127581596,
1.07249398629,1.21921145916,0,-0.347452727564,7.99947803231e-05,408,-0.686170518398,-1.71501469612,
1.06906081835,1.22780478001,0,-0.345174940507,8.0366679584e-05,409,-0.686637282372,-1.71865212917,
1.06562568347,1.23641526699,0,-0.342880377443,8.0957973133e-05,410,-0.687026083469,-1.72213745117,
1.06218905846,1.2450428009,0,-0.340578479251,8.12160458465e-05,411,-0.68733471632,-1.72549653053,
1.05875112216,1.25368642807,0,-0.33826053154,8.17817011311e-05,412,-0.687591135502,-1.72875022888,
1.05531241099,1.26234579086,0,-0.33593490579,8.20519609255e-05,413,-0.687737166882,-1.73186349869,
1.05187328259,1.27102005482,0,-0.333599392957,8.24001584033e-05,414,-0.687825322151,-1.73485457897,
1.04843397538,1.27970862389,0,-0.331251033344,8.28527694531e-05,415,-0.687851905823,-1.73771381378,
1.044995145,1.28841102123,0,-0.328900117785,8.29422953747e-05,416,-0.687780082226,-1.74046301842,
1.04155685107,1.2971265316,0,-0.326537195846,8.33651850154e-05,417,-0.687663435936,-1.7430986166,
1.03811957041,1.30585455894,0,-0.324166070872,8.36537419013e-05,418,-0.687467575073,-1.74560892582,
1.03468366066,1.31459450722,0,-0.321787107958,8.39296112448e-05,419,-0.687191307545,-1.74801135063,
1.03124941985,1.32334589958,0,-0.319400255136,8.42072283622e-05,420,-0.686841130257,-1.7502784729,
1.02781720559,1.3321082592,0,-0.317007109341,8.44285923521e-05,421,-0.686445951462,-1.75244319439,
1.02438761393,1.34088051319,0,-0.314609539288,8.45840021232e-05,422,-0.685930132866,-1.75447142124,
1.02096058527,1.34966266155,0,-0.312202492696,8.49176682289e-05,423,-0.68540340662,-1.75643444061,
1.01753671567,1.35845375061,0,-0.309789096227,8.51408800202e-05,424,-0.684781372547,-1.75825119019,
1.01411624352,1.36725366116,0,-0.307371289685,8.52957810962e-05,425,-0.684091448784,-1.75998306274,
1.01069952647,1.37606155872,0,-0.304946759063,8.55322858518e-05,426,-0.683350861073,-1.76159548759,
1.00728692214,1.38487696648,0,-0.302516938133,8.57182468178e-05,427,-0.68251991272,-1.76307821274,
1.00387872855,1.39369940758,0,-0.300081579109,8.59129383022e-05,428,-0.681636810303,-1.7644957304,
1.00047536294,1.40252840519,0,-0.297643670302,8.60022195776e-05,429,-0.680686533451,-1.7657968998,
0.997076884904,1.41136336327,0,-0.295195174844,8.63750103655e-05,430,-0.679690778255,-1.76698112488,
0.993683950105,1.42020368576,0,-0.292744334101,8.64569292452e-05,431,-0.678586781025,-1.76805996895,
0.990296618142,1.42904901505,0,-0.290285538664,8.67368620903e-05,432,-0.67747014761,-1.76907610893,
0.986915365854,1.43789875507,0,-0.287822079272,8.69006569965e-05,433,-0.676253259182,-1.76995134354,
0.983540431657,1.44675254822,0,-0.285353155698,8.7092749819e-05,434,-0.674984455109,-1.77076470852,
0.980172113576,1.45560967922,0,-0.28287600394,8.73823250396e-05,435,-0.673675179482,-1.77146577835,
0.976810650029,1.46447014809,0,-0.280393332311,8.75763559064e-05,436,-0.672284901142,-1.77209043503,
0.973456458249,1.47333312035,0,-0.277904343494,8.77746457227e-05,437,-0.670848429203,-1.77260327339,
0.970109776655,1.48219823837,0,-0.275408156661,8.80275571068e-05,438,-0.669335961342,-1.77301990986,
0.966770962873,1.49106502533,0,-0.272905859378,8.82423156781e-05,439,-0.66775560379,-1.77334940434,
0.963440136113,1.49993312359,0,-0.270393384934,8.86005122265e-05,440,-0.666153848171,-1.77361679077,
0.960117773214,1.5088019371,0,-0.267873772565,8.88515370121e-05,441,-0.664472639561,-1.77375936508,
0.956804172197,1.51767098904,0,-0.265346474651,8.91218622994e-05,442,-0.662721037865,-1.77382302284,
0.953499392667,1.52654016018,0,-0.262808097418,8.95116299447e-05,443,-0.660950362682,-1.77382588387,
0.950204030671,1.53540861607,0,-0.260262437053,8.97677764898e-05,444,-0.659070253372,-1.77370405197,
0.946918145814,1.54427611828,0,-0.25770495746,9.01837766467e-05,445,-0.657180428505,-1.77352809906,
0.943642095723,1.5531424284,0,-0.255138773082,9.04900422195e-05,446,-0.655216872692,-1.77327036858,
0.940376118818,1.56200695038,0,-0.252560610471,9.09114990849e-05,447,-0.653200209141,-1.77291369438,
0.93712051312,1.57086932659,0,-0.249970904653,9.13178018074e-05,448,-0.651126265526,-1.7724827528,
0.933875517049,1.57972931862,0,-0.247369608032,9.17255728806e-05,449,-0.649005889893,-1.77197599411,
0.930641309419,1.58858633041,0,-0.244751949575,9.23018626909e-05,450,-0.646827459335,-1.77139317989,
0.927418367067,1.59743988514,0,-0.242121748788,9.27433696788e-05,451,-0.644590139389,-1.77071201801,
0.924206868806,1.60628950596,0,-0.239475307245,9.33153741619e-05,452,-0.642295837402,-1.769952178,
0.921007112661,1.61513519287,0,-0.236816063234,9.37638105554e-05,453,-0.639953315258,-1.76913547516,
0.91781921784,1.62397658825,0,-0.234139820386,9.43624893308e-05,454,-0.637575089931,-1.76824092865,
0.914643601575,1.63281273842,0,-0.231444674871,9.50280888446e-05,455,-0.635115265846,-1.76725494862,
0.911480502286,1.64164376259,0,-0.22873348845,9.55929426609e-05,456,-0.632620215416,-1.76621472836,
0.908330098787,1.65046918392,0,-0.226002526587,9.62890885688e-05,457,-0.63007158041,-1.76508545876,
0.905192748704,1.65928864479,0,-0.223253435238,9.69274017985e-05,458,-0.627477228642,-1.76388096809,
0.902068630853,1.66810166836,0,-0.220482494743,9.76970012941e-05,459,-0.624821186066,-1.76261866093,
0.898957983651,1.6769080162,0,-0.217689416627,9.84767345678e-05,460,-0.622123360634,-1.7612413168,
0.895861164727,1.68570685387,0,-0.214871901833,9.93375180035e-05,461,-0.619364857674,-1.75982630253,
0.8927784125,1.69449853897,0,-0.212034443502,0.000100039909901,462,-0.616563439369,-1.75833463669,
0.889709846177,1.70328247547,0,-0.20917091799,0.000100958179306,463,-0.613719046116,-1.75679540634,
0.886655823388,1.71205818653,0,-0.206281883492,0.000101856773178,464,-0.610791563988,-1.75512564182,
0.883616522947,1.72082531452,0,-0.203364603818,0.000102851678082,465,-0.607849597931,-1.75341868401,
0.880592362085,1.72958350182,0,-0.200421937179,0.000103745940974,466,-0.604830622673,-1.75164020061,
0.877583460012,1.73833227158,0,-0.197448815359,0.000104818716379,467,-0.601788163185,-1.74977278709,
0.874589935937,1.7470716238,0,-0.194443864997,0.000105940000635,468,-0.598697721958,-1.74786949158,
0.871612445512,1.75580084324,0,-0.191412652914,0.00010686501108,469,-0.59550344944,-1.74584722519,
0.868650929132,1.76451969147,0,-0.188347809738,0.000108049806089,470,-0.59229516983,-1.74378252029,
0.865705625215,1.77322793007,0,-0.185248860315,0.000109251237851,471,-0.589045643806,-1.74163901806,
0.862776950994,1.781924963,0,-0.18211675358,0.000110419216225,472,-0.585738420486,-1.73942744732,
0.859865025678,1.79061079025,0,-0.178949986835,0.000111640181864,473,-0.582389056683,-1.73713803291,
0.856970147291,1.79928457737,0,-0.175745091592,0.000112983421678,474,-0.57898324728,-1.73477768898,
0.854092494645,1.80794644356,0,-0.172502761177,0.000114302237153,475,-0.575527250767,-1.73234844208,
0.85123254458,1.81659555435,0,-0.16922356847,0.000115600811742,476,-0.571985244751,-1.72981071472,
0.848390297094,1.82523190975,0,-0.165903324739,0.000117047058806,477,-0.56844586134,-1.72724986076,
0.845566229024,1.83385467529,0,-0.1625426631,0.000118470762553,478,-0.56481897831,-1.72457635403,
0.842760340371,1.84246408939,0,-0.159139037434,0.000119984397201,479,-0.561168909073,-1.7218734026,
0.839973048368,1.8510594368,0,-0.155692583683,0.000121493102348,480,-0.557458996773,-1.71906781197,
0.837204591432,1.85964035988,0,-0.152201952901,0.000123049466643,481,-0.553683459759,-1.71619057655,
0.834455327192,1.8682063818,0,-0.148667600563,0.000124589739712,482,-0.549857437611,-1.7132229805,
0.831725374856,1.87675738335,0,-0.145087161466,0.00012621314716,483,-0.545992910862,-1.71021771431,
0.829015032449,1.88529288769,0,-0.141459811438,0.000127865597336,484,-0.542071521282,-1.70710325241,
0.826324478784,1.89381241798,0,-0.137782229109,0.000129635333656,485,-0.538111627102,-1.70390582085,
0.823654131093,1.90231561661,0,-0.134056924895,0.000131316462403,486,-0.534070611,-1.70063364506,
0.821004108587,1.91080212593,0,-0.130280106773,0.000133131311073,487,-0.529995858669,-1.69728851318,
0.818374828496,1.91927146912,0,-0.126453543987,0.000134883698508,488,-0.525854408741,-1.69386219978,
0.815766469636,1.92772328854,0,-0.122574751561,0.000136723699968,489,-0.521661877632,-1.69036543369,
0.813179389634,1.93615722656,0,-0.118644971261,0.000138519858394,490,-0.517425239086,-1.68678951263,
0.8106137077,1.94457268715,0,-0.11465916699,0.000140493301412,491,-0.513131022453,-1.68310880661,
0.808069721856,1.95296943188,0,-0.11061811893,0.000142439602227,492,-0.508792698383,-1.6793487072,
0.805547730127,1.96134710312,0,-0.106521900027,0.000144378878975,493,-0.504388213158,-1.67552185059,
0.803048090139,1.96970510483,0,-0.102370469823,0.000146323166257,494,-0.499932169914,-1.67161607742,
0.800571040311,1.97804296017,0,-0.0981621010021,0.000148328489672,495,-0.495420366526,-1.66758716106,
0.798116699853,1.98636043072,0,-0.0938940363294,0.000150431355141,496,-0.490865588188,-1.66350185871,
0.795685545602,1.99465703964,0,-0.0895693754969,0.000152424879946,497,-0.486241132021,-1.65932679176,
0.793277875581,2.00293207169,0,-0.085186439025,0.000154457716209,498,-0.481541514397,-1.65503227711,
0.790893749395,2.01118564606,0,-0.0807432532773,0.000156490119044,499,-0.476828604937,-1.65069186687,
0.788533703485,2.01941657066,0,-0.0762405078631,0.000157944808986,500,-0.471997112036,-1.64622056484,
0.786197857061,2.02762508392,0,-0.071678041501,0.000160038147647,501,-0.467167496681,-1.64168214798,
0.783886627355,2.03580999374,0.203580999374,-0.0670544009752,0.000162182673693,502,-0.462261348963,-1.63701581955,
0.781600193181,2.04397153854,0.0,-0.0623706014884,0.000164291247842,503,-0.457293987274,-1.63229012489,
0.779299811521,2.0521838665,0,-0.0572348018746,0.000180144401866,504,-0.460080265999,-1.6424921751,
0.777026549974,2.0603685379,0,-0.0520522417409,0.000181783111337,505,-0.454643696547,-1.63693845272,
0.774778858819,2.06852865219,0,-0.046804528045,0.000184067104981,506,-0.449538677931,-1.63202321529,
0.772557334104,2.07666277885,0,-0.0414929123532,0.00018630717484,507,-0.444309651852,-1.62683916092,
0.770362452665,2.08477044106,0,-0.0361207966421,0.000188427802855,508,-0.438972979784,-1.6215171814,
0.768194512525,2.09285092354,0,-0.0306872778269,0.000190580105608,509,-0.433590680361,-1.61609208584,
0.766053871312,2.10090327263,0,-0.0251916981862,0.00019275555258,510,-0.428135067225,-1.61053025723,
0.763940707841,2.10892796516,0,-0.0196361500164,0.000194857457786,511,-0.422628760338,-1.60490107536,
0.761855737367,2.1169230938,0,-0.0140227247692,0.000196885777576,512,-0.417011648417,-1.5990806818,
0.75979884068,2.12488913536,0,-0.00834821024133,0.000199022338536,513,-0.411392122507,-1.59320282936,
0.757770435014,2.13282489777,0,-0.00261252966014,0.000201165902668,514,-0.405671924353,-1.58717370033,
0.75577105681,2.14073014259,0,0.00317850616139,0.000203105835118,515,-0.399866849184,-1.58103334904,
0.753800944486,2.14860415459,0,0.00902614330351,0.00020508948424,516,-0.394032359123,-1.57480490208,
0.751860396066,2.15644598007,0,0.0149312450128,0.000207103392544,517,-0.388105392456,-1.56841123104,
0.749949709573,2.16425561905,0,0.0208911580505,0.000209024180481,518,-0.38213416934,-1.56191945076,
0.748069361844,2.17203211784,0,0.0269034402312,0.000210859263682,519,-0.37607306242,-1.55528759956,
0.746219472089,2.1797747612,0,0.0329708016001,0.000212789398709,520,-0.36998218298,-1.54855751991,
0.744400576749,2.1874833107,0,0.0390871321775,0.000214505100512,521,-0.363779902458,-1.5416892767,
0.742612914243,2.19515657425,0,0.0452543797847,0.000216289235523,522,-0.357531875372,-1.53466486931,
0.740856842199,2.20279431343,0,0.0514692829857,0.00021795895178,523,-0.351211309433,-1.52757644653,
0.739132718244,2.21039605141,0,0.057729296825,0.000219539151357,524,-0.344834387302,-1.52032637596,
0.737440840402,2.21796059608,0,0.0640348118337,0.00022113328551,525,-0.338369190693,-1.51293158531,
0.735781625905,2.22548770905,0,0.0703813226761,0.000222569346409,526,-0.331859260798,-1.50543284416,
0.734155193963,2.23297667503,0,0.0767704697627,0.000224062957677,527,-0.325281888247,-1.4978004694,
0.732562021413,2.24042677879,0,0.0831978663218,0.000225402703996,528,-0.318641453981,-1.49003553391,
0.731002406278,2.24783754349,0,0.089661302221,0.000226664961577,529,-0.311914592981,-1.48213160038,
0.729476885,2.25520801544,0,0.096155811121,0.000227753011582,530,-0.305104255676,-1.47409665585,
0.727985457578,2.26253795624,0,0.102683101058,0.000228900964414,531,-0.298277616501,-1.46595656872,
0.726528660455,2.26982617378,0,0.109238416638,0.00022988213848,532,-0.291347920895,-1.45767664909,
0.725106732049,2.27707242966,0,0.115819378431,0.000230779867587,533,-0.284371733665,-1.44922876358,
0.723720149198,2.28427600861,0,0.122420838746,0.000231497070502,534,-0.277314990759,-1.44069206715,
0.722369090715,2.29143619537,0,0.129042115809,0.00023219036927,535,-0.270214825869,-1.43200147152,
0.721053914228,2.29855179787,0,0.135680440443,0.000232786495541,536,-0.263036191463,-1.42316865921,
0.719775036969,2.3056230545,0,0.142329281341,0.000233153584622,537,-0.255771100521,-1.41423821449,
0.718532578149,2.31264877319,0,0.148989179756,0.000233539658807,538,-0.248484358191,-1.40516495705,
0.717327014604,2.3196284771,0,0.155653759518,0.00023370215977,539,-0.241104900837,-1.39593482018,
0.716158644357,2.32656121254,0,0.162319974406,0.000233757825462,540,-0.233676835895,-1.38658571243,
0.715027765432,2.3334467411,0,0.168983483382,0.000233661299961,541,-0.226176410913,-1.37709379196,
0.713934675851,2.34028410912,0,0.175640861596,0.000233444660493,542,-0.21862539649,-1.36747825146,
0.712879614034,2.34707283974,0,0.18228867276,0.000233107379313,543,-0.211011007428,-1.35775256157,
0.711862937608,2.35381221771,0,0.18892189297,0.00023259379714,544,-0.203335851431,-1.34786975384,
0.710885004201,2.36050152779,0,0.195535318616,0.000231897990048,545,-0.19558377564,-1.33788263798,
0.709945992627,2.36714029312,0,0.202125872251,0.000231094311869,546,-0.187797784805,-1.32773137093,
0.709046320119,2.37372756004,0,0.208687366335,0.00023007330115,547,-0.179937824607,-1.31747627258,
0.70818616549,2.38026309013,0,0.215216133473,0.000228924062371,548,-0.172031477094,-1.30709254742,
0.707366005578,2.3867456913,0,0.221704956863,0.000227521892142,549,-0.16403837502,-1.29656910896,
0.706585840383,2.39317536354,0,0.228152145113,0.000226060354216,550,-0.156035870314,-1.28594470024,
0.705846087137,2.3995513916,0,0.234550595114,0.000224349807239,551,-0.147954970598,-1.27517282963,
0.705147103467,2.40587258339,0,0.240894072074,0.000222399332121,552,-0.139792963862,-1.2642595768,
0.70448894898,2.41213870049,0,0.247179657122,0.000220367650042,553,-0.131633535028,-1.25327408314,
0.703872040906,2.41834950447,0,0.253399485982,0.000218060714134,554,-0.123383246362,-1.24214911461,
0.703296558061,2.42450404167,0,0.259549017615,0.000215594527825,555,-0.115099586546,-1.2309114933,
0.702762798467,2.43060183525,0,0.265621731182,0.000212899714374,556,-0.106756977737,-1.21954977512,
0.702270940938,2.43664216995,0,0.271612548375,0.000210026935573,557,-0.09837577492,-1.20806884766,
0.701821223893,2.44262456894,0,0.277515362295,0.000206940093904,558,-0.0899368748069,-1.19649708271,
0.70141400496,2.44854855537,0,0.28332236127,0.000203579398988,559,-0.0814484879375,-1.18476974964,
0.70104916493,2.45441365242,0,0.289031760113,0.000200156272989,560,-0.072960563004,-1.17300581932,
0.700727240243,2.46021914482,0,0.294633027785,0.000196363937368,561,-0.0643823966384,-1.16111075878,
0.700448290506,2.46596455574,0,0.3001216482,0.000192413330513,562,-0.0557968355715,-1.14909434319,
0.70021261374,2.47164964676,0,0.305489983209,0.000188195002653,563,-0.0471363440156,-1.1370152235,
0.700020329156,2.47727370262,0,0.310732315389,0.000183776369092,564,-0.0384579002857,-1.12479865551,
0.699871496358,2.48283624649,0,0.315843537572,0.000179178084678,565,-0.0297653097659,-1.11253678799,
0.699766353765,2.48833727837,0,0.32081644745,0.000174327878392,566,-0.0210228227079,-1.10018861294,
0.699705139795,2.49377584457,0,0.325643084537,0.000169198851919,567,-0.0122369620949,-1.08773314953,
0.699687914052,2.4991517067,0,0.330317975381,0.000163878090361,568,-0.00344468466938,-1.07519209385,
0.699714795747,2.50446462631,0,0.334834781601,0.000158334736572,569,0.00538419932127,-1.06258428097,
0.699785963693,2.50971412659,0,0.339186077894,0.000152531785793,570,0.0142419394106,-1.04989516735,
0.699901537099,2.5148999691,0,0.343365236553,0.000146496522296,571,0.0231119003147,-1.03714990616,
0.70006157557,2.52002167702,0,0.347365930815,0.000140239500316,572,0.0320175215602,-1.02434921265,
0.70026637713,2.5250787735,0,0.35117880141,0.000133654360559,573,0.0409498661757,-1.01146018505,
0.700515524545,2.53007173538,0,0.354804027602,0.000127075785586,574,0.0498408079147,-0.99858045578,
0.700809613862,2.53499960899,0,0.358227870968,0.000120015771386,575,0.058817833662,-0.985559463501,
0.701148406663,2.53986239433,0,0.361447495172,0.000112856384543,576,0.0677559822798,-0.972577035427,
0.701532081762,2.54465985298,0,0.36445473095,0.000105410815686,577,0.0767361447215,-0.95950871706,
0.701960639158,2.54939198494,0,0.367243749295,9.77609601954e-05,578,0.085699737072,-0.946434676647,
0.702433959642,2.55405855179,0,0.369809580683,8.99370989241e-05,579,0.0946690514684,-0.933328688145,
0.702952222028,2.55865955353,0,0.372144136294,8.18298390987e-05,580,0.103652626276,-0.920184850693,
0.703515307107,2.56319451332,0,0.374241740286,7.35237121925e-05,581,0.112614609301,-0.907012224197,
0.704123274484,2.567663908,0,0.376096349172,6.50059278025e-05,582,0.121599934995,-0.893857002258,
0.704775945344,2.57206726074,0,0.377702693565,5.63036081316e-05,583,0.130539193749,-0.880674958229,
0.705473498502,2.57640480995,0,0.379052813036,4.73223754656e-05,584,0.139512509108,-0.867516636848,
0.706215755143,2.58067655563,0,0.380142188898,3.81819588869e-05,585,0.148446530104,-0.854336023331,
0.70700247685,2.58488273621,0,0.380967376328,2.89220875942e-05,586,0.157352313399,-0.84124058485,
0.707833723226,2.58902311325,0,0.381520515315,1.93868926366e-05,587,0.166247487068,-0.828083097935,
0.708709553876,2.59309792519,0,0.381794776312,9.61246479518e-06,588,0.175160229206,-0.814969658852,
0.709629491964,2.59710764885,0,0.38178969358,-1.78141289533e-07,589,0.183986350894,-0.801949381828,
0.710593477884,2.60105228424,0,0.381499080709,-1.01854221945e-05,590,0.192803636193,-0.788919210434,
0.711601571241,2.60493206978,0,0.38091603675,-2.04344162362e-05,591,0.201609730721,-0.77597284317,
0.712653354802,2.60874724388,0,0.380038707518,-3.07482450057e-05,592,0.210358738899,-0.763036966324,
0.713748828569,2.61249804497,0,0.378860769111,-4.12835573233e-05,593,0.219079881907,-0.750183939934,
0.714887575307,2.61618518829,0,0.377381625111,-5.18395758062e-05,594,0.227756619453,-0.737405657768,
0.716069595018,2.61980867386,0,0.375594294765,-6.26400752848e-05,595,0.236405014992,-0.724713206291,
0.717294470468,2.6233689785,0,0.3734974817,-7.34858527831e-05,596,0.244982078671,-0.712094068527,
0.718562022844,2.62686705589,0,0.371088895124,-8.44117558067e-05,597,0.253509104252,-0.699583470821,
0.719871954122,2.63030290604,0,0.368364630915,-9.54743007908e-05,598,0.261993378401,-0.687172651291,
0.721224025884,2.63367724419,0,0.365322364008,-0.000106617143865,599,0.270413905382,-0.674853086472,
0.722617820897,2.63699054718,0,0.361960892169,-0.000117802685799,600,0.27876996994,-0.66267490387,
0.724053160348,2.64024353027,0,0.358277406568,-0.0001290865753,601,0.28706407547,-0.650602221489,
0.725529686609,2.64343690872,0,0.354271003083,-0.000140402089842,602,0.295305639505,-0.638663172722,
0.727046863237,2.64657139778,0,0.349942641168,-0.00015168380897,603,0.303438156843,-0.626907467842,
0.728604571023,2.64964747429,0,0.345288325457,-0.000163105344353,604,0.311535805464,-0.615249872208,
0.730202094713,2.65266656876,0,0.34031349041,-0.00017433629912,605,0.319511145353,-0.603785991669,
0.731839315095,2.65562868118,0,0.335012607053,-0.000185760231899,606,0.32744204998,-0.592460274696,
0.73351569573,2.65853524208,0,0.329389571234,-0.000197048012951,607,0.335279464722,-0.581319212914,
0.735230819383,2.66138720512,0,0.323445530589,-0.000208295381971,608,0.343017905951,-0.57037460804,
0.736984209218,2.66418528557,0,0.317181422254,-0.000219509758162,609,0.350665330887,-0.559606492519,
0.738775388398,2.66693019867,0,0.310598252517,-0.000230688729079,610,0.358235836029,-0.549004912376,
0.740603939691,2.66962337494,0,0.303699414073,-0.00024174847962,611,0.365704298019,-0.538656175137,
0.74246914784,2.67226600647,0,0.29649045916,-0.000252612835061,612,0.373040109873,-0.528515934944,
0.744370714822,2.67485880852,0,0.288971117791,-0.000263486768881,613,0.380315929651,-0.518579602242,
0.746307984987,2.67740321159,0,0.281147668619,-0.000274140397774,614,0.387454539537,-0.508879184723,
0.748280481496,2.67990016937,0,0.273022878271,-0.000284696998517,615,0.394497603178,-0.499425441027,
0.7502875487,2.68235111237,0,0.264603433633,-0.000295019295967,616,0.401407778263,-0.490185141563,
0.752328769365,2.68475699425,0,0.255891900959,-0.000305251873504,617,0.408237278461,-0.481201887131,
0.754403309026,2.68711972237,0,0.246899214715,-0.000315100370743,618,0.414913535118,-0.472521662712,
0.756510750451,2.68943977356,0,0.237626218389,-0.000324856351598,619,0.421486854553,-0.464037775993,
0.758650557199,2.69171929359,0,0.228082625434,-0.000334333256271,620,0.427954912186,-0.455859422684,
0.760821775594,2.69395899773,0,0.21827577084,-0.000343553260824,621,0.434247970581,-0.447950899601,
0.763024048009,2.6961607933,0,0.208213160069,-0.000352510142272,622,0.44046831131,-0.440329790115,
0.765256539979,2.69832587242,0,0.197903672797,-0.000361155935077,623,0.446497738361,-0.433025598526,
0.767518774667,2.70045566559,0,0.187354229651,-0.000369559116489,624,0.452442228794,-0.425971627235,
0.769809858003,2.70255184174,0,0.176577040199,-0.000377534503408,625,0.458231776953,-0.419278472662,
0.77212931315,2.70461630821,0,0.165581978262,-0.000385163896173,626,0.46387976408,-0.412860035896,
0.774476365247,2.70664978027,0,0.154375993246,-0.000392549699613,627,0.469414651394,-0.406716108322,
0.776850299039,2.70865464211,0,0.142974126923,-0.000399408411038,628,0.474782109261,-0.400954067707,
0.779250339666,2.7106320858,0,0.131386262696,-0.00040592074801,629,0.48001408577,-0.395484805107,
0.781675712266,2.71258378029,0,0.119624982506,-0.000411992280179,630,0.48508387804,-0.390363276005,
0.784125940004,2.71451163292,0,0.107701762705,-0.000417661778724,631,0.490040570498,-0.385539621115,
0.786600188413,2.71641683578,0,0.0956278488113,-0.000422937271682,632,0.494851976633,-0.38104519248,
0.789097563424,2.71830153465,0,0.0834204038368,-0.000427611472966,633,0.499481230974,-0.376938074827,
0.791617588201,2.72016716003,0,0.0710893460938,-0.00043193834134,634,0.504000365734,-0.37313657999,
0.794159428277,2.72201561928,0,0.0586507263495,-0.000435703138813,635,0.508359611034,-0.369669675827,
0.796722308793,2.7238483429,0,0.0461177527779,-0.000439004742719,636,0.512580275536,-0.36656665802,
0.799305454889,2.72566747665,0,0.0335079688529,-0.000441692091534,637,0.516625583172,-0.363822817802,
0.801908210912,2.72747445107,0,0.0208341887174,-0.00044393006931,638,0.520535469055,-0.361409664154,
0.804529742399,2.7292714119,0,0.00811524066167,-0.000445509236195,639,0.524308860302,-0.359379947186,
0.807169214883,2.73105978966,0,-0.00463381559663,-0.000446559976071,640,0.527903676033,-0.357697367668,
0.809826151529,2.73284125328,0,-0.01739937296,-0.000447134670078,641,0.531389772892,-0.356290876865,
0.812499777475,2.73461794853,0,-0.0301619997278,-0.000447028713229,642,0.534725010395,-0.355297982693,
0.815189139047,2.7363910675,0,-0.0429060459941,-0.000446374548847,643,0.537873804569,-0.354659676552,
0.817893759408,2.73816299438,0,-0.055612498332,-0.000445054612649,644,0.540926754475,-0.35436975956,
0.820612744489,2.73993492126,0,-0.0682655735522,-0.000443181540595,645,0.543802440166,-0.354413151741,
0.823345498243,2.74170923233,0,-0.0808444000682,-0.000440565037878,646,0.546541035175,-0.354804635048,
0.826091245809,2.74348688126,0,-0.0933350739711,-0.000437472099441,647,0.549160778522,-0.355518877506,
0.828849391141,2.74526977539,0,-0.10571898255,-0.000433729402878,648,0.551623821259,-0.35660558939,
0.831619218984,2.7470600605,0,-0.11797454065,-0.000429230766808,649,0.553953766823,-0.35803848505,
0.834399954477,2.74885892868,0,-0.130085395306,-0.00042415962194,650,0.556150376797,-0.359790384769,
0.837191061178,2.75066828728,0,-0.142032301476,-0.000418414667897,651,0.558230698109,-0.36184245348,
0.83999194304,2.75248932838,0,-0.153799827627,-0.000412129349242,652,0.560174226761,-0.364233255386,
0.842801825204,2.75432419777,0,-0.165364402152,-0.000405018829133,653,0.561984658241,-0.366984009743,
0.845620171228,2.75617408752,0,-0.17671044644,-0.000397362614515,654,0.563673615456,-0.370012879372,
0.848446385064,2.75804114342,0,-0.187815123063,-0.000388906475375,655,0.565240621567,-0.373375415802,
0.851279989877,2.75992584229,0,-0.198667604875,-0.000380071285381,656,0.56672424078,-0.376975774765,
0.854120449224,2.76183056831,0,-0.209243229978,-0.000370371908805,657,0.568086028099,-0.380926132202,
0.856966988244,2.76375627518,0,-0.219524834118,-0.000360072022922,658,0.569310069084,-0.385139167309,
0.85981936852,2.76570439339,0,-0.229496162053,-0.000349202431076,659,0.570472657681,-0.389610350132,
0.8626769344,2.76767611504,0,-0.239138865622,-0.000337689952044,660,0.571511924267,-0.394371688366,
0.865539328256,2.76967310905,0,-0.248433373554,-0.000325493248553,661,0.572482585907,-0.399387419224,
0.868405954042,2.77169656754,0,-0.25736122884,-0.000312650663926,662,0.573332190514,-0.40466272831,
0.871276573339,2.77374720573,0,-0.265910157107,-0.000299378482141,663,0.574133276939,-0.410151064396,
0.87415070931,2.77582669258,0,-0.274058708235,-0.00028535550389,664,0.574837446213,-0.415904462337,
0.877028004327,2.77793598175,0,-0.281791361547,-0.00027078925803,665,0.575459420681,-0.421843767166,
0.879908160367,2.78007602692,0,-0.289092866094,-0.000255688997248,666,0.576039195061,-0.42799115181,
0.882790998616,2.78224778175,0,-0.295948712874,-0.000240080852496,667,0.576561868191,-0.434352815151,
0.885675923028,2.78445219994,0,-0.302340802898,-0.000223839132121,668,0.576995372772,-0.440866470337,
0.888563052812,2.78668999672,0,-0.308258429003,-0.00020722272821,669,0.57741355896,-0.447592616081,
0.891451970735,2.78896212578,0,-0.313684533086,-0.000190009211542,670,0.577786445618,-0.454407691956,
0.894342497983,2.79126906395,0,-0.318607503704,-0.000172389338816,671,0.57810229063,-0.461425721645,
0.897234574952,2.79361176491,0,-0.323012777446,-0.000154259792853,672,0.578405678272,-0.468538463116,
0.900128022828,2.79599070549,0,-0.326888422798,-0.000135712647162,673,0.578695714474,-0.475768864155,
0.903022722402,2.79840612411,0,-0.330224798935,-0.000116828298963,674,0.578944206238,-0.483112454414,
0.905918673673,2.80085873604,0,-0.33300926309,-9.75015583369e-05,675,0.579193949699,-0.490537524223,
0.908815876642,2.8033490181,0,-0.335230940724,-7.77943264163e-05,676,0.579444348812,-0.498045861721,
0.911714450517,2.80587673187,0,-0.336885686854,-5.79421640422e-05,677,0.579711854458,-0.505557596684,
0.91461427609,2.80844259262,0,-0.337959597937,-3.76035251488e-05,678,0.579967021942,-0.513175368309,
0.917515591779,2.81104660034,0,-0.338447376147,-1.7079620979e-05,679,0.580254435539,-0.520782470703,
0.920418397584,2.81368875504,0,-0.338341876031,3.69407208404e-06,680,0.580555617809,-0.528420031071,
0.923323051133,2.81636857986,0,-0.337642775895,2.44786931405e-05,681,0.580925762653,-0.536019146442,
0.926229433217,2.81908679008,0,-0.336335931841,4.57582597375e-05,682,0.581274271011,-0.543657422066,
0.929138020673,2.82184290886,0,-0.334421916469,6.70174927537e-05,683,0.581723630428,-0.551185905933,
0.932049051919,2.82463645935,0,-0.331899594932,8.83161510064e-05,684,0.582210123539,-0.558682978153,
0.934962765374,2.82746696472,0,-0.328767951968,0.000109650092294,685,0.582744300365,-0.566133320332,
0.937879637876,2.83033442497,0,-0.325023610742,0.000131101833186,686,0.583374142647,-0.5734770298,
0.940799907842,2.83323788643,0,-0.320669964695,0.000152434182437,687,0.5840523839,-0.580730259418,
0.943724111715,2.83617734909,0,-0.315704213765,0.000173864505253,688,0.584835886955,-0.587872385979,
0.946652547517,2.83915162086,0,-0.310132657208,0.000195074056995,689,0.585692286491,-0.594849228859,
0.949585751691,2.84216022491,0,-0.303957068338,0.000216221296855,690,0.586645543575,-0.601692140102,
0.952524260679,2.84520196915,0,-0.297185951551,0.000237070492936,691,0.587700784206,-0.608389914036,
0.955468610921,2.84827661514,0,-0.289819180886,0.000257917202275,692,0.588871538639,-0.61490136385,
0.958419398465,2.85138249397,0,-0.281870574761,0.00027828559663,693,0.590156137943,-0.621191442013,
0.961377219358,2.85451889038,0,-0.273345316607,0.000298472193221,694,0.591561019421,-0.627296745777,
0.964342669645,2.85768461227,0,-0.264253312966,0.000318311734353,695,0.593091249466,-0.633147001266,
0.967316524186,2.86087870598,0,-0.254603728728,0.000337830194682,696,0.594765841961,-0.638788640499,
0.970299319425,2.86409950256,0,-0.244411210844,0.000356813468611,697,0.596558392048,-0.644182980061,
0.97329194943,2.86734580994,0,-0.233688681739,0.000375364519804,698,0.598515808582,-0.649289786816,
0.976294950643,2.870616436,0,-0.222446835867,0.00039353931503,699,0.600605249405,-0.654121637344,