lower angle,upper angle,holding angle,system x,acceleration,ticks (200 tps),lower acceleration (shoulder),upper acceleration (elbow),
1.459412174,0.471352484,0,-1.07120624403,-0.311889543724,1,0.0,0.0,
1.459412174,0.471352484,0,-1.07120624403,0.0,2,0.0,0.0,
1.459412174,0.471352484,0,-1.07120624403,0.0,3,0.0,0.0,
1.4741607473,0.442629720938,0,-1.1050466598,-0.00985148573365,4,2.9497730732,5.74460458755,
1.49374301888,0.404439832938,0,-1.14940011448,-0.0129114638085,5,3.91652226448,7.63820552826,
1.51838691689,0.356394674552,0,-1.20475892787,-0.0161142533832,6,4.92902326584,9.60947132111,
1.54817636467,0.298317816031,0,-1.27082090814,-0.0192291143478,7,5.95838069916,11.6162557602,
1.58320577599,0.230018522513,0,-1.34718051404,-0.0222257514129,8,7.00654792786,13.6611299515,
1.62355287529,0.151340868247,0,-1.43321236956,-0.0250399140199,9,8.07053375244,15.7375679016,
1.66925342537,0.0622147581699,0,-1.52798932668,-0.0275835530476,10,9.14168739319,17.8281898499,
1.72026880242,-0.0372830369351,0,-1.63017534606,-0.0297388050453,11,10.205324173,19.9037036896,
1.77645690895,-0.146868322122,0,-1.73797864051,-0.0313718896472,12,11.2405557632,21.9225273132,
1.83754547097,-0.265998933542,0,-1.84911727333,-0.0323323402435,13,12.2215623856,23.8332099915,
1.90312631585,-0.393859956491,0.0,-1.96089636815,-0.0325174092296,14,13.120844841,25.580904007,
1.97267015435,-0.529394719827,0.0,-2.07033329006,-0.0318346551499,15,13.9143371582,27.1173553467,
2.04557092644,-0.671391580331,0,-2.17436468621,-0.0302601314822,16,14.5866622925,28.4113311768,
2.12120779015,-0.818602178323,0,-2.27008263068,-0.0278407242716,17,15.1345720291,29.4554767609,
2.19900329567,-0.969860646951,0,-2.35487529962,-0.0246621245067,18,15.5669031143,30.2661418915,
2.27846916176,-1.12417135023,0,-2.42652605716,-0.0208379975791,19,15.9015836716,30.877494812,
2.35923059441,-1.2807546594,0,-2.48322470049,-0.0164885951577,20,16.1610507965,31.3327217102,
2.44102724053,-1.43905362867,0,-2.5234819945,-0.0117064193617,21,16.3684959412,31.6764240265,
2.52370698906,-1.59871682905,0,-2.54606311214,-0.00656604033929,22,16.5453720093,31.9496479034,
2.60720880486,-1.75956878446,0,-2.54986809402,-0.00110634587733,23,16.7100429535,32.1878013611,
2.69154794671,-1.92158136152,0,-2.53384045368,0.00466006675162,24,16.8778495789,32.420337677,
2.77680166222,-2.08484778188,0,-2.49688408651,0.010744598049,25,17.0610694885,32.6715698242,
2.86309535958,-2.24956307195,0,-2.43778571634,0.017181010214,26,17.269525528,32.9618225098,
2.9505935476,-2.41600999616,0,-2.35518077928,0.0240138513573,27,17.51080513,33.3087882996,
3.03948839165,-2.58455357336,0,-2.24752243447,0.0312959071074,28,17.7906608582,33.7287979126,
3.12999256112,3.52754750468,0,-2.11312428523,0.0390675567735,29,18.1131877899,34.2379837036,
3.06085036936,3.35339155413,0,-1.77221686087,0.0990929964642,30,18.4816322327,34.8534469604,