lower angle,upper angle,holding angle,system x,acceleration,ticks (200 tps),lower acceleration (shoulder),upper acceleration (elbow),
2.443956891,-2.007839739,0,-0.605948763465,-0.0461122570499,1,0.0,0.0,
2.443956891,-2.007839739,0,-0.605948763465,0.0,2,0.0,0.0,
2.443956891,-2.007839739,0,-0.605948763465,0.0,3,0.0,0.0,
2.45251611799,-2.02424055306,0,-0.62699739997,-0.00160172503756,4,1.71185839176,3.28010129929,
2.46367696851,-2.04565054146,0,-0.654238910791,-0.00207295906908,5,2.23212099075,4.2820391655,
2.47773651212,-2.07259279457,0,-0.68836444829,-0.00259677671539,6,2.8119802475,5.38853645325,
2.49461082548,-2.10490328041,0,-0.728990991811,-0.00309144177829,7,3.3749499321,6.46230554581,
2.5142398271,-2.1424604055,0,-0.77575708732,-0.00355859095079,8,3.92591238022,7.51158714294,
2.53657154173,-2.18515354363,0,-0.828281542892,-0.0039967290458,9,4.46657800674,8.53898143768,
2.56155542463,-2.2328725454,0,-0.886137014139,-0.00440233900555,10,4.99701118469,9.54425430298,
2.5891399774,-2.28550535408,0,-0.948835433801,-0.00477080922835,11,5.51724720001,10.5271635056,
2.61927560896,-2.34294134346,0,-1.01583327102,-0.00509789859151,12,6.02757453918,11.4880313873,
2.65191558927,-2.4050760862,0,-1.08652368246,-0.00537882181621,13,6.5286231041,12.4279060364,
2.68701843351,-2.47181183067,0.0,-1.16024187721,-0.0056091496953,14,7.02129268646,13.3484563828,
2.72454837888,-2.54306513039,0.0,-1.23625165269,-0.00578346003781,15,7.50679969788,14.2521219254,
2.76447586149,-2.61876589028,0,-1.31374538197,-0.00589631654661,16,7.98660564423,15.1419649124,
2.80678180784,-2.6988635656,0,-1.39184936749,-0.00594269519414,17,8.46239185333,16.0217285156,
2.85145429701,-2.78333002297,0,-1.46960781642,-0.00591633519905,18,8.93605041504,16.8958530426,
2.89849428266,-2.87216287819,0,-1.54599767912,-0.0058121156751,19,9.40966510773,17.7694892883,
2.94791177839,-2.96538835732,0,-1.6199186626,-0.00562419075432,20,9.88552761078,18.6485404968,
2.99973062605,-3.06306701866,0,-1.69020779062,-0.00534779003079,21,10.3661384583,19.5396976471,
3.0539889726,-3.16529756752,0,-1.75564590043,-0.00497864708937,22,10.8543319702,20.4506034851,