lower angle,upper angle,holding angle,system x,acceleration,ticks (200 tps),lower acceleration (shoulder),upper acceleration (elbow),
1.32515609,0.790309276,0,-1.01796725616,-0.350741888922,1,0.0,0.0,
1.32515609,0.790309276,0,-1.01796725616,0.0,2,0.0,0.0,
1.32515609,0.790309276,0,-1.01796725616,0.0,3,0.0,0.0,
1.33837592337,0.764604415313,0,-1.05160207096,-0.0115870651721,4,2.64399647713,5.14103031158,
1.35583436225,0.730607833281,0,-1.09558653706,-0.0151518549718,5,3.4917178154,6.79947900772,
1.37785184119,0.687745894805,0,-1.15075167712,-0.0190026662865,6,4.40373849869,8.57274150848,
1.40454232428,0.63578256549,0,-1.21702185472,-0.022826962589,7,5.33840990067,10.3931684494,
1.43605792258,0.574412192718,0,-1.29431495002,-0.0266223340127,8,6.30362272263,12.2750835419,
1.4725760195,0.50328048648,0,-1.38245166535,-0.0303554256624,9,7.30440759659,14.2278823853,
1.51428115104,0.422020759002,0,-1.48106734045,-0.0339618493153,10,8.34220790863,16.2541694641,
1.56134402488,0.330294455901,0,-1.58950559148,-0.0373422458858,11,9.41432857513,18.3484458923,
1.61389338706,0.22784789981,0,-1.70670676583,-0.0403580114678,12,10.5123233795,20.4937705994,
1.67197644446,0.114590491668,0,-1.8310792,-0.0428245639928,13,11.6198768616,22.6576080322,
1.73551165793,-0.00931421337988,0.0,-1.96037673034,-0.0445168915256,14,12.7113361359,24.7888717651,
1.8042453501,-0.143357430085,0.0,-2.09168181242,-0.0452040662493,15,13.7520999908,26.8187351227,
1.87772500251,-0.286637936219,0,-2.22144501178,-0.044669922487,16,14.7025928497,28.6683731079,
1.95531642173,-0.437887821778,0,-2.34575264059,-0.0427898103936,17,15.5260457993,30.2643814087,
2.03626239035,-0.595593128785,0,-2.46063460602,-0.0395435755168,18,16.1980323792,31.5574588776,
2.11977946494,-0.758181725129,0,-2.56244127628,-0.0350414765645,19,16.7131195068,32.5357017517,
2.20515286658,-0.924211655244,0,-2.64809523616,-0.0294805333362,20,17.0850772858,33.2250595093,
2.29180514548,-1.09250227033,0,-2.71521048046,-0.0230987674879,21,17.3412513733,33.678062439,
2.37932049964,-1.26218954144,0,-2.76200049236,-0.016101964863,22,17.5142650604,33.9578475952,
2.4674428675,-1.43271461545,0,-2.78717796386,-0.00866362633102,23,17.6359500885,34.1257972717,
2.55605303977,-1.6037830454,0,-2.78976342596,-0.000889601591592,24,17.7336483002,34.2346496582,
2.64514100287,-1.77531186162,0,-2.76892248698,0.00717051348046,25,17.8293743134,34.3268966675,
2.73478257392,-1.94738379537,0,-2.72383753362,0.0155079462948,26,17.9403324127,34.4357681274,
2.82511841986,-2.12021080075,0,-2.65359530195,0.0241589616203,27,18.0794563293,34.5870132446,
2.91633689139,-2.29410782872,0,-2.55710741319,0.0331831939283,28,18.256313324,34.801486969,
3.00866067145,3.81370672168,0,-2.43306603524,0.0426563637719,29,18.4778766632,35.096862793,
3.10233676169,3.63637527408,0,-2.2799526173,0.052630997792,30,18.7489471436,35.4897575378,
3.08555836147,3.45651468219,0,-1.91396798999,0.125794273178,31,19.0724754333,35.9966659546,