lower angle,upper angle,holding angle,system x,acceleration,ticks (200 tps),lower acceleration (shoulder),upper acceleration (elbow),
1.683172338,-0.052212642,0,-1.10064465174,-0.21772727605,1,0.0,0.0,
1.683172338,-0.052212642,0,-1.10064465174,0.0,2,0.0,0.0,
1.683172338,-0.052212642,0,-1.10064465174,0.0,3,0.0,0.0,
1.69903337239,-0.0831269486406,0,-1.13194874184,-0.00618140688884,4,3.17223262787,6.18298435211,
1.72008477925,-0.124211715029,0,-1.1727808333,-0.00806240098738,5,4.21045207977,8.21724700928,
1.74637281179,-0.175491736696,0,-1.22317544945,-0.0099501379479,6,5.25791120529,10.2564821243,
1.77781688451,-0.236816333101,0,-1.28241026964,-0.0116950547652,7,6.28935337067,12.2659387589,
1.81429969548,-0.307957099245,0,-1.34958096557,-0.0132613438782,8,7.29737949371,14.2296848297,
1.85564958333,-0.388573573396,0,-1.42356051738,-0.0146050223417,9,8.27110290527,16.1254730225,
1.90162908315,-0.478195117281,0,-1.50295980021,-0.0156743685644,10,9.19757270813,17.9272918701,
1.95193588018,-0.576217578218,0,-1.58617326651,-0.0164266331553,11,10.0634841919,19.60846138,
2.00620853185,-0.681919978426,0,-1.67139059609,-0.0168215493335,12,10.8571586609,21.1453838348,
2.06404411077,-0.794496463106,0,-1.75668054813,-0.016835231668,13,11.5703344345,22.5212097168,
2.12502347707,-0.913104461,0.0,-1.84008180968,-0.0164617986794,14,12.199672699,23.7285861969,
2.18873702764,-1.03691665964,0.0,-1.91967308019,-0.0157091276491,15,12.7470207214,24.7704372406,
2.25480806111,-1.16516773538,0,-1.99362936876,-0.0145962519448,16,13.2190303802,25.6589984894,
2.32291089772,-1.29718677835,0,-2.06027196318,-0.0131522836389,17,13.6258449554,26.4134292603,
2.39278089284,-1.43241922693,0,-2.11806382125,-0.0114050928866,18,13.9796819687,27.0568695068,
2.46421777486,-1.57043402033,0,-2.16559165284,-0.00937914220725,19,14.2934675217,27.6139278412,
2.53708516835,-1.71091930704,0,-2.20154920104,-0.00709558353695,20,14.5798931122,28.1087379456,
2.61130487203,-1.85367767648,0,-2.22467047716,-0.00456237645616,21,14.8507900238,28.5638275146,
2.68685256719,-1.99861233072,0,-2.2337104209,-0.00178372572596,22,15.1167316437,28.9996948242,
2.76375018834,-2.14571993189,0,-2.22737705286,0.00124962637625,23,15.3870916367,29.4348335266,
2.84205972432,-2.29508011179,0,-2.20429931436,0.00455325388443,24,15.6699476242,29.8860969543,
2.92187749623,-2.44685141878,0,-2.16299282163,0.00814948382692,25,15.9720115662,30.3689193726,
3.0033270049,-2.6012653573,0,-2.10185064805,0.0120612592969,26,16.2989406586,30.8983078003,
3.086555593,-2.75862996416,0,-2.01916031374,0.0163113128513,27,16.6553382874,31.489315033,
3.1114561073,-2.91933028536,0,-1.84341868586,0.0346650578177,28,17.0450572968,32.1576004028,