lower angle,upper angle,holding angle,system x,acceleration,ticks (200 tps),lower acceleration (shoulder),upper acceleration (elbow),
1.951684541,-0.683285197,0,-1.03871750944,-0.0863184030741,1,0.0,0.0,
1.951684541,-0.683285197,0,-1.03871750944,0.0,2,0.0,0.0,
1.951684541,-0.683285197,0,-1.03871750944,0.0,3,0.0,0.0,
1.9656682675,-0.710491617898,0,-1.06320051925,-0.00203444328169,4,2.79675745964,5.44137954712,
1.98405701567,-0.746310671548,0,-1.09481716546,-0.00262717358617,5,3.67783808708,7.16393661499,
2.00692755629,-0.790826758127,0,-1.13370153881,-0.00323102418614,6,4.57433128357,8.90362358093,
2.03410250594,-0.843696078042,0,-1.17912403273,-0.00377423856725,7,5.43529415131,10.5744895935,
2.0653854077,-0.904531439523,0,-1.23026867474,-0.0042496296848,8,6.25712394714,12.1679821014,
2.10056263853,-0.972905119638,0,-1.28624157632,-0.00465073328668,9,7.03616333008,13.6760807037,
2.13940102507,-1.04835029481,0,-1.34604181896,-0.00496867001132,10,7.76863288879,15.0908384323,
2.18165451933,-1.13037200807,0,-1.40858931973,-0.00519685723877,11,8.45192432404,16.4066295624,
2.22707182814,-1.21846338151,0,-1.47273922545,-0.00532990787776,12,9.08509635925,17.6211128235,
2.27540738036,-1.31212278245,0,-1.53732542406,-0.0053660522536,13,9.66897010803,18.7353343964,
2.3264265721,-1.41087098954,0.0,-1.60114438189,-0.00530222483492,14,10.2060813904,19.7537136078,
2.37991625716,-1.51426597474,0.0,-1.66299908978,-0.00513894901014,15,10.7004518509,20.6835403442,
2.43568808485,-1.62191100953,0,-1.7216967155,-0.00487643592686,16,11.1572265625,21.5342788696,
2.49358374525,-1.73346753953,0,-1.77604167596,-0.00451473109069,17,11.5823755264,22.3170719147,
2.55347735335,-1.84865470765,0,-1.82485045853,-0.00405474188106,18,11.9823265076,23.0438995361,
2.61527544905,-1.96725602982,0,-1.86691643875,-0.00349453426192,19,12.3636054993,23.7272453308,
2.67891842772,-2.08911701081,0,-1.90101602194,-0.00283269945583,20,12.7328243256,24.3797531128,
2.74437624861,-2.2141451442,0,-1.92586621374,-0.0020643068205,21,13.09623909,25.0138511658,
2.8116498654,-2.34231038926,0,-1.94012317912,-0.00118429587762,22,13.4597988129,25.6418800354,
2.88076741148,-2.47364326356,0,-1.94235977439,-0.00018578636045,23,13.8290491104,26.2761039734,
2.95178181578,-2.60823531983,0,-1.93105794752,0.000938788987737,24,14.2088317871,26.9286804199,
3.02476746489,-2.74624105332,0,-1.9046123146,0.00219667380009,25,14.6036968231,27.6121883392,
3.09982115675,-2.88788028596,0,-1.86136536965,0.00359217394086,26,15.0177526474,28.3398513794,
3.10612702121,-3.03344484208,0,-1.75945910439,0.00846440679535,27,15.455083847,29.1258659363,