lower angle,upper angle,holding angle,system x,acceleration,ticks (200 tps),lower acceleration (shoulder),upper acceleration (elbow),
1.101395926,1.345454982,0,-0.866688714798,-1.25487004316,1,0.0,0.0,
1.101395926,1.345454982,0,-0.866688714798,0.0,2,0.0,0.0,
1.101395926,1.345454982,0,-0.866688714798,0.0,3,0.0,0.0,
1.08640442931,1.37452957452,0,-0.820389476097,0.0670011006027,4,-2.99835562706,-5.81502151489,
1.06694514167,1.41235641994,0,-0.760461669523,0.0867096851754,5,-3.8919801712,-7.56559658051,
1.0427280092,1.45941597827,0,-0.685670563854,0.108198557257,6,-4.84366369247,-9.41234588623,
1.01398315889,1.51525900372,0,-0.596686866556,0.128710865544,7,-5.74936676025,-11.1693325043,
0.980928076924,1.57945061334,0,-0.494172161223,0.148260195654,8,-6.61161851883,-12.8394269943,
0.943774989368,1.65156035729,0,-0.378845576625,0.166763901805,9,-7.43147277832,-14.4235229492,
0.902735924841,1.73115464159,0,-0.251534307285,0.184066049548,10,-8.20896720886,-15.920964241,
0.85801730168,1.81780736752,0,-0.113182526071,0.199998083549,11,-8.94521713257,-17.3332633972,
0.809812626363,1.9111143858,0,0.0351480242447,0.214351136813,12,-9.64280128479,-18.6648082733,
0.758295944454,2.01070677348,0,0.192277217402,0.227030918262,13,-10.3056192398,-19.9226036072,
0.703615984441,2.11626206942,0.0,0.356906973282,0.237832038811,14,-10.9387197495,-21.1159820557,
0.645891985418,2.22751366206,0.0,0.527614625312,0.246571492354,15,-11.5480165482,-22.2560844421,
0.585210225107,2.34425871678,0,0.702845364864,0.253065947446,16,-12.1400747299,-23.355682373,
0.521622559549,2.46636407681,0,0.880897427187,0.25710123697,17,-12.7218208313,-24.4287071228,
0.455145022394,2.59377198525,0,1.05991041137,0.258449573654,18,-13.3004102707,-25.490234375,
0.385757169248,2.72650628396,0,1.23785450479,0.256867184781,19,-13.8831510544,-26.5566902161,
0.313402077676,2.86467902966,0,1.41252614879,0.25209618941,20,-14.4773302078,-27.6456336975,
0.237985095502,3.00849943467,0,1.58155923868,0.24392079116,21,-15.0905389786,-28.7765579224,
0.159371098997,3.15828423806,0,1.74245093896,0.232137084127,22,-15.7308912277,-29.9710636139,