lower angle,upper angle,holding angle,system x,acceleration,ticks (200 tps),lower acceleration (shoulder),upper acceleration (elbow),
2.309700789,-1.58584836,0,-0.780734807812,-0.137304759382,1,0.0,0.0,
2.309700789,-1.58584836,0,-0.780734807812,0.0,2,0.0,0.0,
2.309700789,-1.58584836,0,-0.780734807812,0.0,3,0.0,0.0,
2.29636979017,-1.56006550664,0,-0.754935688113,0.00453667912099,4,-2.66623926163,-5.15664196014,
2.27904829017,-1.52645677203,0,-0.721470263536,0.00588456912721,5,-3.46438646317,-6.72190618515,
2.25718181401,-1.48400690281,0,-0.678808802195,0.0075013167909,6,-4.37346982956,-8.49029254913,
2.23067435815,-1.43250633651,0,-0.626539920274,0.00919026136616,7,-5.30180263519,-10.3006830215,
2.1993504633,-1.37159708017,0,-0.564038416263,0.0109890450549,8,-6.26529026031,-12.1827983856,
2.16296854808,-1.30079358691,0,-0.490517718663,0.012925997788,9,-7.27718544006,-14.1621837616,
2.12122611895,-1.21949067586,0,-0.405064651471,0.0150233843399,10,-8.34969902039,-16.2628231049,
2.07375444665,-1.12695306414,0,-0.306655970507,0.0173005308039,11,-9.49611854553,-18.5108337402,
2.02011203959,-1.02230277532,0,-0.194186521136,0.0197719173553,12,-10.731054306,-20.9348545074,
1.95978307917,-0.904516308246,0,-0.0665302524913,0.0224409837248,13,-12.0694570541,-23.5641136169,
1.89218822315,-0.772446958957,0.0,0.0773429799769,0.0252909777434,14,-13.5241241455,-26.4234809875,
1.8167215605,-0.624898104606,0.0,0.238146908939,0.0282661853864,15,-15.1004981995,-29.5231838226,
1.73283583119,-0.460791616378,0,0.415901777788,0.0312449603332,16,-16.7869930267,-32.8397598267,
1.64020163014,-0.279483823715,0,0.60937048306,0.0340056955381,17,-18.5401039124,-36.2864570618,
1.53895050481,-0.0812453317026,0,0.815346849696,0.0362028570754,18,-20.2675476074,-39.680229187,
1.42993527844,0.132223577561,0,1.02811596445,0.0373955392308,19,-21.8246822357,-42.7344589233,
1.31482076838,0.35761162764,0,1.23965391913,0.0371779261242,20,-23.0483493805,-45.1254043579,
1.19579893544,0.590554685654,0,1.44095845484,0.0353781332952,21,-23.8325157166,-46.6414756775,
1.07499367192,0.826809616151,0,1.62393833269,0.0321566172787,22,-24.1904582977,-47.3060836792,
0.95395690396,1.06324789053,0,1.78264361761,0.0278898204644,23,-24.2369689941,-47.3428955078,
0.833531322028,1.29812738425,0,1.9132973472,0.0229595515591,24,-24.1142501831,-47.0300445557,
0.71398598149,1.53082797057,0,2.01362076782,0.0176291207354,25,-23.9375762939,-46.5927772522,
0.595208348776,-4.52171304697,0,2.08210711038,0.0120342479863,26,-23.7834892273,-46.1802368164,
0.476851882483,-4.29254558557,0,2.11745078737,0.0062102955566,27,-23.6989688873,-45.8838653564,
0.358430923964,-4.06399658197,0,2.11816428577,0.000125366152882,28,-23.7119255066,-45.7597808838,
0.239377083327,-3.83501961702,0,2.08234062329,-0.00629425100674,29,-23.8389511108,-45.845741272,
0.119073690917,-3.60441449159,0,2.00756874295,-0.0131370858999,30,-24.0897026062,-46.1724472046,
0.00312369868614,-3.37082579607,0,1.88359943683,-0.0217800675683,31,-24.4699363708,-46.7713432312,