lower angle,upper angle,holding angle,system x,acceleration,ticks (200 tps),lower acceleration (shoulder),upper acceleration (elbow),
1.81742844,-0.366151594,0,-1.08299119293,-0.343892402608,1,0.0,0.0,
1.81742844,-0.366151594,0,-1.08299119293,0.0,2,0.0,0.0,
1.81742844,-0.366151594,0,-1.08299119293,0.0,3,0.0,0.0,
1.79623619295,-0.324798040466,0,-1.04397325762,0.0123876097975,4,-4.23860836029,-8.27100658417,
1.76803902924,-0.269649193065,0,-0.991961698762,0.0165118873183,5,-5.63980674744,-11.0304708481,
1.73255192503,-0.200232692437,0,-0.925403038726,0.0211288764803,6,-7.09816551208,-13.8846960068,
1.68969079867,-0.116367988663,0,-0.843565918109,0.02597749367,7,-8.57353878021,-16.7754058838,
1.63942147806,-0.0179819691945,0,-0.745762169561,0.0310439802601,8,-10.0559825897,-19.6811733246,
1.58182816222,0.0947596203517,0,-0.631591003837,0.0362371013766,9,-11.5218486786,-22.5543022156,
1.51718023434,0.221322811766,0,-0.501205983784,0.041380906386,10,-12.934091568,-25.3210964203,
1.44597876086,0.360713161154,0,-0.355541779292,0.046227254316,11,-14.2463092804,-27.8893737793,
1.3689591588,0.511469758673,0,-0.196433987885,0.0504908086178,12,-15.4115371704,-30.1656074524,
1.28703221693,0.67177996747,0,-0.026552309079,0.0539066699605,13,-16.3945655823,-32.0792655945,
1.20117273941,0.839699007196,0.0,0.150845254531,0.0562884321236,14,-17.1824455261,-33.6035614014,
1.11229494229,1.01339397542,0.0,0.33226034238,0.0575596904706,15,-17.7872638702,-34.7608909607,
1.02115753307,1.19133148305,0,0.514255311859,0.0577401758303,16,-18.2401218414,-35.611076355,
0.928318709279,1.3723658096,0,0.693638099207,0.0569079895241,17,-18.581111908,-36.2316513062,
0.834135502721,1.55574021451,0,0.867511295914,0.0551568709194,18,-18.8505859375,-36.7006416321,
0.738786429311,1.74104211442,0,1.03322983958,0.0525671041959,19,-19.0842761993,-37.0869941711,
0.642302483465,1.92814467065,0,1.18829826018,0.0491861152844,20,-19.3117733002,-37.4478607178,
0.544597119237,2.11714956872,0,1.33025585323,0.0450249515655,21,-19.5566291809,-37.8292274475,
0.445489853765,2.30834839456,0,1.4565553697,0.0400559852327,22,-19.8377113342,-38.2690505981,
0.344726056005,2.50219581239,0,1.56446296646,0.0342208775632,23,-20.1698169708,-38.8000297546,
0.241992443944,2.69929716699,0,1.6510038462,0.0274431570264,24,-20.5647945404,-39.4523849487,
0.136926382924,-3.38277342208,0,1.71298677386,0.0196543338374,25,-21.0325737,-40.257106781,
0.0291163624777,-3.17671420463,0,1.74712770387,0.0108252252122,26,-21.5829029083,-41.248550415,
0.0819127856241,-2.96457602866,0,1.90153973943,0.0489570716496,27,-22.2286815643,-42.4677314758,