lower angle,upper angle,holding angle,system x,acceleration,ticks (200 tps),lower acceleration (shoulder),upper acceleration (elbow),
1.190899988,1.118062055,0,-0.937124733427,-0.0848793097205,1,0.0,0.0,
1.190899988,1.118062055,0,-0.937124733427,0.0,2,0.0,0.0,
1.190899988,1.118062055,0,-0.937124733427,0.0,3,0.0,0.0,
1.20127214987,1.09794858683,0,-0.966694893946,-0.00267813578703,4,2.07440233231,4.02271652222,
1.21484198171,1.07159522761,0,-1.00513602657,-0.00348149672745,5,2.71406793594,5.27075910568,
1.23193182546,1.038420236,0,-1.05344394675,-0.00437504874894,6,3.41796064377,6.63508701324,
1.25260843832,0.998278176674,0,-1.11161046976,-0.00526784349615,7,4.13550138474,8.02868938446,
1.27698196966,0.95094732035,0,-1.17972279883,-0.00616849372573,8,4.87491559982,9.46668052673,
1.30519404012,0.896141564735,0,-1.25786384404,-0.00707660692997,9,5.64286708832,10.9618186951,
1.33741440374,0.833525216469,0,-1.34611029851,-0.00799167263438,10,6.4445939064,12.5242986679,
1.37383427221,0.76271585215,0,-1.44443743264,-0.00890440362816,11,7.28477907181,14.1633319855,
1.41466536123,0.683293378242,0,-1.5527039975,-0.00980434337555,12,8.16736698151,15.8865470886,
1.46013130743,0.594815289863,0,-1.67057146234,-0.0106736403719,13,9.09471702576,17.698513031,
1.51045240957,0.496844804176,0.0,-1.79739682801,-0.0114847009054,14,10.0663633347,19.5980606079,
1.56582321722,0.388998544105,0.0,-1.9321309736,-0.0122006308772,15,11.0770263672,21.5744819641,
1.6263762911,0.271018540748,0,-2.07318128067,-0.0127723473697,16,12.1142616272,23.602897644,
1.69213261205,0.142865693458,0,-2.21825128641,-0.0131360453514,17,13.1559925079,25.6393127441,
1.76294960577,0.00482944239014,0,-2.36429520128,-0.0132239307196,18,14.1693258286,27.6182670593,
1.83847536642,-0.142386400811,0,-2.50752361233,-0.0129687531859,19,15.1123781204,29.4564361572,
1.91813768942,-0.297636950127,0,-2.64363476212,-0.0123241600347,20,15.9409179688,31.0657539368,
2.00118650991,-0.459421599022,0,-2.76818451183,-0.0112771985623,21,16.6192302704,32.374671936,
2.08678688604,-0.626070940605,0,-2.87702125718,-0.00985290733811,22,17.1306018829,33.3491668701,
2.17414106924,-0.795975649468,0,-2.9667294631,-0.00812091192693,23,17.4818916321,34.001449585,
2.26257862646,-0.967777216545,0,-3.03472757272,-0.00615546834236,24,17.6990776062,34.3814735413,
2.35160889227,-1.14046188604,0,-3.07928139306,-0.00403310775106,25,17.8178462982,34.5584487915,
2.44092287618,-1.31336828481,0,-3.09930524942,-0.00181256817225,26,17.8746299744,34.6029205322,
2.53036846716,-1.48614093076,0,-3.09413077988,0.000468385668991,27,17.9010734558,34.5761260986,
2.61992039282,-1.6586670519,0,-3.06332212419,0.00278869562015,28,17.9223747253,34.526725769,
2.70964779455,-1.83101674329,0,-3.00649327658,0.00514385276677,29,17.95753479,34.4914054871,
2.79968990881,-2.00339623701,0,-2.92318538524,0.00754044694401,30,18.0205173492,34.4973602295,
2.89023365576,4.10707143534,0,-2.81275946299,0.00999406918993,31,18.1211833954,34.5652160645,
2.98150267202,3.93362478007,0,-2.67436125743,0.0125254422031,32,18.2664985657,34.711265564,
3.0737420519,3.75898913134,0,-2.50689377178,0.0151559525498,33,18.4609375,34.9495582581,
3.11597649655,3.58263710726,0,-2.19424982302,0.0282939237094,34,18.7069740295,35.2934989929,